{
  "totalItems": 9042,
  "totalPages": 905,
  "currentPage": 527,
  "itemsOfPage": 10,
  "items": [
    {
      "name": "BÁSCULAS SAMSÓ, S.A.",
      "registrationNumber": "07712",
      "identificationNumber": "A20202560",
      "address": "Oialume Bidea 33 Barrio Ergobia",
      "location": {
        "postalCode": "20115",
        "municipality": "Astigarraga",
        "county": "Gipuzkoa",
        "municipalityId": "903",
        "countyId": "20"
      },
      "economicActivities": [
        {
          "id": "1.329.9",
          "name": "Construcción de otras máquinas y equipos mecánicos n.c.o.p",
          "_links": {
            "self": {
              "name": "Construcción de otras máquinas y equipos mecánicos n.c.o.p",
              "href": "https://api.euskadi.eus/procurements/companies/economic-activities/1.329.9"
            }
          }
        },
        {
          "id": "1.692",
          "name": "Reparación de maquinaria industrial",
          "_links": {
            "self": {
              "name": "Reparación de maquinaria industrial",
              "href": "https://api.euskadi.eus/procurements/companies/economic-activities/1.692"
            }
          }
        }
      ],
      "certificateStartDate": "2021-06-10",
      "certificateEndDate": "2021-12-07",
      "object": "LA FABRICACIÓN, MONTAJE, INSTALACIONES, REPARACIÓN, MANTENIMIENTO, COMERCIALIZACIÓN, VENTA, DISTRIBUCIÓN DE BÁSCULAS DE PEAJE INDUSTRIAL, MECÁNICAS Y ELECTRÓNICAS",
      "mainEntityOfPage": "https://www.contratacion.euskadi.eus/webkpe00-kperoc/es/ac71aBusquedaRegistrosWar/empresa/07712",
      "_links": {
        "self": {
          "name": "BÁSCULAS SAMSÓ, S.A.",
          "href": "https://api.euskadi.eus/procurements/companies/07712"
        }
      }
    },
    {
      "name": "REVENGA SEGURIDAD, S.A.",
      "registrationNumber": "07713",
      "identificationNumber": "A83766949",
      "address": "Calle de la Fragua, 6",
      "location": {
        "postalCode": "28760",
        "municipality": "Tres Cantos",
        "county": "Madrid",
        "municipalityId": "903",
        "countyId": "28"
      },
      "economicActivities": [
        {
          "id": "1.849.4",
          "name": "Servicios de custodia, seguridad y protección",
          "_links": {
            "self": {
              "name": "Servicios de custodia, seguridad y protección",
              "href": "https://api.euskadi.eus/procurements/companies/economic-activities/1.849.4"
            }
          }
        }
      ],
      "certificateStartDate": "2021-06-10",
      "certificateEndDate": "2021-11-28",
      "object": "INSTALACIÓN Y MANTENIMIENTO DE APARATOS, DISPOSITIVOS Y SISTEMAS DE SEGURIDAD Y LA PLANIFICACIÓN Y ASESORAMIENTO DE LAS ACTIVIDADES DE SEGURIDAD, TENIENDO UN ÁMBITO DE ACTUACIÓN ESTATAL",
      "mainEntityOfPage": "https://www.contratacion.euskadi.eus/webkpe00-kperoc/es/ac71aBusquedaRegistrosWar/empresa/07713",
      "_links": {
        "self": {
          "name": "REVENGA SEGURIDAD, S.A.",
          "href": "https://api.euskadi.eus/procurements/companies/07713"
        }
      }
    },
    {
      "name": "IMPORT-MÓVIL JULIÁN, S.L.",
      "registrationNumber": "07714",
      "identificationNumber": "B09304965",
      "address": "CTRA. MADRID-IRÚN KM. 234 (EDIF. GRUPO JULIÁN)",
      "location": {
        "postalCode": "09195",
        "municipality": "Villagonzalo Pedernales",
        "county": "Burgos",
        "municipalityId": "434",
        "countyId": "09"
      },
      "economicActivities": [
        {
          "id": "1.615.1",
          "name": "Venta al por mayor de vehículos, motocicletas, bicicletas y sus accesorios",
          "_links": {
            "self": {
              "name": "Venta al por mayor de vehículos, motocicletas, bicicletas y sus accesorios",
              "href": "https://api.euskadi.eus/procurements/companies/economic-activities/1.615.1"
            }
          }
        },
        {
          "id": "1.654.1",
          "name": "Venta al por menor de vehículos terrestres",
          "_links": {
            "self": {
              "name": "Venta al por menor de vehículos terrestres",
              "href": "https://api.euskadi.eus/procurements/companies/economic-activities/1.654.1"
            }
          }
        },
        {
          "id": "1.691.2",
          "name": "Reparación de vehículos automóviles, bicicletas y otros vehículos",
          "_links": {
            "self": {
              "name": "Reparación de vehículos automóviles, bicicletas y otros vehículos",
              "href": "https://api.euskadi.eus/procurements/companies/economic-activities/1.691.2"
            }
          }
        },
        {
          "id": "1.831.9",
          "name": "Otros servicios financieros n.c.o.p",
          "_links": {
            "self": {
              "name": "Otros servicios financieros n.c.o.p",
              "href": "https://api.euskadi.eus/procurements/companies/economic-activities/1.831.9"
            }
          }
        }
      ],
      "certificateStartDate": "2021-06-10",
      "certificateEndDate": "2021-12-04",
      "object": "LA IMPORTACIÓN, EXPORTACIÓN, COMPRAVENTA, REPARACIÓN, ARRENDAMIENTO, MANTENIMIENTO DE CAMIONES, TRACTORES AGRÍCOLAS, AUTOMÓVILES TURISMO, MOTOCICLETAS, REMOLQUES, ASÍ COMO ACCESORIOS, RECAMBIOS, COMBUSTIBLES, CARBURANTES, Y LUBRIFICANTES CON DESTINO A DICHOS VEHÍCULOS",
      "mainEntityOfPage": "https://www.contratacion.euskadi.eus/webkpe00-kperoc/es/ac71aBusquedaRegistrosWar/empresa/07714",
      "_links": {
        "self": {
          "name": "IMPORT-MÓVIL JULIÁN, S.L.",
          "href": "https://api.euskadi.eus/procurements/companies/07714"
        }
      }
    },
    {
      "name": "M.HERMIDA, S.A.",
      "registrationNumber": "07715",
      "identificationNumber": "A78864477",
      "address": "CL Julio Cervera 20, Parque Tecnológico",
      "location": {
        "postalCode": "28935",
        "municipality": "Móstoles",
        "county": "Madrid",
        "municipalityId": "092",
        "countyId": "28"
      },
      "economicActivities": [
        {
          "id": "1.659.2",
          "name": "Venta al por menor de muebles de oficina y máquinas y equipos de oficina",
          "_links": {
            "self": {
              "name": "Venta al por menor de muebles de oficina y máquinas y equipos de oficina",
              "href": "https://api.euskadi.eus/procurements/companies/economic-activities/1.659.2"
            }
          }
        }
      ],
      "certificateStartDate": "2021-06-10",
      "certificateEndDate": "2021-12-02",
      "object": "LA FABRICACIÓN, COMERCIALIZACIÓN, DISTRIBUCIÓN, REPRESENTACIÓN, DEPÓSITO, COMPRA, VENTA, MANTENIMIENTO, REPARACIÓN, EXPORTACIÓN E IMPORTACIÓN DE TODA CLASE DE ORDENADORES Y TODA CLASE DE COMPONENTES ELECTRÓNICOS, PROGRAMAS, ESTUDIOS Y DICTÁMENES INFORMÁTICOS Y CUANTO ESTÉ RELACIONADO CON LA INFORMÁTICA, ROBÓTICA Y OFIMÁTICA",
      "mainEntityOfPage": "https://www.contratacion.euskadi.eus/webkpe00-kperoc/es/ac71aBusquedaRegistrosWar/empresa/07715",
      "_links": {
        "self": {
          "name": "M.HERMIDA, S.A.",
          "href": "https://api.euskadi.eus/procurements/companies/07715"
        }
      }
    },
    {
      "name": "TRADE UNIVERSAL ENERGY, S.A.",
      "registrationNumber": "07716",
      "identificationNumber": "A66531013",
      "address": "RAMBLA CATALUNYA, 91-93 3º3ª",
      "location": {
        "postalCode": "08008",
        "municipality": "Barcelona",
        "county": "Barcelona",
        "municipalityId": "019",
        "countyId": "08"
      },
      "economicActivities": [
        {
          "id": "1.151.6",
          "name": "Comercialización de energía eléctrica",
          "_links": {
            "self": {
              "name": "Comercialización de energía eléctrica",
              "href": "https://api.euskadi.eus/procurements/companies/economic-activities/1.151.6"
            }
          }
        }
      ],
      "certificateStartDate": "2021-06-10",
      "certificateEndDate": "2021-10-29",
      "object": "LA COMERCIALIZACIÓN DE ENERGÍA EÉCTRICA, LA COMERCIALIZACIÓN DE GAS NATURAL Y OTROS COMBUSTIBLES GASEOSOS, ASÍ COMO LA REALIZACIÓN DE ESTUDIOS TÉCNICOS Y LA PRESTACIÓN DE SERVICIOS DE ASESORAMIENTO EN MATERIAS RELACIONADAS CON LOS MISMOS",
      "mainEntityOfPage": "https://www.contratacion.euskadi.eus/webkpe00-kperoc/es/ac71aBusquedaRegistrosWar/empresa/07716",
      "_links": {
        "self": {
          "name": "TRADE UNIVERSAL ENERGY, S.A.",
          "href": "https://api.euskadi.eus/procurements/companies/07716"
        }
      }
    },
    {
      "name": "ATOS IT SOLUTIONS AND SERVICES IBERIA, S.L.",
      "registrationNumber": "05707",
      "identificationNumber": "B85908093",
      "address": "c/ Ronda de Europa nº 5",
      "location": {
        "postalCode": "28760",
        "municipality": "Tres Cantos",
        "county": "Madrid",
        "municipalityId": "903",
        "countyId": "28"
      },
      "economicActivities": [
        {
          "id": "1.615.4",
          "name": "Venta al por mayor de aparatos y material radioeléctrico y electrónico",
          "_links": {
            "self": {
              "name": "Venta al por mayor de aparatos y material radioeléctrico y electrónico",
              "href": "https://api.euskadi.eus/procurements/companies/economic-activities/1.615.4"
            }
          }
        },
        {
          "id": "1.845",
          "name": "Explotación electrónica por cuenta de terceros",
          "_links": {
            "self": {
              "name": "Explotación electrónica por cuenta de terceros",
              "href": "https://api.euskadi.eus/procurements/companies/economic-activities/1.845"
            }
          }
        },
        {
          "id": "1.853",
          "name": "Alquiler de maquinaria y equipo contable de oficina y cálculo",
          "_links": {
            "self": {
              "name": "Alquiler de maquinaria y equipo contable de oficina y cálculo",
              "href": "https://api.euskadi.eus/procurements/companies/economic-activities/1.853"
            }
          }
        }
      ],
      "certificateStartDate": "2021-06-09",
      "certificateEndDate": "2021-12-06",
      "object": "LA PRESTACIÓN A TODA CLASE DE EMPRESAS Y ENTIDADES, DE SERVICIOS TÉCNICOS, DE CONSULTORÍA, DE ORGANIZACIÓN, ASESORAMIENTO, ADMINISTRACIÓN, ARRENDAMIENTO, COMERCIO, ESTUDIO, INVESTIGACIÓN, DESARROLLO Y COMERCIALIZACIÓN DE PRODUCTOS Y SERVICIOS INFORMÁTICOS Y DE TELECOMUNICACIONES, ASÍ COMO LA COMERCIALIZACIÓN DE SISTEMAS ELECTRÓNICOS PARA EL TRATAMIENTO DE LA INFORMACIÓN Y LAS TELECOMUNICACIONES EN GENERAL CUANDO DIRECTA O INDIRECTAMENTE SE RELACIONEN CON EL FIN SOCIAL.\r\nADICIONALMENTE, LA ADQUISICIÓN, TENENCIA, ADMINISTRACIÓN Y GESTIÓN DE TÍTULOS Y ACCIONES O CUALQUIER FORMA DE REPRESENTACIÓN DE PARTICIPACIONES DE CAPITAL DE ENTIDADES NACIONALES O EXTRANJERAS",
      "mainEntityOfPage": "https://www.contratacion.euskadi.eus/webkpe00-kperoc/es/ac71aBusquedaRegistrosWar/empresa/05707",
      "_links": {
        "self": {
          "name": "ATOS IT SOLUTIONS AND SERVICES IBERIA, S.L.",
          "href": "https://api.euskadi.eus/procurements/companies/05707"
        }
      }
    },
    {
      "name": "DISTRIBUCION E IMPORTACION DE MATERIAL INFORMATICO Y ELECTRONICO, S.A.",
      "registrationNumber": "06806",
      "identificationNumber": "A78507977",
      "address": "CALLE PRADILLO, Nº 46",
      "location": {
        "postalCode": "28002",
        "municipality": "Madrid",
        "county": "Madrid",
        "municipalityId": "079",
        "countyId": "28"
      },
      "economicActivities": [
        {
          "id": "1.845",
          "name": "Explotación electrónica por cuenta de terceros",
          "_links": {
            "self": {
              "name": "Explotación electrónica por cuenta de terceros",
              "href": "https://api.euskadi.eus/procurements/companies/economic-activities/1.845"
            }
          }
        }
      ],
      "certificateStartDate": "2021-06-09",
      "certificateEndDate": "2021-12-08",
      "object": "1.- LA COMPRA, VENTA, IMPUTACIÓN, EXPORTACIÓN, DESARROLLO, COMERCIALIZACIÓN, PRODUCCIÓN, FABRICACIÓN, MONTAJE, INSTALACIÓN, MANTENIMIENTO, EXPLOTACIÓN Y REPARACIÓN DE MÁQUINAS DE OFICINA, MATERIALES Y APARATOS MECÁNICOS, MÉDICOS, ELECTRÓNICOS, ELÉCTRICOS, ÓPTICOS, INFORMÁTICOS, ROBÓTICOS, DE TELECOMUNICACIÓN, MEGAFONÍA, TELEFONÍA MÓVIL Y FIJA, SISTEMAS DE DIGITALIZACIÓN Y GESTIÓN DOCUMENTAL, MONITORIZACIÓN Y RADIO-FRECUENCIA, SISTEMAS DIRIGIDOS POR ORDENADOR, SOFTWARE Y PROGRAMAS O BASES DE DATOS PARA LA GESTIÓN EMPRESARIAL E INDUSTRIAL, ASÍ COMO SUS PIEZAS, ELEMENTOS Y ACCESORIOS (CNAE 6209  Y CNAE 9511). 2.- LA EXPLOTACIÓN, COMPRA, VENTA, REPRESENTACIÓN Y CESIÓN DE LICENCIAS, PATENTES, MARCAS, PROCEDIMIENTOS O FÓRMULAS RELACIONADAS CON LOS MATERIALES RESEÑADOS EN EL APARTADO ANTERIOR, YA SEAN NACIONALES COMO EXTRANJERAS (CNAE 6209). 3.- EL ESTUDIO, PROMOCIÓN, ASESORAMIENTO, GESTIÓN, ADQUISICIÓN, VENTA Y EXPLOTACIÓN EN CUALQUIER FORMA DE, SOLARES, TERRENOS, CONJUNTOS, RESIDENCIALES, LOCALES COMERCIALES, URBANIZACIONES O PROMOCIONES INMOBILIARIAS Y, EN GENERAL, DE TODA CLASE DE BIENES INMUEBLES, INCLUYENDO EL DEPÓSITO, ALMACENAMIENTO Y DISTRIBUCIÓN DE MERCANCÍAS (CNAE 4110). 4.- LA CONSTRUCCIÓN Y EJECUCIÓN DE OBRAS PÚBLICAS O PRIVADAS (CNAE 4299 Y CNAE 4399). 5.- LA REPARACIÓN DE BIENES DE CONSUMO (CNAE 9511). 6.- LA PRESTACIÓN DE SERVICIOS, ASISTENCIA, ASESORAMIENTO Y GESTIÓN, EN MATERIA TÉCNICA, INFORMÁTICA Y DE COMUNICACIONES, ECONÓMICA, FINANCIERA, COMERCIAL Y DE GESTIÓN EMPRESARIAL (CNAE 8299). 7.- ADQUIRIR, NEGOCIAR Y POSEER ACCIONES, OBLIGACIONES, BONOS, PAGARÉS, LETRAS Y OTROS VALORES PÚBLICOS O PRIVADOS Y, EN GENERAL ACTIVOS FINANCIEROS POR CUENTA PROPIA, SIN NINGUNA DE LAS CARACTERÍSTICAS PROPIAS DE LAS ACTIVIDADES RESERVADAS A LAS SOCIEDADES DE INVERSIÓN COLECTIVA Y DEJANDO A SALVO LA NORMATIVA REGULADORA DEL MERCADO DE VALORES (CNAE 6499).  8.- SERVICIOS DE SECRETARÍA Y TRADUCCIONES, SUMINISTROS DE SERVICIOS DE INFORMACIÓN Y FORMACIÓN, CREACIÓN DE CONTENIDOS EDUCATIVOS EN CUALQUIER FORMATO, IMPARTICIÓN DE CURSOS Y SERVICIOS DE ENSEÑANZA DE TODO TIPO Y MODALIDAD, ATENCIÓN TELEFÓNICA PARA CLIENTES Y REALIZACIÓN DE ACTIVIDADES RELACIONADAS CON INTERNET (CNAE 7430, CNAE 8220 Y CNAE 8560). 9.- LA PRESTACIÓN DE SERVICIOS AUXILIARES EN CENTROS COMERCIALES, ORGANISMOS OFICIALES Y DEPENDENCIAS ADMINISTRATIVAS, RECINTOS FERIALES, SALAS DE EXPOSICIONES, CONFERENCIAS Y CONGRESOS, HOSPITALES, CONVENCIONES, INAUGURACIONES, CENTROS CULTURALES, RECEPCIONES, CENTROS DOCENTES, POR MEDIO DE CONSERJES, ORDENANZAS, BEDELES, UJIERES, CELADORES O CONTROLADORES, OPERADORES DE CONSOLA, PERSONAL DE SALA, PORTEROS, RECEPCIONISTAS, TAQUILLEROS, INCLUYENDO RECOGIDA DE ENTRADAS, TELEFONISTAS, PERSONAL DE SALA Y PROFESIONALES AFINES (CNAE 8110)",
      "mainEntityOfPage": "https://www.contratacion.euskadi.eus/webkpe00-kperoc/es/ac71aBusquedaRegistrosWar/empresa/06806",
      "_links": {
        "self": {
          "name": "DISTRIBUCION E IMPORTACION DE MATERIAL INFORMATICO Y ELECTRONICO, S.A.",
          "href": "https://api.euskadi.eus/procurements/companies/06806"
        }
      }
    },
    {
      "name": "SUR-INNOPACK, S.L.",
      "registrationNumber": "07707",
      "identificationNumber": "B93548576",
      "address": "C/Guernica 18",
      "location": {
        "postalCode": "29004",
        "municipality": "Málaga",
        "county": "Málaga",
        "municipalityId": "067",
        "countyId": "29"
      },
      "economicActivities": [
        {
          "id": "1.473.2",
          "name": "Fabricación de otros artículos de envase y embalaje en papel",
          "_links": {
            "self": {
              "name": "Fabricación de otros artículos de envase y embalaje en papel",
              "href": "https://api.euskadi.eus/procurements/companies/economic-activities/1.473.2"
            }
          }
        },
        {
          "id": "1.619.3",
          "name": "Venta al por mayor de metales preciosos, artículos de joyería, bisutéría",
          "_links": {
            "self": {
              "name": "Venta al por mayor de metales preciosos, artículos de joyería, bisutéría",
              "href": "https://api.euskadi.eus/procurements/companies/economic-activities/1.619.3"
            }
          }
        },
        {
          "id": "1.619.4",
          "name": "Venta al por mayor de productos de papel y cartón",
          "_links": {
            "self": {
              "name": "Venta al por mayor de productos de papel y cartón",
              "href": "https://api.euskadi.eus/procurements/companies/economic-activities/1.619.4"
            }
          }
        },
        {
          "id": "1.631",
          "name": "Intermediarios del comercio",
          "_links": {
            "self": {
              "name": "Intermediarios del comercio",
              "href": "https://api.euskadi.eus/procurements/companies/economic-activities/1.631"
            }
          }
        },
        {
          "id": "1.652.3",
          "name": "Venta al por menor de perfumería y cosmética y artículos de aseo personal",
          "_links": {
            "self": {
              "name": "Venta al por menor de perfumería y cosmética y artículos de aseo personal",
              "href": "https://api.euskadi.eus/procurements/companies/economic-activities/1.652.3"
            }
          }
        }
      ],
      "certificateStartDate": "2021-06-09",
      "certificateEndDate": "2021-11-19",
      "object": "LA FABRICACIÓN, IMPORTACIÓN, EXPORTACIÓN, COMPRAVENTA, COMERCIO AL POR MENOR Y MAYOR, ASÍ COMO LA DISTRIBUCIÓN, INTERMEDIACIÓN Y SERVICIOS RELACIONADOS CON LOS ARTÍCULOS SANITARIOS, HIGIÉNICOS, DE LIMPIEZA, DE BELLEZA, DE PELUQUERÍA, DE ESTÉTICA, DE HOGAR, DE REGALO, JUGUETES, INSTRUMENTOS MUSICALES, DECORACIÓN, ELECTRODOMÉSTICOS, MOBILIARIO, PORCELANA, CRISTALERÍA, JOYERÍA, BISUTERÍA, ÓPTICA, EQUIPOS FOTOGRÁFICOS, FLORES, PLANTAS, ARTÍCULOS DE MOTOCICLISMO, ARTÍCULOS DE AUTOMOVILISMO, EMBALAJES, ENVASES, CARTÓN, PLÁSTICOS, ACCESORIOS DE EMBALAJE, SOBRES, BOTELLAS, ACCESORIOS PARA BOTELLAS, PRODUCTOS ALIMENTICIOS, PRODUCTOS DE PARAFARMACIA, PUERICULTURA, TEXTIL, CARPAS, CARPAS PLEGABLES, ARTÍCULOS TECNOLÓGICOS, MÓVILES, ARTÍCULOS DE SEGUNDA MANO Y ARTÍCULOS DE DEPORTE. RECLAMOS PUBLICITARIOS DE TODO TIPO, ASÍ COMO LOS SERVICIOS RELACIONADOS CON LA PUBLICIDAD Y PROMOCIÓN EMPRESARIAL. IMPORTACIÓN, EXPORTACIÓN, INTERMEDIACIÓN Y COMERCIO AL POR MENOR Y MAYOR DE MADERAS, CORCHO, CESTERÍA, ESPARTERÍA, METALES DE FUNDICIÓN, ESTIRADO, LAMINACIÓN Y OTROS MANIPULADOS. LA INDUSTRIA DEL MÁRMOL Y PIEDRA NATURAL O ARTIFICIAL. INSTALACIONES Y MONTAJES DE CARPINTERÍA MATÁLICA Y TRADICIONAL Y EL ARRIENDO NO FINANCIERO DE LOS MISMOS EN FORMA DE TARIMAS Y SIMILARES. EXPLOTACIÓN FORESTAL. IMPORTACIÓN, EXPORTACIÓN, DISEÑO, FABRICACIÓN, INTERMEDIACIÓN Y COMERCIALIZACIÓN AL POR MENOR Y MAYOR DE TODO TIPO DE ARTÍCULOS TEXTILES Y COMPLEMENTOS PARA LA MODA DE SEÑORA Y CABALLERO. LA IMPORTACIÓN, EXPORTACIÓN, COMPRAVENTA, FABRICACIÓN, DISEÑO, INTERMEDIACIÓN Y COMERCIALIZACIÓN DE TODO TIPO DE PRODUCTOS PARA LA INDUSTRIA CERÁMICA, MOLDES, TROQUELES Y SUS DERIVADOS. PRODUCCIÓN, EXHIBICIÓN, EDICIÓN, IMPORTACIÓN, EXPORTACIÓN, DISTRIBUCIÓN, COMPRAVENTA Y ALQUILER DE TODO TIPO DE PRODUCTOS CINEMATOGRÁFICOS, MUSICALES, AUDIOVISUALES Y LIBROS Y OTRAS PUBLICACIONES EN SOPORTE PAPEL, ELECTRÓNICO, AUDIO O VIDEO, ENCUADERNACIONES EN SOPORTE PAPEL, ELECTRÓNICO, AUDIO O VIDEO, ENCUADERNACIONES, COMPOSICIÓN Y FOTOGRABADO. PARTICIPACIÓN EN TODO TIPO DE MUESTRAS, FESTIVALES, FERIAS, CERTÁMENES Y OTROS RELACIONADOS CON CUALQUIER INDUSTRIA O ACTIVIDAD ARTÍSTICA Y DE COMUNICACIÓN. REPRESENTACIÓN DE PROFESIONALES Y ARTISTAS. AGENCIA DE PUBLICIDAD Y RELACIONES PÚBLICAS. DISEÑO, CONSTRUCCIÓN, MANTENIMIENTO Y EXPLOTACIÓN DE INSTALACIONES DEPORTIVAS. FORMACIÓN EN LOS CAMPOS ARTÍSTICOS Y DEPORTIVOS. IMPORTACIÓN, EXPORTACIÓN, COMPRAVENTA E INTERMEDIACIÓN DE OBRAS DE ARTE, ASÍ COMO LA EXPLOTACIÓN DE GALERÍAS DE ARTE DE TODO TIPO. LA REALIZACIÓN DE ACTIVIDADES DE INTERNET, ASÍ COMO EL SUMINISTRO DE SERVICIOS DE INFORMACIÓN Y FORMACIÓN",
      "mainEntityOfPage": "https://www.contratacion.euskadi.eus/webkpe00-kperoc/es/ac71aBusquedaRegistrosWar/empresa/07707",
      "_links": {
        "self": {
          "name": "SUR-INNOPACK, S.L.",
          "href": "https://api.euskadi.eus/procurements/companies/07707"
        }
      }
    },
    {
      "name": "ALDA GESTIÓN DE ESPACIOS RESIDENCIALES S.L.",
      "registrationNumber": "07006",
      "identificationNumber": "B01549492",
      "address": "Mayor 45 bj",
      "location": {
        "postalCode": "01200",
        "municipality": "Agurain/Salvatierra",
        "county": "Araba/Álava",
        "municipalityId": "051",
        "countyId": "01"
      },
      "economicActivities": [
        {
          "id": "1.951",
          "name": "Asistencia y servicios sociales en centros residenciales",
          "_links": {
            "self": {
              "name": "Asistencia y servicios sociales en centros residenciales",
              "href": "https://api.euskadi.eus/procurements/companies/economic-activities/1.951"
            }
          }
        }
      ],
      "certificateStartDate": "2021-06-08",
      "certificateEndDate": "2021-12-08",
      "object": "LAS ACTIVIDADES DE GESTIÓN DE RESIDENCIAS DE ANCIANOS; LA CONSTRUCCIÓN Y EDIFICACIÓN DE OBRAS CIVILES, ASÍ COMO TODA CLASE DE INMUEBLES; LA EXPLOTACIÓN DE EDIFICIOS, FINCAS Y CONSTRUCCIONES DE TODA CLASE; LA URBANIZACIÓN DE TERRENOS Y !A PROMOCIÓN INMOBILIARIA, ENTENDIENDO POR TAL LA PRÁCTICA DE CUANTAS GESTIONES ESTÉN ENCAMINADAS A LA VENTA DE INMUEBLES",
      "mainEntityOfPage": "https://www.contratacion.euskadi.eus/webkpe00-kperoc/es/ac71aBusquedaRegistrosWar/empresa/07006",
      "_links": {
        "self": {
          "name": "ALDA GESTIÓN DE ESPACIOS RESIDENCIALES S.L.",
          "href": "https://api.euskadi.eus/procurements/companies/07006"
        }
      }
    },
    {
      "name": "HELIANTHUS MEDICAL, S.L.",
      "registrationNumber": "07704",
      "identificationNumber": "B81933830",
      "address": "Calle Físicas, 67",
      "location": {
        "postalCode": "28923",
        "municipality": "Alcorcón",
        "county": "Madrid",
        "municipalityId": "007",
        "countyId": "28"
      },
      "economicActivities": [
        {
          "id": "1.619.2",
          "name": "Venta al por mayor de aparatos e instrumentos médicos, ortopédicos, ópticos",
          "_links": {
            "self": {
              "name": "Venta al por mayor de aparatos e instrumentos médicos, ortopédicos, ópticos",
              "href": "https://api.euskadi.eus/procurements/companies/economic-activities/1.619.2"
            }
          }
        }
      ],
      "certificateStartDate": "2021-06-08",
      "certificateEndDate": "2021-11-04",
      "object": "LA DISTRIBUCIÓN Y VENTA DE PRODUCTOS CLÍNICOS, MATERIAL CONSUMIBLE PARA HOSPITALES Y CENTROS MÉDICOS EN GENERAL",
      "mainEntityOfPage": "https://www.contratacion.euskadi.eus/webkpe00-kperoc/es/ac71aBusquedaRegistrosWar/empresa/07704",
      "_links": {
        "self": {
          "name": "HELIANTHUS MEDICAL, S.L.",
          "href": "https://api.euskadi.eus/procurements/companies/07704"
        }
      }
    }
  ]
}