{
  "totalItems": 9042,
  "totalPages": 905,
  "currentPage": 159,
  "itemsOfPage": 10,
  "items": [
    {
      "name": "GLOBAL EDUKINET SERVICE, S.L.",
      "registrationNumber": "05906",
      "identificationNumber": "B95729406",
      "address": "AVENIDA ZABALOETXE Nº1",
      "location": {
        "postalCode": "48180",
        "municipality": "Loiu",
        "county": "Bizkaia",
        "municipalityId": "903",
        "countyId": "48"
      },
      "economicActivities": [
        {
          "id": "1.504.11",
          "name": "Instalaciones eléctricas en general, redes telegráficas, telefonía, tv, etc",
          "_links": {
            "self": {
              "name": "Instalaciones eléctricas en general, redes telegráficas, telefonía, tv, etc",
              "href": "https://api.euskadi.eus/procurements/companies/economic-activities/1.504.11"
            }
          }
        },
        {
          "id": "1.653.2",
          "name": "Venta al por menor de material y aparatos eléctricos, electrodomésticos y cocina",
          "_links": {
            "self": {
              "name": "Venta al por menor de material y aparatos eléctricos, electrodomésticos y cocina",
              "href": "https://api.euskadi.eus/procurements/companies/economic-activities/1.653.2"
            }
          }
        },
        {
          "id": "1.659.2",
          "name": "Venta al por menor de muebles de oficina y máquinas y equipos de oficina",
          "_links": {
            "self": {
              "name": "Venta al por menor de muebles de oficina y máquinas y equipos de oficina",
              "href": "https://api.euskadi.eus/procurements/companies/economic-activities/1.659.2"
            }
          }
        },
        {
          "id": "1.845",
          "name": "Explotación electrónica por cuenta de terceros",
          "_links": {
            "self": {
              "name": "Explotación electrónica por cuenta de terceros",
              "href": "https://api.euskadi.eus/procurements/companies/economic-activities/1.845"
            }
          }
        }
      ],
      "certificateStartDate": "2025-11-14",
      "certificateEndDate": "2026-05-11",
      "object": "LA COMPRAVENTA, COMERCIALIZACIÓN Y DISTRIBUCIÓN DE EQUIPOS ELÉCTRICOS, ELECTRÓNICOS E INFORMÁTICOS, MONTAJE, REPARACIÓN E INSTALACIÓN DE DICHOS EQUIPOS ASÍ COMO LA PRESTACIÓN DE SERVICIOS DE ASISTENCIA TÉCNICA (SAT). EL DESARROLLO, COMERCIALIZACIÓN, APLICACIÓN, INNOVACIÓN, INSTALACIÓN Y MEJORA DE TODO TIPO DE SISTEMAS INFORMÁTICOS. EL DESARROLLO, COMPRA, VENTA, IMPORTACIÓN Y EXPORTACIÓN DE SOLUCIONES INFORMÁTICAS (SOFTWARE Y HARDWARE) Y SERVICIOS RELACIONADOS CON LAS MISMAS. LA INTERNEDIACI6N EN EL COMERCIO, COMO AGENTE, COMISIONISTA, DELEGADO O MEDIANTE CUALQUIER OTRA FORMA DE MEDIACIÓN MERCANTIL. DE TODA CLASE DE EMPRESAS. NACIONALES Y EXTRANJERAS. QUE TENGAN POR OBJETO LAS ACTIVIDADES ANTERIORES . LA ASESORÍA Y CONSULTORÍA. ELABORACIÓN DE PROYECTOS Y DISEÑOS, PERITACIONES, EVALUACIONES, ELABORACIÓN DE INFORMES, DIRECCIONES TÉCNICAS, DE TODA CLASE DE EMPRESAS, NACIONALES Y EXTRANJERAS. QUE TENGAN POR OBJETO LAS ACTIVIDADES ANTERIORES. LA INTRODUCCIÓN, REGISTRO, EXPLOTACIÓN Y CONCESIÓN DE LICENCIAS, PATENTES Y DEMÁS DERECHOS DE PROPIEDAD INDUSTRIAL. LA ADQUISICIÓN Y ENAJENACIÓN POR CUALQUIER TÍTULO DE FINCAS RÚSTICAS Y URBANAS, YA SEAN TIERRAS, SOLARES, EDIFICIOS O SUS PARTES DETERMINADAS, LA PROMOCIÓN, CONSTRUCCIÓN Y REHABILITACIÓN DE ÉSTOS, Y LA TENENCIA, EXPLOTACIÓN Y ARRENDAMIENTO, YA SEA ACTIVO O PASIVO DE TALES BIENES Y SU VENTA TOTAL O PARCIAL, SEGÚN CONVENGA",
      "mainEntityOfPage": "https://www.contratacion.euskadi.eus/webkpe00-kperoc/es/ac71aBusquedaRegistrosWar/empresa/05906",
      "_links": {
        "self": {
          "name": "GLOBAL EDUKINET SERVICE, S.L.",
          "href": "https://api.euskadi.eus/procurements/companies/05906"
        }
      }
    },
    {
      "name": "FEDERICO PUY ECHEVERRIA",
      "registrationNumber": "07121",
      "identificationNumber": "34090583Y",
      "address": "Astigarragako bidea 2, 3º izda, oficina 12",
      "location": {
        "postalCode": "20180",
        "municipality": "Oiartzun",
        "county": "Gipuzkoa",
        "municipalityId": "063",
        "countyId": "20"
      },
      "economicActivities": [
        {
          "id": "2.421",
          "name": "Arquitectos técnicos y aparejadores",
          "_links": {
            "self": {
              "name": "Arquitectos técnicos y aparejadores",
              "href": "https://api.euskadi.eus/procurements/companies/economic-activities/2.421"
            }
          }
        }
      ],
      "certificateStartDate": "2025-11-14",
      "certificateEndDate": "2026-05-12",
      "object": "ARQUITECTOS TÉCNICOS Y APAREJADORES",
      "mainEntityOfPage": "https://www.contratacion.euskadi.eus/webkpe00-kperoc/es/ac71aBusquedaRegistrosWar/empresa/07121",
      "_links": {
        "self": {
          "name": "FEDERICO PUY ECHEVERRIA",
          "href": "https://api.euskadi.eus/procurements/companies/07121"
        }
      }
    },
    {
      "name": "EDUARDO ANDRES S.A.",
      "registrationNumber": "06184",
      "identificationNumber": "A26028381",
      "address": "C/ Las Balsas nº 13",
      "location": {
        "postalCode": "26009",
        "municipality": "Logroño",
        "county": "Rioja, La",
        "municipalityId": "089",
        "countyId": "26"
      },
      "economicActivities": [
        {
          "id": "1.501.2",
          "name": "Construcción completa, reparación y conservación obras civiles",
          "_links": {
            "self": {
              "name": "Construcción completa, reparación y conservación obras civiles",
              "href": "https://api.euskadi.eus/procurements/companies/economic-activities/1.501.2"
            }
          }
        }
      ],
      "certificateStartDate": "2025-11-14",
      "certificateEndDate": "2026-05-07",
      "object": "A) LA EJECUCIÓN, PROYECTO, PROMOCIÓN Y CONSTRUCCIÓN DE TODO TIPO DE OBRAS Y EDIFICIOS, YA SEA PÚBLICAS O PRIVADAS, BIEN POR CONTRATO, SUBASTA, CONCURSO, ADMINISTRACIÓN, SUBCONTRATA, UNIONES TEMPORALES DE EMPRESAS O DE CUALQUIER OTRA FORMA, PUDIENDO REALIZAR ASIMISMO TODOS LOS TRABAJOS COMPLEMENTARIOS Y ANEXOS A LA ACTIVIDAD PRINCIPAL. B) LA REPARACIÓN, REHABILITACIÓN Y CONSERVACIÓN DE TODA CLASE DE OBRAS. C) EL COMERCIO, AL POR MAYOR Y AL POR MENOR, IMPORTACIÓN Y EXPORTACIÓN, DE TODA CLASE Y TIPOS DE MATERIALES Y ARTÍCULOS PARA LA CONSTRUCCIÓN.D) LA COMPRA Y VENTA DE EDIFICACIONES, EN SU TOTALIDAD, POR PARTES O POR PISOS, BIEN PARA VIVIENDAS, LOCALES DE NEGOCIO PLANTAS INDUSTRIALES; VENTA DE TERRENOS, BIEN URBANIZADOS O PARCELADOS, BIEN SIN TRANSFORMAR. E) EL EJERCICIO, PROMOCIÓN O COLABORACIÓN POR CUALQUIER VÍA O NEGOCIO JURÍDICO, DE ACTIVIDADES RELACIONADAS CON LAS ENERGÍAS RENOVABLES, SOLARES, FOTOVOLTAICAS, EÓLICAS, O CUALESQUIERA OTRAS INCLUIDAS EN ESTA DENOMINACIÓN, ASÍ COMO EL DESARROLLO DE LAS MISMAS, SU PRODUCCIÓN Y COMERCIALIZACIÓN. F) LA PARTICIPACIÓN EN OTRAS SOCIEDADES DE IDÉNTICO O ANÁLOGO OBJETO PARA EL DESARROLLO DEL PROPIO DE ESTA SOCIEDAD, MEDIANTE LA SUSCRIPCIÓN DE ACCIONES O PARTICIPACIONES EN LA FUNDACIÓN O AUMENTO DE CAPITAL DE LAS MISMAS O LA ADQUISICIÓN DE ELLAS POR CUALQUIER TÍTULO",
      "mainEntityOfPage": "https://www.contratacion.euskadi.eus/webkpe00-kperoc/es/ac71aBusquedaRegistrosWar/empresa/06184",
      "_links": {
        "self": {
          "name": "EDUARDO ANDRES S.A.",
          "href": "https://api.euskadi.eus/procurements/companies/06184"
        }
      }
    },
    {
      "name": "DISEINU ETA KOMUNIKAZIOA AULESTI,S.L.",
      "registrationNumber": "09673",
      "identificationNumber": "B95640884",
      "address": "Calle Aulestia (48380)",
      "location": {
        "postalCode": "48380",
        "municipality": "Aulesti",
        "county": "Bizkaia",
        "municipalityId": "070",
        "countyId": "48"
      },
      "economicActivities": [
        {
          "id": "1.475",
          "name": "Actividades anexas a las artes gráficas",
          "_links": {
            "self": {
              "name": "Actividades anexas a las artes gráficas",
              "href": "https://api.euskadi.eus/procurements/companies/economic-activities/1.475"
            }
          }
        }
      ],
      "certificateStartDate": "2025-11-14",
      "certificateEndDate": "2026-04-22",
      "object": "PUBLICIDAD E INFORMACIÓN.",
      "mainEntityOfPage": "https://www.contratacion.euskadi.eus/webkpe00-kperoc/es/ac71aBusquedaRegistrosWar/empresa/09673",
      "_links": {
        "self": {
          "name": "DISEINU ETA KOMUNIKAZIOA AULESTI,S.L.",
          "href": "https://api.euskadi.eus/procurements/companies/09673"
        }
      }
    },
    {
      "name": "JUAN MANUEL MURUA GONZALEZ",
      "registrationNumber": "10425",
      "identificationNumber": "35775438L",
      "address": "Perkaiztegi Kalea 8, 3ºA",
      "location": {
        "postalCode": "20120",
        "municipality": "Hernani",
        "county": "Gipuzkoa",
        "municipalityId": "040",
        "countyId": "20"
      },
      "economicActivities": [
        {
          "id": "2.741",
          "name": "Economistas",
          "_links": {
            "self": {
              "name": "Economistas",
              "href": "https://api.euskadi.eus/procurements/companies/economic-activities/2.741"
            }
          }
        }
      ],
      "certificateStartDate": "2025-11-14",
      "certificateEndDate": "2026-05-12",
      "object": "ECONOMISTAS.",
      "mainEntityOfPage": "https://www.contratacion.euskadi.eus/webkpe00-kperoc/es/ac71aBusquedaRegistrosWar/empresa/10425",
      "_links": {
        "self": {
          "name": "JUAN MANUEL MURUA GONZALEZ",
          "href": "https://api.euskadi.eus/procurements/companies/10425"
        }
      }
    },
    {
      "name": "LOGISTICA Y DESARROLLO PARA LA PROTECCION AMBIENTAL, S.L.",
      "registrationNumber": "10198",
      "identificationNumber": "B86833753",
      "address": "lopez de hoyos 353, 6 dcha",
      "location": {
        "postalCode": "28043",
        "municipality": "Madrid",
        "county": "Madrid",
        "municipalityId": "079",
        "countyId": "28"
      },
      "economicActivities": [
        {
          "id": "1.504.8",
          "name": "Montajes metálicos e instalaciones industriales completas",
          "_links": {
            "self": {
              "name": "Montajes metálicos e instalaciones industriales completas",
              "href": "https://api.euskadi.eus/procurements/companies/economic-activities/1.504.8"
            }
          }
        },
        {
          "id": "1.659.9",
          "name": "Venta al por menor de otros productos no especificados en esta agrupación",
          "_links": {
            "self": {
              "name": "Venta al por menor de otros productos no especificados en esta agrupación",
              "href": "https://api.euskadi.eus/procurements/companies/economic-activities/1.659.9"
            }
          }
        }
      ],
      "certificateStartDate": "2025-11-14",
      "certificateEndDate": "2026-05-13",
      "object": "- ACTIVIDAD PRINCIPAL: 4799: OTRO COMERCIO AL POR MENOR NO REALIZADO NI EN ESTABLECIMIENTOS, NI EN PUESTOS DE VENTA NI EN MERCADILLOS. - CONSULTORÍA DE ANÁLISIS DE DATOS, CONFECCIÓN DE INDICADORES Y CUADROS DE MANDOS. - COMERCIALIZACIÓN DE APARATOS PARA LA PURIFICACIÓN DE AIRE Y AGUA.",
      "mainEntityOfPage": "https://www.contratacion.euskadi.eus/webkpe00-kperoc/es/ac71aBusquedaRegistrosWar/empresa/10198",
      "_links": {
        "self": {
          "name": "LOGISTICA Y DESARROLLO PARA LA PROTECCION AMBIENTAL, S.L.",
          "href": "https://api.euskadi.eus/procurements/companies/10198"
        }
      }
    },
    {
      "name": "CONGRESOS DONOSTI, S.L.",
      "registrationNumber": "10424",
      "identificationNumber": "B75048751",
      "address": "SANTA BÁRBARA 15 3ºB",
      "location": {
        "postalCode": "20013",
        "municipality": "Donostia / San Sebastián",
        "county": "Gipuzkoa",
        "municipalityId": "069",
        "countyId": "20"
      },
      "economicActivities": [
        {
          "id": "1.631",
          "name": "Intermediarios del comercio",
          "_links": {
            "self": {
              "name": "Intermediarios del comercio",
              "href": "https://api.euskadi.eus/procurements/companies/economic-activities/1.631"
            }
          }
        },
        {
          "id": "1.834",
          "name": "Servicios relativos a la propiedad inmobiliaria e industrial",
          "_links": {
            "self": {
              "name": "Servicios relativos a la propiedad inmobiliaria e industrial",
              "href": "https://api.euskadi.eus/procurements/companies/economic-activities/1.834"
            }
          }
        },
        {
          "id": "1.934",
          "name": "Enseñanza fuera de establecimiento permanente",
          "_links": {
            "self": {
              "name": "Enseñanza fuera de establecimiento permanente",
              "href": "https://api.euskadi.eus/procurements/companies/economic-activities/1.934"
            }
          }
        },
        {
          "id": "1.989.2",
          "name": "Servicios de organización de congresos, asambleas y similares",
          "_links": {
            "self": {
              "name": "Servicios de organización de congresos, asambleas y similares",
              "href": "https://api.euskadi.eus/procurements/companies/economic-activities/1.989.2"
            }
          }
        }
      ],
      "certificateStartDate": "2025-11-14",
      "certificateEndDate": "2026-05-14",
      "object": "LA PRESTACIÓN DE TODO TIPO DE SERVICIOS PARA LA ORGANIZACIÓN Y GESTIÓN DE CONGRESOS, CONVENCIONES, CURSOS, SEMINARIOS, ASAMBLEAS Y EVENTOS DE TODO TIPO.",
      "mainEntityOfPage": "https://www.contratacion.euskadi.eus/webkpe00-kperoc/es/ac71aBusquedaRegistrosWar/empresa/10424",
      "_links": {
        "self": {
          "name": "CONGRESOS DONOSTI, S.L.",
          "href": "https://api.euskadi.eus/procurements/companies/10424"
        }
      }
    },
    {
      "name": "MANTENIMIENTOS DEPORTIVOS INTEGRALES, S.L",
      "registrationNumber": "07127",
      "identificationNumber": "B95955662",
      "address": "POLIGONO INDUSTRIAL AURRERA NAVE 22A",
      "location": {
        "postalCode": "48510",
        "municipality": "Valle de Trápaga-Trapagaran",
        "county": "Bizkaia",
        "municipalityId": "080",
        "countyId": "48"
      },
      "economicActivities": [
        {
          "id": "1.501.2",
          "name": "Construcción completa, reparación y conservación obras civiles",
          "_links": {
            "self": {
              "name": "Construcción completa, reparación y conservación obras civiles",
              "href": "https://api.euskadi.eus/procurements/companies/economic-activities/1.501.2"
            }
          }
        },
        {
          "id": "1.619.1",
          "name": "Venta al por mayor de juguetes y artículos de deporte",
          "_links": {
            "self": {
              "name": "Venta al por mayor de juguetes y artículos de deporte",
              "href": "https://api.euskadi.eus/procurements/companies/economic-activities/1.619.1"
            }
          }
        }
      ],
      "certificateStartDate": "2025-11-14",
      "certificateEndDate": "2026-05-07",
      "object": "LA COMERCIALIZACIÓN, COMPRA, VENTA, FABRICACIÓN, ELABORACIÓN, DISEÑO, PLANIFICACIÓN, DISTRIBUCIÓN, INSTALACIÓN, ARRENDAMIENTO, EXPORTACIÓN E IMPORTACIÓN DE MATERIAL, MAQUINARIA Y EQUIPAMIENTO, TODO ELLO RELACIONADO CON CUALQUIER MODALIDAD DEPORTIVA, INCLUÍDAS LAS ARMAS Y LA PIROCTENIA, ASÍ COMO LAS INSTALACIONES DE PAVIMENTO DEPORTIVO.",
      "mainEntityOfPage": "https://www.contratacion.euskadi.eus/webkpe00-kperoc/es/ac71aBusquedaRegistrosWar/empresa/07127",
      "_links": {
        "self": {
          "name": "MANTENIMIENTOS DEPORTIVOS INTEGRALES, S.L",
          "href": "https://api.euskadi.eus/procurements/companies/07127"
        }
      }
    },
    {
      "name": "TRATAMIENTO DE TEXTOS TRATEX, S.L.",
      "registrationNumber": "01825",
      "identificationNumber": "B48453856",
      "address": "C/ COSTA, Nº12 - 14, 7º IZDA.",
      "location": {
        "postalCode": "48010",
        "municipality": "Bilbao",
        "county": "Bizkaia",
        "municipalityId": "020",
        "countyId": "48"
      },
      "economicActivities": [
        {
          "id": "1.475",
          "name": "Actividades anexas a las artes gráficas",
          "_links": {
            "self": {
              "name": "Actividades anexas a las artes gráficas",
              "href": "https://api.euskadi.eus/procurements/companies/economic-activities/1.475"
            }
          }
        }
      ],
      "certificateStartDate": "2025-11-14",
      "certificateEndDate": "2026-05-07",
      "object": "LA COMPOSICIÓN, TRATAMIENTO  E INTEGRACIÓN DE TEXTOS E IMÁGENES, APARTIR DE MANUSCRITOS O ARCHIVOS ELECTRÓNICOS, POR SISTEMAS MANUALES O INFORMÁTICOS.  ESCANEO, RETOQUE DE COLOR POR ORDENADOR, E INTEGRACIÓN DE IMÁGENES, DISEÑO Y MAQUETACIÓN, IMPOSICIÓN, FILMACIÓN E IMPRESIÓN DE FOLLETOS, CATÁLOGOS PUBLICITARIOS Y LIBROS. REALIZACIÓN DE APLICACIOINES INFORMÁTICAAS, Y REPLICACIONES, EN SOPORTES ELECTRÓNICOS (DISQUETES, CD-ROM, DISCOS ÓPTICOS, DVD). LA ADQUISICIÓN POR CUALQUIER TÍTULO DE FINCAS RÚSTICAS Y URBANAS, LA CONSTRUCCIÓN DE ÉSTAS Y LA ADMINISTRACIÓN, TENENCIA, EXPLOTACIÓN, Y ARRENDAMIENTO DE TALES BIENES, Y SU VENTA TOTAL O PARCIAL, SEGÚN CONVENGA, PARA SU APROVECHAMIENTO AGRÍCOLA, FORESTAL, URBANO, INDUSTRIAL O DE CUALQUIER OTRO. LA ADQUISICIÓN, CESIÓN, INVERSIÓN, TENENCIA, DISFRUTE, ADMINISTRACIÓN, GESTIÓN Y NEGOCIACIÓN EN GENERAL DE TODA CLASE DE TÍTULOS Y VALORES MOBILIARIOS, COTIZADOS EN BOLSA O NO, SIN INCIDIR EN LAS OPERACIONES A QUE SE REFIERE LA LEY 46/84 DE INVERSIONES COLECTIVAS. EL ALMACENMIENTO, DEPÓSITO, DISTRIBUCIÓN, IMPORTACIÓN DE TODA CLASE DE MERCANCÍAS, PRODUCTOS, ARTÍCULOS Y MATERIAS DE TODAS CLASES Y EN GENERAL DE BIENES INMUEBLES. EL ASESORAMIENTO DE EMPRESAS, TANTO FISCAL COMO JURÍDICO-FINANCIERO O DE CUALQUIER OTRO TIPO; EL ESTUDIO, INVESTIGACIÓN, PROMOCIÓN Y PRESTACIÓN DE TODO TIPO DE SERVICIOS DE ASISTENCIA Y GESTIÓN, TÉCNICA, ADMINISTRATIVA, COMERCIAL Y CONTABLE.",
      "mainEntityOfPage": "https://www.contratacion.euskadi.eus/webkpe00-kperoc/es/ac71aBusquedaRegistrosWar/empresa/01825",
      "_links": {
        "self": {
          "name": "TRATAMIENTO DE TEXTOS TRATEX, S.L.",
          "href": "https://api.euskadi.eus/procurements/companies/01825"
        }
      }
    },
    {
      "name": "COASER IT, S.L.",
      "registrationNumber": "10423",
      "identificationNumber": "B01490747",
      "address": "PORTAL DE GAMARRA Nº1-EDIFICIO DEBA OFICINA 316",
      "location": {
        "postalCode": "01013",
        "municipality": "Vitoria-Gasteiz",
        "county": "Araba/Álava",
        "municipalityId": "059",
        "countyId": "01"
      },
      "economicActivities": [
        {
          "id": "1.504.1",
          "name": "Instalaciones eléctricas en general",
          "_links": {
            "self": {
              "name": "Instalaciones eléctricas en general",
              "href": "https://api.euskadi.eus/procurements/companies/economic-activities/1.504.1"
            }
          }
        },
        {
          "id": "1.663.9",
          "name": "Venta al por menor de otra clase de mercancías fuera de establecimiento",
          "_links": {
            "self": {
              "name": "Venta al por menor de otra clase de mercancías fuera de establecimiento",
              "href": "https://api.euskadi.eus/procurements/companies/economic-activities/1.663.9"
            }
          }
        },
        {
          "id": "1.691.9",
          "name": "Reparación de otros bienes de consumo n.c.o.p",
          "_links": {
            "self": {
              "name": "Reparación de otros bienes de consumo n.c.o.p",
              "href": "https://api.euskadi.eus/procurements/companies/economic-activities/1.691.9"
            }
          }
        },
        {
          "id": "1.843.9",
          "name": "Otros servicios técnicos n.c.o.p",
          "_links": {
            "self": {
              "name": "Otros servicios técnicos n.c.o.p",
              "href": "https://api.euskadi.eus/procurements/companies/economic-activities/1.843.9"
            }
          }
        },
        {
          "id": "1.932.1",
          "name": "Enseñanza de formación y perfeccionamiento profesional no superior",
          "_links": {
            "self": {
              "name": "Enseñanza de formación y perfeccionamiento profesional no superior",
              "href": "https://api.euskadi.eus/procurements/companies/economic-activities/1.932.1"
            }
          }
        }
      ],
      "certificateStartDate": "2025-11-14",
      "certificateEndDate": "2026-05-14",
      "object": "A) LA COMERCIALIZACIÓN, DISTRIBUCIÓN Y COMPRAVENTA CON O SIN ESTABLECIMIENTO PERMANENTE, POR CORREO, POR CATÁLOGO, POR INTERNET, ... DE MATERIAL Y EQUIPOS INFORMÁTICOS, ACCESORIOS, COMPLEMENTOS Y CONSUMIBLES; DE PROGRAMAS INFORMÁTICOS, INCLUIDA ELECTRÓNICA DE RED Y EQUIPOS DE COMUNICACIONES. B) CONSULTORÍA, ASESORAMIENTO, ANÁLISIS, FORMACIÓN, INSTALACIÓN, REPARACIÓN, DESARROLLO Y MANTENIMIENTO INTEGRAL EN LA SELECCIÓN DE TODO TIPO DE SOFTWARE, HARDWARE, INCLUYENDO EL DISEÑO Y ESTABLECIMIENTO DE METODOLOGÍAS DE SELECCIÓN PARA PARTICULARES, PROFESIONALES Y EMPRESARIOS, EMPRESAS Y ENTIDADES PÚBLICAS O PARTICIPADAS. C) CONSULTORÍA Y ASESORAMIENTO INTEGRAL INFORMÁTICO MEDIANTE EL DESARROLLO DE ACTIVIDADES DE INNOVACIÓN, DOTACIÓN TECNOLÓGICA Y APLICACIÓN DE NUEVAS TECNOLOGÍAS A MÉTODOS Y SISTEMAS DE TRABAJO. D) ALQUILER DE EQUIPOS INFORMÁTICOS PARA CUALQUIER FINALIDAD. E) ORGANIZACIÓN Y REALIZACIÓN DE CURSOS DE FORMACIÓN Y PERFECCIONAMIENTO INFORMÁTICO. F) APLICACIÓN Y GESTIÓN DE SISTEMAS PARA LA PROTECCIÓN DE DATOS. DISEÑO, CREACIÓN, PUBLICACIÓN Y MANTENIMIENTO DE PÁGINAS WEB. PRESTACIÓN DE SERVICIOS DE SEGURIDAD Y ENCRIPTACIÓN PARA EQUIPOS Y REDES INFORMÁTICAS. G) LA COMERCIALIZACIÓN, DISTRIBUCIÓN, ALQUILER Y COMPRAVENTA CON O SIN ESTABLECIMIENTO PERMANENTE, POR CORREO, POR CATÁLOGO, POR INTERNET, ... DE APARATOS, ADAPTADORES Y DEMÁS ARTÍCULOS PARA TELEFONÍA FIJA Y MÓVIL; DE MUEBLES Y MATERIAL DE OFICINA; DE APARATOS E INSTRUMENTOS MÉDICOS, ORTOPÉDICOS, ÓPTICOS Y FOTOGRÁFICOS. H) LA PRESTACIÓN DE SERVICIOS DE VERIFICACIÓN, MANTENIMIENTO Y ASISTENCIA PARA LA RED LOCAL Y DEL SISTEMA INFORMÁTICO MEDIANTE LA COMPROBACIÓN PERIÓDICA DE LOS EQUIPOS INFORMÁTICOS, CREANDO INFORMES ACERCA DE SU ESTADO, ESTABLECIENDO Y APLICANDO LAS CORRESPONDIENTES MEDIDAS CORRECTORAS Y VERIFICANDO SU CORRECTO FUNCIONAMIENTO. I) CONSULTORÍA DE MARKETING, ESPECIALIZADA EN MARKETING RELACIONAL, DIRECTO O INTERACTIVO, DISEÑO DE CAMPAÑAS DE PUBLICIDAD Y COMUNICACIÓN, ESPECIALMENTE LAS APOYADAS EN LA EXPLOTACIÓN ESTRATÉGICA DE BASES DE DATOS CON LA PUBLICIDAD Y COMUNICACIÓN, ESPECIALMENTE LAS APOYADAS EN LA EXPLOTACIÓN ESTRATÉGICA DE BASES DE DATOS CON LA UTILIZACIÓN DE HERRAMIENTAS INTERACTIVAS EN LOS CANALES DE COMUNICACIÓN Y DISTRIBUCIÓN. J)  LA ORGANIZACIÓN Y GESTIÓN DE ESPECTÁCULOS Y EVENTOS DEPORTIVOS, CULTURALES O DE NEGOCIOS CON MEDIOS PROPIOS O AJENOS. LA ELABORACIÓN Y CONTROL DE CAMPAÑAS DE MARKETING - PUBLICIDAD, RELACIONES PÚBLICAS, PROMOCIÓN. K) ASESORÍA DE EMPRESAS EN LAS ÁREAS FISCAL, LABORAL Y CONTABLE, OFRECIENDO LOS MISMOS TRAS SU SOLICITUD PUNTUAL O MEDIANTE PREVIO ACUERDO A TRAVÉS DE LÍNEA TELEFÓNICA, CORREO ORDINARIO O INFORMÁTICO, FAX O CUALQUIER OTRO MEDIO VÁLIDO DE COMUNICACIÓN, A LAS PERSONAS O ENTIDADES QUE LO REQUIERAN. L) FORMACIÓN ACADÉMICA NO REGLADA, OFRECIENDO DICHA FORMACIÓN TANTO PRESENCIALMENTE EN LAS INSTALACIONES DE LA SOCIEDAD O EN INSTALACIONES AJENAS, COMO ON-LINE MEDIANTE PLATAFORMAS WEB, ENTREGANDO TODO EL MATERIAL DIDÁCTICO NECESARIO PARA LA IMPARTICIÓN DE LOS CURSOS EN FORMATO ELECTRÓNICO O EN MEDIOS IMPRESOS. M) DISEÑO, DESARROLLO, PRODUCCIÓN, INTEGRACIÓN, MANTENIMIENTO APLICACIONES, SISTEMAS, EQUIPOS, SOLUCIONES, PRODUCTOS BASADOS EN EL CASO DE LAS TECNOLOGÍAS DE LA INFORMACIÓN; COMPUTACIÓN EN LA NUBE, INTERNET, PLATAFORMAS MÓVILES, CONSULTARÍA EN NEGOCIOS QUE HAGAN USO DE ESTAS TECNOLOGÍAS. N) INVESTIGACIÓN, DISEÑO, DESARROLLO E INNOVACIÓN DE APLICACIONES WEB ORIENTADAS A DAR SERVICIOS A TRAVÉS DE INTERNET, YA SEA SIGUIENDO EL MODELO SOA (SERVICE ORIENTED ARCHITECTURE) COMO EL MODELO CLOUD COMPUTING.",
      "mainEntityOfPage": "https://www.contratacion.euskadi.eus/webkpe00-kperoc/es/ac71aBusquedaRegistrosWar/empresa/10423",
      "_links": {
        "self": {
          "name": "COASER IT, S.L.",
          "href": "https://api.euskadi.eus/procurements/companies/10423"
        }
      }
    }
  ]
}