{
  "totalItems": 9042,
  "totalPages": 905,
  "currentPage": 500,
  "itemsOfPage": 10,
  "items": [
    {
      "name": "FUNDACION SIEL BLEU ESPAÑA",
      "registrationNumber": "06294",
      "identificationNumber": "G66374455",
      "address": "PERELLÓ, 48",
      "location": {
        "postalCode": "08005",
        "municipality": "Barcelona",
        "county": "Barcelona",
        "municipalityId": "019",
        "countyId": "08"
      },
      "economicActivities": [
        {
          "id": "1.942.9",
          "name": "Otros servicios sanitarios sin internados, no clasificados",
          "_links": {
            "self": {
              "name": "Otros servicios sanitarios sin internados, no clasificados",
              "href": "https://api.euskadi.eus/procurements/companies/economic-activities/1.942.9"
            }
          }
        }
      ],
      "certificateStartDate": "2022-06-03",
      "certificateEndDate": "2022-11-26",
      "object": "LOS FINES SANITARIOS Y DIRIGIDOS A PROMOVER LA MEJORA DE LA SALUD FÍSICA Y MENTAL, EL BIENESTAR Y LA INDEPENDENCIA DE LAS PERSONAS MAYORES O CON DISCAPACIDADES Y O PARA AQUELLOS CON ENFERMEDADES CRÓNICAS O GRAVES, PROMOVIENDO LA ACTIVIDAD FÍSICA PARA MEJORAR EL PROCESO DE ENVEJECIMIENTO. EN PARTICULAR, ESTIMULAR A LAS PERSONAS MAYORES MEDIANTE PROGRAMAS PERSONALIZADOS DE ACTIVIDAD FÍSICA Y SESIONES DE ENTRENAMIENTO",
      "mainEntityOfPage": "https://www.contratacion.euskadi.eus/webkpe00-kperoc/es/ac71aBusquedaRegistrosWar/empresa/06294",
      "_links": {
        "self": {
          "name": "FUNDACION SIEL BLEU ESPAÑA",
          "href": "https://api.euskadi.eus/procurements/companies/06294"
        }
      }
    },
    {
      "name": "L.E.G.O. 2021, S.L.",
      "registrationNumber": "07839",
      "identificationNumber": "B01357300",
      "address": "PINTOR TOMAS ALFARO, 15-BAJO",
      "location": {
        "postalCode": "01008",
        "municipality": "Vitoria-Gasteiz",
        "county": "Araba/Álava",
        "municipalityId": "059",
        "countyId": "01"
      },
      "economicActivities": [
        {
          "id": "1.615.3",
          "name": "Venta al por mayor de aparatos electrodomésticos y ferretería",
          "_links": {
            "self": {
              "name": "Venta al por mayor de aparatos electrodomésticos y ferretería",
              "href": "https://api.euskadi.eus/procurements/companies/economic-activities/1.615.3"
            }
          }
        },
        {
          "id": "1.653.2",
          "name": "Venta al por menor de material y aparatos eléctricos, electrodomésticos y cocina",
          "_links": {
            "self": {
              "name": "Venta al por menor de material y aparatos eléctricos, electrodomésticos y cocina",
              "href": "https://api.euskadi.eus/procurements/companies/economic-activities/1.653.2"
            }
          }
        }
      ],
      "certificateStartDate": "2022-06-03",
      "certificateEndDate": "2022-11-30",
      "object": "1. LA VENTA Y FABRICACIÓN DE CUALQUIER ARTÍCULO DE REGALO, MATERIAL DEPORTIVO Y PUBLICITARIO. 2. LA VENTA DE MATERIAL DE SEGURIDAD. 3. LA INTERMEDIACIÓN EN EL COMERCIO COMO AGENTE, REPRESENTANTE, DISTRIBUIDOR, COMISIONISTA Y CUALQUIER OTRA FORMA DE INTERMEDIACIÓN",
      "mainEntityOfPage": "https://www.contratacion.euskadi.eus/webkpe00-kperoc/es/ac71aBusquedaRegistrosWar/empresa/07839",
      "_links": {
        "self": {
          "name": "L.E.G.O. 2021, S.L.",
          "href": "https://api.euskadi.eus/procurements/companies/07839"
        }
      }
    },
    {
      "name": "JANTOKI BERYO S. COOP. PEQUEÑA",
      "registrationNumber": "08413",
      "identificationNumber": "F01455708",
      "address": "FELICIAS OLAVE SIN NUMERO",
      "location": {
        "postalCode": "01005",
        "municipality": "Vitoria-Gasteiz",
        "county": "Araba/Álava",
        "municipalityId": "059",
        "countyId": "01"
      },
      "economicActivities": [
        {
          "id": "1.672.3",
          "name": "Cafetería una taza",
          "_links": {
            "self": {
              "name": "Cafetería una taza",
              "href": "https://api.euskadi.eus/procurements/companies/economic-activities/1.672.3"
            }
          }
        }
      ],
      "certificateStartDate": "2022-06-03",
      "certificateEndDate": "2022-12-03",
      "object": "GESTIÓN DE UNA CAFETERÍA Y HOSTELERÍA EN GENERAL.",
      "mainEntityOfPage": "https://www.contratacion.euskadi.eus/webkpe00-kperoc/es/ac71aBusquedaRegistrosWar/empresa/08413",
      "_links": {
        "self": {
          "name": "JANTOKI BERYO S. COOP. PEQUEÑA",
          "href": "https://api.euskadi.eus/procurements/companies/08413"
        }
      }
    },
    {
      "name": "VAFORJ CONSTRUCCIONES Y REFORMAS, S.L.",
      "registrationNumber": "05078",
      "identificationNumber": "B95611984",
      "address": "C/ Costa, 12-14 - 1º Izq. DTO. 2",
      "location": {
        "postalCode": "48010",
        "municipality": "Bilbao",
        "county": "Bizkaia",
        "municipalityId": "020",
        "countyId": "48"
      },
      "economicActivities": [
        {
          "id": "1.507",
          "name": "Construcción, reparación y conservación de toda clase obras",
          "_links": {
            "self": {
              "name": "Construcción, reparación y conservación de toda clase obras",
              "href": "https://api.euskadi.eus/procurements/companies/economic-activities/1.507"
            }
          }
        }
      ],
      "certificateStartDate": "2022-06-02",
      "certificateEndDate": "2022-12-02",
      "object": "LA EJECUCIÓN, REPARACIÓN Y REHABILITACIÓN DE TODO TIPO DE OBRA DE CONSTRUCCIÓN (DE FORMA COMMPLETA O POR FASES) DE CUALQUIER TIPO DE EDIFICACIÓN, RESIDENCIAL O NO RESIDENCIAL Y OBRAS CIVILES",
      "mainEntityOfPage": "https://www.contratacion.euskadi.eus/webkpe00-kperoc/es/ac71aBusquedaRegistrosWar/empresa/05078",
      "_links": {
        "self": {
          "name": "VAFORJ CONSTRUCCIONES Y REFORMAS, S.L.",
          "href": "https://api.euskadi.eus/procurements/companies/05078"
        }
      }
    },
    {
      "name": "CONTENUR, S.L.",
      "registrationNumber": "07078",
      "identificationNumber": "B82806738",
      "address": "C/TORNEROS, 3",
      "location": {
        "postalCode": "28906",
        "municipality": "Getafe",
        "county": "Madrid",
        "municipalityId": "065",
        "countyId": "28"
      },
      "economicActivities": [
        {
          "id": "1.482.2",
          "name": "Fabricación de artículos acabados de materias plásticas",
          "_links": {
            "self": {
              "name": "Fabricación de artículos acabados de materias plásticas",
              "href": "https://api.euskadi.eus/procurements/companies/economic-activities/1.482.2"
            }
          }
        },
        {
          "id": "1.504.8",
          "name": "Montajes metálicos e instalaciones industriales completas",
          "_links": {
            "self": {
              "name": "Montajes metálicos e instalaciones industriales completas",
              "href": "https://api.euskadi.eus/procurements/companies/economic-activities/1.504.8"
            }
          }
        }
      ],
      "certificateStartDate": "2022-06-01",
      "certificateEndDate": "2022-11-16",
      "object": "FABRICACIÓN, VENTA, COMERCIALIZACIÓN, IMPORTACIÓN Y EXPORTACIÓN DE TODO TIPO DE CONTENEDORES, PAPELERAS, ENVASES Y CUALQUIER OTRA CLASE DE RECIPIENTES, SUS ACCESORIOS Y PIEZAS COMPLEMENTARIAS, DESTINADOS AL ALMACENAMIENTO, LA RECOGIDA, POR CUALQUIER PROCEDIMIENTO DE BASURAS Y RESIDUOS EN GENERAL, ASÍ COMO PARA CUALQUIER OTRO DESTINO, FABRICADOS EN PLÁSTICO, METAL O CUALQUIER OTRO MATERIAL. FABRICACIÓN, VENTA, COMERCIALIZACIÓN, IMPORTACIÓN Y EXPORTACIÓN DE TODA CLASE DE PIEZAS DE PLÁSTICO, POR CUENTA PROPIA O DE TERCEROS, Y CON MOLDES PROPIOS O PROPIEDAD DE TERCEROS. FABRICACIÓN, VENTA, IMPORTACIÓN, EXPORTACIÓN Y COMERCIALIZACIÓN BAJO CUALQUIER FORMA DE MOBILIARIO URBANO TANTO FIJO COMO MÓVIL, ESPECIALMENTE PARQUES INFANTILES DE RECREO, JUEGOS O ESPARCIMIENTO Y ELEMENTOS QUE LO COMPONGAN. PRESTACIÓN A TODA CLASE DE ENTIDADES PÚBLICAS O PRIVADAS DE SERVICIOS DE INSTALACIÓN, MANTENIMIENTO, CONSERVACIÓN, REVISIÓN, REPARACIÓN, LIMPIEZA, ACONDICIONAMIENTO Y ORNAMENTACIÓN DE EDIFICIOS, CONSTRUCCIONES, ÁREAS DE OCIO Y ESPARCIMIENTO, VÍAS PÚBLICAS Y PRIVADAS, MAQUINARÍA, MOBILIARIO URBANO, SISTEMAS DE SEÑALIZACIÓN, MEDIOS CONDUCTORES DE AGUA, GAS, ELECTRICIDAD Y SIMILARES; SERVICIOS DE TRANSPORTE DE TODO TIPO DE MERCANCÍAS; GESTIÓN Y TRATAMIENTO DE RESIDUOS, CONSERVACIÓN Y PROTECCIÓN DE MEDIO AMBIENTE; Y CUALESQUIERA OTROS ANÁLOGOS O COMPLEMENTARIOS DE LOS ANTERIORES. REALIZACIÓN DE TODO TIPO DE TRABAJOS DE CONSERVACIÓN Y MANTENIMIENTO DE MONTES, JARDINES, PARQUES Y OTRAS ZONAS VERDES QUE INCLUYAN PODA, REPOSICIÓN, DESBROCE, RIEGO, ABONADO, TRATAMIENTOS FITOSANITARIOS Y DEMÁS TRABAJOS AGRÍCOLAS Y FORESTALES. REALIZACIÓN, CONSTRUCCIÓN, REPARACIÓN Y CONSERVACIÓN DE TODO TIPO DE OBRAS CIVILES Y VIALES",
      "mainEntityOfPage": "https://www.contratacion.euskadi.eus/webkpe00-kperoc/es/ac71aBusquedaRegistrosWar/empresa/07078",
      "_links": {
        "self": {
          "name": "CONTENUR, S.L.",
          "href": "https://api.euskadi.eus/procurements/companies/07078"
        }
      }
    },
    {
      "name": "ERAIZABAL XXI GESTIÓN INTEGRAL DE OBRAS S.L.",
      "registrationNumber": "06006",
      "identificationNumber": "B01372762",
      "address": "HONDARRIBIA 10",
      "location": {
        "postalCode": "01010",
        "municipality": "Vitoria-Gasteiz",
        "county": "Araba/Álava",
        "municipalityId": "059",
        "countyId": "01"
      },
      "economicActivities": [
        {
          "id": "1.501.1",
          "name": "Construcción completa, reparación y conservación de edificaciones",
          "_links": {
            "self": {
              "name": "Construcción completa, reparación y conservación de edificaciones",
              "href": "https://api.euskadi.eus/procurements/companies/economic-activities/1.501.1"
            }
          }
        }
      ],
      "certificateStartDate": "2022-05-31",
      "certificateEndDate": "2022-11-30",
      "object": "COMPRAVENTA, PERMUTA Y EN GENERAL, ADQUISICIÓN Y ENAJENACIÓN POR CUALQUIER TÍTULO DE TERRENOS, SOLARES Y EN GENERAL FINCAS RÚSTICAS O URBANAS DE CUALQUIER ESPECIE, ASÍ COMO SU ORDENAMIENTO, PARCELACIÓN Y URBANIZACIÓN. LA PROMOCIÓN DE POLÍGONOS INDUSTRIALES Y URBANOS, SU ORDENACIÓN, PLANIFICACIÓN, PARCELACIÓN Y URBANIZACIÓN O INSTALACIÓN DE TODOS O PARTE DE LOS SERVICIOS ADECUADOS. LA EXPLOTACIÓN EN FORMA DE VENTA, SOCIEDAD, ARRIENDO, SUPERFICIE U OTRAS CUALESQUIERA, DE POLÍGONOS, SOLARES, PARCELAS O TERRENOS QUE ADQUIERA, ORDENA O URBANICE ASÍ COMO LAS CONSTRUCCIONES QUE ADQUIERA, PROMUEVA O CONSTRUYA. LAS ACTIVIDADES RELACIONADAS CON LAS INDUSTRIAS DE LA CONSTRUCCIÓN POR CUENTA PROPIA O AJENA",
      "mainEntityOfPage": "https://www.contratacion.euskadi.eus/webkpe00-kperoc/es/ac71aBusquedaRegistrosWar/empresa/06006",
      "_links": {
        "self": {
          "name": "ERAIZABAL XXI GESTIÓN INTEGRAL DE OBRAS S.L.",
          "href": "https://api.euskadi.eus/procurements/companies/06006"
        }
      }
    },
    {
      "name": "KILKER JARDINERÍA, S.L.",
      "registrationNumber": "02559",
      "identificationNumber": "B20511119",
      "address": "C/ Errazkiñenea, 2",
      "location": {
        "postalCode": "20280",
        "municipality": "Hondarribia",
        "county": "Gipuzkoa",
        "municipalityId": "036",
        "countyId": "20"
      },
      "economicActivities": [
        {
          "id": "1.502.2",
          "name": "Consolidación y preparación de terrenos para la construcción de edificaciones",
          "_links": {
            "self": {
              "name": "Consolidación y preparación de terrenos para la construcción de edificaciones",
              "href": "https://api.euskadi.eus/procurements/companies/economic-activities/1.502.2"
            }
          }
        },
        {
          "id": "1.911",
          "name": "Servicios agrícolas y ganaderos",
          "_links": {
            "self": {
              "name": "Servicios agrícolas y ganaderos",
              "href": "https://api.euskadi.eus/procurements/companies/economic-activities/1.911"
            }
          }
        },
        {
          "id": "1.912",
          "name": "Servicios forestales",
          "_links": {
            "self": {
              "name": "Servicios forestales",
              "href": "https://api.euskadi.eus/procurements/companies/economic-activities/1.912"
            }
          }
        }
      ],
      "certificateStartDate": "2022-05-31",
      "certificateEndDate": "2022-11-30",
      "object": " DISEÑO, PLANTACIÓN Y MANTENIMIENTO DE ZONAS AJARDINADAS. ESTAS ACTIVIDADES PODRÁN SER DESARROLLADAS POR LA SOCIEDAD -TOTAL O PARCIALMENTE- DE MODO INDIRECTO, MEDIANTE LA TITULARIDAD DE ACCIONES O PARTICIPACIONES EN SOCIEDADES CON IDÉNTICO O ANÁLOGO OBJETO.\r\nQUEDAN EXCLUIDAS TODAS AQUELLAS ACTIVIDADES PARA CUYO EJERCICIO LA LEY EXIJA REQUISITOS ESPECIALES QUE NO QUEDAN CUMPLIDOS POR ESTA SOCIEDAD.\r\nSI LAS DISPOSICIONES LEGALES EXIGIERAN PARA EL EJERCICIO DE ALGUNA DE LAS ACTIVIDADES COMPRENDIDAS EN EL OBJETO SOCIAL ALGUNA TITULACIÓN O AUTORIZACIÓN ADMINSTRATIVA, O LA INSCRIPCIÓN EN ALGÚN REGISTRO PÚBLICO, DICHAS ACTIVIDADES HABRÁN DE REALIZARSE POR PERSONA QUE OSTENTE LA REFERIDA TITULACIÓN Y EN SU CASO, NO PODRÁN INICIARSE HASTA QUE SE HAYAN CUMPLIDO LOS REQUISITOS ADMINISTRATIVOS EXIGIDOS\r\n   \r\n",
      "mainEntityOfPage": "https://www.contratacion.euskadi.eus/webkpe00-kperoc/es/ac71aBusquedaRegistrosWar/empresa/02559",
      "_links": {
        "self": {
          "name": "KILKER JARDINERÍA, S.L.",
          "href": "https://api.euskadi.eus/procurements/companies/02559"
        }
      }
    },
    {
      "name": "ADELAIDA BARREIRO ASENSIO",
      "registrationNumber": "06643",
      "identificationNumber": "14612035C",
      "address": "IPARBIDE 17F",
      "location": {
        "postalCode": "48991",
        "municipality": "Getxo",
        "county": "Bizkaia",
        "municipalityId": "044",
        "countyId": "48"
      },
      "economicActivities": [
        {
          "id": "2.411",
          "name": "Arquitectos",
          "_links": {
            "self": {
              "name": "Arquitectos",
              "href": "https://api.euskadi.eus/procurements/companies/economic-activities/2.411"
            }
          }
        }
      ],
      "certificateStartDate": "2022-05-31",
      "certificateEndDate": "2022-11-30",
      "object": "ARQUITECTO ",
      "mainEntityOfPage": "https://www.contratacion.euskadi.eus/webkpe00-kperoc/es/ac71aBusquedaRegistrosWar/empresa/06643",
      "_links": {
        "self": {
          "name": "ADELAIDA BARREIRO ASENSIO",
          "href": "https://api.euskadi.eus/procurements/companies/06643"
        }
      }
    },
    {
      "name": "CONSTRUCCIONES GOÑI, S.L.",
      "registrationNumber": "03789",
      "identificationNumber": "B20063699",
      "address": "EDIFICIO IRUBIDE-OFICINA 48",
      "location": {
        "postalCode": "20160",
        "municipality": "Lasarte-Oria",
        "county": "Gipuzkoa",
        "municipalityId": "902",
        "countyId": "20"
      },
      "economicActivities": [
        {
          "id": "1.501.1",
          "name": "Construcción completa, reparación y conservación de edificaciones",
          "_links": {
            "self": {
              "name": "Construcción completa, reparación y conservación de edificaciones",
              "href": "https://api.euskadi.eus/procurements/companies/economic-activities/1.501.1"
            }
          }
        },
        {
          "id": "1.861.2",
          "name": "Alquiler de locales industriales y otros alquileres n.c.o.p",
          "_links": {
            "self": {
              "name": "Alquiler de locales industriales y otros alquileres n.c.o.p",
              "href": "https://api.euskadi.eus/procurements/companies/economic-activities/1.861.2"
            }
          }
        }
      ],
      "certificateStartDate": "2022-05-28",
      "certificateEndDate": "2022-11-28",
      "object": "1.- EL NEGOCIO DE LA CONSTRUCCIÓN DE OBRAS PÚBLICAS Y PRIVADAS MEDIANTE CONTRATA CON LA ADMINISTRACIÓN DEL ESTADO, PROVINCIA, MUNICIPIO, ORGANISMOS PÚBLICOS, ENTIDADES PRIVADAS Y PARTICULARES.\r\n2.- LA PROMOCIÓN DE OBRA PROPIA, BIEN POR EJECUCIÓN DIRECTA MEDIANTE CONTRATA, TANTO LA ACOGIDA AL RÉGIMEN DE PROTECCIÓN OFICIAL, COMO DE OTRA CLASE, PARA SU VENTA O PARA APROVECHAMIENTO DIRECTO.\r\n3.- LA REPARACIÓN Y MANTENIMIENTO INTEGRAL DE TODO TIPO DE EDIFICACIONES E INSTALACIONES INDUSTRIALES, TANTO EN SU ESTRUCTURA INTERNA COMO EXTERNA.\r\n4.- LA CARGA Y DESCARGA DE VEHÍCULOS Y MATERIALES DE TODO TIPO, ASÍ COMO SU APILONAMIENTO Y LIMPIEZA",
      "mainEntityOfPage": "https://www.contratacion.euskadi.eus/webkpe00-kperoc/es/ac71aBusquedaRegistrosWar/empresa/03789",
      "_links": {
        "self": {
          "name": "CONSTRUCCIONES GOÑI, S.L.",
          "href": "https://api.euskadi.eus/procurements/companies/03789"
        }
      }
    },
    {
      "name": "PRODUCTOS OPPAC, S.A.",
      "registrationNumber": "07809",
      "identificationNumber": "A31132889",
      "address": "POLÍGONO INDUSTRIAL MOCHOLI C/ NOAIN Nº 10",
      "location": {
        "postalCode": "31110",
        "municipality": "Noáin (Valle de Elorz)/Noain (Elortzibar)",
        "county": "Navarra",
        "municipalityId": "088",
        "countyId": "31"
      },
      "economicActivities": [
        {
          "id": "1.161.66",
          "name": "COM.MAY.PTOS. QUIMICOS INDUSTRIALES",
          "_links": {
            "self": {
              "name": "COM.MAY.PTOS. QUIMICOS INDUSTRIALES",
              "href": "https://api.euskadi.eus/procurements/companies/economic-activities/1.161.66"
            }
          }
        }
      ],
      "certificateStartDate": "2022-05-27",
      "certificateEndDate": "2022-11-26",
      "object": "A) LA FABRICACIÓN, TRANSFORMACIÓN, COMPRA-VENTA, IMPORTACIÓN, EXPORTACIÓN, REPRESENTACIÓN Y COMERCIALIZACIÓN DE: DESMOLDEANTES, COLORANTES, DETERGENTES, ADHESIVOS, CATALIZADORES, DISOLVENTES Y PRODUCTOS QUÍMICOS DE TODAS CLASES, TANTO MATERIAS PRIMAS COMO PRODUCTOS TERMINADOS; ASÍ COMO SUS DERIVADOS Y LAS MÁQUINAS, ÚTILES Y PRODUCTOS AUXILIARES PARA SU FABRICACIÓN. B) LA INVESTIGACIÓN Y PRESENTACIÓN DE ASESORAMIENTO, ASISTENCIA TÉCNICA, EXPLOTACIÓN DE PATENTES, SISTEMAS Y FORMULACIONES PARA LA FABRICACIÓN DE PATENTES, SISTEMAS Y FORMULACIONES PARA LA FABRICACIÓN Y TRANSFORMACIÓN DE POLIURETANOS, POLIÉSTERES Y DEMÁS PRODUCTOS PLÁSTICOS Y QUÍMICOS, EN GENERAL, ASÍ COMO SUS DERIVADOS. C) LA GESTIÓN Y ASESORAMIENTO DE RESIDUOS PELIGROSOS, COMPRENDIENDO EL CONJUNTO DE PROCEDIMIENTOS DE RECOGIDA, TRANSPORTE Y TRATAMIENTO Y/O RECUPERACIÓN, QUE SIRVEN PARA GESTIONAR EL MANEJO DE RESIDUOS CLASIFICADOS COMO POTENCIALMENTE PELIGROSOS PARA LA SALUD HUMANA Y/O EL MEDIO AMBIENTE",
      "mainEntityOfPage": "https://www.contratacion.euskadi.eus/webkpe00-kperoc/es/ac71aBusquedaRegistrosWar/empresa/07809",
      "_links": {
        "self": {
          "name": "PRODUCTOS OPPAC, S.A.",
          "href": "https://api.euskadi.eus/procurements/companies/07809"
        }
      }
    }
  ]
}