{
  "totalItems": 9042,
  "totalPages": 905,
  "currentPage": 102,
  "itemsOfPage": 10,
  "items": [
    {
      "name": "GEOGRAMA, S.L.",
      "registrationNumber": "09999",
      "identificationNumber": "B75271569",
      "address": "Plaza El Renacimiento (01004) 9, 2-2",
      "location": {
        "postalCode": "01004",
        "municipality": "Vitoria-Gasteiz",
        "county": "Araba/Álava",
        "municipalityId": "059",
        "countyId": "01"
      },
      "economicActivities": [
        {
          "id": "1.845",
          "name": "Explotación electrónica por cuenta de terceros",
          "_links": {
            "self": {
              "name": "Explotación electrónica por cuenta de terceros",
              "href": "https://api.euskadi.eus/procurements/companies/economic-activities/1.845"
            }
          }
        }
      ],
      "certificateStartDate": "2026-01-03",
      "certificateEndDate": "2026-07-01",
      "object": "LA INTERMEDIACIÓN EN LA PRESTACIÓN DE SERVICIOS ENTRE EL CLIENTE FINAL Y LOS PROFESIONALES PERSONA FÍSICAS QUE DESARROLLEN LAS ACTIVIDADES, ASÍ COMO LA COORDINACIÓN DE LAS DIFERENTES PRESTACIONES ESPECÍFICAS Y LOS MEDIOS NECESARIOS PARA QUE LOS PROFESIONALES DESARROLLEN SERVICIO Y ACTIVIDADES DE: A) SERVICIOS Y CONSULTORÍA DE TOPOGRAFÍA, CARTOGRAFÍA Y SISTEMAS DE INFORMACIÓN GEOGRÁFICA; B) SERVICIOS DE CAPTURA DE INFORMACIÓN POR MEDIOS ELECTRÓNICOS, INFORMÁTICOS Y TELEMÁTICOS; C) SERVICIOS DE DESARROLLO Y MANTENIMIENTO DE PROGRAMAS DE ORDENADOR; D) SERVICIOS DE EXPLOTACIÓN Y CONTROL DE SISTEMAS INFORMÁTICOS E INFRAESTRUCTURAS TELEMÁTICAS; E) SERVICIOS GEOGRÁFICOS A TRAVÉS DE INTERNET U OTRAS REDES; F) SERVICIOS DE ALOJAMIENTO O HOSTING DE MAPAS E INFORMACIÓN GEOGRÁFICA; G) TRATAMIENTO DE INFORMACIÓN GEOGRÁFICA.",
      "mainEntityOfPage": "https://www.contratacion.euskadi.eus/webkpe00-kperoc/es/ac71aBusquedaRegistrosWar/empresa/09999",
      "_links": {
        "self": {
          "name": "GEOGRAMA, S.L.",
          "href": "https://api.euskadi.eus/procurements/companies/09999"
        }
      }
    },
    {
      "name": "DANIEL ALVAREZ LOPEZ",
      "registrationNumber": "10280",
      "identificationNumber": "32684836L",
      "address": "Askatasuna, nº 6 - 4º C",
      "location": {
        "postalCode": "48003",
        "municipality": "Bilbao",
        "county": "Bizkaia",
        "municipalityId": "020",
        "countyId": "48"
      },
      "economicActivities": [
        {
          "id": "2.861",
          "name": "Pintores, escultores, ceramistas, artesanos, artistas y similares",
          "_links": {
            "self": {
              "name": "Pintores, escultores, ceramistas, artesanos, artistas y similares",
              "href": "https://api.euskadi.eus/procurements/companies/economic-activities/2.861"
            }
          }
        }
      ],
      "certificateStartDate": "2026-01-03",
      "certificateEndDate": "2026-07-03",
      "object": "PINTORES, ESCULTORES, CERAMISTAS, ARTESANOS, ARTISTAS Y SIMILARES.",
      "mainEntityOfPage": "https://www.contratacion.euskadi.eus/webkpe00-kperoc/es/ac71aBusquedaRegistrosWar/empresa/10280",
      "_links": {
        "self": {
          "name": "DANIEL ALVAREZ LOPEZ",
          "href": "https://api.euskadi.eus/procurements/companies/10280"
        }
      }
    },
    {
      "name": "KEPA URRUTIA CAREAGA",
      "registrationNumber": "05786",
      "identificationNumber": "30646635D",
      "address": "AVENIDA LEHENDAKARI LEIZAOLA Nº 21 5º C",
      "location": {
        "postalCode": "48011",
        "municipality": "Bilbao",
        "county": "Bizkaia",
        "municipalityId": "020",
        "countyId": "48"
      },
      "economicActivities": [
        {
          "id": "2.741",
          "name": "Economistas",
          "_links": {
            "self": {
              "name": "Economistas",
              "href": "https://api.euskadi.eus/procurements/companies/economic-activities/2.741"
            }
          }
        }
      ],
      "certificateStartDate": "2026-01-02",
      "certificateEndDate": "2026-07-02",
      "object": "ASESORAMIENTO ENTIDADES LOCALES AREA INTERVENCION-TESORERIA",
      "mainEntityOfPage": "https://www.contratacion.euskadi.eus/webkpe00-kperoc/es/ac71aBusquedaRegistrosWar/empresa/05786",
      "_links": {
        "self": {
          "name": "KEPA URRUTIA CAREAGA",
          "href": "https://api.euskadi.eus/procurements/companies/05786"
        }
      }
    },
    {
      "name": "DOXA PRODUCCIONES, S.L.",
      "registrationNumber": "09430",
      "identificationNumber": "B85565703",
      "address": "ARTEKALE 26, 4º DERECHA, 48005,BILBAO, BIZKAIA",
      "location": {
        "postalCode": "48005",
        "municipality": "Bilbao",
        "county": "Bizkaia",
        "municipalityId": "020",
        "countyId": "48"
      },
      "economicActivities": [
        {
          "id": "1.844",
          "name": "Servicios de publicidad, relaciones públicas y similares",
          "_links": {
            "self": {
              "name": "Servicios de publicidad, relaciones públicas y similares",
              "href": "https://api.euskadi.eus/procurements/companies/economic-activities/1.844"
            }
          }
        },
        {
          "id": "1.961.1",
          "name": "Producción de películas cinematográficas (incluso vídeos)",
          "_links": {
            "self": {
              "name": "Producción de películas cinematográficas (incluso vídeos)",
              "href": "https://api.euskadi.eus/procurements/companies/economic-activities/1.961.1"
            }
          }
        },
        {
          "id": "1.961.2",
          "name": "Doblaje y montaje de películas",
          "_links": {
            "self": {
              "name": "Doblaje y montaje de películas",
              "href": "https://api.euskadi.eus/procurements/companies/economic-activities/1.961.2"
            }
          }
        }
      ],
      "certificateStartDate": "2026-01-01",
      "certificateEndDate": "2026-07-01",
      "object": "- LA PRODUCCIÓN, DISTRIBUCIÓN, ADQUISICIÓN Y COMERCIALIZACIÓN DE CONTENIDOS AUDIOVISUALES PRODUCIDOS EN CUALQUIER FORMATO Y EN GENERAL PRODUCTOS Y SERVICIOS RELACIONADOS CON EL CINE, LA TELEVISIÓN, EL PERIODISMO Y CUALQUIER MEDIO DE COMUNICACIÓN Y SOPORTE SIN LÍMITE GEOGRÁFICO ALGUNO. - LA COMPRA, VENTA, ARRENDAMIENTO, DESARROLLO, CAPACITACIÓN Y SERVICIOS DE SISTEMAS Y EQUIPOS EMPRESARIALES Y AUDIOVISUALES. - PRODUCCIÓN, DOBLAJE Y MONTAJE DE PELÍCULAS, PROGRAMAS Y SERIES PARA CINE Y TELEVISIÓN. - ESPECTÁCULOS EN SALAS, LOCALES Y AL AIRE LIBRE. - CONTRATACIÓN O MEDIACIÓN EN LA CONTRATACIÓN DE ACTORES PARA ACTUACIONES PUBLICITARIAS, ACTUACIÓN EN PELÍCULAS Y SERIES DE TELEVISIÓN, Y REPRESENTACIONES TEATRALES. - REPRESENTACIÓN DE PROFESIONALES Y ARTISTAS. PARTICIPACIÓN EN TODO TIPO DE MUESTRAS, FESTIVALES, FERIAS, CERTÁMENES Y OTROS RELACIONADOS CON CUALQUIER INDUSTRIA O ACTIVIDAD ARTÍSTICA Y DE COMUNICACIÓN. - SERVICIOS DE REVELADO, IMPRESIÓN Y AMPLIACIÓN FOTOGRÁFICA.",
      "mainEntityOfPage": "https://www.contratacion.euskadi.eus/webkpe00-kperoc/es/ac71aBusquedaRegistrosWar/empresa/09430",
      "_links": {
        "self": {
          "name": "DOXA PRODUCCIONES, S.L.",
          "href": "https://api.euskadi.eus/procurements/companies/09430"
        }
      }
    },
    {
      "name": "ONLINE MUNDUA, S.L.",
      "registrationNumber": "10018",
      "identificationNumber": "B70919295",
      "address": "C/RODRIGUEZ ARIAS, 17-2",
      "location": {
        "postalCode": "48011",
        "municipality": "Bilbao",
        "county": "Bizkaia",
        "municipalityId": "020",
        "countyId": "48"
      },
      "economicActivities": [
        {
          "id": "1.844",
          "name": "Servicios de publicidad, relaciones públicas y similares",
          "_links": {
            "self": {
              "name": "Servicios de publicidad, relaciones públicas y similares",
              "href": "https://api.euskadi.eus/procurements/companies/economic-activities/1.844"
            }
          }
        }
      ],
      "certificateStartDate": "2025-12-31",
      "certificateEndDate": "2026-06-30",
      "object": "SERVICIOS DE PUBLICIDAD, RELACIONES PÚBLICAS Y ORGANIZACIÓN DE EVENTOS. CONSULTORÍA DE COMUNICACIÓN, MARKETING DIGITAL Y REDES SOCIALES.",
      "mainEntityOfPage": "https://www.contratacion.euskadi.eus/webkpe00-kperoc/es/ac71aBusquedaRegistrosWar/empresa/10018",
      "_links": {
        "self": {
          "name": "ONLINE MUNDUA, S.L.",
          "href": "https://api.euskadi.eus/procurements/companies/10018"
        }
      }
    },
    {
      "name": "TEMA INSPECCIÓN Y VERIFICACIÓN, S.L.",
      "registrationNumber": "10275",
      "identificationNumber": "B10720803",
      "address": "C/ Numancia, 36",
      "location": {
        "postalCode": "08029",
        "municipality": "Barcelona",
        "county": "Barcelona",
        "municipalityId": "019",
        "countyId": "08"
      },
      "economicActivities": [
        {
          "id": "1.843.9",
          "name": "Otros servicios técnicos n.c.o.p",
          "_links": {
            "self": {
              "name": "Otros servicios técnicos n.c.o.p",
              "href": "https://api.euskadi.eus/procurements/companies/economic-activities/1.843.9"
            }
          }
        }
      ],
      "certificateStartDate": "2025-12-31",
      "certificateEndDate": "2026-06-30",
      "object": "LAS FUNCIONES DE CONTROL, CERTIFICACIÓN, INSPECCIÓN Y VERIFICACIÓN DE ESTUDIOS DE RIESGOS Y DE SEGURIDAD, CONSTRUCCIONES, EMPRESAS, MARCAS, MEDIO AMBIENTE, PROCESOS DE PRODUCCIÓN, PRODUCTOS, SERVICIOS, SISTEMAS DE CALIDAD Y EN MATERIA DE URBANISMO, MEDIOS DE LOCOMOCIÓN, COMO ENTIDAD COLABORADORA DE LA ADMINISTRACIÓN EN TODO EL TERRITORIO NACIONAL, MEDIANTE LA UTILIZACIÓN DE PROFESIONALES COMPETENTES Y LA REALIZACIÓN DE ENSAYOS Y ANÁLISIS TÉCNICOS.\n",
      "mainEntityOfPage": "https://www.contratacion.euskadi.eus/webkpe00-kperoc/es/ac71aBusquedaRegistrosWar/empresa/10275",
      "_links": {
        "self": {
          "name": "TEMA INSPECCIÓN Y VERIFICACIÓN, S.L.",
          "href": "https://api.euskadi.eus/procurements/companies/10275"
        }
      }
    },
    {
      "name": "ZEINKA INGENIERIA Y CONSTRUCCIONES, S.L.",
      "registrationNumber": "09991",
      "identificationNumber": "B75503334",
      "address": "BARRIO ELEXALDE-ZEETA 5 PB 1IZ",
      "location": {
        "postalCode": "48313",
        "municipality": "Ereño",
        "county": "Bizkaia",
        "municipalityId": "033",
        "countyId": "48"
      },
      "economicActivities": [
        {
          "id": "1.501.2",
          "name": "Construcción completa, reparación y conservación obras civiles",
          "_links": {
            "self": {
              "name": "Construcción completa, reparación y conservación obras civiles",
              "href": "https://api.euskadi.eus/procurements/companies/economic-activities/1.501.2"
            }
          }
        }
      ],
      "certificateStartDate": "2025-12-31",
      "certificateEndDate": "2026-06-30",
      "object": "EL DESARROLLO DE LAS ACTIVIDADES CORRESPONDIENTES A LOS SIGUIENTES CÓDIGOS Y DESCRIPCIONES DE LA CLASIFICACIÓN NACIONAL DE ACTIVIDADES ECONÓMICAS: ACTIVIDAD PRINCIPAL.- 4299. CONSTRUCCIÓN DE OTROS PROYECTOS DE INGENIERÍA CIVIL. N. C. O . P.",
      "mainEntityOfPage": "https://www.contratacion.euskadi.eus/webkpe00-kperoc/es/ac71aBusquedaRegistrosWar/empresa/09991",
      "_links": {
        "self": {
          "name": "ZEINKA INGENIERIA Y CONSTRUCCIONES, S.L.",
          "href": "https://api.euskadi.eus/procurements/companies/09991"
        }
      }
    },
    {
      "name": "TRION PLANES Y SERVICIOS, S.L.",
      "registrationNumber": "09391",
      "identificationNumber": "B95719753",
      "address": "Calle Club (48930), 1 (OFICINAS) DPTO.2",
      "location": {
        "postalCode": "48930",
        "municipality": "Getxo",
        "county": "Bizkaia",
        "municipalityId": "044",
        "countyId": "48"
      },
      "economicActivities": [
        {
          "id": "1.843.2",
          "name": "Servicios técnicos de arquitectura y urbanismo",
          "_links": {
            "self": {
              "name": "Servicios técnicos de arquitectura y urbanismo",
              "href": "https://api.euskadi.eus/procurements/companies/economic-activities/1.843.2"
            }
          }
        }
      ],
      "certificateStartDate": "2025-12-30",
      "certificateEndDate": "2026-06-03",
      "object": "LA ACTIVIDAD PROPIA DE LOS PROFESIONALES DE ARQUITECTURA, EN SU MÁS AMPLIO SENTIDO.",
      "mainEntityOfPage": "https://www.contratacion.euskadi.eus/webkpe00-kperoc/es/ac71aBusquedaRegistrosWar/empresa/09391",
      "_links": {
        "self": {
          "name": "TRION PLANES Y SERVICIOS, S.L.",
          "href": "https://api.euskadi.eus/procurements/companies/09391"
        }
      }
    },
    {
      "name": "MORENO OSES FACILITY SERVICES, S.L.",
      "registrationNumber": "10249",
      "identificationNumber": "B16786469",
      "address": "C/ GOIZUETA 13 1D",
      "location": {
        "postalCode": "20014",
        "municipality": "Donostia / San Sebastián",
        "county": "Gipuzkoa",
        "municipalityId": "069",
        "countyId": "20"
      },
      "economicActivities": [
        {
          "id": "1.505.6",
          "name": "Pintura, revestimientos y terminación y decoración de locales",
          "_links": {
            "self": {
              "name": "Pintura, revestimientos y terminación y decoración de locales",
              "href": "https://api.euskadi.eus/procurements/companies/economic-activities/1.505.6"
            }
          }
        },
        {
          "id": "1.922.1",
          "name": "Servicios de limpieza de interiores",
          "_links": {
            "self": {
              "name": "Servicios de limpieza de interiores",
              "href": "https://api.euskadi.eus/procurements/companies/economic-activities/1.922.1"
            }
          }
        }
      ],
      "certificateStartDate": "2025-12-30",
      "certificateEndDate": "2026-06-09",
      "object": "4334 - TRABAJOS DE PINTURA EN CONSTRUCCIÓN. 8121 - LIMPIEZA GENERAL DE EDIFICIOS.",
      "mainEntityOfPage": "https://www.contratacion.euskadi.eus/webkpe00-kperoc/es/ac71aBusquedaRegistrosWar/empresa/10249",
      "_links": {
        "self": {
          "name": "MORENO OSES FACILITY SERVICES, S.L.",
          "href": "https://api.euskadi.eus/procurements/companies/10249"
        }
      }
    },
    {
      "name": "ECNA INFORMÁTICA, S.L.",
      "registrationNumber": "01971",
      "identificationNumber": "B48119341",
      "address": "C/ RODRÍGUEZ ARIAS, Nº 15, 7",
      "location": {
        "postalCode": "48008",
        "municipality": "Bilbao",
        "county": "Bizkaia",
        "municipalityId": "020",
        "countyId": "48"
      },
      "economicActivities": [
        {
          "id": "1.659.2",
          "name": "Venta al por menor de muebles de oficina y máquinas y equipos de oficina",
          "_links": {
            "self": {
              "name": "Venta al por menor de muebles de oficina y máquinas y equipos de oficina",
              "href": "https://api.euskadi.eus/procurements/companies/economic-activities/1.659.2"
            }
          }
        },
        {
          "id": "1.845",
          "name": "Explotación electrónica por cuenta de terceros",
          "_links": {
            "self": {
              "name": "Explotación electrónica por cuenta de terceros",
              "href": "https://api.euskadi.eus/procurements/companies/economic-activities/1.845"
            }
          }
        }
      ],
      "certificateStartDate": "2025-12-30",
      "certificateEndDate": "2026-06-15",
      "object": "a) LA EXPLOTACIÓN DE SU INFORMÁTICA EN TODAS SUS MANIFESTACIONES, Y POR TANTO LA ENSEÑANZA, PRESTACIÓN Y ALQUILER DE SERVICIOS, COMPRAVENTA, IMPORTACIÓN, EXPORTACIÓN, ALMACENAJE, REPRESENTACIÓN, DISTRIBUCIÓN, ALQUILER Y CESIÓN DE LOS APARATOS, MÁQUINAS Y PRODUCTOS PARA TAL FIN, SUS REPUESTOS, ACCESORIOS Y CONSUMIBLES. EL ANÁLISIS, PROGRAMACIÓN, E IMPLANTACIÓN DE SISTEMAS U ORDENADORES INFORMÁTICOS.\r\n\r\nb) EL ESTUDIO, PROMOCIÓN Y REALIZACIÓN DE TODA CLASE DE OBRAS DE CONSTRUCCIÓN, MEJORA, CONSERVACIÓN, RESTAURACIÓN, REHABILITACIÓN, TANTO PRIVADAS COMO PÚBLICAS, POR CUENTA PROPIA O AJENA.\r\n\r\nc) LA ADQUISICIÓN, USO, EXPLOTACIÓN, ARRRENDAMIENTO, VENTA Y ENAJENACIÓN DE FINCAS, TERRENOS, VIVIENDAS, LOCALES, PABELLONES Y SOLARES, SU PARCELACIÓN Y URBANIZACIÓN, LA PROMOCIÓN Y CONSTITUCIÓN DE COMUNIDADES DE PROPIETARIOS O CUALQUIER OTRA FORMA DE ASOCIACIÓN O SOCIEDAD CON FINES DE EDIFICACIÓN Y URBANIZACIÓN.\r\n\r\nd) LA ADQUISICIÓN, CESIÓN, TENENCIA O DISFRUTE EN GENERAL, DE TODA CLASE DE TÍTULOS VALORES MOBILIARIOS, SIN INCIDIR EN LAS OPERACIONES REGULADAS POR LEYES ESPECIALES",
      "mainEntityOfPage": "https://www.contratacion.euskadi.eus/webkpe00-kperoc/es/ac71aBusquedaRegistrosWar/empresa/01971",
      "_links": {
        "self": {
          "name": "ECNA INFORMÁTICA, S.L.",
          "href": "https://api.euskadi.eus/procurements/companies/01971"
        }
      }
    }
  ]
}