{
  "totalItems": 9042,
  "totalPages": 905,
  "currentPage": 259,
  "itemsOfPage": 10,
  "items": [
    {
      "name": "FUNDIBIDE, S.L.",
      "registrationNumber": "09522",
      "identificationNumber": "B56695984",
      "address": "Pol. Indus. Olalde",
      "location": {
        "postalCode": "20738",
        "municipality": "Azpeitia",
        "county": "Gipuzkoa",
        "municipalityId": "018",
        "countyId": "20"
      },
      "economicActivities": [
        {
          "id": "1.504.2",
          "name": "Instalaciones de fontanería",
          "_links": {
            "self": {
              "name": "Instalaciones de fontanería",
              "href": "https://api.euskadi.eus/procurements/companies/economic-activities/1.504.2"
            }
          }
        },
        {
          "id": "1.617.4",
          "name": "Venta al por mayor de materiales de construcción, vidrio y artículos instalación",
          "_links": {
            "self": {
              "name": "Venta al por mayor de materiales de construcción, vidrio y artículos instalación",
              "href": "https://api.euskadi.eus/procurements/companies/economic-activities/1.617.4"
            }
          }
        },
        {
          "id": "1.659.3",
          "name": "Venta al por menor de aparatos médicos, ortopédicos, ópticos y fotográficos",
          "_links": {
            "self": {
              "name": "Venta al por menor de aparatos médicos, ortopédicos, ópticos y fotográficos",
              "href": "https://api.euskadi.eus/procurements/companies/economic-activities/1.659.3"
            }
          }
        }
      ],
      "certificateStartDate": "2025-09-23",
      "certificateEndDate": "2026-03-19",
      "object": "LA COMPRAVENTA AL POR MAYOR DE PRODUCTOS Y ACCESORIOS DESTINADOS AL SANEAMIENTO, TRAÍDA DE AGUAS, COMO TUBERÍAS, ACCESORIOS Y VÁLVULAS. ASÍ COMO LA VENTA DE MATERIAL URBANO, VENTA AL POR MENOR DE APARATOS E INSTRUMENTOS MÉDICOS, ORTOPÉDICOS, ÓPTICOS Y FOTOGRÁFICOS E INSTALACIONES DE FONTANERÍA.",
      "mainEntityOfPage": "https://www.contratacion.euskadi.eus/webkpe00-kperoc/es/ac71aBusquedaRegistrosWar/empresa/09522",
      "_links": {
        "self": {
          "name": "FUNDIBIDE, S.L.",
          "href": "https://api.euskadi.eus/procurements/companies/09522"
        }
      }
    },
    {
      "name": "CONSTRUCCIONES LASUEN, S.A.",
      "registrationNumber": "06012",
      "identificationNumber": "A48093421",
      "address": "Barrio Astola 68",
      "location": {
        "postalCode": "48220",
        "municipality": "Abadiño",
        "county": "Bizkaia",
        "municipalityId": "001",
        "countyId": "48"
      },
      "economicActivities": [
        {
          "id": "1.507",
          "name": "Construcción, reparación y conservación de toda clase obras",
          "_links": {
            "self": {
              "name": "Construcción, reparación y conservación de toda clase obras",
              "href": "https://api.euskadi.eus/procurements/companies/economic-activities/1.507"
            }
          }
        },
        {
          "id": "1.722",
          "name": "Transporte de mercancías por carretera",
          "_links": {
            "self": {
              "name": "Transporte de mercancías por carretera",
              "href": "https://api.euskadi.eus/procurements/companies/economic-activities/1.722"
            }
          }
        },
        {
          "id": "1.861.2",
          "name": "Alquiler de locales industriales y otros alquileres n.c.o.p",
          "_links": {
            "self": {
              "name": "Alquiler de locales industriales y otros alquileres n.c.o.p",
              "href": "https://api.euskadi.eus/procurements/companies/economic-activities/1.861.2"
            }
          }
        }
      ],
      "certificateStartDate": "2025-09-23",
      "certificateEndDate": "2026-03-09",
      "object": "LA EJECUCIÓN COMPLETA POR CUENTA PROPIA Y DE TERCEROS, DE OBRAS DE EDIFICACIÓN URBANA, INDUSTRIAL, URBANIZACIÓN, EXCAVACIONES, MOVIMIENTOS DE TIERRA Y CONSOLIDACIÓN Y PREPARACIÓN DE TERRENOS EN GENERAL. LA CONTRATACIÓN, SUBCONTRATACIÓN Y DESTAJO PARA LA EJECUCIÓN DE OBRAS PÚBLICAS. LA ADQUISICIÓN Y VENTA DE TERRENOS, LOCALES, VIVIENDAS Y BIENES INMUEBLES. LA PRESTACIÓN DE SERVICIOS DE MAQUINARIA DE OBRAS PÚBLICAS A TERCERAS PERSONAS",
      "mainEntityOfPage": "https://www.contratacion.euskadi.eus/webkpe00-kperoc/es/ac71aBusquedaRegistrosWar/empresa/06012",
      "_links": {
        "self": {
          "name": "CONSTRUCCIONES LASUEN, S.A.",
          "href": "https://api.euskadi.eus/procurements/companies/06012"
        }
      }
    },
    {
      "name": "ZURTEK,S.L.",
      "registrationNumber": "04598",
      "identificationNumber": "B95325478",
      "address": "CARRETERA BILBAO-GALDAKAO, 10",
      "location": {
        "postalCode": "48004",
        "municipality": "Bilbao",
        "county": "Bizkaia",
        "municipalityId": "020",
        "countyId": "48"
      },
      "economicActivities": [
        {
          "id": "1.505.5",
          "name": "Carpintería y cerrajería",
          "_links": {
            "self": {
              "name": "Carpintería y cerrajería",
              "href": "https://api.euskadi.eus/procurements/companies/economic-activities/1.505.5"
            }
          }
        },
        {
          "id": "1.932.1",
          "name": "Enseñanza de formación y perfeccionamiento profesional no superior",
          "_links": {
            "self": {
              "name": "Enseñanza de formación y perfeccionamiento profesional no superior",
              "href": "https://api.euskadi.eus/procurements/companies/economic-activities/1.932.1"
            }
          }
        }
      ],
      "certificateStartDate": "2025-09-23",
      "certificateEndDate": "2026-03-22",
      "object": "FAVORECER LA INSERCIÓN SOCIAL Y LABORAL DE COLECTIVOS EN SITUACIÓN O RIESGO DE EXCLUSIÓN, COMO PUEDEN SER JÓVENES, MUJERES, PERSONAS DESEMPLEADAS, DISCAPACITADOS, ETC., A TRAVÉS DEL DISEÑO, DESARROLLO Y EJECUCIÓN DE TRABAJOS Y SERVICIOS DE LA ESTRUCTURA DE MADERA, FRISO, AUTOPORTANTE, MOBILIARIO Y CARPINTERÍA EN GENERAL",
      "mainEntityOfPage": "https://www.contratacion.euskadi.eus/webkpe00-kperoc/es/ac71aBusquedaRegistrosWar/empresa/04598",
      "_links": {
        "self": {
          "name": "ZURTEK,S.L.",
          "href": "https://api.euskadi.eus/procurements/companies/04598"
        }
      }
    },
    {
      "name": "OBRAS LO MAS BONITO, S. L.",
      "registrationNumber": "08759",
      "identificationNumber": "B26567693",
      "address": "PLAZA MAESTRO ARROYO 2 BAJO",
      "location": {
        "postalCode": "26500",
        "municipality": "Calahorra",
        "county": "Rioja, La",
        "municipalityId": "036",
        "countyId": "26"
      },
      "economicActivities": [
        {
          "id": "1.501.1",
          "name": "Construcción completa, reparación y conservación de edificaciones",
          "_links": {
            "self": {
              "name": "Construcción completa, reparación y conservación de edificaciones",
              "href": "https://api.euskadi.eus/procurements/companies/economic-activities/1.501.1"
            }
          }
        }
      ],
      "certificateStartDate": "2025-09-23",
      "certificateEndDate": "2026-03-21",
      "object": "A) LA CONSTRUCCIÓN DE EDIFICACIONES RESIDENCIALES DE TODO TIPO. B) LA CONSTRUCCIÓN DE EDIFICACIONES NO RESIDENCIALES DE TODO TIPO. C) LA URBANIZACIÓN DE TERRENOS AL SERVICIO DE EDIFICACIONES, RESIDENCIALES Y NO RESIDENCIALES, DE TODO TIPO. D) LA EJECUCIÓN COMPLETA O PARCIAL, POR CUENTA PROPIA O DE TERCEROS, DE TODO TIPO DE OBRAS DE NUEVA CONSTRUCCIÓN, ACONDICIONAMIENTO, MEJORA Y CONSERVACIÓN O REPARACIÓN DE CUALESQUIERA CLASE DE BIENES INMUEBLES Y/O EDIFICACIONES DE TODO TIPO, ASÍ COMO TODA CLASE DE INFRAESTRUCTURAS Y OBRAS CIVILES DE CONSTRUCCIÓN YA SEAN PÚBLICAS O PRIVADAS.",
      "mainEntityOfPage": "https://www.contratacion.euskadi.eus/webkpe00-kperoc/es/ac71aBusquedaRegistrosWar/empresa/08759",
      "_links": {
        "self": {
          "name": "OBRAS LO MAS BONITO, S. L.",
          "href": "https://api.euskadi.eus/procurements/companies/08759"
        }
      }
    },
    {
      "name": "MUÑOZ DE LA PEÑA ABOGADOS, S.L.",
      "registrationNumber": "10151",
      "identificationNumber": "B95740254",
      "address": "Calle Licenciado Poza (48011) 23, 4º DCHA",
      "location": {
        "postalCode": "48011",
        "municipality": "Bilbao",
        "county": "Bizkaia",
        "municipalityId": "020",
        "countyId": "48"
      },
      "economicActivities": [
        {
          "id": "1.841",
          "name": "Servicios jurídicos",
          "_links": {
            "self": {
              "name": "Servicios jurídicos",
              "href": "https://api.euskadi.eus/procurements/companies/economic-activities/1.841"
            }
          }
        }
      ],
      "certificateStartDate": "2025-09-23",
      "certificateEndDate": "2026-03-22",
      "object": "EL EJERCICIO DE LA ACTIVIDAD PROFESIONAL DE ADMINISTRACIONES CONCURSALES, ABOGACÍA Y AUDITORÍA Y ASESORAMIENTO FISCAL Y MERCANTIL, QUE EJERCERÁ A TRAVÉS DE PERSONAS COLEGIADAS EN EL COLEGIO PROFESIONAL CORRESPONDIENTE PARA EL EJERCICIO DE LAS MISMAS.",
      "mainEntityOfPage": "https://www.contratacion.euskadi.eus/webkpe00-kperoc/es/ac71aBusquedaRegistrosWar/empresa/10151",
      "_links": {
        "self": {
          "name": "MUÑOZ DE LA PEÑA ABOGADOS, S.L.",
          "href": "https://api.euskadi.eus/procurements/companies/10151"
        }
      }
    },
    {
      "name": "WSP SPAIN-APIA, S.A.",
      "registrationNumber": "07184",
      "identificationNumber": "A39074877",
      "address": "PCTCAN, Avda. Albert Einstein, 6",
      "location": {
        "postalCode": "39011",
        "municipality": "Santander",
        "county": "Cantabria",
        "municipalityId": "075",
        "countyId": "39"
      },
      "economicActivities": [
        {
          "id": "1.843.1",
          "name": "Servicios técnicos de ingeniería",
          "_links": {
            "self": {
              "name": "Servicios técnicos de ingeniería",
              "href": "https://api.euskadi.eus/procurements/companies/economic-activities/1.843.1"
            }
          }
        }
      ],
      "certificateStartDate": "2025-09-23",
      "certificateEndDate": "2026-03-21",
      "object": "A) EL DESARROLLO DE TODO TIPO DE ESTUDIOS Y PROYECTOS DE INGENIERÍA Y ARQUITECTURA, ASISTENCIAS TÉCNICAS Y CONTROLES DE OBRAS RELACIONADAS CON LAS OBRAS PÚBLICAS, LA EDIFICACIÓN Y EL URBANISMO, ASÍ COMO CUALQUIER OTRA ACTIVIDAD RELACIONADA CON LO ANTERIOR. B) EL ASESORAMIENTO Y ASISTENCIA A EMPRESAS PRIVADAS Y A ORGANISMOS PÚBLICOS EN MATERIA INFORMÁTICA; REALIZACIÓN DE ANÁLISIS DE NECESIDADES TANTO EN HARDWARE COMO EN SOFTWARE, ASÍ COMO DE LAS SOLUCIONES AL IMPLANTAR EN SU CASO; PROMOCIÓN, DISTRIBUCIÓN, VENTA Y MANTENIMIENTO DE TODO TIPO DE MATERIAL INFORMÁTICO, TANTO DE HARDWARE COMO SOFTWARE; ELABORACIÓN DE PROGRAMAS INFORMÁTICOS ESPECÍFICOS; SERVICIOS DE DESARROLLO Y MANTENIMIENTO DE PROGRAMAS DE ORDENADOR; SERVICIOS DE CAPTURA DE INFORMACIÓN POR MEDIOS ELECTRÓNICOS, INFORMÁTICOS Y TELEMÁTICOS. C) LA REALIZACIÓN DE LABORES DE CONSULTORÍA, ASISTENCIA TÉCNICA Y SERVICIOS DE CARÁCTER TÉCNICO, CIENTÍFICO O INTELECTUAL A PERSONAS Y ENTIDADES PÚBLICAS Y/O PRIVADAS EN RELACIÓN CON LOS SIGUIENTES CAMPOS: - ELABORACIÓN DE ESTUDIOS DE VIABILIDAD TÉCNICA, ECONÓMICA Y JURÍDICA. - ESTUDIOS DE MERCADO Y DE OPINIÓN. UTILIZACIÓN DE MÉTODOS Y TÉCNICAS DE INVESTIGACIÓN DE MERCADO Y DE MERCADOTECNIA; REALIZACIÓN DE TODO TIPO DE ENCUESTAS, TOMAS DE DATOS, INVESTIGACIÓN Y ESTUDIOS; AGENCIA DE NOTICIAS Y SERVICIOS ANÁLOGOS; ESTUDIOS Y ANÁLISIS DE MERCADO Y OPINIÓN. - ASESORAMIENTO PARA LA GESTIÓN DE BIENES PÚBLICOS O PATRIMONIOS EMPRESARIALES. - ASESORAMIENTO, PLANEAMIENTO Y DESARROLLO DE EQUIPOS Y SOLUCIONES DE PROGRAMAS DE INVESTIGACIÓN Y DESARROLLO TECNOLÓGICOS PARA LAS EMPRESAS PRIVADAS Y ORGANISMOS PÚBLICOS. - SERVICIOS DE BIBLIOTECAS, ARCHIVOS Y MUSEOS; ASÍ COMO LA REALIZACIÓN DE CUALQUIER TRABAJOS ADMINISTRATIVOS Y SERVICIOS AUXILIARES DE ARCHIVOS Y SIMILARES. - EL ASESORAMIENTO Y CONSULTORÍA EN EL CAMPO FINANCIERO, ECONÓMICO, ADMINISTRATIVO, COMERCIAL, JURÍDICO, INDUSTRIAL, INFORMÁTICO, FISCAL O SOCIAL, ESTUDIOS TÉCNICOS Y DE MERCADO, ASISTENCIA TÉCNICA, ASÍ COMO LA PRESTACIÓN DE SERVICIOS DE ASESORAMIENTO Y GESTIÓN INTEGRAL A EMPRESAS Y PARTICULARES; ESTUDIOS DE VIABILIDAD DE EMPRESAS Y NEGOCIOS; LA INTERMEDIACIÓN Y GESTIÓN EN COMPRAVENTAS Y ARRENDAMIENTOS DE TODA CLASE DE EMPRESAS, NEGOCIOS E INMUEBLES. - OTRAS ACTIVIDADES DIRECTAMENTE RELACIONADAS CON LAS ANTERIORES O COMPLEMENTARIAS DE LAS MISMAS Y EN LAS QUE TAMBIÉN PREDOMINEN LAS PRESTACIONES DE CARÁCTER INTELECTUAL",
      "mainEntityOfPage": "https://www.contratacion.euskadi.eus/webkpe00-kperoc/es/ac71aBusquedaRegistrosWar/empresa/07184",
      "_links": {
        "self": {
          "name": "WSP SPAIN-APIA, S.A.",
          "href": "https://api.euskadi.eus/procurements/companies/07184"
        }
      }
    },
    {
      "name": "EMPATH DESIGN FACTORY, S.L.",
      "registrationNumber": "09283",
      "identificationNumber": "B95873196",
      "address": "Juan de ajuriaguerra 21 4º ext izq",
      "location": {
        "postalCode": "48009",
        "municipality": "Bilbao",
        "county": "Bizkaia",
        "municipalityId": "020",
        "countyId": "48"
      },
      "economicActivities": [
        {
          "id": "1.844",
          "name": "Servicios de publicidad, relaciones públicas y similares",
          "_links": {
            "self": {
              "name": "Servicios de publicidad, relaciones públicas y similares",
              "href": "https://api.euskadi.eus/procurements/companies/economic-activities/1.844"
            }
          }
        }
      ],
      "certificateStartDate": "2025-09-23",
      "certificateEndDate": "2026-03-17",
      "classification": [
        {
          "id": "S",
          "name": "Servicios",
          "groups": [
            {
              "id": "L",
              "subgroups": [
                {
                  "id": "03",
                  "name": "Encuestas, toma de datos y servicios análogos",
                  "categories": [
                    {
                      "id": "1",
                      "name": "Desde 0 Hasta 150.000",
                      "_links": {
                        "self": {
                          "name": "Desde 0 Hasta 150.000",
                          "href": "https://api.euskadi.eus/procurements/companies/types/S/categories/1"
                        }
                      }
                    }
                  ],
                  "_links": {
                    "self": {
                      "name": "Encuestas, toma de datos y servicios análogos",
                      "href": "https://api.euskadi.eus/procurements/companies/types/S/groups/L/subgroups/03"
                    }
                  }
                }
              ],
              "_links": {
                "self": {
                  "href": "https://api.euskadi.eus/procurements/companies/types/S/groups/L"
                }
              }
            }
          ],
          "_links": {
            "self": {
              "name": "Servicios",
              "href": "https://api.euskadi.eus/procurements/companies/types/S"
            }
          }
        }
      ],
      "object": "ESTUDIOS DE MERCADO Y REALIZACIÓN DE ENCUESTAS DE OPINIÓN PÚBLICA. OTRAS ACTIVIDADES: OTROS SERVICIOS RELACIONADOS CON LAS TECNOLOGÍAS DE LA INFORMACIÓN Y LA INFORMÁTICA. OTRAS ACTIVIDADES DE CONSULTORÍA DE GESTIÓN EMPRESARIAL.",
      "mainEntityOfPage": "https://www.contratacion.euskadi.eus/webkpe00-kperoc/es/ac71aBusquedaRegistrosWar/empresa/09283",
      "_links": {
        "self": {
          "name": "EMPATH DESIGN FACTORY, S.L.",
          "href": "https://api.euskadi.eus/procurements/companies/09283"
        }
      }
    },
    {
      "name": "CALDERERIA Y SOLDADURAS SOLAN S.L.U.",
      "registrationNumber": "08481",
      "identificationNumber": "B20959318",
      "address": "POLIGONO LASTAOLA,14 - Bº EREÑOZU - NAVES ESSER",
      "location": {
        "postalCode": "20120",
        "municipality": "Hernani",
        "county": "Gipuzkoa",
        "municipalityId": "040",
        "countyId": "20"
      },
      "economicActivities": [
        {
          "id": "1.314.2",
          "name": "Fabricación de estructuras metálicas",
          "_links": {
            "self": {
              "name": "Fabricación de estructuras metálicas",
              "href": "https://api.euskadi.eus/procurements/companies/economic-activities/1.314.2"
            }
          }
        }
      ],
      "certificateStartDate": "2025-09-23",
      "certificateEndDate": "2026-03-08",
      "object": "LA CONSTRUCCION, MONTAJE Y REPARACION DE TODO TIPO DE ESTRUCTURAS. LA REALIZACIÓN DE TODO TIPO DE TRABAJOS DE SOLDADURA.",
      "mainEntityOfPage": "https://www.contratacion.euskadi.eus/webkpe00-kperoc/es/ac71aBusquedaRegistrosWar/empresa/08481",
      "_links": {
        "self": {
          "name": "CALDERERIA Y SOLDADURAS SOLAN S.L.U.",
          "href": "https://api.euskadi.eus/procurements/companies/08481"
        }
      }
    },
    {
      "name": "AUTOBUSES LA UNION S.A.",
      "registrationNumber": "04648",
      "identificationNumber": "A48944045",
      "address": "CAMINO PLAYABARRI, Nº 2",
      "location": {
        "postalCode": "48950",
        "municipality": "Erandio",
        "county": "Bizkaia",
        "municipalityId": "902",
        "countyId": "48"
      },
      "economicActivities": [
        {
          "id": "1.721.3",
          "name": "Transporte de viajeros por carretera",
          "_links": {
            "self": {
              "name": "Transporte de viajeros por carretera",
              "href": "https://api.euskadi.eus/procurements/companies/economic-activities/1.721.3"
            }
          }
        },
        {
          "id": "1.854.1",
          "name": "Alquiler de automóviles sin conductor",
          "_links": {
            "self": {
              "name": "Alquiler de automóviles sin conductor",
              "href": "https://api.euskadi.eus/procurements/companies/economic-activities/1.854.1"
            }
          }
        }
      ],
      "certificateStartDate": "2025-09-23",
      "certificateEndDate": "2026-03-15",
      "object": "A) EXPLOTACIÓN DEL NEGOCIO DE TRANSPORTE DE VIAJEROS Y MERCANCÍAS POR CARRETERA, REGULARES Y DISCRECIONALES EN ESPAÑA Y EN EL EXTRANJERO, CON VEHÍCULOS DE TRACCIÓN MECÁNICA. B) EL ESTABLECIMIENTO Y EXPLOTACIÓN DE LOCALES PARA GARAJES Y REPARACIÓN DE VEHÍCULOS DE TRACCIÓN MECÁNICA. C) EL ALQUILER DE TODO TIPO DE VEHÍCULOS Y DEMÁS MEDIOS O ELEMENTOS DE TRANSPORTE, CON O SIN CONDUCTOR",
      "mainEntityOfPage": "https://www.contratacion.euskadi.eus/webkpe00-kperoc/es/ac71aBusquedaRegistrosWar/empresa/04648",
      "_links": {
        "self": {
          "name": "AUTOBUSES LA UNION S.A.",
          "href": "https://api.euskadi.eus/procurements/companies/04648"
        }
      }
    },
    {
      "name": "ORTZADAR FUNDAZIOA - FUNDACION ORTZADAR",
      "registrationNumber": "06870",
      "identificationNumber": "G95762191",
      "address": "PLAZA LANDABASO 12 BJ IZ",
      "location": {
        "postalCode": "48015",
        "municipality": "Bilbao",
        "county": "Bizkaia",
        "municipalityId": "020",
        "countyId": "48"
      },
      "economicActivities": [
        {
          "id": "1.662.2",
          "name": "Venta al por menor de toda clase de artículos, pequeños establecimientos",
          "_links": {
            "self": {
              "name": "Venta al por menor de toda clase de artículos, pequeños establecimientos",
              "href": "https://api.euskadi.eus/procurements/companies/economic-activities/1.662.2"
            }
          }
        },
        {
          "id": "1.861.2",
          "name": "Alquiler de locales industriales y otros alquileres n.c.o.p",
          "_links": {
            "self": {
              "name": "Alquiler de locales industriales y otros alquileres n.c.o.p",
              "href": "https://api.euskadi.eus/procurements/companies/economic-activities/1.861.2"
            }
          }
        },
        {
          "id": "1.934",
          "name": "Enseñanza fuera de establecimiento permanente",
          "_links": {
            "self": {
              "name": "Enseñanza fuera de establecimiento permanente",
              "href": "https://api.euskadi.eus/procurements/companies/economic-activities/1.934"
            }
          }
        },
        {
          "id": "1.952",
          "name": "Asistencia y servicios sociales en centros no residenciales",
          "_links": {
            "self": {
              "name": "Asistencia y servicios sociales en centros no residenciales",
              "href": "https://api.euskadi.eus/procurements/companies/economic-activities/1.952"
            }
          }
        },
        {
          "id": "1.966.2",
          "name": "Parques zoológicos, jardines botánicos y similares",
          "_links": {
            "self": {
              "name": "Parques zoológicos, jardines botánicos y similares",
              "href": "https://api.euskadi.eus/procurements/companies/economic-activities/1.966.2"
            }
          }
        }
      ],
      "certificateStartDate": "2025-09-23",
      "certificateEndDate": "2026-03-07",
      "object": "PROMOVER LA EDUCACIÓN, PARTICIPACIÓN, ACTIVACIÓN Y DESARROLLO SOSTENIBLE DE LA COMUNIDAD EN EL ÁMBITO SOCIAL, CULTURAL Y AMBIENTAL EN TODAS SUS DIMENSIONES, Y EN PARTICULAR EN LA PROMOCIÓN DE LA CALIDAD DE VIDA DE LAS PERSONAS Y DE SU ENTORNO. PARA EL CUMPLIMIENTO DE ESTA FINALIDAD, LA FUNDACIÓN DESARROLLARÁ, COMO ACTIVIDADES CONCRETAS Y MÁS IMPORTANTES E INMEDIATAS, LAS SIGUIENTES: PROMOCIÓN, DESARROLLO Y COORDINACIÓN DE TODO TIPO DE INICIATIVAS Y SERVICIOS QUE CONTRIBUYAN AL ENRIQUECIMIENTO DE LA DIMENSIÓN HUMANA Y DE LA COMUNIDAD, IMPULSANDO TODO TIPO DE ACTUACIONES EN LOS ÁMBITOS SOCIAL, CULTURAL Y MEDIO AMBIENTAL, ASÍ COMO LA PROMOCIÓN, DIVULGACIÓN Y NORMALIZACIÓN DEL USO DEL EUSKERA. PROMOCIÓN Y REALIZACIÓN DE ACTIVIDADES EDUCATIVAS COMO INSTRUMENTO PARA EL DESARROLLO Y EMPODERAMIENTO PERSONAL Y COLECTIVOS. CREACIÓN Y GESTIÓN DE PROGRAMAS Y SERVICIOS DE ATENCIÓN A MENORES, PERSONAS MAYORES, MUJERES, COLECTIVOS EN SITUACIÓN DE VULNERABILIDAD SOCIAL. CREACIÓN Y/O GESTIÓN DE PROGRAMAS Y SERVICIOS QUE PROMOCIONEN LA IGUALDAD DE MUJERES Y HOMBRES, LA LUCHA CONTRA LA VIOLENCIA HACIA LAS MUJERES, Y EL EMPODERAMIENTO Y DEFENSA DE LOS DERECHOS DE LAS MUJERES. PROMOCIÓN, SISTEMATIZACIÓN Y DIVULGACIÓN DEL CONOCIMIENTO Y LAS BUENAS PRÁCTICAS EN MATERIA DE SOSTENIBILIDAD SOCIAL, CULTURAL Y AMBIENTAL A TRAVÉS DEL DESARROLLO DE CONTENIDOS, EDICIÓN Y DISTRIBUCIÓN DE PUBLICACIONES Y MEDIOS AUDIOVISUALES, Y OTRAS ACTIVIDADES DE DIFUSIÓN. DISEÑO, CREACIÓN E IMPLANTACIÓN, DIRECTAMENTE O A TRAVÉS DE TERCEROS, DE CAMPAÑAS DE SENSIBILIZACIÓN, ORGANIZACIÓN DE EVENTOS, QUE PUEDAN INCIDIR FAVORABLEMENTE EN LOS COMPORTAMIENTOS Y HÁBITOS SOCIALES DE LAS PERSONAS YDE SU COMUNIDAD, EN ARAS A LA MEJORA DE LA SOSTENIBILIDAD SOCIAL, CULTURAL Y MEDIO AMBIENTAL. FOMENTO Y DESARROLLO DE ACTIVIDADES DE FORMACIÓN, ORGANIZACIÓN DE JORNADAS, CONGRESOS, ENCUENTROS, INTERCAMBIOS Y TALLERES TEÓRICOS-PRÁCTICOS RELACIONADOS CON LOS FINES DE LA FUNDACIÓN. REALIZACIÓN DE ESTUDIOS DE INVESTIGACIÓN Y PROYECTOS DE INNOVACIÓN RELACIONADOS CON LOS FINES DE LA FUNDACIÓN. CREACIÓN, ORGANIZACIÓN Y GESTIÓN, DIRECTAMENTE O A TRAVÉS DE TERCEROS, DE EQUIPAMIENTOS CULTURALES Y MEDIO AMBIENTALES, CENTROS DE CARÁCTER SOCIAL ABIERTOS O CERRADOS, VIVIENDAS TUTELADAS POR LA FUNDACIÓN, ASÍCOMO CUALQUIER OTRA MODALIDAD DE CENTRO QUE ESTÉ RELACIONADO CON LOS FINES DE LA FUNDACIÓN. CREACIÓN, ORGANIZACIÓN Y/O GESTIÓN DE PARQUES NATURALES, PARQUES BOTÁNICOS, PARQUES DE ACOGIDA Y RECUPERACIÓN DE FAUNA SILVESTRE, Y OTROS DE CARÁCTERÍSTICAS SIMILARES, CON LA FINALIDAD DE EDUCAR Y SENSIBILIZAR EN LA PROTECCIÓN DE LA BIODIVERSIDAD Y LA SOSTENIBILIDAD MEDIOAMBIENTAL. CREACIÓN, ORGANIZACIÓN Y/O GESTIÓN DE BIENES DECLARADOS DE INTERÉS CULTURAL, ASÍ COMO DE MUSEOS, BIBLIOTECAS, ARCHIVOS Y CENTROS DE DOCUMENTACIÓN. ESTABLECIMIENTO DE CONVENIOS DE COLABORACIÓN CON INSTITUCIONES PÚBLICAS Y PRIVADAS, ADMINISTRACIONES Y EMPRESAS, TANTO INTERNACIONALES COMO NACIONALES, COMO AUTONÓMICAS Y LOCALES, PARA LA OBTENCIÓN DE RECURSOS DE TODA ÍNDOLE QUE POSIBILITEN EL CUMPLIMIENTO DE LOS FINES DE LA FUNDACIÓN. PROMOCIÓN, ORGANIZACIÓN, COOPERACIÓN Y PARTICIPACIÓN EN TODO TIPO DE ORGANIZACIONES QUE TENGAN EL OBJETO SOCIAL IGUAL, SIMILAR, COMPLEMENTARIO O COMPATIBLE CON EL DE LA FUNDACIÓN. ASÍ COMO EJECUTAR ACCIONES EN COORDINACIÓN CON OTRAS ENTIDADES PÚBLICAS O PRIVADAS, NE LA COMUNIDAD AUTÓNOMA DEL PAÍS VASCO, NACIONALES O EXTRANJERAS QUE PERSIGAN IGUAL O SIMILARES OBJETIVOS",
      "mainEntityOfPage": "https://www.contratacion.euskadi.eus/webkpe00-kperoc/es/ac71aBusquedaRegistrosWar/empresa/06870",
      "_links": {
        "self": {
          "name": "ORTZADAR FUNDAZIOA - FUNDACION ORTZADAR",
          "href": "https://api.euskadi.eus/procurements/companies/06870"
        }
      }
    }
  ]
}