{
  "totalItems": 9042,
  "totalPages": 905,
  "currentPage": 806,
  "itemsOfPage": 10,
  "items": [
    {
      "name": "CONSTRUCCIÓN Y GESTIÓN INTEGRAL DE OBRAS Y REFORMAS, GESCON, S.L.",
      "registrationNumber": "02103",
      "identificationNumber": "B01167071",
      "address": "C/ FUENTE DE LA SALUD, Nº 9 - BAJO",
      "location": {
        "postalCode": "01003",
        "municipality": "Vitoria-Gasteiz",
        "county": "Araba/Álava",
        "municipalityId": "059",
        "countyId": "01"
      },
      "economicActivities": [
        {
          "id": "1.501.1",
          "name": "Construcción completa, reparación y conservación de edificaciones",
          "_links": {
            "self": {
              "name": "Construcción completa, reparación y conservación de edificaciones",
              "href": "https://api.euskadi.eus/procurements/companies/economic-activities/1.501.1"
            }
          }
        }
      ],
      "certificateStartDate": "2002-10-29",
      "certificateEndDate": "2003-04-09",
      "object": "\r\na) LA CONSTRUCCIÓN COMPLETA, REPARACIÓN Y CONSERVACIÓN DE EDIFICACIONES URBANAS, INDUSTRIALES Y URBANIZACIONES, SANEAMIENTO Y ABASTECIMIENTO DE AGUAS, MOVIMIENTOS DE TIERRAS, CONSTRUCCIÓN DE CARRETERAS, OBRAS HIDRÁULICAS Y DE RIEGOS, OBRAS DE ALBAÑILERÍA, EXCAVACIONES, DEMOLICIONES Y DERRIBOS, CONSOLIDACIÓN Y PREPARACIÓN DE TERRENOS, CIMENTACIÓN Y PAVIMENTACIÓN DE CUALQUIER CLASE, PREPARACIÓN Y MONTAJE DE CUALQUIER TIPO DE ESTRUCTURAS (INCLUSO GRÚA), Y CUBIERTAS DE HORMIGÓN EN MASA, ARMADO Y PRETENSADO.\r\nb) LA PROMOCIÓN INMOBILIARIA DE LAS OBRAS REALIZADAS POR ESTA EMPRESA ASÍ COMO LAS REALIZADAS POR OTRAS CONSTRUCTORAS",
      "mainEntityOfPage": "https://www.contratacion.euskadi.eus/webkpe00-kperoc/es/ac71aBusquedaRegistrosWar/empresa/02103",
      "_links": {
        "self": {
          "name": "CONSTRUCCIÓN Y GESTIÓN INTEGRAL DE OBRAS Y REFORMAS, GESCON, S.L.",
          "href": "https://api.euskadi.eus/procurements/companies/02103"
        }
      }
    },
    {
      "name": "J.T.A. ASOCIADOS, S.A.",
      "registrationNumber": "02159",
      "identificationNumber": "A81312514",
      "address": "C/ ALBERTO ALCOCER, Nº 24 - 7ª PLANTA.",
      "location": {
        "postalCode": "28036",
        "municipality": "Madrid",
        "county": "Madrid",
        "municipalityId": "079",
        "countyId": "28"
      },
      "economicActivities": [
        {
          "id": "1.845",
          "name": "Explotación electrónica por cuenta de terceros",
          "_links": {
            "self": {
              "name": "Explotación electrónica por cuenta de terceros",
              "href": "https://api.euskadi.eus/procurements/companies/economic-activities/1.845"
            }
          }
        }
      ],
      "certificateStartDate": "2002-10-22",
      "certificateEndDate": "2003-04-10",
      "object": "LA REALIZACIÓN DE CUALQUIER ACTIVIDAD DIRECTA O INDIRECTAMENTE RELACIONADA CON LA CONSULTORÍA, LA FORMACIÓN, LA INFORMACIÓN, LAS COMUNICACIONES Y LA SEGURIDAD, CON SUS TECNOLOGÍAS Y PRODUCTOS, EJERCITANDO LAS SIGUIENTES ACTIVIDADES:\r\n\r\na) ASESORÍA, CONSULTORÍA, CONCEPCIÓN, DISEÑO, DESARROLLO, FORMACIÓN, IMPLANTACIÓN, EXPLOTACIÓN Y MANTENIMIENTO DE SISTEMAS DE INFORMACIÓN, COMUNICACIÓN Y SEGURIDAD.\r\n\r\nb) REALIZACIÓN DE ACTIVIDADES DE ENSEÑANZA Y FORMACIÓN EN EL CAMPO DE LA INFORMÁTICA, LAS TELECOMUNICACIONES Y LA SEGURIDAD. ASÍ COMO EN EL CAMPO DE LAS TÉCNICAS DE DIRECCIÓN, NEGOCIACIÓN, VENTAS Y SIMILARES MEDIANTE LA ORGANIZACIÓN DE CURSOS, CONVENCIONES, SEMINARIOS, CHARLAS, CONFERENCIAS Y, EN GENERAL, CUALQUIER ACTIVIDAD FORMATIVA O EDUCACIONAL. EDICIÓN, PUBLICACIÓN Y COMERCIALIZACIÓN DE OBRAS CUYO CONTENIDO ESTÉ RELACIONADO CON LAS MATERIAS PRECITADAS.\r\n\r\nc) DISEÑO, DESARROLLO Y COMERCIALIZACIÓN DE SISTEMAS EXPERTOS O INTEGRADOS, COMPRENDIENDO LA MICROINFORMÁTICA, ROBÓTICA, BURÓTICA, OFIMÁTICA, ASÍ COMO LA CONCEPCIÓN, DISEÑO Y FABRICACIÓN ASISTIDA POR ORDENADOR Y, EN GENERAL, EL TRATAMIENTO DE DATOS, IMAGEN Y SONIDO MEDIANTE TÉCNICAS INFORMÁTICAS.\r\n\r\nd) PRESTACIÓN DE SERVICIOS DE INFORMACIÓN, PROCESO DE DATOS, OUTSOURCING Y ASISTENCIA EN EL ÁREA INFORMÁTICA, DE LAS TELECOMUNICACIONES, DE LAS AUTOPISTAS DE LA INFORMACIÓN, DE LA SEGURIDAD Y DE LAS ÁREAS FUNCIONALES DE UNA ORGANIZACIÓN.\r\n\r\ne) COMERCIALIZACIÓN Y DISTRIBUCIÓN DE PRODUCTOS HARDWARE Y SOFTWARE, PROPIOS O AJENOS, CON LOS SERVICIOS CORRESPONDIENTES.\r\n\r\nf) COLABORACIÓN TÉCNICA Y COMERCIAL, DIRECTA O INDIRECTA, CON OTRAS ORGANIZACIONES EN LOS CAMPOS MENCIONADOS.\r\n\r\ng) Y, EN GENERAL, LA PRESTACIÓN DE SERVICIOS DE PROFESIONALES DE CONSULTORÍA, FORMACIÓN, TECNOLOGÍAS DE INFORMACIÓN, DE LA COMUNICACIÓN Y DE LA SEGURIDAD Y LA COMERCIALIZACIÓN Y DISTRIBUCIÓN DE LOS PRODUCTOS Y TECNOLOGÍAS CONCERNIENTES",
      "mainEntityOfPage": "https://www.contratacion.euskadi.eus/webkpe00-kperoc/es/ac71aBusquedaRegistrosWar/empresa/02159",
      "_links": {
        "self": {
          "name": "J.T.A. ASOCIADOS, S.A.",
          "href": "https://api.euskadi.eus/procurements/companies/02159"
        }
      }
    },
    {
      "name": "OKETA, S.L.",
      "registrationNumber": "00994",
      "identificationNumber": "B48239925",
      "address": "C/ FONTECHA Y SALAZAR, Nº 9 - 4º.",
      "location": {
        "postalCode": "48007",
        "municipality": "Bilbao",
        "county": "Bizkaia",
        "municipalityId": "020",
        "countyId": "48"
      },
      "economicActivities": [
        {
          "id": "1.849.4",
          "name": "Servicios de custodia, seguridad y protección",
          "_links": {
            "self": {
              "name": "Servicios de custodia, seguridad y protección",
              "href": "https://api.euskadi.eus/procurements/companies/economic-activities/1.849.4"
            }
          }
        }
      ],
      "certificateStartDate": "2002-10-18",
      "certificateEndDate": "2003-03-12",
      "object": "LA PRESTACIÓN Y DESARROLLO DE LOS SERVICIOS DE VIGILANCIA Y PROTECCIÓN DE BIENES, ESTABLECIMIENTOS, ESPECTÁCULOS, CERTÁMENES O CONVENCIONES. LA INSTALACIÓN Y MANTENIMIENTO DE APARATOS DISPOSITIVOS Y SISTEMAS DE SEGURIDAD. LA EXPLOTACIÓN DE CENTRALES PARA LA RECEPCIÓN, VERIFICACIÓN Y TRANSMISIÓN DE SEÑALES DE ALARMA Y SU COMUNICACIÓN A LAS FUERZAS Y CUERPOS DE SEGURIDAD, ASÍ COMO PRESTACIÓN DE SERVICIOS DE RESPUESTA CUYA REALIZACIÓN NO SEA DE LA COMPETENCIA DE DICHAS FUERZAS Y CUERPOS. LA PLANIFICACIÓN Y ASESORAMIENTO DE LAS ACTIVIDADES DE SEGURIDAD CONTEMPLADAS EN LA LEY 23/1992 DE 30 DE JULIO, DE SEGURIDAD PRIVADA",
      "mainEntityOfPage": "https://www.contratacion.euskadi.eus/webkpe00-kperoc/es/ac71aBusquedaRegistrosWar/empresa/00994",
      "_links": {
        "self": {
          "name": "OKETA, S.L.",
          "href": "https://api.euskadi.eus/procurements/companies/00994"
        }
      }
    },
    {
      "name": "PEDRO MANUEL ELCINTO RUIZ",
      "registrationNumber": "02514",
      "identificationNumber": "14506312M",
      "address": "TROBIKA, 10- BAJO",
      "location": {
        "postalCode": "48100",
        "municipality": "Bilbao",
        "county": "Bizkaia",
        "municipalityId": "020",
        "countyId": "48"
      },
      "economicActivities": [
        {
          "id": "1.653.9",
          "name": "Venta al por menor de otros artículos para el equipamiento del hogar",
          "_links": {
            "self": {
              "name": "Venta al por menor de otros artículos para el equipamiento del hogar",
              "href": "https://api.euskadi.eus/procurements/companies/economic-activities/1.653.9"
            }
          }
        }
      ],
      "certificateStartDate": "2002-10-01",
      "certificateEndDate": "2003-03-09",
      "object": "EL COMERCIO MENOR DE ARTÍCULOS PARA EL EQUIPAMIENTO DEL HOGAR; CONFECCIÓN DE VISILLOS, CORTINAS; COLOCACIÓN DE ALFOMBRAS, MOQUETAS; REVESTIMIENTO DE SUELOS Y PAREDES; TERMINACIÓN Y DECORACION DE EDIFICIOS Y LOCALES ",
      "mainEntityOfPage": "https://www.contratacion.euskadi.eus/webkpe00-kperoc/es/ac71aBusquedaRegistrosWar/empresa/02514",
      "_links": {
        "self": {
          "name": "PEDRO MANUEL ELCINTO RUIZ",
          "href": "https://api.euskadi.eus/procurements/companies/02514"
        }
      }
    },
    {
      "name": "THE KARMA SYNDICATE, S.L.",
      "registrationNumber": "02568",
      "identificationNumber": "B48983985",
      "address": "C/ LUIS IRUARRIZAGA, Nº 5. ENTREPLANTA CENTRO",
      "location": {
        "postalCode": "48003",
        "municipality": "Bilbao",
        "county": "Bizkaia",
        "municipalityId": "020",
        "countyId": "48"
      },
      "economicActivities": [
        {
          "id": "1.476.2",
          "name": "Edición de periódicos y revistas",
          "_links": {
            "self": {
              "name": "Edición de periódicos y revistas",
              "href": "https://api.euskadi.eus/procurements/companies/economic-activities/1.476.2"
            }
          }
        }
      ],
      "certificateStartDate": "2002-09-25",
      "certificateEndDate": "2003-03-10",
      "object": "LA EDICIÓN DE PERIÓDICOS, REVISTAS Y EVENTUALMENTE LA PREPARACIÓN DE MATERIALES AUDIOVISUALES ASÍ COMO LA CELEBRACIÓN DE CURSOS, CONFERENCIAS Y SEMINARIOS ",
      "mainEntityOfPage": "https://www.contratacion.euskadi.eus/webkpe00-kperoc/es/ac71aBusquedaRegistrosWar/empresa/02568",
      "_links": {
        "self": {
          "name": "THE KARMA SYNDICATE, S.L.",
          "href": "https://api.euskadi.eus/procurements/companies/02568"
        }
      }
    },
    {
      "name": "PROMOCIONES INMOBILIARIAS AKETXE, S.A.",
      "registrationNumber": "01301",
      "identificationNumber": "A48270037",
      "address": "Bº ALDEBARRENA, S/N",
      "location": {
        "postalCode": "48212",
        "municipality": "Mañaria",
        "county": "Bizkaia",
        "municipalityId": "059",
        "countyId": "48"
      },
      "economicActivities": [
        {
          "id": "1.501.1",
          "name": "Construcción completa, reparación y conservación de edificaciones",
          "_links": {
            "self": {
              "name": "Construcción completa, reparación y conservación de edificaciones",
              "href": "https://api.euskadi.eus/procurements/companies/economic-activities/1.501.1"
            }
          }
        },
        {
          "id": "1.833.2",
          "name": "Promoción de edificaciones",
          "_links": {
            "self": {
              "name": "Promoción de edificaciones",
              "href": "https://api.euskadi.eus/procurements/companies/economic-activities/1.833.2"
            }
          }
        }
      ],
      "certificateStartDate": "2002-09-16",
      "certificateEndDate": "2003-03-09",
      "object": "LA CONSTRUCCIÓN Y PROMOCIÓN DE OBRAS NUEVAS URBANAS, INDUSTRIALES Y URBANIZACIÓN DE TERRENOS Y CONSTRUCCIÓN DE SANEAMIENTOS; MOVIMIENTOS DE TIERRA Y ASIMILADOS",
      "mainEntityOfPage": "https://www.contratacion.euskadi.eus/webkpe00-kperoc/es/ac71aBusquedaRegistrosWar/empresa/01301",
      "_links": {
        "self": {
          "name": "PROMOCIONES INMOBILIARIAS AKETXE, S.A.",
          "href": "https://api.euskadi.eus/procurements/companies/01301"
        }
      }
    },
    {
      "name": "B. BRAUN-DEXON, S.A.",
      "registrationNumber": "00372",
      "identificationNumber": "A08603953",
      "address": "C/ MARTÍ I JULIÁ, Nº 6 y 8.",
      "location": {
        "postalCode": "08034",
        "municipality": "Barcelona",
        "county": "Barcelona",
        "municipalityId": "019",
        "countyId": "08"
      },
      "economicActivities": [
        {
          "id": "1.614.2",
          "name": "Venta al por mayor de productos de perfumería, droguería, higiene y belleza",
          "_links": {
            "self": {
              "name": "Venta al por mayor de productos de perfumería, droguería, higiene y belleza",
              "href": "https://api.euskadi.eus/procurements/companies/economic-activities/1.614.2"
            }
          }
        },
        {
          "id": "1.619.2",
          "name": "Venta al por mayor de aparatos e instrumentos médicos, ortopédicos, ópticos",
          "_links": {
            "self": {
              "name": "Venta al por mayor de aparatos e instrumentos médicos, ortopédicos, ópticos",
              "href": "https://api.euskadi.eus/procurements/companies/economic-activities/1.619.2"
            }
          }
        }
      ],
      "certificateStartDate": "2002-09-10",
      "certificateEndDate": "2003-01-26",
      "object": "LA PROMOCIÓN, VENTA, DISTRIBUCIÓN, IMPORTACIÓN, EXPORTACIÓN, COMERCIO EN GENERAL, ASÍ COMO FABRICACIÓN DE SUTURAS QUIRÚRGICAS Y, EN GENERAL, DE TODA CLASE DE PRODUCTOS Y SERVICIOS DESTINADOS A LA MEDICINA HOSPITALARIA",
      "mainEntityOfPage": "https://www.contratacion.euskadi.eus/webkpe00-kperoc/es/ac71aBusquedaRegistrosWar/empresa/00372",
      "_links": {
        "self": {
          "name": "B. BRAUN-DEXON, S.A.",
          "href": "https://api.euskadi.eus/procurements/companies/00372"
        }
      }
    },
    {
      "name": "ESTRATEGIA DE IMAGEN Y COMUNICACIÓN CONSULTING INTERVENCIÓN, S.A.",
      "registrationNumber": "01484",
      "identificationNumber": "A48476378",
      "address": "C/ ELCANO, Nº 7 - PRAL. IZDA.",
      "location": {
        "postalCode": "48011",
        "municipality": "Bilbao",
        "county": "Bizkaia",
        "municipalityId": "020",
        "countyId": "48"
      },
      "economicActivities": [
        {
          "id": "1.844",
          "name": "Servicios de publicidad, relaciones públicas y similares",
          "_links": {
            "self": {
              "name": "Servicios de publicidad, relaciones públicas y similares",
              "href": "https://api.euskadi.eus/procurements/companies/economic-activities/1.844"
            }
          }
        }
      ],
      "certificateStartDate": "2002-08-30",
      "certificateEndDate": "2003-02-07",
      "object": "PROYECTAR, EJERCITAR O DISTRIBUIR CAMPAÑAS DE PUBLICIDAD A TRAVÉS DE CUALQUIER MEDIO DE DIFUSIÓN; LA REALIZACIÓN Y PRESTACIÓN DE SERVICIOS DE PUBLICIDAD E IMAGEN DE TODA CLASE DE PRODUCTOS, EMPRESAS Y ACTIVIDADES EN CUALQUIER MEDIO DE DIFUSIÓN O POR CUALQUIER OTRO PROCEDIMIENTO, AISLADAMENTE O EN EXCLUSIVA, DIRECTAMENTE POR SI O INDIRECTAMENTE A TRAVÉS DE TERCEROS. PROPORCIONAR TODA CLASE DE ASISTENCIA TÉCNICA COMPLETA EN MATERIA DE INVESTIGACIÓN DE MERCADOS, PROMOCIÓN DE VENTAS, ASESORAMIENTO SOBRE LOS MEDIOS DE DIFUSIÓN, CONTROL SOBRE EL DESARROLLO Y RESULTADO DE CAMPAÑAS",
      "mainEntityOfPage": "https://www.contratacion.euskadi.eus/webkpe00-kperoc/es/ac71aBusquedaRegistrosWar/empresa/01484",
      "_links": {
        "self": {
          "name": "ESTRATEGIA DE IMAGEN Y COMUNICACIÓN CONSULTING INTERVENCIÓN, S.A.",
          "href": "https://api.euskadi.eus/procurements/companies/01484"
        }
      }
    },
    {
      "name": "AVENIDA DIGITAL INTERACTIVA, S.A.",
      "registrationNumber": "02555",
      "identificationNumber": "A01293711",
      "address": "C/ ALBERT EINSTEIN, 40 EDIFICIO ATLAS-PARQUE TECNOLÓGICO",
      "location": {
        "postalCode": "01510",
        "municipality": "Vitoria-Gasteiz",
        "county": "Araba/Álava",
        "municipalityId": "059",
        "countyId": "01"
      },
      "economicActivities": [
        {
          "id": "1.845",
          "name": "Explotación electrónica por cuenta de terceros",
          "_links": {
            "self": {
              "name": "Explotación electrónica por cuenta de terceros",
              "href": "https://api.euskadi.eus/procurements/companies/economic-activities/1.845"
            }
          }
        }
      ],
      "certificateStartDate": "2002-08-28",
      "certificateEndDate": "2002-12-20",
      "object": "A) LA REALIZACIÓN, GESTIÓN Y EXPLOTACIÓN DE NEGOCIOS VIRTUALES, INFORMÁTICOS Y ELECTRÓNICOS A TRAVÉS DE NUEVAS TECNOLOGÍAS, YA INVENTADOS O POR INVENTAR.\r\nB) ASESORÍA Y CONSULTORÍA  EN LA APLICACIÓN DE NUEVAS TECNOLOGÍAS Y DESARROLLO DE PROGRAMDAS Y APLICACIONES INFORMÁTICAS RELATIVAS AL ACCESO A LOS RECURSOS DE REDES TELEMÁTICAS.\r\nC) LA PRESTACIÓN DE SERVICIOS DE COMERCIO ELECTRÓNICO, PÁGINAS \"WEB\" Y CUALESQUIERA OTROS EXISTENTES O QUE SE CREEN EN EL FUTURO EN INTERNET O EN OTRAS REDES INFORMÁTICAS. \r\n\r\nLA SOCIEDAD PODRÁ DESARROLLAR SU OBJETO SOCIAL, TOTAL O PARCIALMENTE DE MODO INDIRECTO, MEDIANTE LA TITULARIDAD DE ACCIONES O PARTICIPACIONES EN SOCIEDADES DE OBJETO IDÉNTICO O ANÁLOGO.\r\n\r\nSI LAS DISPOSICIONES LEGALES EXIGIESEN PARA EL EJERCICIO DE ALGUNAS DE LAS ACTIVIDADES COMPRENDIDAS EN EL OBJETO SOCIAL ALGÚN TÍTULO PROFESIONAL  O AUTORIZACIÓN ADMINISTRATIVA, CAPITAL MÍNIMO O LA INSCRIPCIÓN EN REGISTROS PÚBLICOS, DICHAS ACTIVIDADES DEBERÁN REALIZARSE POR MEDIO DE PERSONAS QUE OSTENTEN LA TITULACIÓN REQUERIDA Y, EN SU CASO, NO SE ENTENDERÁN INCLUIDAS EN EL OBJETO SOCIAL MIENTRAS NO SE HAYAN CUMPLIDO LOS REQUISITOS ADMINISTRATIVOS EXIGIDOS.",
      "mainEntityOfPage": "https://www.contratacion.euskadi.eus/webkpe00-kperoc/es/ac71aBusquedaRegistrosWar/empresa/02555",
      "_links": {
        "self": {
          "name": "AVENIDA DIGITAL INTERACTIVA, S.A.",
          "href": "https://api.euskadi.eus/procurements/companies/02555"
        }
      }
    },
    {
      "name": "OBRAS Y PREPARACIÓN DE TERRENOS, S.L.",
      "registrationNumber": "01655",
      "identificationNumber": "B31284805",
      "address": "C/ MAYOR, Nº 17.",
      "location": {
        "postalCode": "31740",
        "municipality": "Doneztebe/Santesteban",
        "county": "Navarra",
        "municipalityId": "221",
        "countyId": "31"
      },
      "economicActivities": [
        {
          "id": "1.507",
          "name": "Construcción, reparación y conservación de toda clase obras",
          "_links": {
            "self": {
              "name": "Construcción, reparación y conservación de toda clase obras",
              "href": "https://api.euskadi.eus/procurements/companies/economic-activities/1.507"
            }
          }
        },
        {
          "id": "1.922.1",
          "name": "Servicios de limpieza de interiores",
          "_links": {
            "self": {
              "name": "Servicios de limpieza de interiores",
              "href": "https://api.euskadi.eus/procurements/companies/economic-activities/1.922.1"
            }
          }
        }
      ],
      "certificateStartDate": "2002-08-23",
      "certificateEndDate": "2003-02-21",
      "object": "LA REALIZACIÓN DE TODA CLASE DE OBRAS Y TRABAJOS DE CONSOLIDACIÓN Y PREPARACIÓN DE TERRENOS, DEMOLICIONES, PERFORACIONES, CIMENTACIONES, PAVIMENTACIONES Y DRAGADOS; LA CONSTRUCCIÓN DE CARRETERAS, FERROCARRILES, OBRAS HIDRÁULICAS Y RIEGOS",
      "mainEntityOfPage": "https://www.contratacion.euskadi.eus/webkpe00-kperoc/es/ac71aBusquedaRegistrosWar/empresa/01655",
      "_links": {
        "self": {
          "name": "OBRAS Y PREPARACIÓN DE TERRENOS, S.L.",
          "href": "https://api.euskadi.eus/procurements/companies/01655"
        }
      }
    }
  ]
}