{
  "totalItems": 9042,
  "totalPages": 905,
  "currentPage": 426,
  "itemsOfPage": 10,
  "items": [
    {
      "name": "ALIANZO NETWORKS ,S.L.",
      "registrationNumber": "04687",
      "identificationNumber": "B95328985",
      "address": "Avenida Altos Hornos, 33",
      "location": {
        "postalCode": "48902",
        "municipality": "Barakaldo",
        "county": "Bizkaia",
        "municipalityId": "013",
        "countyId": "48"
      },
      "economicActivities": [
        {
          "id": "1.845",
          "name": "Explotación electrónica por cuenta de terceros",
          "_links": {
            "self": {
              "name": "Explotación electrónica por cuenta de terceros",
              "href": "https://api.euskadi.eus/procurements/companies/economic-activities/1.845"
            }
          }
        },
        {
          "id": "1.932.1",
          "name": "Enseñanza de formación y perfeccionamiento profesional no superior",
          "_links": {
            "self": {
              "name": "Enseñanza de formación y perfeccionamiento profesional no superior",
              "href": "https://api.euskadi.eus/procurements/companies/economic-activities/1.932.1"
            }
          }
        }
      ],
      "certificateStartDate": "2024-04-26",
      "certificateEndDate": "2024-10-25",
      "object": "DESARROLLO Y EXPLOTACIÓN COMERCIAL DE SERVICIOS Y PRODUCTOS A TRAVÉS DE INTERNET, INTRANET O EXTRANET",
      "mainEntityOfPage": "https://www.contratacion.euskadi.eus/webkpe00-kperoc/es/ac71aBusquedaRegistrosWar/empresa/04687",
      "_links": {
        "self": {
          "name": "ALIANZO NETWORKS ,S.L.",
          "href": "https://api.euskadi.eus/procurements/companies/04687"
        }
      }
    },
    {
      "name": "MATCHPOINT TELECOM, S.L.",
      "registrationNumber": "09018",
      "identificationNumber": "B16742496",
      "address": "Paseo/Bera Bera, nº 80, 1ºdcha",
      "location": {
        "postalCode": "20009",
        "municipality": "Donostia / San Sebastián",
        "county": "Gipuzkoa",
        "municipalityId": "069",
        "countyId": "20"
      },
      "economicActivities": [
        {
          "id": "1.847",
          "name": "Servicios de consultoría",
          "_links": {
            "self": {
              "name": "Servicios de consultoría",
              "href": "https://api.euskadi.eus/procurements/companies/economic-activities/1.847"
            }
          }
        }
      ],
      "certificateStartDate": "2024-04-25",
      "certificateEndDate": "2024-10-19",
      "object": "CONSULTORÍA Y SERVICIOS INDEPENDIENTES DE CUALQUIER FABRICANTE Y ESPECIALIZADA EN APORTAR MEJORAS, EFICIENCIAS Y CONTROL SOBRE LOS COSTES Y SERVICIOS TIC (TECNOLOGÍAS DE LA INFORMACIÓN Y LAS COMUNICACIONES). DENTRO DE LAS TIC LAS LÍNEAS DE ACTIVIDAD PRINCIPALES SON EL LICENCIAMIENTO DE SOFTWARE, LOS CONTRATOS DE OUTSOURCING TIC Y LOS SERVICIOS DE TELECOMUNICACIONES.",
      "mainEntityOfPage": "https://www.contratacion.euskadi.eus/webkpe00-kperoc/es/ac71aBusquedaRegistrosWar/empresa/09018",
      "_links": {
        "self": {
          "name": "MATCHPOINT TELECOM, S.L.",
          "href": "https://api.euskadi.eus/procurements/companies/09018"
        }
      }
    },
    {
      "name": "MELSIS FERNANDEZ GARCIA",
      "registrationNumber": "09302",
      "identificationNumber": "79297886G",
      "address": "C/ PADURA, 8",
      "location": {
        "postalCode": "01408",
        "municipality": "Ayala/Aiara",
        "county": "Araba/Álava",
        "municipalityId": "010",
        "countyId": "01"
      },
      "economicActivities": [
        {
          "id": "1.922",
          "name": "Servicios de limpieza",
          "_links": {
            "self": {
              "name": "Servicios de limpieza",
              "href": "https://api.euskadi.eus/procurements/companies/economic-activities/1.922"
            }
          }
        }
      ],
      "certificateStartDate": "2024-04-24",
      "certificateEndDate": "2024-10-24",
      "object": "SERVICIOS DE LIMPIEZA",
      "mainEntityOfPage": "https://www.contratacion.euskadi.eus/webkpe00-kperoc/es/ac71aBusquedaRegistrosWar/empresa/09302",
      "_links": {
        "self": {
          "name": "MELSIS FERNANDEZ GARCIA",
          "href": "https://api.euskadi.eus/procurements/companies/09302"
        }
      }
    },
    {
      "name": "SUGAR ON TOP, S.L.",
      "registrationNumber": "09294",
      "identificationNumber": "B09868209",
      "address": "Fernando el Católico 23",
      "location": {
        "postalCode": "28015",
        "municipality": "Madrid",
        "county": "Madrid",
        "municipalityId": "079",
        "countyId": "28"
      },
      "economicActivities": [
        {
          "id": "1.844",
          "name": "Servicios de publicidad, relaciones públicas y similares",
          "_links": {
            "self": {
              "name": "Servicios de publicidad, relaciones públicas y similares",
              "href": "https://api.euskadi.eus/procurements/companies/economic-activities/1.844"
            }
          }
        }
      ],
      "certificateStartDate": "2024-04-24",
      "certificateEndDate": "2024-10-24",
      "object": "ACTIVIDAD PRINCIPAL: 7311 AGENCIAS DE PUBLICIDAD. OTRAS ACTIVIDADES: 7312 SERVICIOS DE REPRESENTACIÓN DE MEDIOS DE COMUNICACIÓN. 6202 ACTIVIDADES DE CONSULTORÍA INFORMÁTICA. 6201 ACTIVIDADES DE PROGRAMACIÓN INFORMÁTICA.",
      "mainEntityOfPage": "https://www.contratacion.euskadi.eus/webkpe00-kperoc/es/ac71aBusquedaRegistrosWar/empresa/09294",
      "_links": {
        "self": {
          "name": "SUGAR ON TOP, S.L.",
          "href": "https://api.euskadi.eus/procurements/companies/09294"
        }
      }
    },
    {
      "name": "AIRMEDICAL PRODUCTS SL",
      "registrationNumber": "06076",
      "identificationNumber": "B86081429",
      "address": "Calle Sancho Dávila, número 21, Bajo 3",
      "location": {
        "postalCode": "28028",
        "municipality": "Madrid",
        "county": "Madrid",
        "municipalityId": "079",
        "countyId": "28"
      },
      "economicActivities": [
        {
          "id": "1.614.1",
          "name": "Venta al por mayor de productos farmacéuticos y medicamentos",
          "_links": {
            "self": {
              "name": "Venta al por mayor de productos farmacéuticos y medicamentos",
              "href": "https://api.euskadi.eus/procurements/companies/economic-activities/1.614.1"
            }
          }
        }
      ],
      "certificateStartDate": "2024-04-23",
      "certificateEndDate": "2024-10-21",
      "object": "COMPRA, VENTA, IMPORTACIÓN, EXPORTACIÓN Y FABRICACIÓN DE APARATOS Y PRODUCTOS UTILIZABLES EN EL CAMPO MÉDICO Y DE LABORATORIO INDUSTRIAL",
      "mainEntityOfPage": "https://www.contratacion.euskadi.eus/webkpe00-kperoc/es/ac71aBusquedaRegistrosWar/empresa/06076",
      "_links": {
        "self": {
          "name": "AIRMEDICAL PRODUCTS SL",
          "href": "https://api.euskadi.eus/procurements/companies/06076"
        }
      }
    },
    {
      "name": "VALIDACIONES TECNICAS S.L.",
      "registrationNumber": "09078",
      "identificationNumber": "B95416251",
      "address": "DR. DIAZ EMPARANZA, 39A-2º",
      "location": {
        "postalCode": "48002",
        "municipality": "Bilbao",
        "county": "Bizkaia",
        "municipalityId": "020",
        "countyId": "48"
      },
      "economicActivities": [
        {
          "id": "1.843.1",
          "name": "Servicios técnicos de ingeniería",
          "_links": {
            "self": {
              "name": "Servicios técnicos de ingeniería",
              "href": "https://api.euskadi.eus/procurements/companies/economic-activities/1.843.1"
            }
          }
        }
      ],
      "certificateStartDate": "2024-04-23",
      "certificateEndDate": "2024-10-23",
      "object": "1.- SERVICIOS DE ASESORAMIENTO, CONSULTORÍA, VALIDACIÓN DE PROCESOS, CERTIFICACIONES DE CUMPLIMIENTO DE NORMAS, AUDITORIAS DE PROCESOS E INSTALACIONES E INGENIERÍA DE PLANTAS INDUSTRIALES. 2.- AQUIRIR, ENAJENAR Y ARRENDAR BIENES INMUEBLES (CONCRETAMENTE LOS DETERMINADOS EN EL ARTÍCULO 334.1 DEL CÓDIGO CIVIL), ACCIONES PARTICIPACIONES SOCIALES, OBLIGACIONES, BONOS DE CAJA, CERTIFICADOS DE DEPÓSITO Y PAGARÉS DE TODA CLASE DE EMPRESAS O NEGOCIOS.",
      "mainEntityOfPage": "https://www.contratacion.euskadi.eus/webkpe00-kperoc/es/ac71aBusquedaRegistrosWar/empresa/09078",
      "_links": {
        "self": {
          "name": "VALIDACIONES TECNICAS S.L.",
          "href": "https://api.euskadi.eus/procurements/companies/09078"
        }
      }
    },
    {
      "name": "ARF VITORIA-GASTEIZ, S.L.",
      "registrationNumber": "07844",
      "identificationNumber": "B01478841",
      "address": "CAMINO VENTOSA 46-1D",
      "location": {
        "postalCode": "48013",
        "municipality": "Bilbao",
        "county": "Bizkaia",
        "municipalityId": "020",
        "countyId": "48"
      },
      "economicActivities": [
        {
          "id": "1.965.2",
          "name": "Espectáculos al aire libre (excepto los taurinos)",
          "_links": {
            "self": {
              "name": "Espectáculos al aire libre (excepto los taurinos)",
              "href": "https://api.euskadi.eus/procurements/companies/economic-activities/1.965.2"
            }
          }
        }
      ],
      "certificateStartDate": "2024-04-23",
      "certificateEndDate": "2024-10-17",
      "object": "A) LA PROMOCIÓN, PREPARACIÓN, DESARROLLO, CONTRATACIÓN DE ARTISTAS DE CUALQUIER GÉNERO Y GESTIÓN Y DESARROLLO DE TODO TIPO DE FESTIVALES, DE TODA CLASE DE EVENTOS, CONCIERTOS GALAS Y CONCURSOS MUSICALES, TANTO EN EL ESTADO ESPAÑOL, COMUNIDADES AUTÓNOMAS O EN EL EXTRANJERO, ASÍ COMO EL MARKETING DE LAS MISMAS. B) LA PRODUCCIÓN DISCOGRÁFICA, EDICIÓN DE DERECHOS DE AUTOR, EDITORIALES, MUSICALES, PROMOCIONES ARTÍSTICAS, DISCOGRÁFICAS Y DE OTROS PRODUCTOS MUSICALES, TEATRALES, CINEMATOGRÁFICOS, DE TV Y VRT, TANTO NACIONALES COMO EXTRANJEROS. C) LA REPRESENTACIÓN DE ARTISTAS, PRODUCCIÓN DE EVENTOS CULTURALES Y MUSICALES Y DE OCIO. D) LA GESTIÓN DE SPONSORS. E) ALQUILER DE ENSERES DE CONCIERTOS Y ALQUILER DE INMUEBLES RELACIONADOS CON OCIO Y CULTURA. F) LA EXPLOTACIÓN DE BARRAS DE HOSTELERÍA, ASÍ COMO EL ALQUILER, VENTA Y EXPLOTACIÓN DE LAS MISMAS, TANTO EN EL ESTADO ESPAÑOL, COMUNIDADES AUTÓNOMAS O EN EL EXTRANJERO. G) LA DIRECCIÓN Y GESTIÓN COMO SOCIEDAD MATRIZ O HOLDING, DE SUS SOCIEDADES FILIALES Y PARTICIPADAS, EN LOS ASPECTOS INDUSTRIALES TÉCNICOS, COMERCIALES, FINANCIEROS, Y ADMINISTRATIVOS, Y, EN GENERAL, EN TODA SU DINÁMICA EMPRESARIAL. H) LA PROMOCIÓN, CONSTRUCCIÓN, COPRA Y VENTA, ARRENDAMIENTO Y COMERCIALIZACIÓN EN GENERAL DE TODA CLASE DE EDIFICACIONES, TERRENOS, SOLARES, FINCAS RÚSTICAS Y URBANAS; LA EDIFICACIÓN, URBANIZACIÓN, EXCAVACIÓN, CIMENTACIÓN Y DERRIBO, BIEN POR CUENTA PROPIA COMO AJENA, ASÍ COMO LA ENAJENACIÓN, VENTA, ARRIENDO O EXPLOTACIÓN, EN CUALQUIER FORMA DE TODA CLASE DE INMUEBLES, EDIFICIOS, PISOS, APARTAMENTOS, LOCALES COMERCIALES O INDUSTRIALES, OFICINAS Y HOTELES O ESTABLECIMIENTOS DE HOSTELERÍA EN GENERAL. I) TODA CLASE DE OPERACIONES INMOBILIARIAS SOBRE FINCAS RÚSTICAS Y URBANAS, PROMOCIÓN DE CONTRATOS O REALIZACIONES DE PARCELARIAS, URBANIZACIONES, CONSTRUCCIONES Y OBRAS PRIVADAS O PÚBLICAS, LA VENTA, HIPOTECA, ARRENDAMIENTO, TRANSFORMACIÓN, MEJORA, ADMINISTRACIÓN, PUESTA EN EXPLOTACIÓN Y LA EXPLOTACIÓN MISMA, DE FINCAS RÚSTICAS Y URBANAS, LA ORGANIZACIÓN, PROMOCIÓN, ASESORAMIENTO Y GESTIÓN EN TODO CASO DE SOCIEDADES, COOPERATIVAS, COMUNIDADES, ENTIDADES, GRUPOS O EMPRESAS PARTICULARES ORIENTADAS A LA CONSTRUCCIÓN O URBANIZACIÓN, LA PLANIFICACIÓN Y ESTUDIO DE MERCADOS EN MATERIA INMOBILIARIA. J) LA GESTIÓN, DIRECCIÓN Y EJECUCIÓN POR CUENTA PROPIA O AJENA DE TODA CLASE DE CONSTRUCCIONES, INSTALACIONES, REFORMAS, REHABILITACIONES, DECORACIONES Y OBRAS DE RESTAURACIÓN EXTERNA E INTERNA DE ESTRUCTURAS Y REVESTIMIENTOS DE EDIFICIOS Y MONUMENTOS; LIMPIEZA, IMPERMEABILIZACIÓN, TRATAMIENTO, PINTURA, RECONSTRUCCIÓN Y LA IMPLANTACIÓN, CUIDADO Y MANTENIMIENTO DE JARDINES Y EXPLOTACIONES FORESTALES. LA SUPERVISIÓN Y CONTROL DE OBRAS, ASÍ COMO LA COORDINACIÓN DE GREMIOS, EL ASESORAMIENTO Y LA ASISTENCIA TÉCNICA DE TODO CUANTO SE RELACIONE CON EL CAMPO DE LA CONSTRUCCIÓN DE EDIFICIOS Y DE LAS OBRAS PÚBLICAS O CIVILES. K) LA ADMINISTRACIÓN DE FINCAS Y COMUNIDADES, TANTO DE PROPIETARIOS COMO DE AUTOPROMOTORES, ASÍ COMO LA PRESTACIÓN DE TODA CLASE DE SERVICIOS RELACIONADOS CON EL ÁMBITO INMOBILIARIO, ARQUITECTÓNICO, DE TÉCNICA DE CONSTRUCCIÓN E INGENIERÍA EN GENERAL, POR MEDIO DE FORMULACIÓN, DESARROLLO Y PUESTA EN MARCHA DE ESTUDIOS, ACTUACIONES Y PROYECTOS. L) LA COMPRA, VENTA, DE TODA CLASE DE MATERIALES DE CONSTRUCCIÓN Y / O DECORATIVOS, ASÍ COMO CUALESQUIERA INSTALACIONES, ELEMENTOS O SERVICIOS DE LAS EDIFICACIONES; LA IMPORTACIÓN, EXPORTACIÓN, REPRESENTACIÓN, DISTRIBUCIÓN, EXPLOTACIÓN Y COMERCIALIZACIÓN DE PRODUCTOS ELABORADOS Y SEMIELABORADOS. M) LA ADQUISICIÓN, CESIÓN, TENENCIA, DISFRUTE, ADMINISTRACIÓN, GESTIÓN Y NEGOCIACIÓN EN GENERAL DE VALORES MOBILIARIOS E INMUEBLES; TODO ELLO SIN INCLUIR EN LAS ACTIVIDADES U OPERACIONES REGULADAS POR LA LEGISLACIÓN DE INSTITUCIONES DE INVERSIÓN COLECTIVA Y LEY DE MERCADO DE VALORES. N) LA PRESTACIÓN DE SERVICIOS PROFESIONALES DE ASESORÍA DE EMPRESAS EN GENERAL, Y EN PARTICULAR, DE ASESORAMIENTO Y GESTIÓN FISCAL, ASESORAMIENTO Y GESTIÓN CONTABLE, ASESORAMIENTO Y GESTIÓN EN MATERIA LABORAL, ASESORÍA JURÍDICA, SERVICIOS DE COBRO DE CRÉDITOS MOROSOS, VALORACIÓN DE EMPRESAS, ESTUDIO Y REDACCIÓN DE ESTATUTOS PARA LA CONSTITUCIÓN DE ENTIDADES DE CUALQUIER NATURALEZA, ESTUDIO Y REDACCIÓN DE ESTATUTOS PARA LA CONSTITUCIÓN DE ENTIDADES DE CUALQUIER NATURALEZA, ESTUDIO Y REDACCIÓN DE PLANES DE VIABILIDAD, ESTUDIO DE TRAMITACIÓN DE SUBVENCIONES, CRÉDITOS Y OTRAS AYUDAS FINANCIERAS DE LOS ORGANISMOS DEL ESTADO CENTRAL, DEL GOBIERNO VASCO Y DE LAS DIPUTACIONES FORALES, DE TODO TIPO DE ENTIDADES PÚBLICAS Y PRIVADAS, PARA TODO TIPO DE EMPRESAS; Y, EN CONCRETO, LA PRESTACIÓN DE SERVICIOS DE VERIFICACIONES REGISTRALES, INFORMES COMERCIALES, GRABACIONES DE DATOS Y RECOBROS. O) LA INVESTIGACIÓN Y EL DESARROLLO DE TÉCNICAS ENERGÉTICAS, ACÚSTICAS, ELECTRÓNICAS Y, EN GENERAL, TODA CLASE DE ASISTENCIAS O SERVICIOS RELACIONADOS CON LA INFORMÁTICA. LA REPRESENTACIÓN COMO AGENTE, COMISIONISTA, DELEGADO O CUALQUIER OTRA FORMA DE MEDIACIÓN MERCANTIL DE EMPRESAS NACIONALES O EXTRANJERAS, DE TODA ÍNDOLE, ASÍ COMO LA EXPLOTACIÓN DE PATENTES, Y DEMÁS DERECHOS DE PROPIEDAD, INDUSTRIA, INCLUIDOS LOS MÉTODOS, PROCEDIMIENTOS Y ORGANIZACIÓN DE TRABAJOS INDUSTRIALES, COMERCIALES O DE OTRA ÍNDOLE. P) LA FORMACIÓN E INFORMACIÓN DE TODO TIPO DE PERSONAS MEDIANTE CURSOS, SEMINARIOS, JORNADAS, TANTO DE PRESENCIA COMO A DISTANCIA EN CUALQUIER MATERIA, ASÍ COMO LA EDICIÓN DE TEXTOS Y LIBROS ENCUADERNADOS A TAL FIN, REVISTAS Y CUALQUIER OTRO MEDIO DE DIFUSIÓN QUE CONSIDERE IDÓNEO PARA SUS FINES; LA GESTIÓN, CREACIÓN, TOMA DE PARTICIPACIONES Y ASESORAMIENTO DE TODO TIPO DE EMPRESAS, CONSULTORÍA, GESTIÓN, DISTRIBUCIÓN, IMPORTACIÓN Y EXPORTACIÓN DE TODO TIPO DE PRODUCTOS CONEXOS CON DICHAS ACTIVIDADES DE FORMACIÓN, INFORMACIÓN Y ASESORAMIENTO. Q) LA COMPRA, TENENCIA, ENAJENACIÓN Y EXPLOTACIÓN, INCLUSO EN EXCLUSIVA POR Y A FAVOR DE LA SOCIEDAD, DE TÍTULOS, VALORES, ACCIONES, BONOS, OBLIGACIONES, PATENTES, LICENCIAS, MARCAS, RÓTULOS, NOMBRES COMERCIALES Y TODA CLASE DE PERTENENCIAS DE PROPIEDAD INDUSTRIAL O INTELECTUAL, Y CUALESQUIERA OTRA CLASE DE BIENES MUEBLES; TODO ELLO SIN INCIDIR EN LAS ACTIVIDADES U OPERACIONES REGULADAS POR LA LEGISLACIÓN DE INSTITUCIONES DE INVERSIÓN COLECTIVA Y LEY DE MERCADO DE VALORES. R) LA CONSTITUCIÓN CON LA CONCURRENCIA DE OTRAS PERSONAS E INDIVIDUALMENTE, EN SU CASO DE TODA CLASE DE SOCIEDADES MERCANTILES, LA PARTICIPACIÓN EN OTRAS CONSTITUIDAS, PUDIENDO OSTENTAR EN TODAS ELLAS CARGOS DE ADMINISTRACIÓN, DIRECCIÓN O CONTROL MEDIANTE LA OPORTUNA DELEGACIÓN EN PERSONA FÍSICA. S) LOS SERVICIOS LEGALMENTE PERMITIDOS DE MEDIACIÓN, CON BIENES PROPIOS O AJENOS, ASÍ COMO LOS DE CONSIGNACIÓN, REPRESENTACIÓN Y GESTIÓN, INCLUSO DE TODA CLASE DE SUMINISTROS DE PRODUCTOS EN GENERAL, NACIONALES Y EXTRANJEROS, Y LAS ACTIVIDADES DE IMPORTACIÓN Y EXPORTACIÓN",
      "mainEntityOfPage": "https://www.contratacion.euskadi.eus/webkpe00-kperoc/es/ac71aBusquedaRegistrosWar/empresa/07844",
      "_links": {
        "self": {
          "name": "ARF VITORIA-GASTEIZ, S.L.",
          "href": "https://api.euskadi.eus/procurements/companies/07844"
        }
      }
    },
    {
      "name": "LAURA FERNANDEZ DE RETANA PUERTAS",
      "registrationNumber": "09027",
      "identificationNumber": "44674856R",
      "address": "ALAVA Nº 35",
      "location": {
        "postalCode": "01420",
        "municipality": "Erriberagoitia/Ribera Alta",
        "county": "Araba/Álava",
        "municipalityId": "046",
        "countyId": "01"
      },
      "economicActivities": [
        {
          "id": "1.673.2",
          "name": "Otros cafés y bares",
          "_links": {
            "self": {
              "name": "Otros cafés y bares",
              "href": "https://api.euskadi.eus/procurements/companies/economic-activities/1.673.2"
            }
          }
        },
        {
          "id": "1.967.1",
          "name": "Instalaciones deportivas",
          "_links": {
            "self": {
              "name": "Instalaciones deportivas",
              "href": "https://api.euskadi.eus/procurements/companies/economic-activities/1.967.1"
            }
          }
        }
      ],
      "certificateStartDate": "2024-04-19",
      "certificateEndDate": "2024-10-19",
      "object": "OTROS CAFÉS Y BARES.",
      "mainEntityOfPage": "https://www.contratacion.euskadi.eus/webkpe00-kperoc/es/ac71aBusquedaRegistrosWar/empresa/09027",
      "_links": {
        "self": {
          "name": "LAURA FERNANDEZ DE RETANA PUERTAS",
          "href": "https://api.euskadi.eus/procurements/companies/09027"
        }
      }
    },
    {
      "name": "IÑAKI BEISTEGUI MARGÜELLO",
      "registrationNumber": "07058",
      "identificationNumber": "72737223E",
      "address": "Bulevar de Mariturri 48 5A",
      "location": {
        "postalCode": "01015",
        "municipality": "Vitoria-Gasteiz",
        "county": "Araba/Álava",
        "municipalityId": "059",
        "countyId": "01"
      },
      "economicActivities": [
        {
          "id": "2.411",
          "name": "Arquitectos",
          "_links": {
            "self": {
              "name": "Arquitectos",
              "href": "https://api.euskadi.eus/procurements/companies/economic-activities/2.411"
            }
          }
        }
      ],
      "certificateStartDate": "2024-04-19",
      "certificateEndDate": "2024-10-11",
      "object": "ARQUITECTO",
      "mainEntityOfPage": "https://www.contratacion.euskadi.eus/webkpe00-kperoc/es/ac71aBusquedaRegistrosWar/empresa/07058",
      "_links": {
        "self": {
          "name": "IÑAKI BEISTEGUI MARGÜELLO",
          "href": "https://api.euskadi.eus/procurements/companies/07058"
        }
      }
    },
    {
      "name": "KERN PHARMA, S.L.",
      "registrationNumber": "06933",
      "identificationNumber": "B58296773",
      "address": "POL.IND.COLÓN II, VENUS 72",
      "location": {
        "postalCode": "08228",
        "municipality": "Terrassa",
        "county": "Barcelona",
        "municipalityId": "279",
        "countyId": "08"
      },
      "economicActivities": [
        {
          "id": "1.254.1",
          "name": "Fabricación de productos farmacéuticos de base",
          "_links": {
            "self": {
              "name": "Fabricación de productos farmacéuticos de base",
              "href": "https://api.euskadi.eus/procurements/companies/economic-activities/1.254.1"
            }
          }
        },
        {
          "id": "1.254.2",
          "name": "Fabricación de especialidades y otros productos farmacéuticos",
          "_links": {
            "self": {
              "name": "Fabricación de especialidades y otros productos farmacéuticos",
              "href": "https://api.euskadi.eus/procurements/companies/economic-activities/1.254.2"
            }
          }
        }
      ],
      "certificateStartDate": "2024-04-18",
      "certificateEndDate": "2024-10-11",
      "object": "A) LA INVESTIGACIÓN, DESARROLLO, FABRICACIÓN, ALMACENAMIENTO, SUMINISTRO, COMERCIALIZACIÓN, IMPORTACIÓN, EXPORTACIÓN Y REPRESENTACIÓN DE MEDICAMENTOS Y PRODUCTOS DEL ÁMBITO DE LA INDUSTRIA FARMACÉUTICA (COSMÉTICOS, ALIMENTOS, COMPLEMENTOS ALIMENTICIOS, PRODUCTOS SANITARIOS, PRODUCTOS DE HIGIENE, INGREDIENTES ACTIVOS, PRODUCTOS QUÍMICOS, BIOCIDAS, ETC.) PARA USO HUMANO Y VETERINARIO. B) LA REALIZACIÓN DE TODO TIPO DE OPERACIONES SOBRE BIENES INMUEBLES, TALES COMO LA CONSTRUCCIÓN, EXPLOTACIÓN, COMPRAVENTA, PERMUTA, COMERCIALIZACIÓN, ARRIENDO Y SUBARRIENDO NO FINANCIEROS O BAJO OTRO TIPO DE CONTRATO, TANTO ACTIVA COMO PASIVAMENTE, DE VIVIENDAS, LOCALES DE NEGOCIO, EDIFICIOS INDUSTRIALES, OFICINAS, ALMACENES, FINCAS RÚSTICAS O DE ESPARCIMIENTO Y RECREO Y , EN GENERAL, SOBRE TODA CLASE DE FINCAS, TANTO RÚSTICAS COMO URBANAS, INCLUSO SOLARES, SU URBANIZACIÓN, PARCELACIÓN, EXPLOTACIÓN Y REFORMA. EL CNAE DE SU ACTIVIDAD PRINCIPAL ES EL 2120 (FABRICACIÓN DE ESPECIALIDADES FARMACÉUTICAS)",
      "mainEntityOfPage": "https://www.contratacion.euskadi.eus/webkpe00-kperoc/es/ac71aBusquedaRegistrosWar/empresa/06933",
      "_links": {
        "self": {
          "name": "KERN PHARMA, S.L.",
          "href": "https://api.euskadi.eus/procurements/companies/06933"
        }
      }
    }
  ]
}