{
  "totalItems": 9042,
  "totalPages": 905,
  "currentPage": 718,
  "itemsOfPage": 10,
  "items": [
    {
      "name": "HERMANOS SAENZ DE SAMANIEGO CONSTRUCCIONES, S.L.",
      "registrationNumber": "02919",
      "identificationNumber": "B01053198",
      "address": "C/MAYOR, 52",
      "location": {
        "postalCode": "01300",
        "municipality": "Laguardia",
        "county": "Araba/Álava",
        "municipalityId": "031",
        "countyId": "01"
      },
      "economicActivities": [
        {
          "id": "1.501.1",
          "name": "Construcción completa, reparación y conservación de edificaciones",
          "_links": {
            "self": {
              "name": "Construcción completa, reparación y conservación de edificaciones",
              "href": "https://api.euskadi.eus/procurements/companies/economic-activities/1.501.1"
            }
          }
        }
      ],
      "certificateStartDate": "2011-01-31",
      "certificateEndDate": "2011-07-17",
      "object": "LA REALIZACIÓN DE TODA CLASE DE TRABAJOS DE PROMOCIÓN Y CONSTRUCIÓN INMOBILIARIA, INCLUYENDO POR TANTO LA COMPRAVENTA DE TERRENOS, EDIFICACIONES E INMUEBLES EN GENERAL, LA URBANIZACIÓN Y PARCELACIÓN DE TERRENOS, LA CONSTRUCCIÓN, VENTA O ARRENDAMIENTO DE TODO TIPO DE EDIFICACIONES Y LA REALIZACIÓN DE TRABAJOS MAYORES Y MENORES DE CONSTRUCCIÓN Y OBRA, ASÍ COMO LA DISTRIBUCIÓN Y VENTA DE MATERIALES DE CONSTRUCCIÓN Y TODAS LAS ACTIVIDADES DIRECTAMENTE EMPARENTADAS CON EL OBJETO RELACIONADO.\r\nTALES ACTIVIDADES PODRÁN SER REALIZADAS POR LA SOCIEDAD, YA DIRECTAMENTE, YA INDIRECTAMENTE, INCLUSO MEDIANTE LA TITULARIDAD DE ACCIONES O PARTICIPACIONES EN SOCIEDADES CON OBJETO IDÉNTICO O ANÁLOGO, O DIRECTA O INDIRECTAMENTE RELACIONADO CON EL DE LA PRESENTE SOCIEDAD\r\nOL ",
      "mainEntityOfPage": "https://www.contratacion.euskadi.eus/webkpe00-kperoc/es/ac71aBusquedaRegistrosWar/empresa/02919",
      "_links": {
        "self": {
          "name": "HERMANOS SAENZ DE SAMANIEGO CONSTRUCCIONES, S.L.",
          "href": "https://api.euskadi.eus/procurements/companies/02919"
        }
      }
    },
    {
      "name": "JOSE FLORENCIO BAÑOS ALIENDE",
      "registrationNumber": "03177",
      "identificationNumber": "16487828W",
      "address": "C/ PUENTE DE DEUSTO Nº 11, 6º B",
      "location": {
        "postalCode": "48014",
        "municipality": "Bilbao",
        "county": "Bizkaia",
        "municipalityId": "020",
        "countyId": "48"
      },
      "economicActivities": [
        {
          "id": "1.721.3",
          "name": "Transporte de viajeros por carretera",
          "_links": {
            "self": {
              "name": "Transporte de viajeros por carretera",
              "href": "https://api.euskadi.eus/procurements/companies/economic-activities/1.721.3"
            }
          }
        }
      ],
      "certificateStartDate": "2011-01-31",
      "certificateEndDate": "2011-07-13",
      "object": "TRANSPORTE DE VIAJEROS POR CARRETERA",
      "mainEntityOfPage": "https://www.contratacion.euskadi.eus/webkpe00-kperoc/es/ac71aBusquedaRegistrosWar/empresa/03177",
      "_links": {
        "self": {
          "name": "JOSE FLORENCIO BAÑOS ALIENDE",
          "href": "https://api.euskadi.eus/procurements/companies/03177"
        }
      }
    },
    {
      "name": "TRANSITIA AUTOBUSES Y SERVICIOS, S.L.",
      "registrationNumber": "04226",
      "identificationNumber": "B95551941",
      "address": "ALAMEDA RECALDE, 38-8 PISO",
      "location": {
        "postalCode": "48009",
        "municipality": "Bilbao",
        "county": "Bizkaia",
        "municipalityId": "020",
        "countyId": "48"
      },
      "economicActivities": [
        {
          "id": "1.501.3",
          "name": "Albañilería y pequeños trabajos de construcción en general",
          "_links": {
            "self": {
              "name": "Albañilería y pequeños trabajos de construcción en general",
              "href": "https://api.euskadi.eus/procurements/companies/economic-activities/1.501.3"
            }
          }
        },
        {
          "id": "1.721.1",
          "name": "Transporte urbano colectivo",
          "_links": {
            "self": {
              "name": "Transporte urbano colectivo",
              "href": "https://api.euskadi.eus/procurements/companies/economic-activities/1.721.1"
            }
          }
        },
        {
          "id": "1.849.7",
          "name": "Servicios de gestión administrativa",
          "_links": {
            "self": {
              "name": "Servicios de gestión administrativa",
              "href": "https://api.euskadi.eus/procurements/companies/economic-activities/1.849.7"
            }
          }
        }
      ],
      "certificateStartDate": "2011-01-31",
      "certificateEndDate": "2011-06-15",
      "object": "LA PROMOCIÓN, PRESTACIÓN O GESTIÓN DEL TRANSPORTE DE PERSONAS, ESPECIALMENTE MEDIANTE AUTOBUSES, ASÍ COMO EL ASESORAMIENTO Y LA PRESTACIÓN O GESTIÓN DE TODO TIPO DE SERVICIOS RELACIONADOS CON EL TRANSPORTE DE PERSONAS. LA REALIZACIÓN DE TODA CLASE DE INFORMES, ESTUDIOS Y PROYECTOS TÉCNICOS, PROYECTOS Y DIRECCIÓN DE OBRA, CONTROL DE CALIDAD, INGENIERÍA, SERVICIOS INTEGRALES DE CONSULTORÍA TÉCNICA, INVESTIGACIÓN Y PRESTACIÓN DE SERVICIOS DE ASISTENCIA, ASESORAMIENTO Y GESTIÓN TÉCNICA, ADMINISTRATIVA Y COMERCIAL. 3.- LA REALIZACIÓN DE PROYECTOS, PROMOCIÓN, CONSTITUCIÓN Y PARTICIPACIÓN EN OTRAS SOCIEDADES Y EMPRESAS MEDIANTE LA SUSCRIPCIÓN, ADQUISICIÓN Y POSESIÓN DE ACCIONES, PARTICIPACIONES Y CUALESQUIERA OTROS TÍTULOS Y VALORES, ASÍ COMO TODA CLASE DE NEGOCIOS RELACIONADOS CON LA COMPRAVENTA Y SUSCRIPCIÓN DE VALORES MOBILIARIOS, TANTO DE RENTA FIJA COMO VARIABLE, POR CUENTA PROPIA, EXCLUYENDO LA INTERMEDIACIÓN FINANCIERA Y LA CAPTACIÓN DE AHORRO PÚBLICO Y LAS ACTIVIDADES PROPIAS DE LAS INSTITUCIONES DE INVERSIÓN COLECTIVA Y DE LOS MIEMBROS DE LAS BOLSAS DE VALORES.  LA TITULARIDAD DE TODA CLASE DE CONCESIONES, AUTORIZACIONES Y LICENCIAS ADMINISTRATIVAS DE OBRAS, SERVICIOS Y MIXTAS, DEL ESTADO, COMUNIDADES AUTÓNOMAS, PROVINCIAS, MUNICIPIOS, ORGANISMOS AUTÓNOMOS, ENTIDADES AUTÓNOMAS O CUALQUIER OTRO ORGANISMO O EMPRESA PÚBLICO O PRIVADO.   LA PARTICIPACIÓN EN CONCURSOS Y SUBASTAS QUE SE CONVOQUEN Y RESUELVAN POR PARTE DE CUALESQUIERA PERSONAS FÍSICAS O JURÍDICAS, PÚBLICAS O PRIVADAS, U ORGANISMOS, CUYA FINALIDAD SEA LA ADJUDICACIÓN DE OTRAS O CONTRATOS CUYO CONTENIDO ESTÉ INCLUÍDO O SE RELACIONE CON EL OBJETO SOCIAL PREVISTO EN ESTE ARTÍCULO.  LA CONSTRUCCIÓN, GESTIÓN O EXPLOTACIÓN DE CUALQUIER EDIFICACIÓN, INSTLALACIÓN, ESTRUCTURA , OBRA CIVIL U OTROS ELEMENTOS RELACIONADOS CON EL SECTOR DE TRANSPORTE DE PERSONAS Y/O MERCANCÍAS DE CUALQUIER MODALIDAD Y POR CUALQUIER MEDIO TERRESTRE, MARÍTIMO O AÉREO.",
      "mainEntityOfPage": "https://www.contratacion.euskadi.eus/webkpe00-kperoc/es/ac71aBusquedaRegistrosWar/empresa/04226",
      "_links": {
        "self": {
          "name": "TRANSITIA AUTOBUSES Y SERVICIOS, S.L.",
          "href": "https://api.euskadi.eus/procurements/companies/04226"
        }
      }
    },
    {
      "name": "LANEDER CONSTRUCCIONES, S.L.",
      "registrationNumber": "03832",
      "identificationNumber": "B95553020",
      "address": "IÑIGO LÓPEZ DE HARO, nº 2-bajo",
      "location": {
        "postalCode": "48300",
        "municipality": "Gernika-Lumo",
        "county": "Bizkaia",
        "municipalityId": "046",
        "countyId": "48"
      },
      "economicActivities": [
        {
          "id": "1.507",
          "name": "Construcción, reparación y conservación de toda clase obras",
          "_links": {
            "self": {
              "name": "Construcción, reparación y conservación de toda clase obras",
              "href": "https://api.euskadi.eus/procurements/companies/economic-activities/1.507"
            }
          }
        }
      ],
      "certificateStartDate": "2011-01-28",
      "certificateEndDate": "2011-06-20",
      "object": "LA EJECUCIÓN COMPLETA O POR RAMOS DE TODA CLASE DE OBRAS DE CONSTRUCCIÓN, REPARACIÓN Y CONSERVACIÓN POR CUENTA PROPIA O/Y DE TERCEROS. COMPRAVENTA O ALQUILER DE EDIFICACIONES EN SU TOTALIDAD O POR PARTES PARA LOCALES DE NEGOCIO O INDUSTRIALES, CONSTRUIDAS PARA TAL FIN, DIRECTA O POR MEDIO DE CONTRATISTAS, SUBCONTRATISTAS Y DESTAJISTAS O BIEN ADQUIRIDAS YA CONSTRUIDAS O EN CONSTRUCCIÓN. COMPRAVENTA DE TODA CLASE DE MATERIALES AUXILIARES O ANEJOS PARA LA CONSTRUCCIÓN, ASÍ COMO TODO TIPO DE MAQUINARIA. CUALQUIER OTRO NEGOCIO O ACTIVIDAD DE LÍCITO COMERCIO QUE GUARDE RELACIÓN CON LO EXPRESADO",
      "mainEntityOfPage": "https://www.contratacion.euskadi.eus/webkpe00-kperoc/es/ac71aBusquedaRegistrosWar/empresa/03832",
      "_links": {
        "self": {
          "name": "LANEDER CONSTRUCCIONES, S.L.",
          "href": "https://api.euskadi.eus/procurements/companies/03832"
        }
      }
    },
    {
      "name": "IMPRENTA GUIMERÁ, S.A.",
      "registrationNumber": "00721",
      "identificationNumber": "A48213904",
      "address": "AVDA. CERVANTES, 43",
      "location": {
        "postalCode": "48970",
        "municipality": "Basauri",
        "county": "Bizkaia",
        "municipalityId": "015",
        "countyId": "48"
      },
      "economicActivities": [
        {
          "id": "1.474",
          "name": "Artes gráficas (impresión gráfica)",
          "_links": {
            "self": {
              "name": "Artes gráficas (impresión gráfica)",
              "href": "https://api.euskadi.eus/procurements/companies/economic-activities/1.474"
            }
          }
        }
      ],
      "certificateStartDate": "2011-01-27",
      "certificateEndDate": "2011-06-13",
      "object": "LA IMPRESIÓN DE TEXTOS O IMÁGENES POR CUALQUIER SISTEMA O PROCEDIMIENTO, TALES COMO TIPOGRAFÍA, OFFSET, HUECOGRABADO, SERIGRAFÍA, FLEXOGRAFÍA, LITOGRAFÍA, CALCOGRAFÍA Y ESTAMPACIONES EN RELIEVE",
      "mainEntityOfPage": "https://www.contratacion.euskadi.eus/webkpe00-kperoc/es/ac71aBusquedaRegistrosWar/empresa/00721",
      "_links": {
        "self": {
          "name": "IMPRENTA GUIMERÁ, S.A.",
          "href": "https://api.euskadi.eus/procurements/companies/00721"
        }
      }
    },
    {
      "name": "CONSTRUCCIONES JUAN JOSÉ BARANDICA BILBAO, S.L.",
      "registrationNumber": "04553",
      "identificationNumber": "B95527586",
      "address": "ALAMEDA SAN MAMÉS, 37-4º. DPTO. 5",
      "location": {
        "postalCode": "48010",
        "municipality": "Bilbao",
        "county": "Bizkaia",
        "municipalityId": "020",
        "countyId": "48"
      },
      "economicActivities": [
        {
          "id": "1.501.1",
          "name": "Construcción completa, reparación y conservación de edificaciones",
          "_links": {
            "self": {
              "name": "Construcción completa, reparación y conservación de edificaciones",
              "href": "https://api.euskadi.eus/procurements/companies/economic-activities/1.501.1"
            }
          }
        }
      ],
      "certificateStartDate": "2011-01-26",
      "certificateEndDate": "2011-07-10",
      "object": "LA ADQUISICIÓN Y ENAJENACIÓN POR CUALQUIER TÍTULO, DE FINCAS RÚSTICAS Y URBANAS, YA SEAN TIERRAS, SOLARES O EDIFICIOS; LA CONSTRUCCIÓN DE ÉSTOS Y LA ADMINISTRACIÓN, TENENCIA, EXPLOTACIÓN Y ARRENDAMIENTO, YA SEA ACTIVO O PASIVO DE TALES BIENES Y SU VENTA, TOTAL O PARCIAL, SEGÚN CONVENGA, PARA SU APROVECHAMIENTO AGRÍCOLA, FORESTAL, URBANO, INDUSTRIAL O CUALQUIER OTRO",
      "mainEntityOfPage": "https://www.contratacion.euskadi.eus/webkpe00-kperoc/es/ac71aBusquedaRegistrosWar/empresa/04553",
      "_links": {
        "self": {
          "name": "CONSTRUCCIONES JUAN JOSÉ BARANDICA BILBAO, S.L.",
          "href": "https://api.euskadi.eus/procurements/companies/04553"
        }
      }
    },
    {
      "name": "KEUETXE, S.L.",
      "registrationNumber": "04548",
      "identificationNumber": "B95430401",
      "address": "Ribera de Erandio, 0. Dpto. 11. ",
      "location": {
        "postalCode": "48950",
        "municipality": "Erandio",
        "county": "Bizkaia",
        "municipalityId": "902",
        "countyId": "48"
      },
      "economicActivities": [
        {
          "id": "1.844",
          "name": "Servicios de publicidad, relaciones públicas y similares",
          "_links": {
            "self": {
              "name": "Servicios de publicidad, relaciones públicas y similares",
              "href": "https://api.euskadi.eus/procurements/companies/economic-activities/1.844"
            }
          }
        },
        {
          "id": "1.852",
          "name": "Alquiler de maquinaria y equipo para la construcción",
          "_links": {
            "self": {
              "name": "Alquiler de maquinaria y equipo para la construcción",
              "href": "https://api.euskadi.eus/procurements/companies/economic-activities/1.852"
            }
          }
        }
      ],
      "certificateStartDate": "2011-01-24",
      "certificateEndDate": "2011-05-15",
      "object": "LA COMPRA, VENTA Y ALQUILER DE MATERIALES Y MAQUINARIA DE CONSTRUCCIÓN, INSTALACIÓN DE LOS MISMOS CUANDO SEA NECESARIO, ASÍ COMO LA IMPORTACIÓN Y EXPORTACIÓN DE DICHOS BIENES. DISTRIBUCIÓN, REPRESENTACIÓN Y COMERCIALIZACIÓN DE TODA CLASE DE BIENES Y SERVICIOS, PRODUCTOS, ARTÍCULOS, MERCANCÍAS EQUIPOS INDUSTRIALES Y MAQUINARIA,HERRAMIENTOAS, UTILLAJE, REPUESTOS Y ACCESORIOS. LA EXPLOTACIÓN DE ELEMENTOS NECESARIOS PARA LAS INSTALACIONES DE FERIAS Y ACTOS PÚBLICOS; ASEOS QUÍMICOS, CONTAINERS, CARPAS, VALLAS, MESAS, SILLAS, STAND, CAMERINOS PORTÁTILES, EQUIPOS DE LUZ Y SONIDO. PRESTACIÓN DE SERVICIOS DE PUBLICIDAD A EMPRESAS. ASÍ MISMO, SE PODRÁ DEDICAR A CUALQUIER OTRA ACTIVIDAD DE SERVICIOS Y/O COMERCIO,BIEN AL POR MAYOR O AL POR MENOR, DISTINTOS A LOS EXPRESADOS ANTERIORMENTE",
      "mainEntityOfPage": "https://www.contratacion.euskadi.eus/webkpe00-kperoc/es/ac71aBusquedaRegistrosWar/empresa/04548",
      "_links": {
        "self": {
          "name": "KEUETXE, S.L.",
          "href": "https://api.euskadi.eus/procurements/companies/04548"
        }
      }
    },
    {
      "name": "LAUKOBI, S.A.",
      "registrationNumber": "01844",
      "identificationNumber": "A48110647",
      "address": "P.A.E. IBARRABARRI, PAB. 27-E",
      "location": {
        "postalCode": "48940",
        "municipality": "Leioa",
        "county": "Bizkaia",
        "municipalityId": "054",
        "countyId": "48"
      },
      "economicActivities": [
        {
          "id": "1.659.2",
          "name": "Venta al por menor de muebles de oficina y máquinas y equipos de oficina",
          "_links": {
            "self": {
              "name": "Venta al por menor de muebles de oficina y máquinas y equipos de oficina",
              "href": "https://api.euskadi.eus/procurements/companies/economic-activities/1.659.2"
            }
          }
        },
        {
          "id": "1.691.9",
          "name": "Reparación de otros bienes de consumo n.c.o.p",
          "_links": {
            "self": {
              "name": "Reparación de otros bienes de consumo n.c.o.p",
              "href": "https://api.euskadi.eus/procurements/companies/economic-activities/1.691.9"
            }
          }
        }
      ],
      "certificateStartDate": "2011-01-20",
      "certificateEndDate": "2011-07-03",
      "object": "LA COMPRA-VENTA DE MÁQUINAS PARA OFICINA, COMERCIO E INDUSTRIA, ASÍ COMO MOBILIARIO DE OFICINA Y TODA CLASE DE ELEMENTOS COMPLEMENTARIOS PARA LAS MISMAS. EL ESTUDIO Y RESOLUCIÓN DE PROBLEMAS TÉCNICOS RELACIONADOS CON EL OBJETO Y OBJETOS PRINCIPALES",
      "mainEntityOfPage": "https://www.contratacion.euskadi.eus/webkpe00-kperoc/es/ac71aBusquedaRegistrosWar/empresa/01844",
      "_links": {
        "self": {
          "name": "LAUKOBI, S.A.",
          "href": "https://api.euskadi.eus/procurements/companies/01844"
        }
      }
    },
    {
      "name": "DAM ALBAÑILERÍA, S.L.",
      "registrationNumber": "04534",
      "identificationNumber": "B01344092",
      "address": "C/FEDERICO BARAIBAR, 6 BAJO",
      "location": {
        "postalCode": "01003",
        "municipality": "Vitoria-Gasteiz",
        "county": "Araba/Álava",
        "municipalityId": "059",
        "countyId": "01"
      },
      "economicActivities": [
        {
          "id": "1.501.1",
          "name": "Construcción completa, reparación y conservación de edificaciones",
          "_links": {
            "self": {
              "name": "Construcción completa, reparación y conservación de edificaciones",
              "href": "https://api.euskadi.eus/procurements/companies/economic-activities/1.501.1"
            }
          }
        }
      ],
      "certificateStartDate": "2011-01-18",
      "certificateEndDate": "2011-05-08",
      "object": "LA PROMOCIÓN, CONSTRUCCIÓN, REPARACIÓN, REHABILITACIÓN, DEMOLICIÓN Y DERRIBO POR CUENTA PROPIA O AJENA, DE TODA CLASE DE EDIFICACIONES Y OBRAS CIVILES, TANTO PÚBLICAS COMO PRIVADAS; LA CONSOLIDACIÓN Y PREPARACIÓN DE TERRENOS, ASÍ COMO LA REALIZACIÓN DE TODO TIPO DE TRABAJOS DE ALBAÑILERÍA",
      "mainEntityOfPage": "https://www.contratacion.euskadi.eus/webkpe00-kperoc/es/ac71aBusquedaRegistrosWar/empresa/04534",
      "_links": {
        "self": {
          "name": "DAM ALBAÑILERÍA, S.L.",
          "href": "https://api.euskadi.eus/procurements/companies/04534"
        }
      }
    },
    {
      "name": "MONTAJES EZKUR, S.L.",
      "registrationNumber": "04546",
      "identificationNumber": "B95391231",
      "address": "Bº AGUIRRE, S/N",
      "location": {
        "postalCode": "48480",
        "municipality": "Arrigorriaga",
        "county": "Bizkaia",
        "municipalityId": "011",
        "countyId": "48"
      },
      "economicActivities": [
        {
          "id": "1.314.1",
          "name": "Carpintería metálica",
          "_links": {
            "self": {
              "name": "Carpintería metálica",
              "href": "https://api.euskadi.eus/procurements/companies/economic-activities/1.314.1"
            }
          }
        }
      ],
      "certificateStartDate": "2011-01-18",
      "certificateEndDate": "2011-05-19",
      "object": "A) LA REALIZACIÓN DE TODA CLASE DE TRABAJOS RELACIONADOS CON LA CONSTRUCCIÓN, REPARACIÓN, MODIFICACIÓN, VENTA Y COLOCACIÓN DE PIEZAS DE CARPINTERÍA MECÁNICA DE LA MADERA, LA CARPINTERÍA METÁLICA Y ESTRUCTURAS PREFABRICADAS. B) LA CONSTRUCCIÓN, TRANSFORMACI´N, INSTALACIÓN, VENTA Y DECORACIÓN DE ARTÍCULOS Y OBRAS DE CARPINTERÍA Y MOBILIARIO",
      "mainEntityOfPage": "https://www.contratacion.euskadi.eus/webkpe00-kperoc/es/ac71aBusquedaRegistrosWar/empresa/04546",
      "_links": {
        "self": {
          "name": "MONTAJES EZKUR, S.L.",
          "href": "https://api.euskadi.eus/procurements/companies/04546"
        }
      }
    }
  ]
}