{
  "totalItems": 9042,
  "totalPages": 905,
  "currentPage": 368,
  "itemsOfPage": 10,
  "items": [
    {
      "name": "DIAGONAL, MARKETING Y PUBLICIDAD, S.L.",
      "registrationNumber": "02175",
      "identificationNumber": "B01237742",
      "address": "Calle Urbina, 19 - 1º Dcha.",
      "location": {
        "postalCode": "01012",
        "municipality": "Vitoria-Gasteiz",
        "county": "Araba/Álava",
        "municipalityId": "059",
        "countyId": "01"
      },
      "economicActivities": [
        {
          "id": "1.844",
          "name": "Servicios de publicidad, relaciones públicas y similares",
          "_links": {
            "self": {
              "name": "Servicios de publicidad, relaciones públicas y similares",
              "href": "https://api.euskadi.eus/procurements/companies/economic-activities/1.844"
            }
          }
        }
      ],
      "certificateStartDate": "2025-02-27",
      "certificateEndDate": "2025-08-13",
      "classification": [
        {
          "id": "S",
          "name": "Servicios",
          "groups": [
            {
              "id": "T",
              "subgroups": [
                {
                  "id": "01",
                  "name": "Servicios de publicidad",
                  "categories": [
                    {
                      "id": "2",
                      "name": "Desde 150.001 Hasta 300.000",
                      "_links": {
                        "self": {
                          "name": "Desde 150.001 Hasta 300.000",
                          "href": "https://api.euskadi.eus/procurements/companies/types/S/categories/2"
                        }
                      }
                    }
                  ],
                  "_links": {
                    "self": {
                      "name": "Servicios de publicidad",
                      "href": "https://api.euskadi.eus/procurements/companies/types/S/groups/T/subgroups/01"
                    }
                  }
                }
              ],
              "_links": {
                "self": {
                  "href": "https://api.euskadi.eus/procurements/companies/types/S/groups/T"
                }
              }
            }
          ],
          "_links": {
            "self": {
              "name": "Servicios",
              "href": "https://api.euskadi.eus/procurements/companies/types/S"
            }
          }
        }
      ],
      "object": "LA REALIZACIÓN DE SERVICIOS INTEGRALES DE PUBLICIDAD Y DE MARKETING, DE PROYECTOS Y DISEÑOS GRÁFICOS Y CREATIVOS, Y DE COMUNICACIÓN Y RELACIONES PÚBLICAS",
      "mainEntityOfPage": "https://www.contratacion.euskadi.eus/webkpe00-kperoc/es/ac71aBusquedaRegistrosWar/empresa/02175",
      "_links": {
        "self": {
          "name": "DIAGONAL, MARKETING Y PUBLICIDAD, S.L.",
          "href": "https://api.euskadi.eus/procurements/companies/02175"
        }
      }
    },
    {
      "name": "QUINTAS FOTOGRAFOS S.L.",
      "registrationNumber": "06506",
      "identificationNumber": "B01493634",
      "address": "Miren Martinez Sáez del Burgo, número 6 - bajo",
      "location": {
        "postalCode": "01008",
        "municipality": "Vitoria-Gasteiz",
        "county": "Araba/Álava",
        "municipalityId": "059",
        "countyId": "01"
      },
      "economicActivities": [
        {
          "id": "1.659.3",
          "name": "Venta al por menor de aparatos médicos, ortopédicos, ópticos y fotográficos",
          "_links": {
            "self": {
              "name": "Venta al por menor de aparatos médicos, ortopédicos, ópticos y fotográficos",
              "href": "https://api.euskadi.eus/procurements/companies/economic-activities/1.659.3"
            }
          }
        },
        {
          "id": "1.973.1",
          "name": "Servicios fotográficos",
          "_links": {
            "self": {
              "name": "Servicios fotográficos",
              "href": "https://api.euskadi.eus/procurements/companies/economic-activities/1.973.1"
            }
          }
        }
      ],
      "certificateStartDate": "2025-02-26",
      "certificateEndDate": "2025-07-26",
      "object": "EL COMERCIO DE APARATOS E INSTRUMENTOS ÓPTICOS Y FOTOGRÁFICOS, REVELADO FOTOGRÁFICO, MONTAJES Y FOTOGRAFÍA DIGITAL ASÍ COMO ACCESORIOS Y COMPLEMENTOS RELACIONADOS CON DICHAS ACTIVIDADES. LA PRODUCCIÓN, COMERCIALIZACIÓN, DISTRIBUCIÓN Y DIFUSIÓN DE SERVICIOS FOTOGRÁFICOS Y AUDIOVISUALES RELACIONADOS CON LA COMUNICACIÓN EN CUALQUIERA DE SUS MANIFESTACIONES. LA COMPRAVENTA, ARRENDAMIENTO, ADMINISTRACIÓN, GESTIÓN Y EXPLOTACIÓN DE TODO TIPO DE BIENES INMUEBLES POR CUALQUIER TÍTULO",
      "mainEntityOfPage": "https://www.contratacion.euskadi.eus/webkpe00-kperoc/es/ac71aBusquedaRegistrosWar/empresa/06506",
      "_links": {
        "self": {
          "name": "QUINTAS FOTOGRAFOS S.L.",
          "href": "https://api.euskadi.eus/procurements/companies/06506"
        }
      }
    },
    {
      "name": "J.OLABARRIA, S.L.",
      "registrationNumber": "03903",
      "identificationNumber": "B48416689",
      "address": "BETSAIDE,21",
      "location": {
        "postalCode": "48230",
        "municipality": "Elorrio",
        "county": "Bizkaia",
        "municipalityId": "032",
        "countyId": "48"
      },
      "economicActivities": [
        {
          "id": "1.721.3",
          "name": "Transporte de viajeros por carretera",
          "_links": {
            "self": {
              "name": "Transporte de viajeros por carretera",
              "href": "https://api.euskadi.eus/procurements/companies/economic-activities/1.721.3"
            }
          }
        }
      ],
      "certificateStartDate": "2025-02-26",
      "certificateEndDate": "2025-08-16",
      "object": "LA PRESTACIÓN, POR MEDIOS PROPIOS O AJENOS, DE SERVICIOS DE TRANSPORTES DE VIAJEROS Y TODA CLASE DE MERCANCÍAS; AGENCIAS DE TRANSPORTE, TALLER MECÁNICO Y, EN GENERAL, CUANTO SE RELACIONE CON EL SERVICIO DE TRANSPORTE",
      "mainEntityOfPage": "https://www.contratacion.euskadi.eus/webkpe00-kperoc/es/ac71aBusquedaRegistrosWar/empresa/03903",
      "_links": {
        "self": {
          "name": "J.OLABARRIA, S.L.",
          "href": "https://api.euskadi.eus/procurements/companies/03903"
        }
      }
    },
    {
      "name": "COACH AND PLAY, S.L.",
      "registrationNumber": "06874",
      "identificationNumber": "B95715678",
      "address": "IRALA 2 4 IZQ IZQ",
      "location": {
        "postalCode": "48012",
        "municipality": "Bilbao",
        "county": "Bizkaia",
        "municipalityId": "020",
        "countyId": "48"
      },
      "economicActivities": [
        {
          "id": "1.847",
          "name": "Servicios de consultoría",
          "_links": {
            "self": {
              "name": "Servicios de consultoría",
              "href": "https://api.euskadi.eus/procurements/companies/economic-activities/1.847"
            }
          }
        },
        {
          "id": "1.932.1",
          "name": "Enseñanza de formación y perfeccionamiento profesional no superior",
          "_links": {
            "self": {
              "name": "Enseñanza de formación y perfeccionamiento profesional no superior",
              "href": "https://api.euskadi.eus/procurements/companies/economic-activities/1.932.1"
            }
          }
        },
        {
          "id": "1.932.2",
          "name": "Enseñanza de formación y perfeccionamiento profesional superior",
          "_links": {
            "self": {
              "name": "Enseñanza de formación y perfeccionamiento profesional superior",
              "href": "https://api.euskadi.eus/procurements/companies/economic-activities/1.932.2"
            }
          }
        }
      ],
      "certificateStartDate": "2025-02-26",
      "certificateEndDate": "2025-08-13",
      "object": "LA PRESTACIÓN DE SERVICIOS. LAS ACTIVIDADES DE GESTIÓN Y ADMINISTRACIÓN. LOS SERVICIOS EDUCATIVOS, SANITARIOS, DE OCIO Y ENTRETENIMIENTO",
      "mainEntityOfPage": "https://www.contratacion.euskadi.eus/webkpe00-kperoc/es/ac71aBusquedaRegistrosWar/empresa/06874",
      "_links": {
        "self": {
          "name": "COACH AND PLAY, S.L.",
          "href": "https://api.euskadi.eus/procurements/companies/06874"
        }
      }
    },
    {
      "name": "DIDEA S. COOP. PEQUEÑA",
      "registrationNumber": "08953",
      "identificationNumber": "F02889277",
      "address": "LOS FUEROS 18 1C ",
      "location": {
        "postalCode": "48992",
        "municipality": "Getxo",
        "county": "Bizkaia",
        "municipalityId": "044",
        "countyId": "48"
      },
      "economicActivities": [
        {
          "id": "1.847",
          "name": "Servicios de consultoría",
          "_links": {
            "self": {
              "name": "Servicios de consultoría",
              "href": "https://api.euskadi.eus/procurements/companies/economic-activities/1.847"
            }
          }
        }
      ],
      "certificateStartDate": "2025-02-26",
      "certificateEndDate": "2025-08-17",
      "object": "- SERVICIOS DE GESTIÓN INTERINA DE EMPRESA COMO EJECUTIVOS SENIOR - SERVICIOS EN MATERIA DE GESTIÓN DE EMPRESA Y PLANIFICACIÓN TECNOLÓGICA, DE CALIDAD Y DE SISTEMAS DE MEJORA. - ASESORAMIENTO EN LA RACIONALIZACIÓN Y CAMBIO DE LA GESTIÓN Y ORGANIZACIÓN DE LA ESTRUCTURA INTERNA Y EXTERNA DE LA EMPRESA. - ASESORAMIENTO EN ESTRATEGIAS COMERCIALES E INDUSTRIALES, Y DE RACIONALIZACIÓN Y PLANIFICACIÓN E INNOVACIÓN ESTRATÉGICA PARA EMPRESAS. - LA REALIZACIÓN DE ACTIVIDADES RELACIONADAS CON LA FORMACIÓN Y CONSULTORÍA TECNOLÓGICA.",
      "mainEntityOfPage": "https://www.contratacion.euskadi.eus/webkpe00-kperoc/es/ac71aBusquedaRegistrosWar/empresa/08953",
      "_links": {
        "self": {
          "name": "DIDEA S. COOP. PEQUEÑA",
          "href": "https://api.euskadi.eus/procurements/companies/08953"
        }
      }
    },
    {
      "name": "BLENDARSYS, S.L.",
      "registrationNumber": "10048",
      "identificationNumber": "B54546155",
      "address": "calle Tramuntana, 5",
      "location": {
        "postalCode": "03690",
        "municipality": "Sant Vicent del Raspeig/San Vicente del Raspeig",
        "county": "Alicante/Alacant",
        "municipalityId": "122",
        "countyId": "03"
      },
      "economicActivities": [
        {
          "id": "1.845",
          "name": "Explotación electrónica por cuenta de terceros",
          "_links": {
            "self": {
              "name": "Explotación electrónica por cuenta de terceros",
              "href": "https://api.euskadi.eus/procurements/companies/economic-activities/1.845"
            }
          }
        }
      ],
      "certificateStartDate": "2025-02-26",
      "certificateEndDate": "2025-08-26",
      "object": "EL ESTUDIO, CONFECCIÓN Y PUESTA EN MARCHA DE SISTEMAS INFORMÁTICOS Y PROGRAMAS ESPECÍFICOS PARA ACTIVIDADES CONCRETAS, ASÍ COMO LA VENTA DE PRODUCTOS Y ARTÍCULOS INFORMÁTICOS, LITERARIOS Y CIENTÍFICOS.",
      "mainEntityOfPage": "https://www.contratacion.euskadi.eus/webkpe00-kperoc/es/ac71aBusquedaRegistrosWar/empresa/10048",
      "_links": {
        "self": {
          "name": "BLENDARSYS, S.L.",
          "href": "https://api.euskadi.eus/procurements/companies/10048"
        }
      }
    },
    {
      "name": "MAXIMILIANO BERMUDEZ CACERES",
      "registrationNumber": "10047",
      "identificationNumber": "58047752F",
      "address": "CALLE ADURZA 5 -3IZDA",
      "location": {
        "postalCode": "01006",
        "municipality": "Vitoria-Gasteiz",
        "county": "Araba/Álava",
        "municipalityId": "059",
        "countyId": "01"
      },
      "economicActivities": [
        {
          "id": "1.501.3",
          "name": "Albañilería y pequeños trabajos de construcción en general",
          "_links": {
            "self": {
              "name": "Albañilería y pequeños trabajos de construcción en general",
              "href": "https://api.euskadi.eus/procurements/companies/economic-activities/1.501.3"
            }
          }
        }
      ],
      "certificateStartDate": "2025-02-26",
      "certificateEndDate": "2025-08-26",
      "object": "ALBAÑILERÍA Y PEQUEÑOS TRABAJOS DE CONSTRUCCIÓN EN GENERAL.",
      "mainEntityOfPage": "https://www.contratacion.euskadi.eus/webkpe00-kperoc/es/ac71aBusquedaRegistrosWar/empresa/10047",
      "_links": {
        "self": {
          "name": "MAXIMILIANO BERMUDEZ CACERES",
          "href": "https://api.euskadi.eus/procurements/companies/10047"
        }
      }
    },
    {
      "name": "EDER CAMPO ALBISUA",
      "registrationNumber": "10043",
      "identificationNumber": "78925476X",
      "address": "BARRIO CONCHA 34  BJ",
      "location": {
        "postalCode": "48891",
        "municipality": "Karrantza Harana/Valle de Carranza",
        "county": "Bizkaia",
        "municipalityId": "022",
        "countyId": "48"
      },
      "economicActivities": [
        {
          "id": "1.911",
          "name": "Servicios agrícolas y ganaderos",
          "_links": {
            "self": {
              "name": "Servicios agrícolas y ganaderos",
              "href": "https://api.euskadi.eus/procurements/companies/economic-activities/1.911"
            }
          }
        }
      ],
      "certificateStartDate": "2025-02-25",
      "certificateEndDate": "2025-08-17",
      "object": "SERVICIOS AGRÍCOLAS Y GANADEROS.",
      "mainEntityOfPage": "https://www.contratacion.euskadi.eus/webkpe00-kperoc/es/ac71aBusquedaRegistrosWar/empresa/10043",
      "_links": {
        "self": {
          "name": "EDER CAMPO ALBISUA",
          "href": "https://api.euskadi.eus/procurements/companies/10043"
        }
      }
    },
    {
      "name": "SISTEMAS Y VEHÍCULOS DE ALTA TECNOLOGÍA, S.A.",
      "registrationNumber": "06768",
      "identificationNumber": "A80955537",
      "address": "C/ Federico Salmon, 13 ",
      "location": {
        "postalCode": "28016",
        "municipality": "Madrid",
        "county": "Madrid",
        "municipalityId": "079",
        "countyId": "28"
      },
      "economicActivities": [
        {
          "id": "1.615.1",
          "name": "Venta al por mayor de vehículos, motocicletas, bicicletas y sus accesorios",
          "_links": {
            "self": {
              "name": "Venta al por mayor de vehículos, motocicletas, bicicletas y sus accesorios",
              "href": "https://api.euskadi.eus/procurements/companies/economic-activities/1.615.1"
            }
          }
        },
        {
          "id": "1.617.9",
          "name": "Venta al por mayor interindustrial de otros productos n.c.o.p",
          "_links": {
            "self": {
              "name": "Venta al por mayor interindustrial de otros productos n.c.o.p",
              "href": "https://api.euskadi.eus/procurements/companies/economic-activities/1.617.9"
            }
          }
        }
      ],
      "certificateStartDate": "2025-02-25",
      "certificateEndDate": "2025-08-25",
      "object": "- EL\tPROYECTO Y FABRICACIÓN\tDE MAQUINARIA  DE TODA ÍNDOLE Y DE EQUIPOS, PROCESOS E INSTALACIONES INDUSTRIALES EN GENERAL, ASÍ COMO EL MONTAJE, MODIFICACIÓN Y REPARACIÓN DE LOS MISMOS. - LA COMERCIALIZACIÓN Y VENTA, IMPORTACIÓN Y EXPORTACIÓN, DE MAQUINARIA Y EQUIPOS INDUSTRIALES, CREANDO AL EFECTO LA ORGANIZACIÓN PARA GARANTÍA Y SERVICIOS DE ASISTENCIA NECESARIOS. - LA EXPLOTACIÓN Y COMERCIO DE PATENTES, MODE­LOS, MARCAS Y LICENCIAS, ASÍ COMO LA OBTENCIÓN Y EXPLOTACIÓN DE AQUELLAS, HAYAN SIDO OTORGADAS Y CE­DIDAS POR NACIONALES O EXTRANJEROS. - LA EJECUCIÓN Y DESARROLLO DE TODA CLASE DE PROYECTOS, OBRAS, SERVICIOS Y SUMINISTROS. -INSTALACIÓN DE REDES TELEGRÁFICAS, TELEFONÍA SIN HILOS Y TELEVISIÓN. -COMERCIALIZACIÓN Y VENTA, INCLUSO INTERNACIO­NAL (IMPORTACIÓN Y EXPORTACIÓN) DE VEHÍCULOS.  - CONSTRUCCIÓN DE GRANDES DEPÓSITOS PARA LÍQUI­DOS O GASES, TUBERÍAS DE GRAN TAMAÑO, SECCIONES DE CALDERAS, CALDERAS DE VAPOR, CHIMENEAS, TANQUES METÁLICOS, ASÍ COMO SU INSTALACIÓN ASOCIADA. - PROGRAMACIÓN PARA EQUIPOS, REGISTRO DE DATOS EN SOPORTES DE ENTRADA PARA ORDENADORES, ASÍ COMO LA VENTA DE PROGRAMAS. - VENTA DE EQUIPOS INFORMÁTICOS. -ALQUILER\tY MANTENIMIENTO\t DE MAQUINARIA Y EQUIPOS INDUSTRIALES. - ALQUILER Y  MANTENIMIENTO DE VEHÍCULOS\r\n",
      "mainEntityOfPage": "https://www.contratacion.euskadi.eus/webkpe00-kperoc/es/ac71aBusquedaRegistrosWar/empresa/06768",
      "_links": {
        "self": {
          "name": "SISTEMAS Y VEHÍCULOS DE ALTA TECNOLOGÍA, S.A.",
          "href": "https://api.euskadi.eus/procurements/companies/06768"
        }
      }
    },
    {
      "name": "IMPORT ARRASATE, S.L.",
      "registrationNumber": "08695",
      "identificationNumber": "B20212775",
      "address": "Pol.Ind. Kataide, 25B ",
      "location": {
        "postalCode": "20500",
        "municipality": "Arrasate / Mondragón",
        "county": "Gipuzkoa",
        "municipalityId": "055",
        "countyId": "20"
      },
      "economicActivities": [
        {
          "id": "1.453",
          "name": "Confección en serie de toda clase de prendas de vestir",
          "_links": {
            "self": {
              "name": "Confección en serie de toda clase de prendas de vestir",
              "href": "https://api.euskadi.eus/procurements/companies/economic-activities/1.453"
            }
          }
        },
        {
          "id": "1.619.1",
          "name": "Venta al por mayor de juguetes y artículos de deporte",
          "_links": {
            "self": {
              "name": "Venta al por mayor de juguetes y artículos de deporte",
              "href": "https://api.euskadi.eus/procurements/companies/economic-activities/1.619.1"
            }
          }
        },
        {
          "id": "1.651.2",
          "name": "Venta al por menor de prendas de ropa para el vestido y tocado",
          "_links": {
            "self": {
              "name": "Venta al por menor de prendas de ropa para el vestido y tocado",
              "href": "https://api.euskadi.eus/procurements/companies/economic-activities/1.651.2"
            }
          }
        },
        {
          "id": "1.861.2",
          "name": "Alquiler de locales industriales y otros alquileres n.c.o.p",
          "_links": {
            "self": {
              "name": "Alquiler de locales industriales y otros alquileres n.c.o.p",
              "href": "https://api.euskadi.eus/procurements/companies/economic-activities/1.861.2"
            }
          }
        }
      ],
      "certificateStartDate": "2025-02-25",
      "certificateEndDate": "2025-08-17",
      "object": "LA FABRICACIÓN, COMPRAVENTA Y ACTIVIDADES DE INTERMEDIACIÓN EN RELACIÓN CON ARTÍCULOS DEPORTIVOS SIENDO SU OBJETO PRINCIPAL EL CÓDIGO C.N.A.E. 1419: CONFECCIÓN DE OTRAS PRENDAS DE VESTIR Y ACCESORIOS.",
      "mainEntityOfPage": "https://www.contratacion.euskadi.eus/webkpe00-kperoc/es/ac71aBusquedaRegistrosWar/empresa/08695",
      "_links": {
        "self": {
          "name": "IMPORT ARRASATE, S.L.",
          "href": "https://api.euskadi.eus/procurements/companies/08695"
        }
      }
    }
  ]
}