{
  "totalItems": 9042,
  "totalPages": 905,
  "currentPage": 99,
  "itemsOfPage": 10,
  "items": [
    {
      "name": "MARIA BEGOÑA CARCEDO MENDIVIL",
      "registrationNumber": "09973",
      "identificationNumber": "11910040L",
      "address": "Calle Barroeta Aldamar, 6, 3º Izda. (48001)",
      "location": {
        "postalCode": "48001",
        "municipality": "Bilbao",
        "county": "Bizkaia",
        "municipalityId": "020",
        "countyId": "48"
      },
      "economicActivities": [
        {
          "id": "2.732",
          "name": "Procuradores",
          "_links": {
            "self": {
              "name": "Procuradores",
              "href": "https://api.euskadi.eus/procurements/companies/economic-activities/2.732"
            }
          }
        }
      ],
      "certificateStartDate": "2026-01-07",
      "certificateEndDate": "2026-06-08",
      "object": "PROCURADORES.",
      "mainEntityOfPage": "https://www.contratacion.euskadi.eus/webkpe00-kperoc/es/ac71aBusquedaRegistrosWar/empresa/09973",
      "_links": {
        "self": {
          "name": "MARIA BEGOÑA CARCEDO MENDIVIL",
          "href": "https://api.euskadi.eus/procurements/companies/09973"
        }
      }
    },
    {
      "name": "MONTAJES ELECTRICOS NABAR, S.L.",
      "registrationNumber": "07894",
      "identificationNumber": "B20094991",
      "address": "C/ZUAZNABAR, 135",
      "location": {
        "postalCode": "20180",
        "municipality": "Oiartzun",
        "county": "Gipuzkoa",
        "municipalityId": "063",
        "countyId": "20"
      },
      "economicActivities": [
        {
          "id": "1.504.1",
          "name": "Instalaciones eléctricas en general",
          "_links": {
            "self": {
              "name": "Instalaciones eléctricas en general",
              "href": "https://api.euskadi.eus/procurements/companies/economic-activities/1.504.1"
            }
          }
        }
      ],
      "certificateStartDate": "2026-01-07",
      "certificateEndDate": "2026-06-10",
      "object": "LOS MONTAJES ELÉCTRICOS, MAQUINARIA Y APARATOS ELÉCTRICOS",
      "mainEntityOfPage": "https://www.contratacion.euskadi.eus/webkpe00-kperoc/es/ac71aBusquedaRegistrosWar/empresa/07894",
      "_links": {
        "self": {
          "name": "MONTAJES ELECTRICOS NABAR, S.L.",
          "href": "https://api.euskadi.eus/procurements/companies/07894"
        }
      }
    },
    {
      "name": "LACUNZA HERMANOS, S.L.",
      "registrationNumber": "06906",
      "identificationNumber": "B31455983",
      "address": "CARRETERA PAMPLONA KM 4 TAJONAR",
      "location": {
        "postalCode": "31192",
        "municipality": "Aranguren",
        "county": "Navarra",
        "municipalityId": "023",
        "countyId": "31"
      },
      "economicActivities": [
        {
          "id": "1.502.3",
          "name": "Consolidación y preparación de terrenos para la realización de obras civiles",
          "_links": {
            "self": {
              "name": "Consolidación y preparación de terrenos para la realización de obras civiles",
              "href": "https://api.euskadi.eus/procurements/companies/economic-activities/1.502.3"
            }
          }
        }
      ],
      "certificateStartDate": "2026-01-07",
      "certificateEndDate": "2026-06-13",
      "object": "A) LA REALIZACIÓN DE TODA CLASE DE LABORES DE MOVIMIENTOS DE TIERRA Y EXCAVACIONES. B) LA PROMOCIÓN Y CONSTRUCCIÓN, REPARACIÓN Y MANTENIMIENTO DE TODA CLASE DE EDIFICIOS, LOCALES Y VIVIENDAS. C) LA REALIZACIÓN DE TODA CLASE DE OBRAS DE ALBAÑILERÍA POR CUENTA PROPIA O AJENA. D) LA COMERCIALIZACIÓN, COMPRA, VENTA, REPARACIÓN Y DISTRIBUCIÓN DE TODO TIPO DE MATERIALES Y PRODUCTOS NECESARIOS PARA LA CONSTRUCCIÓN",
      "mainEntityOfPage": "https://www.contratacion.euskadi.eus/webkpe00-kperoc/es/ac71aBusquedaRegistrosWar/empresa/06906",
      "_links": {
        "self": {
          "name": "LACUNZA HERMANOS, S.L.",
          "href": "https://api.euskadi.eus/procurements/companies/06906"
        }
      }
    },
    {
      "name": "NUVI ARABA, S.L.",
      "registrationNumber": "06955",
      "identificationNumber": "B01137587",
      "address": "CAPELAMENDI, 1 PAB.46-47",
      "location": {
        "postalCode": "01013",
        "municipality": "Vitoria-Gasteiz",
        "county": "Araba/Álava",
        "municipalityId": "059",
        "countyId": "01"
      },
      "economicActivities": [
        {
          "id": "1.504.1",
          "name": "Instalaciones eléctricas en general",
          "_links": {
            "self": {
              "name": "Instalaciones eléctricas en general",
              "href": "https://api.euskadi.eus/procurements/companies/economic-activities/1.504.1"
            }
          }
        },
        {
          "id": "1.504.2",
          "name": "Instalaciones de fontanería",
          "_links": {
            "self": {
              "name": "Instalaciones de fontanería",
              "href": "https://api.euskadi.eus/procurements/companies/economic-activities/1.504.2"
            }
          }
        },
        {
          "id": "1.617.9",
          "name": "Venta al por mayor interindustrial de otros productos n.c.o.p",
          "_links": {
            "self": {
              "name": "Venta al por mayor interindustrial de otros productos n.c.o.p",
              "href": "https://api.euskadi.eus/procurements/companies/economic-activities/1.617.9"
            }
          }
        },
        {
          "id": "1.692",
          "name": "Reparación de maquinaria industrial",
          "_links": {
            "self": {
              "name": "Reparación de maquinaria industrial",
              "href": "https://api.euskadi.eus/procurements/companies/economic-activities/1.692"
            }
          }
        }
      ],
      "certificateStartDate": "2026-01-07",
      "certificateEndDate": "2026-06-14",
      "object": "LA COMPRAVENTA AL POR MAYOR DE TODO TIPO DE MAQUINARIA RELACIONADA CON INSTALACIONES DE FONTANERÍA Y CALEFACCIÓN, ASÍ COMO LA REPRESENTACIÓN DE MOTORES, ELECTROBOMBAS, MOTORES ELÉCTRICOS Y TODO TIPO DE MAQUINARIA ELÉCTRICA. B) LA COMPRA-VENTA AL POR MAYOR DE TODO TIPO DE ELEMENTOS Y ACCESORIOS RELACIONADOS CON LA FONTANERÍA Y CALEFACCIÓN. C) LA INSTALACIÓN Y MANTENIMIENTO DE TODO TIPO DE INSTALACIONES ELÉCTRICAS Y AUTOMATISMOS",
      "mainEntityOfPage": "https://www.contratacion.euskadi.eus/webkpe00-kperoc/es/ac71aBusquedaRegistrosWar/empresa/06955",
      "_links": {
        "self": {
          "name": "NUVI ARABA, S.L.",
          "href": "https://api.euskadi.eus/procurements/companies/06955"
        }
      }
    },
    {
      "name": "IRUDIGITAL, S.L.",
      "registrationNumber": "05118",
      "identificationNumber": "B95667044",
      "address": "Calle Ledesma 10Bis, 4º planta, Dpto 5º",
      "location": {
        "postalCode": "48001",
        "municipality": "Bilbao",
        "county": "Bizkaia",
        "municipalityId": "020",
        "countyId": "48"
      },
      "economicActivities": [
        {
          "id": "1.844",
          "name": "Servicios de publicidad, relaciones públicas y similares",
          "_links": {
            "self": {
              "name": "Servicios de publicidad, relaciones públicas y similares",
              "href": "https://api.euskadi.eus/procurements/companies/economic-activities/1.844"
            }
          }
        },
        {
          "id": "1.848.2",
          "name": "SERVICIOS DE OFICINA FLEXIBLE, \"COWORKING\" Y CENTROS DE NEGOCIOS",
          "_links": {
            "self": {
              "name": "SERVICIOS DE OFICINA FLEXIBLE, \"COWORKING\" Y CENTROS DE NEGOCIOS",
              "href": "https://api.euskadi.eus/procurements/companies/economic-activities/1.848.2"
            }
          }
        },
        {
          "id": "1.861.2",
          "name": "Alquiler de locales industriales y otros alquileres n.c.o.p",
          "_links": {
            "self": {
              "name": "Alquiler de locales industriales y otros alquileres n.c.o.p",
              "href": "https://api.euskadi.eus/procurements/companies/economic-activities/1.861.2"
            }
          }
        },
        {
          "id": "1.932.1",
          "name": "Enseñanza de formación y perfeccionamiento profesional no superior",
          "_links": {
            "self": {
              "name": "Enseñanza de formación y perfeccionamiento profesional no superior",
              "href": "https://api.euskadi.eus/procurements/companies/economic-activities/1.932.1"
            }
          }
        }
      ],
      "certificateStartDate": "2026-01-07",
      "certificateEndDate": "2026-06-14",
      "object": "LA EXPLOTACIÓN DE UNA AGENCIA DE PUBLICIDAD INTERACTIVA, DEDICADA A LA REALIZACIÓN DE ACTIVIDADES DE MARKETING ON-LINE, INCLUYENDO LA CREACIÓN, DESARROLLO E INNOVACIÓN DE PÁGINAS WEB. Y EN GENERAL EL COMERCIO Y DISTRIBUCIÓN AL POR MENOR DE TODA CLASE DE PRODUCTOS PROMOCIONALES, MEDIANTE CORREO, CATÁLOGOS, TELEFONÍA, INTERNET Y CUALQUIER OTRO MEDIO DE DIFUSIÓN. Y EN GENERAL LA REALIZACIÓN DE ACTIVIDADES DE MARKETING, DESTINADAS A PERSONAS FÍSICAS O JURÍDICAS, YA SEAN PÚBLICAS O PRIVADAS",
      "mainEntityOfPage": "https://www.contratacion.euskadi.eus/webkpe00-kperoc/es/ac71aBusquedaRegistrosWar/empresa/05118",
      "_links": {
        "self": {
          "name": "IRUDIGITAL, S.L.",
          "href": "https://api.euskadi.eus/procurements/companies/05118"
        }
      }
    },
    {
      "name": "ADUR EKINTZA KULTURALAK, S.L.L.",
      "registrationNumber": "07134",
      "identificationNumber": "B95677746",
      "address": "POLIGONO INDUSTRIAL AURRERA M-8 PAB. 1B",
      "location": {
        "postalCode": "48510",
        "municipality": "Valle de Trápaga-Trapagaran",
        "county": "Bizkaia",
        "municipalityId": "080",
        "countyId": "48"
      },
      "economicActivities": [
        {
          "id": "1.966.9",
          "name": "Otros servicios culturales n.c.o.p",
          "_links": {
            "self": {
              "name": "Otros servicios culturales n.c.o.p",
              "href": "https://api.euskadi.eus/procurements/companies/economic-activities/1.966.9"
            }
          }
        }
      ],
      "certificateStartDate": "2026-01-07",
      "certificateEndDate": "2026-07-07",
      "object": "LA PRESTACIÓN DE SERVICIOS CULTURALES; LA GESTIÓN INTEGRAL DE ESPECTÁCULOS, QUE INCLUYE SU PRODUCCIÓN Y EL ALQUILER, LA CESIÓN DEL MATERIAL NECESARIO PARA SU REALIZACIÓN Y DIFUSIÓN, INCLUSO LUZ Y SONIDO, ASÍ COMO LOS PORTES Y TRANSPORTES DE PERSONAS, INFRAESTRUCTURAS, ATREZZO Y EQUIPOS PARA TODO TIPÒ DE ESPECTÁCULOS. ALQUILER, VENTA, CONSTRUCCIÓN Y MONTAJE, PROGRAMACIÓN Y ASESORAMIENTO, DIRECCIÓN DE INSTALACIONES DE RECREO, TANTO INFANTILES COMO PARA ADULTOS, BIEN COMPLETAS, BIEN DE CUALQUIERA DE LAS MAQUINARIAS, HERRAMIENTAS, CARPAS, TOLDOS, ESCENARIOS, BARANDILLAS Y MOBILIARIO PROPIO DE LAS MISMAS. PROMOCIÓN, ASESORAMIENTO, MEDIACIÓN Y CONTRATACIÓN DE ARTISTAS. CONTROL, ELABORACIÓN Y EJECUCIÓN INTEGRAL DE CAMPAÑAS SOBRE PROGRAMACIÓN DE EVENTOS, FERIAS, CONGRESOS, COMPETICIONES DEPORTIVAS Y ACTIVIDADES DE OCIO",
      "mainEntityOfPage": "https://www.contratacion.euskadi.eus/webkpe00-kperoc/es/ac71aBusquedaRegistrosWar/empresa/07134",
      "_links": {
        "self": {
          "name": "ADUR EKINTZA KULTURALAK, S.L.L.",
          "href": "https://api.euskadi.eus/procurements/companies/07134"
        }
      }
    },
    {
      "name": "INGECOR ESTUDIOS Y COORDINACIONES, S.L.",
      "registrationNumber": "08911",
      "identificationNumber": "B95379012",
      "address": "Fanderia 2, Oficina 303",
      "location": {
        "postalCode": "48901",
        "municipality": "Barakaldo",
        "county": "Bizkaia",
        "municipalityId": "013",
        "countyId": "48"
      },
      "economicActivities": [
        {
          "id": "1.843.1",
          "name": "Servicios técnicos de ingeniería",
          "_links": {
            "self": {
              "name": "Servicios técnicos de ingeniería",
              "href": "https://api.euskadi.eus/procurements/companies/economic-activities/1.843.1"
            }
          }
        }
      ],
      "certificateStartDate": "2026-01-07",
      "certificateEndDate": "2026-07-07",
      "object": "A) . - EL SERVICIOS DE INGENIERÍA TÉCNICA, COORDINACIÓN DE SEGURIDAD Y SALUD, PLANES Y ESTUDIOS DE SEGURIDAD, EN LAS OBRAS DE CONSTRUCCIÓN. B) . - Y, LA FORMACIÓN EN PREVENCIÓN DE RIESGOS LABORALES.",
      "mainEntityOfPage": "https://www.contratacion.euskadi.eus/webkpe00-kperoc/es/ac71aBusquedaRegistrosWar/empresa/08911",
      "_links": {
        "self": {
          "name": "INGECOR ESTUDIOS Y COORDINACIONES, S.L.",
          "href": "https://api.euskadi.eus/procurements/companies/08911"
        }
      }
    },
    {
      "name": "SOFIVER SOSTENIBILIDAD Y FINANCIACION, S.L.",
      "registrationNumber": "07273",
      "identificationNumber": "B95574224",
      "address": "Rodriguez Arias 17, 2º,",
      "location": {
        "postalCode": "48011",
        "municipality": "Bilbao",
        "county": "Bizkaia",
        "municipalityId": "020",
        "countyId": "48"
      },
      "economicActivities": [
        {
          "id": "1.841",
          "name": "Servicios jurídicos",
          "_links": {
            "self": {
              "name": "Servicios jurídicos",
              "href": "https://api.euskadi.eus/procurements/companies/economic-activities/1.841"
            }
          }
        },
        {
          "id": "1.847",
          "name": "Servicios de consultoría",
          "_links": {
            "self": {
              "name": "Servicios de consultoría",
              "href": "https://api.euskadi.eus/procurements/companies/economic-activities/1.847"
            }
          }
        }
      ],
      "certificateStartDate": "2026-01-07",
      "certificateEndDate": "2026-07-07",
      "object": "- SERVICIOS DE CONSULTORÍA Y ASESORAMIENTO TÉCNICO EN TEMAS RELACIONADOS CON LA SOSTENIBILIDAD, LA INNOVACIÓN, LA DIGITALIZACIÓN Y LA FINANCIACIÓN SOSTENIBLE EN EL ÁMBITO DE LA TRANSICIÓN VERDE Y DIGITAL DE LA ECONOMÍA. - LOS SERVICIOS DE CONSULTORÍA Y/O ASESORAMIENTO EN GENERAL A EMPRESAS, INSTITUCIONES PÚBLICAS U OTRAS ENTIDADES/ORGANIZACIONES CON O SIN ÁNIMO DE LUCRO. - Y LA COMPRAVENTA, ALQUILER Y GESTIÓN DE BIENES INMUEBLES PROPIOS O DE TERCEROS.",
      "mainEntityOfPage": "https://www.contratacion.euskadi.eus/webkpe00-kperoc/es/ac71aBusquedaRegistrosWar/empresa/07273",
      "_links": {
        "self": {
          "name": "SOFIVER SOSTENIBILIDAD Y FINANCIACION, S.L.",
          "href": "https://api.euskadi.eus/procurements/companies/07273"
        }
      }
    },
    {
      "name": "URBEGI SERVICIOS MEDIOAMBIENTE, S.L.",
      "registrationNumber": "04795",
      "identificationNumber": "B95271227",
      "address": "POL. IND. EL PARAMO, B-7",
      "location": {
        "postalCode": "48800",
        "municipality": "Balmaseda",
        "county": "Bizkaia",
        "municipalityId": "090",
        "countyId": "48"
      },
      "economicActivities": [
        {
          "id": "1.911",
          "name": "Servicios agrícolas y ganaderos",
          "_links": {
            "self": {
              "name": "Servicios agrícolas y ganaderos",
              "href": "https://api.euskadi.eus/procurements/companies/economic-activities/1.911"
            }
          }
        },
        {
          "id": "1.922",
          "name": "Servicios de limpieza",
          "_links": {
            "self": {
              "name": "Servicios de limpieza",
              "href": "https://api.euskadi.eus/procurements/companies/economic-activities/1.922"
            }
          }
        }
      ],
      "certificateStartDate": "2026-01-07",
      "certificateEndDate": "2026-06-13",
      "classification": [
        {
          "id": "S",
          "name": "Servicios",
          "groups": [
            {
              "id": "U",
              "subgroups": [
                {
                  "id": "01",
                  "name": "Servicios de limpieza ",
                  "categories": [
                    {
                      "id": "4",
                      "name": "Desde 600.001 Hasta 1.1200.000",
                      "_links": {
                        "self": {
                          "name": "Desde 600.001 Hasta 1.1200.000",
                          "href": "https://api.euskadi.eus/procurements/companies/types/S/categories/4"
                        }
                      }
                    }
                  ],
                  "_links": {
                    "self": {
                      "name": "Servicios de limpieza ",
                      "href": "https://api.euskadi.eus/procurements/companies/types/S/groups/U/subgroups/01"
                    }
                  }
                }
              ],
              "_links": {
                "self": {
                  "href": "https://api.euskadi.eus/procurements/companies/types/S/groups/U"
                }
              }
            }
          ],
          "_links": {
            "self": {
              "name": "Servicios",
              "href": "https://api.euskadi.eus/procurements/companies/types/S"
            }
          }
        }
      ],
      "object": "PRESTACIÓN Y GESTIÓN DE SERVICIOS DE LIMPIEZA Y JARDINERÍA. CONSULTORÍA, ACTIVIDADES DE PRESTACIÓN DE SERVICIOS Y SUBCONTRATACIÓN A LOS SECTORES INDUSTRIALES Y DE SERVICIOS. ARRENDAMIENTO INDUSTRIAL DE ESTACIONES DE SERVICIO DE VENTA DE CARBURANTES. COMPRA Y VENTA AL POR MENOR DE PRODUCTOS DE ALIMENTACIÓN, PRENSA Y TABACO. COMPRA Y VENTA DE LUBRICANTES Y ACCESORIOS PARA VEHÍCULOS A MOTOR",
      "mainEntityOfPage": "https://www.contratacion.euskadi.eus/webkpe00-kperoc/es/ac71aBusquedaRegistrosWar/empresa/04795",
      "_links": {
        "self": {
          "name": "URBEGI SERVICIOS MEDIOAMBIENTE, S.L.",
          "href": "https://api.euskadi.eus/procurements/companies/04795"
        }
      }
    },
    {
      "name": "Electricidad Ugao SLU",
      "registrationNumber": "07262",
      "identificationNumber": "B48244503",
      "address": "Poligono Industrial Usila C/2 PAb.4",
      "location": {
        "postalCode": "48490",
        "municipality": "Ugao-Miraballes",
        "county": "Bizkaia",
        "municipalityId": "065",
        "countyId": "48"
      },
      "economicActivities": [
        {
          "id": "1.504.1",
          "name": "Instalaciones eléctricas en general",
          "_links": {
            "self": {
              "name": "Instalaciones eléctricas en general",
              "href": "https://api.euskadi.eus/procurements/companies/economic-activities/1.504.1"
            }
          }
        },
        {
          "id": "1.504.12",
          "name": "Instalaciones eléctricas en toda clase de edificios",
          "_links": {
            "self": {
              "name": "Instalaciones eléctricas en toda clase de edificios",
              "href": "https://api.euskadi.eus/procurements/companies/economic-activities/1.504.12"
            }
          }
        },
        {
          "id": "1.615.4",
          "name": "Venta al por mayor de aparatos y material radioeléctrico y electrónico",
          "_links": {
            "self": {
              "name": "Venta al por mayor de aparatos y material radioeléctrico y electrónico",
              "href": "https://api.euskadi.eus/procurements/companies/economic-activities/1.615.4"
            }
          }
        },
        {
          "id": "1.921.1",
          "name": "Servicios de limpieza en calles, vías públicas y jardines",
          "_links": {
            "self": {
              "name": "Servicios de limpieza en calles, vías públicas y jardines",
              "href": "https://api.euskadi.eus/procurements/companies/economic-activities/1.921.1"
            }
          }
        },
        {
          "id": "1.922",
          "name": "Servicios de limpieza",
          "_links": {
            "self": {
              "name": "Servicios de limpieza",
              "href": "https://api.euskadi.eus/procurements/companies/economic-activities/1.922"
            }
          }
        }
      ],
      "certificateStartDate": "2026-01-07",
      "certificateEndDate": "2026-06-09",
      "object": "EXPLOTACIÓN Y PRESTACIÓN DEL NEGOCIO O SERVICIO DE INSTALACIÓN, REPARACIÓN Y VENTA DE TODA CLASE DE MAQUINARIA Y MATERIAL ELÉCTRICO, INDUSTRIAL Y DOMÉSTICO, INCLUIDOS LOS ACCESORIOS Y RECAMBIOS",
      "mainEntityOfPage": "https://www.contratacion.euskadi.eus/webkpe00-kperoc/es/ac71aBusquedaRegistrosWar/empresa/07262",
      "_links": {
        "self": {
          "name": "Electricidad Ugao SLU",
          "href": "https://api.euskadi.eus/procurements/companies/07262"
        }
      }
    }
  ]
}