{
  "totalItems": 9042,
  "totalPages": 905,
  "currentPage": 618,
  "itemsOfPage": 10,
  "items": [
    {
      "name": "EXCAVACIONES IMANOL LASA, S.L.",
      "registrationNumber": "04240",
      "identificationNumber": "B20680013",
      "address": "PORTUETXE 37-3º OFICINA 8",
      "location": {
        "postalCode": "20018",
        "municipality": "Donostia / San Sebastián",
        "county": "Gipuzkoa",
        "municipalityId": "069",
        "countyId": "20"
      },
      "economicActivities": [
        {
          "id": "1.722",
          "name": "Transporte de mercancías por carretera",
          "_links": {
            "self": {
              "name": "Transporte de mercancías por carretera",
              "href": "https://api.euskadi.eus/procurements/companies/economic-activities/1.722"
            }
          }
        },
        {
          "id": "1.852",
          "name": "Alquiler de maquinaria y equipo para la construcción",
          "_links": {
            "self": {
              "name": "Alquiler de maquinaria y equipo para la construcción",
              "href": "https://api.euskadi.eus/procurements/companies/economic-activities/1.852"
            }
          }
        }
      ],
      "certificateStartDate": "2019-01-31",
      "certificateEndDate": "2019-05-28",
      "object": "LA REALIZACIÓN DE TRABAJOS DE EXCAVACIÓN, ALLANAMIENTO Y DEMOLICIÓN DE TODO TIPO DE OBRAS, CIVILES Y EDIFICATORIAS; Y EL TRANSPORTE DE MERCANCIAS DE SERVICIO PÚBLICO",
      "mainEntityOfPage": "https://www.contratacion.euskadi.eus/webkpe00-kperoc/es/ac71aBusquedaRegistrosWar/empresa/04240",
      "_links": {
        "self": {
          "name": "EXCAVACIONES IMANOL LASA, S.L.",
          "href": "https://api.euskadi.eus/procurements/companies/04240"
        }
      }
    },
    {
      "name": "NEXTEL, S.A.",
      "registrationNumber": "02570",
      "identificationNumber": "A48277404",
      "address": "PARQUE TECNOLÓGICO EDIF. 207 -B 1º",
      "location": {
        "postalCode": "48170",
        "municipality": "Zamudio",
        "county": "Bizkaia",
        "municipalityId": "905",
        "countyId": "48"
      },
      "economicActivities": [
        {
          "id": "1.504.1",
          "name": "Instalaciones eléctricas en general",
          "_links": {
            "self": {
              "name": "Instalaciones eléctricas en general",
              "href": "https://api.euskadi.eus/procurements/companies/economic-activities/1.504.1"
            }
          }
        },
        {
          "id": "1.843.9",
          "name": "Otros servicios técnicos n.c.o.p",
          "_links": {
            "self": {
              "name": "Otros servicios técnicos n.c.o.p",
              "href": "https://api.euskadi.eus/procurements/companies/economic-activities/1.843.9"
            }
          }
        },
        {
          "id": "1.845",
          "name": "Explotación electrónica por cuenta de terceros",
          "_links": {
            "self": {
              "name": "Explotación electrónica por cuenta de terceros",
              "href": "https://api.euskadi.eus/procurements/companies/economic-activities/1.845"
            }
          }
        }
      ],
      "certificateStartDate": "2019-01-29",
      "certificateEndDate": "2019-07-23",
      "object": "TODA CLASE DE ACTIVIDADES RELACIONADAS CON EL MANTENIMIENTO DE REDES Y SISTEMAS DE TELECOMUNICACIÓN ENTRE ORDENADORES Y TERMINALES ASOCIADOS, ASÍ COMO SU DISEÑO, REALIZACIÓN, INSTALACIÓN Y EXPLOTACIÓN; NEGOCIOS DE IMPORTACIÓN Y EXPORTACIÓN Y CUALESQUIERA OTROS QUE CON TODO ELLO TENGA RELACIÓN, COMO DISTRIBUCIÓN, VENTA Y ALQUILER DE MATERIAL INFORMÁTICO Y DE TELECOMUNICACIONES, ALQUILER DE SISTEMAS TELEMÁTICOS PARA ALBERGAR INFORMACIÓN DE TERCEROS Y GESTIÓN ADMINISTRATIVA DEL MISMO ",
      "mainEntityOfPage": "https://www.contratacion.euskadi.eus/webkpe00-kperoc/es/ac71aBusquedaRegistrosWar/empresa/02570",
      "_links": {
        "self": {
          "name": "NEXTEL, S.A.",
          "href": "https://api.euskadi.eus/procurements/companies/02570"
        }
      }
    },
    {
      "name": "HITZEKO, S.L.",
      "registrationNumber": "06043",
      "identificationNumber": "B20835583",
      "address": "Perez Arregi, 1, behea",
      "location": {
        "postalCode": "20730",
        "municipality": "Azpeitia",
        "county": "Gipuzkoa",
        "municipalityId": "018",
        "countyId": "20"
      },
      "economicActivities": [
        {
          "id": "1.476.9",
          "name": "Otras ediciones n.c.o.p",
          "_links": {
            "self": {
              "name": "Otras ediciones n.c.o.p",
              "href": "https://api.euskadi.eus/procurements/companies/economic-activities/1.476.9"
            }
          }
        },
        {
          "id": "1.844",
          "name": "Servicios de publicidad, relaciones públicas y similares",
          "_links": {
            "self": {
              "name": "Servicios de publicidad, relaciones públicas y similares",
              "href": "https://api.euskadi.eus/procurements/companies/economic-activities/1.844"
            }
          }
        },
        {
          "id": "1.849.3",
          "name": "Servicios de traducción y similares",
          "_links": {
            "self": {
              "name": "Servicios de traducción y similares",
              "href": "https://api.euskadi.eus/procurements/companies/economic-activities/1.849.3"
            }
          }
        },
        {
          "id": "1.961.1",
          "name": "Producción de películas cinematográficas (incluso vídeos)",
          "_links": {
            "self": {
              "name": "Producción de películas cinematográficas (incluso vídeos)",
              "href": "https://api.euskadi.eus/procurements/companies/economic-activities/1.961.1"
            }
          }
        }
      ],
      "certificateStartDate": "2019-01-29",
      "certificateEndDate": "2019-06-04",
      "object": "EUSKARAREN NORMALIZAZIOA, HURRENGO ZERBITZUAK ESKAINIZ: ITZULPENAK, ZUZENKETAK, KOMUNIKAZIO ARLOAREKIN ERLAZIONATURIK DAUDEN EKINTZAK GUZTIAK, 'BAI EUSKARARI' ZIURTAGIRIA DUTEN ERAKUNDEEN ARTEAN KONPROMISOAK BETETZEKO LANGUNTZAK ETA MIKROPLANAK",
      "mainEntityOfPage": "https://www.contratacion.euskadi.eus/webkpe00-kperoc/es/ac71aBusquedaRegistrosWar/empresa/06043",
      "_links": {
        "self": {
          "name": "HITZEKO, S.L.",
          "href": "https://api.euskadi.eus/procurements/companies/06043"
        }
      }
    },
    {
      "name": "INEK INGENIERÍA Y CONSULTORIA, S.L.",
      "registrationNumber": "05577",
      "identificationNumber": "B95697397",
      "address": "C/ ESCUELA ARTES Y OFICIOS, 6-BAJO",
      "location": {
        "postalCode": "48901",
        "municipality": "Barakaldo",
        "county": "Bizkaia",
        "municipalityId": "013",
        "countyId": "48"
      },
      "economicActivities": [
        {
          "id": "1.843.1",
          "name": "Servicios técnicos de ingeniería",
          "_links": {
            "self": {
              "name": "Servicios técnicos de ingeniería",
              "href": "https://api.euskadi.eus/procurements/companies/economic-activities/1.843.1"
            }
          }
        }
      ],
      "certificateStartDate": "2019-01-28",
      "certificateEndDate": "2019-07-03",
      "object": "A) LA PROMOCIÓN, LA REALIZACIÓN DE ESTUDIOS E INFORMES, EL ASESORAMIENTO Y LA CONSULTORÍA, LA DIRECCIÓN Y CONTROL, LA PROMOCIÓN, EJECUCIÓN Y MANTENIMIENTO Y REPARACIÓN DE TODA CLASE DE OBRAS CIVILEES, INDUSTRIALES O DE EDIFICACIÓN, PÚBLICAS O PRIVADAS, POR CUENTA PROPIA O AJENA. B) LA COMPRAVENTA Y ARRENDAMIENTO DE INMUEBLES, LA ADQUISICIÓN, TENENCIA Y DISFRUTE EN GENERAL DE TODA CLASE DE TÍTULOS Y VALORES MOBILIARIOS. C) LAS ACTIVIDADES DE FORMACIÓN EMPRESARIAL, PROFESIONAL Y ACADÉMICA, INCLUYENDO LA IMPARTICIÓN Y ORGANIZACIÓN DE CURSOS Y SEMINARIOS, ASÍ COMO LA EDICIÓN Y DISTRIBUCIÓN DE MANUALES Y LIBROS DE ENSEÑANZA. D) LA REALIZACIÓN DE TRABAJOS DE CONSULTORÍA Y ASESORAMIENTO, ASÍ COMO LA ELABORACIÓN DE INFORMES, EN TODO LO RELACIONADO CON LA PLANIFICACIÓN, CONTROL Y ORGANIZACIÓN DE EMPRESAS",
      "mainEntityOfPage": "https://www.contratacion.euskadi.eus/webkpe00-kperoc/es/ac71aBusquedaRegistrosWar/empresa/05577",
      "_links": {
        "self": {
          "name": "INEK INGENIERÍA Y CONSULTORIA, S.L.",
          "href": "https://api.euskadi.eus/procurements/companies/05577"
        }
      }
    },
    {
      "name": "ALAUDA INGENIERÍA, S.A.",
      "registrationNumber": "06038",
      "identificationNumber": "A85166270",
      "address": "C/Zurbano 73, 2º ext izda",
      "location": {
        "postalCode": "28010",
        "municipality": "Madrid",
        "county": "Madrid",
        "municipalityId": "079",
        "countyId": "28"
      },
      "economicActivities": [
        {
          "id": "1.843.1",
          "name": "Servicios técnicos de ingeniería",
          "_links": {
            "self": {
              "name": "Servicios técnicos de ingeniería",
              "href": "https://api.euskadi.eus/procurements/companies/economic-activities/1.843.1"
            }
          }
        }
      ],
      "certificateStartDate": "2019-01-28",
      "certificateEndDate": "2019-05-20",
      "object": "EJECUCIÓN. REALIZACIÓN, DIRECCIÓN Y SUPERVISIÓN DE ESTUDIOS Y PROYECTOS DE TODO TIPO RELACIONADOS CON LAS OBRAS PÚBLICAS (CARRETERAS, FERROCARRILES. PRESAS. PUERTOS, ETC). LOS TRANSPORTES EL URBANISMO, LA ENERGÍA, LA SEGURIDAD Y SALUD Y EL MEDIO AMBIENTE. SERVICIOS AUXILIARES PARA TRABAJOS ADMINISTRATIVOS DE ARCHIVO (INCLUSO DIGITAL) Y SIMILARES. TRABAJOS ADMINISTRATIVOS DE DISTRIBUCIÓN Y ARCHIVO DE TODO TIPO DE DOCUMENTOS, ASI COMO TRABAJOS DE FOTOCOPIADO, DIGITALIZACIÓN, INDEXACIÓN, EXPURGADO, RECONOCIMIENTOS DE TEXTO,FRANQUEO Y OTROS. SERVICIOS DE CONSERVACIÓN DE CARRETERAS. FERROCARRILES, CANALES, PUERTOS, AEROPUERTOS, PRESAS, ESTACIONES DE BOMBEO. PARQUES Y EN GENERAL TODO TIPO DE OBRAS PÚBLICAS Y BIENES INMUEBLES. TRABAJOS SOBRE LA SEGURIDAD Y SALUD DE LOS TRABAJADORES RELATIVOS A:\r\nCOORDINACIÓN DE SEGUNDAD Y SALUD EN FASE DE PROYECTOS Y OBRA. REDACCIÓN Y SUPERVISIÓN DE ESTUDIOS Y PLANES DE SEGURIDAD Y SALUD. INFORMES Y CONSULTORÍA EN PREVENCIÓN DE RRESGOS LABORALES INVESTIGACIÓN Y ASESORARNTENTO TÉCNICO EN MATERIA DE PREVENCIÓN. FORMACIÓN EN MATERIA DE SEGURIDAD Y SALUD. ESTUDIOS Y AUDITORÍAS DE SEGURIDAD VIAL. TRABAJOS COMO RESPONSABLES DE SEGURIDAD O INSPECCIÓN DE TÚNELES. LA DIRECCIÓN. GESTIÓN. SUPERVISIÓN Y CONTROL DE LOS CONTRATOS DE CONCESIONES ADMINISTRATIVAS (CON INDICADORES O SIN ELLOS) PARA LA CONSTRUCCIÓN Y/O CONSERVACIÓN Y EXPLOTACIÓN DE CARRETERAS, FERROCARRILES, CANALES, PUERTOS, AEROPUERTOS, PRESAS, ESTACIONES DE BOMBEO, Y EN GENERAL TODO TIPO DE OBRAS PÚBLICAS Y BIENES INMUEBLES. REALIZACIÓN DE TRABAJOS DE CONTROL Y VIGILANCIA DE OBRAS PÚBLICAS (CARRETERAS, FERROCARRILES. PRESAS. PUERTOS. ETC). SERVICIOS DE PREVENCIÓN DE INCENDIOS FORESTALES SERVICIOS DE PROTECCIÓN DE ESPECIES. SERVICIOS DE PROTECCIÓN MEDIOAMBIENTAL. CONSERVACIÓN Y MANTENIMIENTO DE MONUMENTOS Y EDIFICIOS SINGULARES. GESTIÓN DE LOS EXPEDIENTES EXPROPIATORIOS RELACIONADOS CON LA CONSTRUCCIÓN DE TODO TIPO DE OBRAS PÚBLICAS. REALIZACIÓN DE MATERIAL AUDIOVISUAL. REALIZACIÓN DE INFORMES SOBRE AUTORIZACIONES COMPLEMENTARIAS DE CIRCULACIÓN DE TRANSPORTES ESPECIALES. TRABAJOS DE JARDINERÍA, PLANTACIÓN REFORESTACIÓN, MANTENIMIENTO Y CONSERVACIÓN DE PARQUES. JARDINES, ESPACIOS NATURALES, TALUDES, MARGENES Y ELEMENTOS ANEJOS. OBRAS DE CREACIÓN Y REMODELACIÓN DE PARQUES Y JARDINES, OBRAS FORESTALES COMO PLANTACIONES, REPOBLACIONES. TRATAMIENTOS SELVICOLAS Y APROVECHAMIENTOS FORESTALES RESTAURACIONES HIDROLÓGICO-FORESTALES. LIMPIEZA Y ADECUACIÓN DE CAUCES FLUVIALES Y ADECUACIÓN PAISAJÍSTICA DE ENTORNOS NATURALES, BORDES LITORALES E INFRAESTRUCTURAS VIARIAS. TRANSPORTE EN GENERAL. TRATAMIENTO E INCINERACIÓN DE RESIDUOS Y DESECHOS URBANOS. SERVICIOS DE LIMPIEZA Y RNANTENIMIENTO INTEGRAL DE VÍAS PÚBLICAS, ESTACIONES DEPURADORAS. PUERTOS, AEROPUERTOS. CANALES PLAYAS, MOBILIARIO URBANO, EDIFICIOS Y, EN GENERAL, TODO TIPO DE ESPACIOS O INSTALACIONES PÚBLICAS. SERVICIOS DE RETIRADA Y RECICLAJE DE BASURA Y ENSERES. PRESTACIÓN DE SERVICIOS Y CAPTURA DE INFORMACIÓN POR VÍA TELEFÓNICA, MEDIOS TELEMÁTICOS. APLICACIÓN DE TECNOLOGÍA DIGITAL O POR CUALQUIER OTRO MEDIO ELECTRÓNICO PARA LA PROMOCIÓN. DIFUSIÓN, INFORMACIÓN Y VENTA. SERVICIOS DE DESARROLLO Y MANTENIMIENTO DE PROGRAMAS DE ORDENADOR. TRABAJOS DE TOPOGRAFÍA Y CARTOGRAFÍA\r\n",
      "mainEntityOfPage": "https://www.contratacion.euskadi.eus/webkpe00-kperoc/es/ac71aBusquedaRegistrosWar/empresa/06038",
      "_links": {
        "self": {
          "name": "ALAUDA INGENIERÍA, S.A.",
          "href": "https://api.euskadi.eus/procurements/companies/06038"
        }
      }
    },
    {
      "name": "Q-MATIC SISTEMAS, S.A.U.",
      "registrationNumber": "06040",
      "identificationNumber": "A81460669",
      "address": "c/ Reyes Catolicos, nº 6",
      "location": {
        "postalCode": "28108",
        "municipality": "Alcobendas",
        "county": "Madrid",
        "municipalityId": "006",
        "countyId": "28"
      },
      "economicActivities": [
        {
          "id": "1.615.4",
          "name": "Venta al por mayor de aparatos y material radioeléctrico y electrónico",
          "_links": {
            "self": {
              "name": "Venta al por mayor de aparatos y material radioeléctrico y electrónico",
              "href": "https://api.euskadi.eus/procurements/companies/economic-activities/1.615.4"
            }
          }
        }
      ],
      "certificateStartDate": "2019-01-28",
      "certificateEndDate": "2019-05-12",
      "object": "LA IMPORTACIÓN, EXPORTACIÓN, MANUFACTURACIÓN, MONTAJE, REPARACIÓN, COMPRA, VENTA Y COMERCIALIZACIÓN DE COMPONENTES Y/O MICROPROCESADORES, MINIORDENADORES, GRANDES SISTEMAS, ELEMENTOS DE COMUNICACIONES, FUNGIBLES Y TODOS AQUELLOS ELEMENTOS QUE SE INTEGREN EN EL CAMPO DE LA MICROINFORMÁTICA Y OFIMÁTICA EN PARTICULAR Y DE LA INFORMÁTICA CON CARÁCTER GENERAL, ASI COMO SISTEMAS DE DIRECCIONAMIENTO Y GESTIÓN DE CLIENTES Y EQUIPOS MULTIMEDIA",
      "mainEntityOfPage": "https://www.contratacion.euskadi.eus/webkpe00-kperoc/es/ac71aBusquedaRegistrosWar/empresa/06040",
      "_links": {
        "self": {
          "name": "Q-MATIC SISTEMAS, S.A.U.",
          "href": "https://api.euskadi.eus/procurements/companies/06040"
        }
      }
    },
    {
      "name": "INTERCEPT PHARMA SPAIN SL",
      "registrationNumber": "06029",
      "identificationNumber": "B87350534",
      "address": "PASEO DE LA CASTELLANA 135, 7ªplanta",
      "location": {
        "postalCode": "28046",
        "municipality": "Madrid",
        "county": "Madrid",
        "municipalityId": "079",
        "countyId": "28"
      },
      "economicActivities": [
        {
          "id": "1.614.1",
          "name": "Venta al por mayor de productos farmacéuticos y medicamentos",
          "_links": {
            "self": {
              "name": "Venta al por mayor de productos farmacéuticos y medicamentos",
              "href": "https://api.euskadi.eus/procurements/companies/economic-activities/1.614.1"
            }
          }
        }
      ],
      "certificateStartDate": "2019-01-24",
      "certificateEndDate": "2019-03-14",
      "object": "EL MARKETING, VENTA, DISTRIBUCIÓN, ADQUISICIÓN, IMPORTACIÓN Y EXPORTACIÓN DE PRODUCTOS FARMACÉUTICOS Y OTROS RELACIONADOS CON LA ASISTENCIA SANITARIA, INCLUYENDO, PERO NO LIMITADO A INGREDIENTES ACTIVOS E INTERMEDIOS, DISPOSITIVOS MÉDICOS, VACUNAS, SUEROS, PRODUCTOS BIOLÓGICOS Y QUÍMICOS\r\n",
      "mainEntityOfPage": "https://www.contratacion.euskadi.eus/webkpe00-kperoc/es/ac71aBusquedaRegistrosWar/empresa/06029",
      "_links": {
        "self": {
          "name": "INTERCEPT PHARMA SPAIN SL",
          "href": "https://api.euskadi.eus/procurements/companies/06029"
        }
      }
    },
    {
      "name": "WOKO CREATIVOS, S.L.",
      "registrationNumber": "06023",
      "identificationNumber": "B95545729",
      "address": "Plaza Ibaiondo, 4-2º ofc 210",
      "location": {
        "postalCode": "48940",
        "municipality": "Leioa",
        "county": "Bizkaia",
        "municipalityId": "054",
        "countyId": "48"
      },
      "economicActivities": [
        {
          "id": "1.844",
          "name": "Servicios de publicidad, relaciones públicas y similares",
          "_links": {
            "self": {
              "name": "Servicios de publicidad, relaciones públicas y similares",
              "href": "https://api.euskadi.eus/procurements/companies/economic-activities/1.844"
            }
          }
        }
      ],
      "certificateStartDate": "2019-01-23",
      "certificateEndDate": "2019-05-07",
      "object": "1. CONSULTORÍA Y ASESORAMIENTO EN MATERIAI PUBLICITARIA. 2 INSTALACIÓN Y VENTA DE MATERIAL AUDIOVISUAL. 3. ELABORACIÓN Y DISEÑO, CREACIÓN, DIRECCIÓN Y GESTIÓN DE PROYECTOS PUBLICITARIOS EN SOPORTES TANTO FÍSICOS COMO ELECTRÓNICOS, TELEMÁTICOS O DE CUALQUIER NATURALEZA. 4. DISTRIBUCIÓN Y REPRESENTACIÓN DE SOCIEDADES Y AGENCIAS DE CONSULTORÍA, ASESORAMIENTO Y SERVICIOS DE PUBLICIDAD. 5. AGENCIA DE PUBLICIDAD",
      "mainEntityOfPage": "https://www.contratacion.euskadi.eus/webkpe00-kperoc/es/ac71aBusquedaRegistrosWar/empresa/06023",
      "_links": {
        "self": {
          "name": "WOKO CREATIVOS, S.L.",
          "href": "https://api.euskadi.eus/procurements/companies/06023"
        }
      }
    },
    {
      "name": "IPARMEDIK S.L.",
      "registrationNumber": "06015",
      "identificationNumber": "B95914693",
      "address": "BASAÑESE ,1",
      "location": {
        "postalCode": "48940",
        "municipality": "Leioa",
        "county": "Bizkaia",
        "municipalityId": "054",
        "countyId": "48"
      },
      "economicActivities": [
        {
          "id": "1.619.2",
          "name": "Venta al por mayor de aparatos e instrumentos médicos, ortopédicos, ópticos",
          "_links": {
            "self": {
              "name": "Venta al por mayor de aparatos e instrumentos médicos, ortopédicos, ópticos",
              "href": "https://api.euskadi.eus/procurements/companies/economic-activities/1.619.2"
            }
          }
        }
      ],
      "certificateStartDate": "2019-01-18",
      "certificateEndDate": "2019-06-28",
      "object": "LA COMERCIALIZACIÓN, IMPORTACIÓN Y VENTA AL POR MAYOR Y MENOR DE: MATERIAL SANITARIO FARMACÉUTICO, MOBILIARIO CLINICO, APARATAJE MÉDICO Y BÁSCULAS, MOBILIARIO DE OFICINA, COLCHONES, ALMOHADAS Y CANAPES, PRODUCTOS DE DROGUERIA, PERFUMERÍA Y COSMÉTICA, MOBILIARIO EN GENERAL, REGALOS PROMOCIONALES, ELECTRODOMÉSTICOS, MATERIAL ÓPTICO, MATERIAL ELECTRÓNICO Y DE TELEFONÍA",
      "mainEntityOfPage": "https://www.contratacion.euskadi.eus/webkpe00-kperoc/es/ac71aBusquedaRegistrosWar/empresa/06015",
      "_links": {
        "self": {
          "name": "IPARMEDIK S.L.",
          "href": "https://api.euskadi.eus/procurements/companies/06015"
        }
      }
    },
    {
      "name": "BIOLINE SUPPLY, S.L.L.",
      "registrationNumber": "06016",
      "identificationNumber": "B40177073",
      "address": "SANTO TOMÁS, 1",
      "location": {
        "postalCode": "40002",
        "municipality": "Segovia",
        "county": "Segovia",
        "municipalityId": "194",
        "countyId": "40"
      },
      "economicActivities": [
        {
          "id": "1.652.1",
          "name": "Farmacias",
          "_links": {
            "self": {
              "name": "Farmacias",
              "href": "https://api.euskadi.eus/procurements/companies/economic-activities/1.652.1"
            }
          }
        },
        {
          "id": "1.861.2",
          "name": "Alquiler de locales industriales y otros alquileres n.c.o.p",
          "_links": {
            "self": {
              "name": "Alquiler de locales industriales y otros alquileres n.c.o.p",
              "href": "https://api.euskadi.eus/procurements/companies/economic-activities/1.861.2"
            }
          }
        }
      ],
      "certificateStartDate": "2019-01-18",
      "certificateEndDate": "2019-05-08",
      "object": "LA IMPORTACIÓN, EXPORTACIÓN, FABRICACIÓN, ALMACENAMIENTO, AGRUPACIÓN, DISTRIBUCIÓN Y COMERCIALIZACIÓN DE PRODUCTOS SANITARIOS, QUÍMICO-FARMACÉUTICOS Y EQUIPOS DE ELECTROMEDICINA Y ACCESORIOS ASÍ COMO LA ORGANIZACIÓN DE CURSOS, CONFERENCIAS, CONGRESOS Y ACCIONES DE MARKETING EN GENERAL",
      "mainEntityOfPage": "https://www.contratacion.euskadi.eus/webkpe00-kperoc/es/ac71aBusquedaRegistrosWar/empresa/06016",
      "_links": {
        "self": {
          "name": "BIOLINE SUPPLY, S.L.L.",
          "href": "https://api.euskadi.eus/procurements/companies/06016"
        }
      }
    }
  ]
}