{
  "totalItems": 9042,
  "totalPages": 905,
  "currentPage": 644,
  "itemsOfPage": 10,
  "items": [
    {
      "name": "AVANCES MÉDICOS S.A.",
      "registrationNumber": "05572",
      "identificationNumber": "A48276695",
      "address": "MANUEL ALLENDE 19 BIS 1º",
      "location": {
        "postalCode": "48010",
        "municipality": "Bilbao",
        "county": "Bizkaia",
        "municipalityId": "020",
        "countyId": "48"
      },
      "economicActivities": [
        {
          "id": "1.861.2",
          "name": "Alquiler de locales industriales y otros alquileres n.c.o.p",
          "_links": {
            "self": {
              "name": "Alquiler de locales industriales y otros alquileres n.c.o.p",
              "href": "https://api.euskadi.eus/procurements/companies/economic-activities/1.861.2"
            }
          }
        },
        {
          "id": "1.941.2",
          "name": "Hospitales especializados (quirúrgicos, maternidades, psiquiátricos)",
          "_links": {
            "self": {
              "name": "Hospitales especializados (quirúrgicos, maternidades, psiquiátricos)",
              "href": "https://api.euskadi.eus/procurements/companies/economic-activities/1.941.2"
            }
          }
        },
        {
          "id": "1.942.9",
          "name": "Otros servicios sanitarios sin internados, no clasificados",
          "_links": {
            "self": {
              "name": "Otros servicios sanitarios sin internados, no clasificados",
              "href": "https://api.euskadi.eus/procurements/companies/economic-activities/1.942.9"
            }
          }
        }
      ],
      "certificateStartDate": "2017-01-13",
      "certificateEndDate": "2017-06-13",
      "object": "LA PROMOCIÓN, INSTALACIÓN, EXPLOTACIÓN, GESTIÓN Y FUNCIONAMIENTO DE TODA CLASE DE CLÍNICAS, CONSULTORIOS O ESTABLECIMIENTOS, EN LOS QUE SE DESARROLLEN Y PRESTEN TODO TIPO Y CLASE DE CUIDADOS Y SERVICIOS MÉDICOS, U OTROS, DIRECTA O INDIRECTAMENTE RELACIONADOS CON EL EJERCICIO Y FUNCIÓN DE LA MEDICINA Y LA ATENCIÓN A LA SALUD Y BIENESTAR FÍSICO O MENTAL DE LA PERSONA; Y PARA ELLO, ADQUIRIR, CONSTITUIR, ALQUILAR U OBTENER LA CONCESIÓN POR CUALQUIER TÍTULO DE LOS EDIFICIOS E INSTALACIONES PRECISOS Y CONVENIENTES PARA TALES FINES. ASIMISMO ES OBJETO DE LA SOCIEDAD LA DOCENCIA E INVESTIGACIÓN EN EL CAMPO DE LA SALUD A LA POBLACIÓN, TODO ELLO CON LA FINALIDAD DE PROMOVER EL EJERCICIO EN EQUIPO DE LA MEDICINA, EN SENTIDO AMPLIO, Y EN TANTO EN SU ASPECTO PREVENTIVO COMO CURATIVO, Y EN CONDICIONES PERSONALES E INSTRUMENTALES, QUE GARANTICEN EN LO POSIBLE EL COMPLETO Y ADECUADO CUIDADO DE LAS PERSONAS",
      "mainEntityOfPage": "https://www.contratacion.euskadi.eus/webkpe00-kperoc/es/ac71aBusquedaRegistrosWar/empresa/05572",
      "_links": {
        "self": {
          "name": "AVANCES MÉDICOS S.A.",
          "href": "https://api.euskadi.eus/procurements/companies/05572"
        }
      }
    },
    {
      "name": "ARISTA INTERACTIVA, S.L.",
      "registrationNumber": "03673",
      "identificationNumber": "B20552402",
      "address": "PORTUETXE, 24",
      "location": {
        "postalCode": "20018",
        "municipality": "Donostia / San Sebastián",
        "county": "Gipuzkoa",
        "municipalityId": "069",
        "countyId": "20"
      },
      "economicActivities": [
        {
          "id": "1.844",
          "name": "Servicios de publicidad, relaciones públicas y similares",
          "_links": {
            "self": {
              "name": "Servicios de publicidad, relaciones públicas y similares",
              "href": "https://api.euskadi.eus/procurements/companies/economic-activities/1.844"
            }
          }
        }
      ],
      "certificateStartDate": "2017-01-12",
      "certificateEndDate": "2015-05-17",
      "object": "LA PRESTACIÓN DE SERVICIOS INFORMÁTICOS, TELEMÁTICOS Y MULTIMEDIA, EN EL ÁMBITO DE LA COMUNICACIÓN Y LA PUBLICIDAD",
      "mainEntityOfPage": "https://www.contratacion.euskadi.eus/webkpe00-kperoc/es/ac71aBusquedaRegistrosWar/empresa/03673",
      "_links": {
        "self": {
          "name": "ARISTA INTERACTIVA, S.L.",
          "href": "https://api.euskadi.eus/procurements/companies/03673"
        }
      }
    },
    {
      "name": "NORTE PRODUCCIONES CULTURALES, S.L.",
      "registrationNumber": "02674",
      "identificationNumber": "B48449466",
      "address": "C/ EL CRISTO, Nº 1-3º. DPTO. 8",
      "location": {
        "postalCode": "48007",
        "municipality": "Bilbao",
        "county": "Bizkaia",
        "municipalityId": "020",
        "countyId": "48"
      },
      "economicActivities": [
        {
          "id": "1.965.3",
          "name": "Espectáculos fuera de establecimiento permanente (excepto los taurinos)",
          "_links": {
            "self": {
              "name": "Espectáculos fuera de establecimiento permanente (excepto los taurinos)",
              "href": "https://api.euskadi.eus/procurements/companies/economic-activities/1.965.3"
            }
          }
        },
        {
          "id": "1.983",
          "name": "Agencias de colocación de artistas",
          "_links": {
            "self": {
              "name": "Agencias de colocación de artistas",
              "href": "https://api.euskadi.eus/procurements/companies/economic-activities/1.983"
            }
          }
        }
      ],
      "certificateStartDate": "2016-12-29",
      "certificateEndDate": "2017-06-22",
      "object": "LA CONTRATACIÓN DE ARTISTAS, PARA TODA CLASE DE ESPECTÁCULOS; LA PROMOCIÓN Y REALIZACIÓN DE ACTOS CULTURALES, POR CUENTA PROPIA O AJENA",
      "mainEntityOfPage": "https://www.contratacion.euskadi.eus/webkpe00-kperoc/es/ac71aBusquedaRegistrosWar/empresa/02674",
      "_links": {
        "self": {
          "name": "NORTE PRODUCCIONES CULTURALES, S.L.",
          "href": "https://api.euskadi.eus/procurements/companies/02674"
        }
      }
    },
    {
      "name": "ZIMMER S.A.",
      "registrationNumber": "05041",
      "identificationNumber": "A29060381",
      "address": "Metalurgia nº 32-34, 1ª planta",
      "location": {
        "postalCode": "08038",
        "municipality": "Barcelona",
        "county": "Barcelona",
        "municipalityId": "019",
        "countyId": "08"
      },
      "economicActivities": [
        {
          "id": "1.619.2",
          "name": "Venta al por mayor de aparatos e instrumentos médicos, ortopédicos, ópticos",
          "_links": {
            "self": {
              "name": "Venta al por mayor de aparatos e instrumentos médicos, ortopédicos, ópticos",
              "href": "https://api.euskadi.eus/procurements/companies/economic-activities/1.619.2"
            }
          }
        }
      ],
      "certificateStartDate": "2016-12-29",
      "certificateEndDate": "2017-06-05",
      "object": "LA FABRICACIÓN, DISEÑO, SERVICIO, MANTENIMIENTO, REPARACIÓN, ARRENDAMIENTO, IMPORTACIÓN, EXPORTACIÓN, DISTRIBUCIÓN Y VENTA DE APARATOS Y DISPOSITIVOS MÉDICOS, ENTRE ELLOS, PRODUCTOS ORTOPÉDICOS, APARATOS ELECTRÓNICOS DE USO EN MEDICINA, EQUIPOS PARA HOSPITALES, APARATOS E IMPLANTES DE USO EN CIRUGÍA, EQUIPOS DE LABORATORIO Y PRODUCTOS PARA EL CUIDADO DE PACIENTES; LA REPARACIÓN, VENTA Y TODA CLASE DE NEGOCIOS RELACIONADOS CON EQUIPOS, INSTRUMENTOS, ACCESORIOS, MATERIALES, PRODUCTOS Y SUBPRODUCTOS EMPLEADOS O RELACIONADOS CON LAS ANTEDICHAS ACTIVIDADES, ASÍ COMO CUALQUIER ACTIVIDAD COMERCIAL CONEXA O COMPLEMENTARIA DE REPETIDAS ACTIVIDADES",
      "mainEntityOfPage": "https://www.contratacion.euskadi.eus/webkpe00-kperoc/es/ac71aBusquedaRegistrosWar/empresa/05041",
      "_links": {
        "self": {
          "name": "ZIMMER S.A.",
          "href": "https://api.euskadi.eus/procurements/companies/05041"
        }
      }
    },
    {
      "name": "IMPRENTA COMERCIAL SAMPER, S.A.",
      "registrationNumber": "00265",
      "identificationNumber": "A48084784",
      "address": "CTRA. SAN VICENTE, Nº 13",
      "location": {
        "postalCode": "48510",
        "municipality": "Valle de Trápaga-Trapagaran",
        "county": "Bizkaia",
        "municipalityId": "080",
        "countyId": "48"
      },
      "economicActivities": [
        {
          "id": "1.474",
          "name": "Artes gráficas (impresión gráfica)",
          "_links": {
            "self": {
              "name": "Artes gráficas (impresión gráfica)",
              "href": "https://api.euskadi.eus/procurements/companies/economic-activities/1.474"
            }
          }
        }
      ],
      "certificateStartDate": "2016-12-26",
      "certificateEndDate": "2017-06-13",
      "object": "IMPRESION, ESTAMPACION Y ENCUADERNACION EN SUS DISTINTAS FORMAS Y MODALIDADES",
      "mainEntityOfPage": "https://www.contratacion.euskadi.eus/webkpe00-kperoc/es/ac71aBusquedaRegistrosWar/empresa/00265",
      "_links": {
        "self": {
          "name": "IMPRENTA COMERCIAL SAMPER, S.A.",
          "href": "https://api.euskadi.eus/procurements/companies/00265"
        }
      }
    },
    {
      "name": "NATURLAN 2002, S.L.",
      "registrationNumber": "03487",
      "identificationNumber": "B95222972",
      "address": "SAN NIKOLAS KALEA,16-2D",
      "location": {
        "postalCode": "48000",
        "municipality": "Getxo",
        "county": "Bizkaia",
        "municipalityId": "044",
        "countyId": "48"
      },
      "economicActivities": [
        {
          "id": "1.659.7",
          "name": "Venta al por menor de semillas, abonos, flores, plantas y pequeños animales",
          "_links": {
            "self": {
              "name": "Venta al por menor de semillas, abonos, flores, plantas y pequeños animales",
              "href": "https://api.euskadi.eus/procurements/companies/economic-activities/1.659.7"
            }
          }
        },
        {
          "id": "1.911",
          "name": "Servicios agrícolas y ganaderos",
          "_links": {
            "self": {
              "name": "Servicios agrícolas y ganaderos",
              "href": "https://api.euskadi.eus/procurements/companies/economic-activities/1.911"
            }
          }
        },
        {
          "id": "1.912",
          "name": "Servicios forestales",
          "_links": {
            "self": {
              "name": "Servicios forestales",
              "href": "https://api.euskadi.eus/procurements/companies/economic-activities/1.912"
            }
          }
        }
      ],
      "certificateStartDate": "2016-12-19",
      "certificateEndDate": "2017-06-02",
      "object": "A) EL ESTUDIO Y LA EJECUCIÓN DE TRABAJOS AGRO-FORESTALES Y DE JARDINERÍA; B) LA CONSERVACIÓN Y EL DESARROLLO SOSTENIDO DE LA NATURALEZA; C) TODO TIPO DE ACTIVIDADES RELACIONADAS CON EL COMPLEJO BOSQUE-INDUSTRIA DE MADERA",
      "mainEntityOfPage": "https://www.contratacion.euskadi.eus/webkpe00-kperoc/es/ac71aBusquedaRegistrosWar/empresa/03487",
      "_links": {
        "self": {
          "name": "NATURLAN 2002, S.L.",
          "href": "https://api.euskadi.eus/procurements/companies/03487"
        }
      }
    },
    {
      "name": "LEKU MULTIMEDIA, S.L.",
      "registrationNumber": "04588",
      "identificationNumber": "B01303981",
      "address": "C/ PADULETA, Nº 55, OF. 117",
      "location": {
        "postalCode": "01015",
        "municipality": "Vitoria-Gasteiz",
        "county": "Araba/Álava",
        "municipalityId": "059",
        "countyId": "01"
      },
      "economicActivities": [
        {
          "id": "1.845",
          "name": "Explotación electrónica por cuenta de terceros",
          "_links": {
            "self": {
              "name": "Explotación electrónica por cuenta de terceros",
              "href": "https://api.euskadi.eus/procurements/companies/economic-activities/1.845"
            }
          }
        }
      ],
      "certificateStartDate": "2016-12-14",
      "certificateEndDate": "2017-05-14",
      "object": "ESTUDIO DE DISEÑO GRÁFICO, COMUNICACIÓN Y PUBLICIDAD QUE OFRECE SOLUCIONES CREATIVAS A LA NECESIDAD DE IMAGEN Y COMUNICACIÓN VISUAL DE LAS EMPRESAS UTILIZANDO PARA ELLO LAS PLATAFORMAS TECNOLÓGICAS MÁS ADECUADAS. SERVICIOS OFRECIDOS A EMPRESAS: IMAGEN CORPORATIVA, CATÁLOGOS, FOLLETOS, CARTELERÍA, ELABORACIÓN DE DOCUMENTOACIÓN, ORGANIZACIÓN DE EVENTOS, PROMOCIONES Y CAMPAÑAS PUBLICITARIAS, PÁGINAS WEB...",
      "mainEntityOfPage": "https://www.contratacion.euskadi.eus/webkpe00-kperoc/es/ac71aBusquedaRegistrosWar/empresa/04588",
      "_links": {
        "self": {
          "name": "LEKU MULTIMEDIA, S.L.",
          "href": "https://api.euskadi.eus/procurements/companies/04588"
        }
      }
    },
    {
      "name": "COMUNICACION CREATIVA CONTRASTE SA",
      "registrationNumber": "05563",
      "identificationNumber": "A95619409",
      "address": "GENERAL CONCHA Nº 25, 1º",
      "location": {
        "postalCode": "48010",
        "municipality": "Bilbao",
        "county": "Bizkaia",
        "municipalityId": "020",
        "countyId": "48"
      },
      "economicActivities": [
        {
          "id": "1.844",
          "name": "Servicios de publicidad, relaciones públicas y similares",
          "_links": {
            "self": {
              "name": "Servicios de publicidad, relaciones públicas y similares",
              "href": "https://api.euskadi.eus/procurements/companies/economic-activities/1.844"
            }
          }
        }
      ],
      "certificateStartDate": "2016-12-13",
      "certificateEndDate": "2017-04-27",
      "object": "SERVICIOS PLENOS  DE PUBLICIDAD Y SUCOMERCIALIZACIÓN, DISEÑO GRÁFICO, RELACIONES PÚBLICAS, PROMOCIÓN DE VENTAS, INVESTIGACIÓN DE MERCADOS, MARKETING Y COMUNICACIÓN INTEGRAL. SI ALGUNA DE LAS ACTIVIDDES INCLUÍDAS EN EL OBJETO SOCIAL ESTUVIERA RESERVADA, O SE RESERVARE POR LEY A DETERMINADA CATEGORÍA DE PROFESIONALES, DEBERÁN REALIZARSE A TRAVÉS DE PERSONA QUE OSTENTE LA TITULACIÓN REQUERIDA, CONCRETÁNDOSE EL OBJETO SOCIAL A LA INTERMEDIACIÓN O COORDINACIÓN EN RELACIÓN A TALES PRESTACIONES",
      "mainEntityOfPage": "https://www.contratacion.euskadi.eus/webkpe00-kperoc/es/ac71aBusquedaRegistrosWar/empresa/05563",
      "_links": {
        "self": {
          "name": "COMUNICACION CREATIVA CONTRASTE SA",
          "href": "https://api.euskadi.eus/procurements/companies/05563"
        }
      }
    },
    {
      "name": "CARNERO SOBRINO, S.L.",
      "registrationNumber": "05562",
      "identificationNumber": "B15590953",
      "address": "P.Tecnológ.Galicia Ourense. Edif. CEI Nido 212-213",
      "location": {
        "postalCode": "32900",
        "municipality": "Ourense",
        "county": "Ourense",
        "municipalityId": "054",
        "countyId": "32"
      },
      "economicActivities": [
        {
          "id": "1.505.4",
          "name": "Colocación y aislamiento fónicos, térmicos y acústicos",
          "_links": {
            "self": {
              "name": "Colocación y aislamiento fónicos, térmicos y acústicos",
              "href": "https://api.euskadi.eus/procurements/companies/economic-activities/1.505.4"
            }
          }
        }
      ],
      "certificateStartDate": "2016-12-12",
      "certificateEndDate": "2017-05-24",
      "object": "LA VENTA AL POR MENOR DE MÁQUINAS PARA TRATAMIENTOS DE HUMEDADES",
      "mainEntityOfPage": "https://www.contratacion.euskadi.eus/webkpe00-kperoc/es/ac71aBusquedaRegistrosWar/empresa/05562",
      "_links": {
        "self": {
          "name": "CARNERO SOBRINO, S.L.",
          "href": "https://api.euskadi.eus/procurements/companies/05562"
        }
      }
    },
    {
      "name": "LANDABASO, S.L.",
      "registrationNumber": "03006",
      "identificationNumber": "B48527691",
      "address": "POLÍGONO INDUSTRIAL GRANADA M5-1",
      "location": {
        "postalCode": "48530",
        "municipality": "Ortuella",
        "county": "Bizkaia",
        "municipalityId": "083",
        "countyId": "48"
      },
      "economicActivities": [
        {
          "id": "1.501.2",
          "name": "Construcción completa, reparación y conservación obras civiles",
          "_links": {
            "self": {
              "name": "Construcción completa, reparación y conservación obras civiles",
              "href": "https://api.euskadi.eus/procurements/companies/economic-activities/1.501.2"
            }
          }
        },
        {
          "id": "1.502.3",
          "name": "Consolidación y preparación de terrenos para la realización de obras civiles",
          "_links": {
            "self": {
              "name": "Consolidación y preparación de terrenos para la realización de obras civiles",
              "href": "https://api.euskadi.eus/procurements/companies/economic-activities/1.502.3"
            }
          }
        },
        {
          "id": "1.722",
          "name": "Transporte de mercancías por carretera",
          "_links": {
            "self": {
              "name": "Transporte de mercancías por carretera",
              "href": "https://api.euskadi.eus/procurements/companies/economic-activities/1.722"
            }
          }
        }
      ],
      "certificateStartDate": "2016-11-30",
      "certificateEndDate": "2017-04-24",
      "object": "1) LA PRESTACIÓN, POR MEDIOS PROPIOS O AJENOS DE TODO TIPO DE TRANSPORTES EN GENERAL, POR TIERRA, MAR O AIRE Y PARA TODA CLASE DE MERCANCÍAS, AGENCIA DE TRANSPORTE, ASÍ COMO TODO TIPO DE ACTIVIDADES QUE GUARDEN RELACIÓN CON LAS INDICADAS ANTERIORMENTE.\r\n\r\n2) LA CONSTRUCCIÓN, EJECUCIÓN Y MANTENIMIENTO DE TODO TIPO DE OBRAS DE CARÁCTER PÚBLICO Y PRIVADO, INCLUYENDO LA REALIZACIÓN DE REFORMAS Y LAS RELACIONADAS CON EL MOVIMIENTO DE TIERRAS Y ACTIVIDADES DE EXCAVACIÓN.\r\n\r\n3) EL ALQUILER DE MAQUINARIA PARA OBRAS PÚBLICAS Y PRIVADAS.\r\n\r\n4) LA ADQUISICIÓN  POR CUALQUIER TÍTULO DE FINCAS RÚSTICAS O URBANAS, LA CONSTRUCCIÓN DE ÉSTAS Y LA ADMINISTRACIÓN, TENENCIA, EXPLOTACIÓN Y ARRENDAMIENTO DE TALES BIENES Y SU VENTA TOTAL Y PARCIAL, SEGÚN CONVENGA PARA SU APROVECHAMIENTO AGRÍCOLA, FORESTAL, URBANO, INDUSTRIAL O CUALQUIER OTRO ",
      "mainEntityOfPage": "https://www.contratacion.euskadi.eus/webkpe00-kperoc/es/ac71aBusquedaRegistrosWar/empresa/03006",
      "_links": {
        "self": {
          "name": "LANDABASO, S.L.",
          "href": "https://api.euskadi.eus/procurements/companies/03006"
        }
      }
    }
  ]
}