{
  "totalItems": 9042,
  "totalPages": 905,
  "currentPage": 16,
  "itemsOfPage": 10,
  "items": [
    {
      "name": "PENTER COMERCIAL, S.A.",
      "registrationNumber": "02702",
      "identificationNumber": "A48413165",
      "address": "LARRONDO GOIKO KALEA, 5. PAB.9-10-11",
      "location": {
        "postalCode": "48180",
        "municipality": "Loiu",
        "county": "Bizkaia",
        "municipalityId": "903",
        "countyId": "48"
      },
      "economicActivities": [
        {
          "id": "1.617.8",
          "name": "Venta al por mayor de máquinas y material de oficina",
          "_links": {
            "self": {
              "name": "Venta al por mayor de máquinas y material de oficina",
              "href": "https://api.euskadi.eus/procurements/companies/economic-activities/1.617.8"
            }
          }
        },
        {
          "id": "1.619.5",
          "name": "Venta al por mayor de artículos de papelería y escritorios",
          "_links": {
            "self": {
              "name": "Venta al por mayor de artículos de papelería y escritorios",
              "href": "https://api.euskadi.eus/procurements/companies/economic-activities/1.619.5"
            }
          }
        },
        {
          "id": "1.659.4",
          "name": "Venta al por menor de libros, periódicos y artículos de papelería y escritorio",
          "_links": {
            "self": {
              "name": "Venta al por menor de libros, periódicos y artículos de papelería y escritorio",
              "href": "https://api.euskadi.eus/procurements/companies/economic-activities/1.659.4"
            }
          }
        },
        {
          "id": "1.861.2",
          "name": "Alquiler de locales industriales y otros alquileres n.c.o.p",
          "_links": {
            "self": {
              "name": "Alquiler de locales industriales y otros alquileres n.c.o.p",
              "href": "https://api.euskadi.eus/procurements/companies/economic-activities/1.861.2"
            }
          }
        }
      ],
      "certificateStartDate": "2026-02-05",
      "certificateEndDate": "2026-07-20",
      "object": "LA COMPRA, VENTA, COMERCIALIZACIÓN Y DISTRIBUCIÓN, EXPORTACIÓN E IMPORTACIÓN DE TODO TIPO DE ARTÍCULOS DE ESCRITORIO, DE LA PAPELERÍA EN GENERAL, LIBRERÍA Y ARTÍCULOS DE REGALO, SIN EXCEPTUAR LA VENTA DE MATERIAL DE OFICINA EN TODA SU GAMA.\r\nALQUILER DE MAQUINARIA Y EQUIPOS DE OFICINA Y CÁLCULO ELECTRÓNICO, REPRODUCCIÓN DE TEXTOS E IMÁGENES POR PROCEDIMIENTOS TALES COMO MULTICOPISTA, FOTOCOPIAS POR PROCEDIMIENTOS FOTOGRÁFICOS Y ELECTROESTÁTICOS.\r\nLA ADQUISICIÓN, PARCELACIÓN, URBANIZACIÓN Y ENAJENACIÓN DE TERRENOS, SOLARES, PROMOCIÓN, CONSTRUCCIÓN, COMPRA Y VENTA DE INMUEBLES, ASÍ COMO SU EXPLOTACIÓN EN ALQUILER O CUALQUIER OTRA FORMA",
      "mainEntityOfPage": "https://www.contratacion.euskadi.eus/webkpe00-kperoc/es/ac71aBusquedaRegistrosWar/empresa/02702",
      "_links": {
        "self": {
          "name": "PENTER COMERCIAL, S.A.",
          "href": "https://api.euskadi.eus/procurements/companies/02702"
        }
      }
    },
    {
      "name": "AS4 INGENIERIA APLICADA, S.L.",
      "registrationNumber": "09469",
      "identificationNumber": "B16791626",
      "address": "Calle Acera de Recoletos 19, local",
      "location": {
        "postalCode": "47004",
        "municipality": "Valladolid",
        "county": "Valladolid",
        "municipalityId": "186",
        "countyId": "47"
      },
      "economicActivities": [
        {
          "id": "1.843.1",
          "name": "Servicios técnicos de ingeniería",
          "_links": {
            "self": {
              "name": "Servicios técnicos de ingeniería",
              "href": "https://api.euskadi.eus/procurements/companies/economic-activities/1.843.1"
            }
          }
        }
      ],
      "certificateStartDate": "2026-02-05",
      "certificateEndDate": "2026-08-05",
      "object": "CONSULTORÍA, SERVICIOS DE INGENIERÍA Y OFICINA TÉCNICA DE PROYECTOS ESPECIALIZADA EN EL CAMPO DE LA ACÚSTICA, LA REDUCCIÓN DEL RUIDO Y EL CONTROL DEL IMPACTO AMBIENTAL. LA REALIZACIÓN DE CONTROLES, MEDICIONES Y ENSAYOS RELACIONADOS CON EL RUIDO, EL SONIDO Y LA ACÚSTICA MEDIANTE EL USO DE INSTRUMENTACIÓN ESPECIALIZADA. LA CONTRATACIÓN, GESTIÓN, DIRECCIÓN Y EJECUCIÓN DE TODA CLASE DE TRABAJOS, EN SU MÁS AMPLIO SENTIDO, RELACIONADOS CON EL AISLAMIENTO ACÚSTICO, LA REDUCCIÓN DEL RUIDO Y EL CONTROL DEL IMPACTO MEDIOAMBIENTAL EN OBRAS INDUSTRIALES Y DE EDIFICACIÓN; ASÍ COMO LA REALIZACIÓN EN ELLAS DE ADICIONES, MEJORAS, REPARACIONES O CUALQUIER ACTIVIDAD COMPLEMENTARIA QUE SEA NECESARIA PARA EL DESARROLLO DE LA ACTIVIDAD, COMO LA FABRICACIÓN Y MONTAJE DE ESTRUCTURAS Y COMPONENTES METÁLICOS O LA INSTALACIÓN DE CARPINTERÍA. LA FABRICACIÓN DE ELEMENTOS DE AISLAMIENTO ACÚSTICO COMO PANELES AISLANTES, SILENCIADORES Y REJILLAS ACÚSTICAS, CARPINTERÍAS METÁLICAS AISLANTES Y, EN GENERAL; LA PERFORACIÓN, EL PLEGADO, EL CIZALLADO, EL PUNZADO, LA SOLDADURA O ENSAMBLADO MECÁNICO DE PIEZAS METÁLICAS TRABAJADAS PARA LA CONFORMACIÓN DE LOS MISMOS. EL OBJETO SOCIAL DE LA MERCANTIL SE INCARDINARÁ EN EL CÓDIGO CNAE 7112, RELATIVO AL NIVEL DE SERVICIOS TÉCNICOS DE INGENIERÍA Y OTRAS ACTIVIDADES RELACIONADAS CON EL ASESORAMIENTO TÉCNICO.  ASIMISMO, LE CORRESPONDEN LOS CÓDIGOS CNAE \"2511-FABRICACIÓN DE ESTRUCTURAS METÁLICAS Y SUS COMPONENTES\"; \"2512-FABRICACIÓN DE CARPINTERÍA METÁLICA\"; \"2562- INGENIERÍA MECÁNICA POR CUENTA DE TERCEROS\"; \"4329-OTRAS INSTALACIONES EN OBRAS DE CONSTRUCCIÓN\" y \"4332-INSTALACIÓN DE CARPINTERÍA\".",
      "mainEntityOfPage": "https://www.contratacion.euskadi.eus/webkpe00-kperoc/es/ac71aBusquedaRegistrosWar/empresa/09469",
      "_links": {
        "self": {
          "name": "AS4 INGENIERIA APLICADA, S.L.",
          "href": "https://api.euskadi.eus/procurements/companies/09469"
        }
      }
    },
    {
      "name": "HANS E. RÜTH, S.A.",
      "registrationNumber": "01831",
      "identificationNumber": "A58263856",
      "address": "P.I.  EL REGÁS C/ DE LA RODA, 14 ",
      "location": {
        "postalCode": "08850",
        "municipality": "Gavà",
        "county": "Barcelona",
        "municipalityId": "089",
        "countyId": "08"
      },
      "economicActivities": [
        {
          "id": "1.619.2",
          "name": "Venta al por mayor de aparatos e instrumentos médicos, ortopédicos, ópticos",
          "_links": {
            "self": {
              "name": "Venta al por mayor de aparatos e instrumentos médicos, ortopédicos, ópticos",
              "href": "https://api.euskadi.eus/procurements/companies/economic-activities/1.619.2"
            }
          }
        },
        {
          "id": "1.699",
          "name": "Otras reparaciones n.c.o.p",
          "_links": {
            "self": {
              "name": "Otras reparaciones n.c.o.p",
              "href": "https://api.euskadi.eus/procurements/companies/economic-activities/1.699"
            }
          }
        }
      ],
      "certificateStartDate": "2026-02-05",
      "certificateEndDate": "2026-07-30",
      "object": "FABRICACIÓN, MANIPULACIÓN Y COMPRA-VENTA, POR CUENTA PROPIA O AJENA, DE TODA CLASE DE UTENSILIOS, APARATOS, MÁQUINAS Y PRODUCTOS ELECTRÓNICOS, ELECTROMÉDICOS, CLÍNICOS Y SANITARIOS; Y ELEMENTOS, PIEZAS Y COMPLEMENTOS DE LOS MISMOS, INCLUÍDA SU IMPORTACIÓN Y EXPORTACIÓN. ESTUDIOS Y PROMOCIÓN DE EMPRESAS POR CUALQUIER TÍTULO, PLANIFICACIÓN Y PROGRAMACIÓN DE INSTALACIONES SANITARIAS, MÉDICAS, QUIRÚRGICAS Y ELECTRÓNICAS, INCLUSO BAJO LA MODALIDAD CONOCIDA POR &quot;ENGINEERING&quot; PARA MERCADOS NACIONALES E INTERNACIONALES. DEDICARSE A TODA CLASE DE OPERACIONES QUE SE REFIERAN AL COMERCIO EXTERIOR O INTERIOR, IMPORTACIÓN O EXPORTACIÓN, COMPRA-VENTA, MEDIACIÓN, COMISIÓN, REPRESENTACIÓN, TRANSPORTE POR CARRETERA O ALMACENAJE DE BIENES, MERCANCÍAS Y PRODUCTOS DE TODAS CLASES, EN NOMBRE PROPIO O POR CUENTA DE TERCEROS, CON INTERMEDIARIA, ACCIONISTA O CUENTA PARTICIPE. ACEPTAR, DESEMPEÑAR Y EJECUTAR COMISIONES, REPRESENTACIONES, ENCARGOS DE CONFIANZA Y CUANTOS ACTOS IMPLIQUEN GESTIÓN A NOMBRE O INTERÉS DE TERCEROS EN LA VIDA ECONÓMICA O MERCANTIL; ASUMIR LA REPRESENTACIÓN DE COMITÉS O GRUPOS DE ACCIONISTAS O DE OBLIGACIONISTAS, EN SINDICACIONES Y EN CUALESQUIERA OTROS DE COMISIÓN O REPRESENTACIÓN PERMITIDOS POR LAS LEYES",
      "mainEntityOfPage": "https://www.contratacion.euskadi.eus/webkpe00-kperoc/es/ac71aBusquedaRegistrosWar/empresa/01831",
      "_links": {
        "self": {
          "name": "HANS E. RÜTH, S.A.",
          "href": "https://api.euskadi.eus/procurements/companies/01831"
        }
      }
    },
    {
      "name": "AURTEN BAI-ULIBARRI, A.I.E.",
      "registrationNumber": "08552",
      "identificationNumber": "V95436705",
      "address": "Cardenal Gardoki 3, 1º",
      "location": {
        "postalCode": "48008",
        "municipality": "Bilbao",
        "county": "Bizkaia",
        "municipalityId": "020",
        "countyId": "48"
      },
      "economicActivities": [
        {
          "id": "1.934",
          "name": "Enseñanza fuera de establecimiento permanente",
          "_links": {
            "self": {
              "name": "Enseñanza fuera de establecimiento permanente",
              "href": "https://api.euskadi.eus/procurements/companies/economic-activities/1.934"
            }
          }
        }
      ],
      "certificateStartDate": "2026-02-05",
      "certificateEndDate": "2026-08-02",
      "object": "-REALIZAR TRABAJOS DE ENSEÑANZA, SERVICIO, INVESTIGACIÓN Y DIFUSIÓN DEL EUSKERA. -GESTIONAR TODA CLASE DE MATERIALES, ESCRITOS, ORALES ASÍ COMO AUDIOVISUALES, REALIZADOS POR LA SOCIEDAD O CEDIDAS A ELLA, TANTO EN FORMATO INFORMÁTICO COMO PAPEL. -COLABORAR CON ASOCIACIONES E INSTITUCIONES CULTURALES ENCARGADAS DE FOMENTAR O IMPULSAR EL EUSKERA. -REALIZAR TODAS LAS ACTIVIDADES ANTES DESCRITAS Y CUANTAS SE RELACIONEN CON ESTAS.",
      "mainEntityOfPage": "https://www.contratacion.euskadi.eus/webkpe00-kperoc/es/ac71aBusquedaRegistrosWar/empresa/08552",
      "_links": {
        "self": {
          "name": "AURTEN BAI-ULIBARRI, A.I.E.",
          "href": "https://api.euskadi.eus/procurements/companies/08552"
        }
      }
    },
    {
      "name": "SUSAGNA RIBERA GONZALEZ",
      "registrationNumber": "10063",
      "identificationNumber": "46770189B",
      "address": "calle Basoa, numero 3",
      "location": {
        "postalCode": "01138",
        "municipality": "Zigoitia",
        "county": "Araba/Álava",
        "municipalityId": "018",
        "countyId": "01"
      },
      "economicActivities": [
        {
          "id": "1.474",
          "name": "Artes gráficas (impresión gráfica)",
          "_links": {
            "self": {
              "name": "Artes gráficas (impresión gráfica)",
              "href": "https://api.euskadi.eus/procurements/companies/economic-activities/1.474"
            }
          }
        }
      ],
      "certificateStartDate": "2026-02-05",
      "certificateEndDate": "2026-08-05",
      "object": "ARTES GRÁFICAS (IMPRESIÓN GRÁFICA).",
      "mainEntityOfPage": "https://www.contratacion.euskadi.eus/webkpe00-kperoc/es/ac71aBusquedaRegistrosWar/empresa/10063",
      "_links": {
        "self": {
          "name": "SUSAGNA RIBERA GONZALEZ",
          "href": "https://api.euskadi.eus/procurements/companies/10063"
        }
      }
    },
    {
      "name": "DISMEVAL, S.L.",
      "registrationNumber": "09796",
      "identificationNumber": "B96211305",
      "address": "DOCTOR LLUCH 30 BAJO",
      "location": {
        "postalCode": "46011",
        "municipality": "València",
        "county": "Valencia/València",
        "municipalityId": "250",
        "countyId": "46"
      },
      "economicActivities": [
        {
          "id": "1.619.2",
          "name": "Venta al por mayor de aparatos e instrumentos médicos, ortopédicos, ópticos",
          "_links": {
            "self": {
              "name": "Venta al por mayor de aparatos e instrumentos médicos, ortopédicos, ópticos",
              "href": "https://api.euskadi.eus/procurements/companies/economic-activities/1.619.2"
            }
          }
        }
      ],
      "certificateStartDate": "2026-02-05",
      "certificateEndDate": "2026-08-02",
      "object": "LA COMPRA-VENTA DE PRODUCTOS QUIRÚRGICOS Y ORTOPÉDICOS, ASÍ COMO LA INTERMEDIACIÓN EN LA COMPRAVENTA DE LOS PRODUCTOS ANTERIORES.",
      "mainEntityOfPage": "https://www.contratacion.euskadi.eus/webkpe00-kperoc/es/ac71aBusquedaRegistrosWar/empresa/09796",
      "_links": {
        "self": {
          "name": "DISMEVAL, S.L.",
          "href": "https://api.euskadi.eus/procurements/companies/09796"
        }
      }
    },
    {
      "name": "DEURZA CONSULTING, S.L.",
      "registrationNumber": "10067",
      "identificationNumber": "B99101156",
      "address": "Joaquín Costa 8, 3º Dcha",
      "location": {
        "postalCode": "50001",
        "municipality": "Zaragoza",
        "county": "Zaragoza",
        "municipalityId": "297",
        "countyId": "50"
      },
      "economicActivities": [
        {
          "id": "1.841",
          "name": "Servicios jurídicos",
          "_links": {
            "self": {
              "name": "Servicios jurídicos",
              "href": "https://api.euskadi.eus/procurements/companies/economic-activities/1.841"
            }
          }
        },
        {
          "id": "1.843.1",
          "name": "Servicios técnicos de ingeniería",
          "_links": {
            "self": {
              "name": "Servicios técnicos de ingeniería",
              "href": "https://api.euskadi.eus/procurements/companies/economic-activities/1.843.1"
            }
          }
        },
        {
          "id": "1.843.2",
          "name": "Servicios técnicos de arquitectura y urbanismo",
          "_links": {
            "self": {
              "name": "Servicios técnicos de arquitectura y urbanismo",
              "href": "https://api.euskadi.eus/procurements/companies/economic-activities/1.843.2"
            }
          }
        }
      ],
      "certificateStartDate": "2026-02-05",
      "certificateEndDate": "2026-08-05",
      "object": "- LA CONSULTORÍA JURÍDICA, TÉCNICA Y URBANÍSTICA. - INTERMEDIACIÓN EN SERVICIOS TÉCNICOS DE ARQUITECTURA E INGENIERÍA. - ACTIVIDADES DE CONSULTORÍA DE GESTIÓN EMPRESARIAL.",
      "mainEntityOfPage": "https://www.contratacion.euskadi.eus/webkpe00-kperoc/es/ac71aBusquedaRegistrosWar/empresa/10067",
      "_links": {
        "self": {
          "name": "DEURZA CONSULTING, S.L.",
          "href": "https://api.euskadi.eus/procurements/companies/10067"
        }
      }
    },
    {
      "name": "NICE PLACE, S.L.U",
      "registrationNumber": "06728",
      "identificationNumber": "B01546001",
      "address": "MENDIZABALA 106",
      "location": {
        "postalCode": "01007",
        "municipality": "Vitoria-Gasteiz",
        "county": "Araba/Álava",
        "municipalityId": "059",
        "countyId": "01"
      },
      "economicActivities": [
        {
          "id": "1.932.1",
          "name": "Enseñanza de formación y perfeccionamiento profesional no superior",
          "_links": {
            "self": {
              "name": "Enseñanza de formación y perfeccionamiento profesional no superior",
              "href": "https://api.euskadi.eus/procurements/companies/economic-activities/1.932.1"
            }
          }
        },
        {
          "id": "1.973.1",
          "name": "Servicios fotográficos",
          "_links": {
            "self": {
              "name": "Servicios fotográficos",
              "href": "https://api.euskadi.eus/procurements/companies/economic-activities/1.973.1"
            }
          }
        },
        {
          "id": "1.989.2",
          "name": "Servicios de organización de congresos, asambleas y similares",
          "_links": {
            "self": {
              "name": "Servicios de organización de congresos, asambleas y similares",
              "href": "https://api.euskadi.eus/procurements/companies/economic-activities/1.989.2"
            }
          }
        }
      ],
      "certificateStartDate": "2026-02-05",
      "certificateEndDate": "2026-07-28",
      "object": "LOS SERVICIOS COMERCIALES PARA TODO TIPO DE ACTIVIDADES: PROMOCIÓN TURÍSTICA, SOCIOCULTURAL, LÚDICO-DEPORTIVOS Y DEL PATRIMONIO HISTÓRICO/NATURAL. CREACIÓN DE PRODUCTOS DE COMUNICACIÓN, PARTICIPACIÓN, FORMACIÓN Y ACTIVIDADES COLABORATIVAS. SERVICIOS DE COMUNICACIÓN Y POSICIONAMIENTO, VIDEO, FOTOGRAFÍA, REDES SOCIALES, SISTEMAS DE GEOLOCALIZACIÓN. PLANIFICACIÓN Y REALIZACIÓN DE RUTAS GUIADAS Y VIRTUALES PARA SENDERISMO, CICLOTURISMO, MOTO-TOURS Y TOURING EN AUTOMÓVIL/MINIVANS",
      "mainEntityOfPage": "https://www.contratacion.euskadi.eus/webkpe00-kperoc/es/ac71aBusquedaRegistrosWar/empresa/06728",
      "_links": {
        "self": {
          "name": "NICE PLACE, S.L.U",
          "href": "https://api.euskadi.eus/procurements/companies/06728"
        }
      }
    },
    {
      "name": "MARIA JUANA SOARES SILVA",
      "registrationNumber": "10528",
      "identificationNumber": "72068538Q",
      "address": "CALE INDAUTXU 10 2IZQ",
      "location": {
        "postalCode": "48011",
        "municipality": "Bilbao",
        "county": "Bizkaia",
        "municipalityId": "020",
        "countyId": "48"
      },
      "economicActivities": [
        {
          "id": "1.355.2",
          "name": "Edición de soportes grabados de sonido, vídeo y de informática",
          "_links": {
            "self": {
              "name": "Edición de soportes grabados de sonido, vídeo y de informática",
              "href": "https://api.euskadi.eus/procurements/companies/economic-activities/1.355.2"
            }
          }
        }
      ],
      "certificateStartDate": "2026-02-05",
      "certificateEndDate": "2026-08-04",
      "object": "EDICIÓN DE SOPORTES GRABADOS DE SONIDO, VÍDEO Y DE INFORMÁTICA.",
      "mainEntityOfPage": "https://www.contratacion.euskadi.eus/webkpe00-kperoc/es/ac71aBusquedaRegistrosWar/empresa/10528",
      "_links": {
        "self": {
          "name": "MARIA JUANA SOARES SILVA",
          "href": "https://api.euskadi.eus/procurements/companies/10528"
        }
      }
    },
    {
      "name": "UNI-TRAVEL AUTOCARES, S.L.",
      "registrationNumber": "03885",
      "identificationNumber": "B20388997",
      "address": "Pº EGIBURUBERRI 25A",
      "location": {
        "postalCode": "20100",
        "municipality": "Errenteria",
        "county": "Gipuzkoa",
        "municipalityId": "067",
        "countyId": "20"
      },
      "economicActivities": [
        {
          "id": "1.721.3",
          "name": "Transporte de viajeros por carretera",
          "_links": {
            "self": {
              "name": "Transporte de viajeros por carretera",
              "href": "https://api.euskadi.eus/procurements/companies/economic-activities/1.721.3"
            }
          }
        }
      ],
      "certificateStartDate": "2026-02-05",
      "certificateEndDate": "2026-07-27",
      "classification": [
        {
          "id": "S",
          "name": "Servicios",
          "groups": [
            {
              "id": "R",
              "subgroups": [
                {
                  "id": "01",
                  "name": "Transporte de viajeros por carretera",
                  "categories": [
                    {
                      "id": "5",
                      "name": "Mas de 1.200.000",
                      "_links": {
                        "self": {
                          "name": "Mas de 1.200.000",
                          "href": "https://api.euskadi.eus/procurements/companies/types/S/categories/5"
                        }
                      }
                    }
                  ],
                  "_links": {
                    "self": {
                      "name": "Transporte de viajeros por carretera",
                      "href": "https://api.euskadi.eus/procurements/companies/types/S/groups/R/subgroups/01"
                    }
                  }
                }
              ],
              "_links": {
                "self": {
                  "href": "https://api.euskadi.eus/procurements/companies/types/S/groups/R"
                }
              }
            }
          ],
          "_links": {
            "self": {
              "name": "Servicios",
              "href": "https://api.euskadi.eus/procurements/companies/types/S"
            }
          }
        }
      ],
      "object": "EL TRANSPORTE DE SERVICIO PÚBLICO DE VIAJEROS POR CARRETERA EN TODAS SUS MODALIDADES EN ÁMBITO NACIONAL E INTERNACIONAL, VENTA DE BILLETES PARA TRANSPORTE EN LÍNEAS REGULARS POR CARRETERA. TRANSPORTE EN SERVICIO PÚBLICO Y MERCANCÍAS POR CARRETERA, CORRESPONDENCIA Y VALORES EN ÁMBITO NACIONAL E INTERNACIONAL. COMPRA VENTA DE MERCADERÍAS Y BIENES INMUEBLES",
      "mainEntityOfPage": "https://www.contratacion.euskadi.eus/webkpe00-kperoc/es/ac71aBusquedaRegistrosWar/empresa/03885",
      "_links": {
        "self": {
          "name": "UNI-TRAVEL AUTOCARES, S.L.",
          "href": "https://api.euskadi.eus/procurements/companies/03885"
        }
      }
    }
  ]
}