{
  "totalItems": 9042,
  "totalPages": 905,
  "currentPage": 815,
  "itemsOfPage": 10,
  "items": [
    {
      "name": "TELE PROMOTION, S.A.",
      "registrationNumber": "00799",
      "identificationNumber": "A48274716",
      "address": "CARRETERA BILBAO - GALDÁCANO, Nº 6 - A. (EDIFIC. METROALDE).",
      "location": {
        "postalCode": "48004",
        "municipality": "Bilbao",
        "county": "Bizkaia",
        "municipalityId": "020",
        "countyId": "48"
      },
      "economicActivities": [
        {
          "id": "1.846",
          "name": "Empresas de estudios de mercado",
          "_links": {
            "self": {
              "name": "Empresas de estudios de mercado",
              "href": "https://api.euskadi.eus/procurements/companies/economic-activities/1.846"
            }
          }
        }
      ],
      "certificateStartDate": "2001-05-16",
      "certificateEndDate": "2001-10-05",
      "object": "LA REALIZACIÓN DE CAMPAÑAS POR MEDIO DEL TELÉFONO PARA VENTA DE PRODUCTOS Y SERVICIOS, CONCERTACIÓN DE ENTREVISTAS, REALIZACIÓN DE TEST Y SONDEOS, FORMACIÓN Y ADIESTRAMIENTO DE PERSONAL Y VENTA DE CURSOS",
      "mainEntityOfPage": "https://www.contratacion.euskadi.eus/webkpe00-kperoc/es/ac71aBusquedaRegistrosWar/empresa/00799",
      "_links": {
        "self": {
          "name": "TELE PROMOTION, S.A.",
          "href": "https://api.euskadi.eus/procurements/companies/00799"
        }
      }
    },
    {
      "name": "AUTOCARES LA ENCINA, S.L.",
      "registrationNumber": "01826",
      "identificationNumber": "B01027382",
      "address": "C/ LANDALUCÍA, Nº 24.",
      "location": {
        "postalCode": "01015",
        "municipality": "Vitoria-Gasteiz",
        "county": "Araba/Álava",
        "municipalityId": "059",
        "countyId": "01"
      },
      "economicActivities": [
        {
          "id": "1.721.3",
          "name": "Transporte de viajeros por carretera",
          "_links": {
            "self": {
              "name": "Transporte de viajeros por carretera",
              "href": "https://api.euskadi.eus/procurements/companies/economic-activities/1.721.3"
            }
          }
        }
      ],
      "certificateStartDate": "2001-05-15",
      "certificateEndDate": "2001-11-04",
      "object": "EL TRANSPORTE DE VIAJEROS POR CARRETERA",
      "mainEntityOfPage": "https://www.contratacion.euskadi.eus/webkpe00-kperoc/es/ac71aBusquedaRegistrosWar/empresa/01826",
      "_links": {
        "self": {
          "name": "AUTOCARES LA ENCINA, S.L.",
          "href": "https://api.euskadi.eus/procurements/companies/01826"
        }
      }
    },
    {
      "name": "ELENPUNT, S.A.",
      "registrationNumber": "02246",
      "identificationNumber": "A08642142",
      "address": "C/ JOSEP TRUETA, 5",
      "location": {
        "postalCode": "08000",
        "municipality": "Terrassa",
        "county": "Barcelona",
        "municipalityId": "279",
        "countyId": "08"
      },
      "economicActivities": [
        {
          "id": "1.999",
          "name": "Otros servicios n.c.o.p",
          "_links": {
            "self": {
              "name": "Otros servicios n.c.o.p",
              "href": "https://api.euskadi.eus/procurements/companies/economic-activities/1.999"
            }
          }
        }
      ],
      "certificateStartDate": "2001-05-14",
      "certificateEndDate": "2001-09-23",
      "object": "LA INDUSTRIA DE LAVANDERÍA Y EL ARRIENDO DE ROPA PROPIEDAD DE LA SOCIEDAD, CON TODOS LOS PROCESOS COMPLEMENTARIOS Y CONSIGUIENTES A TAL ACTIVIDAD",
      "mainEntityOfPage": "https://www.contratacion.euskadi.eus/webkpe00-kperoc/es/ac71aBusquedaRegistrosWar/empresa/02246",
      "_links": {
        "self": {
          "name": "ELENPUNT, S.A.",
          "href": "https://api.euskadi.eus/procurements/companies/02246"
        }
      }
    },
    {
      "name": "MISCO IBERIA COMPUTER SUPPLIES, S.A.",
      "registrationNumber": "02395",
      "identificationNumber": "A78915832",
      "address": "PGNO. INDUSTRIAL \"EL RASO\". NAVES L4, L5",
      "location": {
        "postalCode": "28750",
        "municipality": "San Agustín del Guadalix",
        "county": "Madrid",
        "municipalityId": "129",
        "countyId": "28"
      },
      "economicActivities": [
        {
          "id": "1.659.2",
          "name": "Venta al por menor de muebles de oficina y máquinas y equipos de oficina",
          "_links": {
            "self": {
              "name": "Venta al por menor de muebles de oficina y máquinas y equipos de oficina",
              "href": "https://api.euskadi.eus/procurements/companies/economic-activities/1.659.2"
            }
          }
        }
      ],
      "certificateStartDate": "2001-05-14",
      "certificateEndDate": "2001-10-16",
      "object": "COMPRAR, VENDER, IMPORTAR, EXPORTAR, FABRICAR, TRANSFORMAR, MONTAR, ALMACENAR Y DISTRIBUIR, TANTO AL POR MAYOR COMO AL POR MENOR, DIRECTAMENTE O POR CORREO, TODA CLASE DE ELEMENTOS DE MERCANCÍAS, BIENES Y PRODUCTOS, ESPECIALMENTE TODO TIPO DE SOFTWARE Y ÚTILES PARA COMPUTADORES Y ORDENADORES, ASÍ COMO MATERIALES Y PRODUCTOS NECESARIOS O CONVENIENTES PARA LA UTILIZACIÓN  Y/O INSTALACIÓN DE LOS MISMOS.  ",
      "mainEntityOfPage": "https://www.contratacion.euskadi.eus/webkpe00-kperoc/es/ac71aBusquedaRegistrosWar/empresa/02395",
      "_links": {
        "self": {
          "name": "MISCO IBERIA COMPUTER SUPPLIES, S.A.",
          "href": "https://api.euskadi.eus/procurements/companies/02395"
        }
      }
    },
    {
      "name": "AKON 90, S.L.",
      "registrationNumber": "01739",
      "identificationNumber": "B48302699",
      "address": "C/ AVENIDA IPARRAGUIRRE, Nº 82.",
      "location": {
        "postalCode": "48940",
        "municipality": "Leioa",
        "county": "Bizkaia",
        "municipalityId": "054",
        "countyId": "48"
      },
      "economicActivities": [
        {
          "id": "1.505.5",
          "name": "Carpintería y cerrajería",
          "_links": {
            "self": {
              "name": "Carpintería y cerrajería",
              "href": "https://api.euskadi.eus/procurements/companies/economic-activities/1.505.5"
            }
          }
        }
      ],
      "certificateStartDate": "2001-05-11",
      "certificateEndDate": "2001-10-17",
      "object": "LA INSTALACIÓN DE ELEMENTOS QUE COMPRENDEN EL EQUIPAMIENTO Y DECORACIÓN DE OFICINAS Y LOCALES, COMPUESTOS POR MAMPARAS-TABIQUE FIJAS Y MÓVILES, SUELOS EN TODAS SUS VERSIONES, TECHOS FALSOS, MOBILIARIO DE MADERA Y METÁLICO U OTRAS MATERIAS PRIMAS, SILLERIA EN GENERAL, DE POLIDEPORTIVOS Y ARTÍCULOS COMPLEMENTARIOS EN EL CAMPO DE LA DECORACIÓN; LA FABRICACIÓN Y VENTA COMERCIAL DE ARTÍCULOS, OBJETOS Y COMPLEMENTOS PARA LA INSTALACIÓN, DECORACIÓN Y AMBIENTACIÓN DE LOCALES COMERCIALES, INDUSTRIALES O DE OTRA UTILIDAD; LA REPRESENTACIÓN, CONSIGNACIÓN Y GESTIÓN DE TODA CLASE DE SUMINISTROS, INSTALACIONES DE PRODUCTOS NACIONALES Y EXTRANJEROS, DE IMPORTACIÓN Y EXPORTACIÓN; Y CUANTO SEA CONSECUENCIA O ANTECEDENTE, ACCESORIO O SE RELACIONE DIRECTA O INDIRECTAMENTE CON LAS ACTIVIDADES ANTERIORMENTE RESEÑADAS",
      "mainEntityOfPage": "https://www.contratacion.euskadi.eus/webkpe00-kperoc/es/ac71aBusquedaRegistrosWar/empresa/01739",
      "_links": {
        "self": {
          "name": "AKON 90, S.L.",
          "href": "https://api.euskadi.eus/procurements/companies/01739"
        }
      }
    },
    {
      "name": "LOGIC CONTROL, S.A.",
      "registrationNumber": "00445",
      "identificationNumber": "A08262107",
      "address": "C/ CARRETERA DE PRATS, Nº 122.",
      "location": {
        "postalCode": "08208",
        "municipality": "Sabadell",
        "county": "Barcelona",
        "municipalityId": "187",
        "countyId": "08"
      },
      "economicActivities": [
        {
          "id": "1.330.2",
          "name": "Instalación de máquinas de oficina y ordenadores",
          "_links": {
            "self": {
              "name": "Instalación de máquinas de oficina y ordenadores",
              "href": "https://api.euskadi.eus/procurements/companies/economic-activities/1.330.2"
            }
          }
        },
        {
          "id": "1.476.1",
          "name": "Edición de libros",
          "_links": {
            "self": {
              "name": "Edición de libros",
              "href": "https://api.euskadi.eus/procurements/companies/economic-activities/1.476.1"
            }
          }
        },
        {
          "id": "1.617.8",
          "name": "Venta al por mayor de máquinas y material de oficina",
          "_links": {
            "self": {
              "name": "Venta al por mayor de máquinas y material de oficina",
              "href": "https://api.euskadi.eus/procurements/companies/economic-activities/1.617.8"
            }
          }
        },
        {
          "id": "1.659.2",
          "name": "Venta al por menor de muebles de oficina y máquinas y equipos de oficina",
          "_links": {
            "self": {
              "name": "Venta al por menor de muebles de oficina y máquinas y equipos de oficina",
              "href": "https://api.euskadi.eus/procurements/companies/economic-activities/1.659.2"
            }
          }
        },
        {
          "id": "1.845",
          "name": "Explotación electrónica por cuenta de terceros",
          "_links": {
            "self": {
              "name": "Explotación electrónica por cuenta de terceros",
              "href": "https://api.euskadi.eus/procurements/companies/economic-activities/1.845"
            }
          }
        },
        {
          "id": "1.932.1",
          "name": "Enseñanza de formación y perfeccionamiento profesional no superior",
          "_links": {
            "self": {
              "name": "Enseñanza de formación y perfeccionamiento profesional no superior",
              "href": "https://api.euskadi.eus/procurements/companies/economic-activities/1.932.1"
            }
          }
        }
      ],
      "certificateStartDate": "2001-05-10",
      "certificateEndDate": "2001-09-05",
      "object": "EL ASESORAMIENTO A EMPRESAS EN GENERAL, Y EL ANÁLISIS Y PROGRAMACIÓN DE TRABAJOS PARA LA EJECUCIÓN DE LOS MISMOS MEDIANTE ORDENADOR",
      "mainEntityOfPage": "https://www.contratacion.euskadi.eus/webkpe00-kperoc/es/ac71aBusquedaRegistrosWar/empresa/00445",
      "_links": {
        "self": {
          "name": "LOGIC CONTROL, S.A.",
          "href": "https://api.euskadi.eus/procurements/companies/00445"
        }
      }
    },
    {
      "name": "ORGANON TEKNIKA ESPAÑOLA, S.A.",
      "registrationNumber": "02232",
      "identificationNumber": "A07018351",
      "address": "CRTA. DE HOSPITALET, Nº 147-149, EDIF. ROMA",
      "location": {
        "postalCode": "08940",
        "municipality": "Cornellà de Llobregat",
        "county": "Barcelona",
        "municipalityId": "073",
        "countyId": "08"
      },
      "economicActivities": [
        {
          "id": "1.614.1",
          "name": "Venta al por mayor de productos farmacéuticos y medicamentos",
          "_links": {
            "self": {
              "name": "Venta al por mayor de productos farmacéuticos y medicamentos",
              "href": "https://api.euskadi.eus/procurements/companies/economic-activities/1.614.1"
            }
          }
        },
        {
          "id": "1.619.2",
          "name": "Venta al por mayor de aparatos e instrumentos médicos, ortopédicos, ópticos",
          "_links": {
            "self": {
              "name": "Venta al por mayor de aparatos e instrumentos médicos, ortopédicos, ópticos",
              "href": "https://api.euskadi.eus/procurements/companies/economic-activities/1.619.2"
            }
          }
        }
      ],
      "certificateStartDate": "2001-05-09",
      "certificateEndDate": "2001-10-04",
      "object": "\r\n\r\nA) LA FABRICACIÓN, COMPRAVENTA AL MAYOR Y MENOR, IMPORTACIÓN, EXPORTACIÓN, DISTRIBUCIÓN, REPRESENTACIÓN Y PROMOCIÓN POR CUENTA PROPIA O AJENA DE PRODUCTOS QUÍMICOS EN GENERAL Y, EN ESPECIAL, DE PRODUCTOS FARMACÉUTICOS PARA USO HUMANO Y ANIMAL, DE PRODUCTOS COSMÉTICOS Y DE HIGIENE, Y DE MATERIAL SANITARIO DE CUALQUIER TIPO Y CLASE, INCLUSIVE APARATOS E INSTRUMENTOS MÉDICO QUIRÚRGICOS, ASÍ COMO DE LAS MATERIAS PRIMAS PARA LA ELABORACIÓN DE LOS MISMOS Y DE SUS DERIVADOS, CON TODAS AQUELLAS OPERACIONES ANEJAS, COMPLEMENTARIAS O DERIVADAS DE LAS ANTERIORES.\r\n\r\nB) LA GESTIÓN, ADMINISTRACIÓN, ADQUISICIÓN, ARRENDAMIENTO NO FINANCIERO CON O SIN OPCIÓN DE COMPRA, EXPLOTACIÓN, ENAJENACIÓN Y COLOCACIÓN EN EL MERCADO DE TODA CLASE DE BIENES INMUEBLES",
      "mainEntityOfPage": "https://www.contratacion.euskadi.eus/webkpe00-kperoc/es/ac71aBusquedaRegistrosWar/empresa/02232",
      "_links": {
        "self": {
          "name": "ORGANON TEKNIKA ESPAÑOLA, S.A.",
          "href": "https://api.euskadi.eus/procurements/companies/02232"
        }
      }
    },
    {
      "name": "D.E.M. DISEÑO GRÁFICO Y PUBLICIDAD GRUPPO, S.L.",
      "registrationNumber": "02385",
      "identificationNumber": "B20560363",
      "address": "CM. PORTUETXE, 13 - 1ºA",
      "location": {
        "postalCode": "20018",
        "municipality": "Donostia / San Sebastián",
        "county": "Gipuzkoa",
        "municipalityId": "069",
        "countyId": "20"
      },
      "economicActivities": [
        {
          "id": "1.844",
          "name": "Servicios de publicidad, relaciones públicas y similares",
          "_links": {
            "self": {
              "name": "Servicios de publicidad, relaciones públicas y similares",
              "href": "https://api.euskadi.eus/procurements/companies/economic-activities/1.844"
            }
          }
        }
      ],
      "certificateStartDate": "2001-04-23",
      "certificateEndDate": "2001-08-27",
      "object": "LAS RELATIVAS AL DISEÑO GRÁFICO Y LA PUBLICIDAD",
      "mainEntityOfPage": "https://www.contratacion.euskadi.eus/webkpe00-kperoc/es/ac71aBusquedaRegistrosWar/empresa/02385",
      "_links": {
        "self": {
          "name": "D.E.M. DISEÑO GRÁFICO Y PUBLICIDAD GRUPPO, S.L.",
          "href": "https://api.euskadi.eus/procurements/companies/02385"
        }
      }
    },
    {
      "name": "REGO Y COMPAÑÍA, S.A.",
      "registrationNumber": "00479",
      "identificationNumber": "A28084622",
      "address": "C/ ARAGÓN, Nº 90.",
      "location": {
        "postalCode": "08015",
        "municipality": "Barcelona",
        "county": "Barcelona",
        "municipalityId": "019",
        "countyId": "08"
      },
      "economicActivities": [
        {
          "id": "1.619.2",
          "name": "Venta al por mayor de aparatos e instrumentos médicos, ortopédicos, ópticos",
          "_links": {
            "self": {
              "name": "Venta al por mayor de aparatos e instrumentos médicos, ortopédicos, ópticos",
              "href": "https://api.euskadi.eus/procurements/companies/economic-activities/1.619.2"
            }
          }
        },
        {
          "id": "1.619.7",
          "name": "Venta al por mayor de instrumentos de precisión, medida y similares",
          "_links": {
            "self": {
              "name": "Venta al por mayor de instrumentos de precisión, medida y similares",
              "href": "https://api.euskadi.eus/procurements/companies/economic-activities/1.619.7"
            }
          }
        }
      ],
      "certificateStartDate": "2001-04-10",
      "certificateEndDate": "2001-09-26",
      "object": "LAS TRANSACCIONES COMERCIALES DE COMPRA-VENTA DE ARTÍCULOS PARA LA INDUSTRIA Y EL COMERCIO",
      "mainEntityOfPage": "https://www.contratacion.euskadi.eus/webkpe00-kperoc/es/ac71aBusquedaRegistrosWar/empresa/00479",
      "_links": {
        "self": {
          "name": "REGO Y COMPAÑÍA, S.A.",
          "href": "https://api.euskadi.eus/procurements/companies/00479"
        }
      }
    },
    {
      "name": "CIMENTACIONES Y ESTRUCTURAS DE HORMIGÓN G.M. DOSSFER, S.L.",
      "registrationNumber": "02384",
      "identificationNumber": "B48802318",
      "address": "POLÍGONO UGALDEGUREN, 1 -  PABELLÓN , 2 PARCELA 4 VII",
      "location": {
        "postalCode": "48170",
        "municipality": "Zamudio",
        "county": "Bizkaia",
        "municipalityId": "905",
        "countyId": "48"
      },
      "economicActivities": [
        {
          "id": "1.501.1",
          "name": "Construcción completa, reparación y conservación de edificaciones",
          "_links": {
            "self": {
              "name": "Construcción completa, reparación y conservación de edificaciones",
              "href": "https://api.euskadi.eus/procurements/companies/economic-activities/1.501.1"
            }
          }
        }
      ],
      "certificateStartDate": "2001-04-10",
      "certificateEndDate": "2001-09-06",
      "object": "A) LA COMPRA-VENTA, ARRIENDO Y EXPLOTACIÓN DE TODA CLASE DE INMUEBLES.\r\n\r\nB) LA CONSTRUCCIÓN Y VENTA, DE VIVIENDAS, PABELLONES, CHALETS, EDIFICIOS INDUSTRIALES, LOCALES COMERCIALES, GARAJES Y TODA CLASE DE EDIFICIOS, ASÍ COMO VIVIENDAS DE PROTECCIÓN OFICIAL.\r\n\r\nC) LA REALIZACIÓN DE TODA CLASE DE EXCAVACIONES, MOVIMIENTOS DE TIERRAS Y URBANIZACIONES.\r\n\r\nD) LA REALIZACIÓN DE TRABAJOS DE, ESTRUCTURAS DE HORMIGÓN Y CARPINTERÍA METÁLICA; ALBAÑILERÍA FONTANERÍA, ELECTRICIDAD, CARPINTERÍA PINTURA, HERRERÍA, VIDRIERÍA, PROTECCIÓN CONTRA INCENDIOS, CALEFACCIÓN, AIRE ACONDICIONADO Y ENERGÍA SOLAR, INCLUYENDO LAS ACTIVIDADES DE LOS GREMIOS CORRESPONDIENTES EN SUS VARIANTES.\r\n\r\nE) LA REALIZACIÓN DE TODA CLASE DE OBRAS TANTO PÚBLICAS COMO PRIVADAS, MEDIANTE CONTRATACIÓN DIRECTA O POR CONCURSO O CONCURSO-SUBASTA, BIEN CON PARTICULARES, EL ESTADO, LAS AUTONOMÍAS, DIPUTACIONES, AYUNTAMIENTOS Y CUALQUIER OTRO ORGANISMO.\r\n\r\nF) EL ESTUDIO, PROMOCIÓN Y DESARROLLO DE TODA CLASE DE EMPRESAS INDUSTRIALES, COMERCIALES Y DE SERVICIOS, ASÍ COMO LA PRESTACIÓN A ESTAS EMPRESAS DE SERVICIOS CONSISTENTES EN LA INVESTIGACIÓN Y ESTUDIO DE LOS PROBLEMAS QUE A LOS MISMOS Y A SUS OPERACIONES AFECTEN, TALES COMO CONTROL Y ANALISIS FINANCIEROS, ORGANIZACIÓN GENERAL, INVESTIGACIÓN OPERATIVA, INGENIERÍA DE INSTALACIONES Y PROCESOS.\r\n\r\nH) VENTA DE TECNOLOGÍA, DISEÑO Y FABRICACIÓN DE FÁBRICAS.\r\n\r\nI) EL TRANSPORTE TERRESTRE DE TODA CLASE DE MERCANCÍAS. LA SOCIEDAD PODRÁ REALIZAR LAS ACTIVIDADES QUE CONSITUYEN SU OBJETO, TOTAL O PARCIALMENTE DE UNA FORMA DIRECTA O MEDIANTE LA PARTICIPACIÓN EN OTRAS SOCIEDADES O ENTIDADES CON O SIN PERSONALIDAD JURÍDICA.\r\n\r\nLA SOCIEDAD NO REALIZARÁ NINGUNA DE LAS ACTIVIDADES SUJETAS A RÉGIMEN DE AUTORIZACIÓN ESPECIAL Y LEGISLACIÓN ESPECIAL.",
      "mainEntityOfPage": "https://www.contratacion.euskadi.eus/webkpe00-kperoc/es/ac71aBusquedaRegistrosWar/empresa/02384",
      "_links": {
        "self": {
          "name": "CIMENTACIONES Y ESTRUCTURAS DE HORMIGÓN G.M. DOSSFER, S.L.",
          "href": "https://api.euskadi.eus/procurements/companies/02384"
        }
      }
    }
  ]
}