{
  "totalItems": 9042,
  "totalPages": 905,
  "currentPage": 251,
  "itemsOfPage": 10,
  "items": [
    {
      "name": "LKS, S. COOP.",
      "registrationNumber": "01098",
      "identificationNumber": "F20369153",
      "address": "GOIRU KALEA, Nº 7.",
      "location": {
        "postalCode": "20500",
        "municipality": "Arrasate / Mondragón",
        "county": "Gipuzkoa",
        "municipalityId": "055",
        "countyId": "20"
      },
      "economicActivities": [
        {
          "id": "1.841",
          "name": "Servicios jurídicos",
          "_links": {
            "self": {
              "name": "Servicios jurídicos",
              "href": "https://api.euskadi.eus/procurements/companies/economic-activities/1.841"
            }
          }
        },
        {
          "id": "1.845",
          "name": "Explotación electrónica por cuenta de terceros",
          "_links": {
            "self": {
              "name": "Explotación electrónica por cuenta de terceros",
              "href": "https://api.euskadi.eus/procurements/companies/economic-activities/1.845"
            }
          }
        },
        {
          "id": "1.847",
          "name": "Servicios de consultoría",
          "_links": {
            "self": {
              "name": "Servicios de consultoría",
              "href": "https://api.euskadi.eus/procurements/companies/economic-activities/1.847"
            }
          }
        },
        {
          "id": "1.932.2",
          "name": "Enseñanza de formación y perfeccionamiento profesional superior",
          "_links": {
            "self": {
              "name": "Enseñanza de formación y perfeccionamiento profesional superior",
              "href": "https://api.euskadi.eus/procurements/companies/economic-activities/1.932.2"
            }
          }
        }
      ],
      "certificateStartDate": "2025-09-25",
      "certificateEndDate": "2026-03-10",
      "object": "A) LA PRESTACIÓN DE SERVICIOS PROFESIONALES EN LOS ÁMBITOS DE CONSULTORÍA INTEGRAL DE NEGOCIO Y DE GESTIÓN Y DE CONSULTORÍATECNOLÓGICA, INCLUYENDO EL ASESORAMIENTO, LA REDACCIÓN, ELABORACIÓN Y EJECUCIÓN DE TODA CLASE DE ESTUDIOS Y PROYECTOS, ASÍ COMO LA DIRECCIÓN, ASISTENCIA TÉCNICA, FORMACIÓN, TRANSFERENCIA DE TECNOLOGÍA, COMERCIALIZACIÓN Y ADMINISTRACIÓN DE TALES ESTUDIOS, PROYECTOS Y ACTIVIDADES. B) EL DISEÑO, DESARROLLO,  PRODUCCIÓN, INTEGRACIÓN, OPERACIÓN, MANTENIMIENTO, REPARACIÓN, Y COMERCIALIZACIÓN DE SISTEMAS, SOLUCIONES Y PRODUCTOS QUE HAGAN USO DE LAS TECNOLOGÍAS DE LA INFORMACIÓN (INFORMÁTICA, ELECTRÓNICA Y COMUNICACIONES), ASÍ COMO LA EJECUCIÓN DE LAS INSTALACIONES NECESARIAS PARA SU IMPLANTACIÓN, CONEXIÓN, PUESTA EN FUNCIONAMIENTO, EXPLOTACIÓN Y MANTENIMIENTO DE CUALQUIER PARTE O COMPONENTE DE LOS MISMOS Y CUALQUIER TIPO DE SERVICIOS RELACIONADOS CON TODO ELLO, INCLUÍDOS LA GESTIÓN DE LA INFORMACIÓN Y LA SEGURIDAD. C) LA PRESTACIÓN DE SERVICIOS JURÍDICOS Y DE ASISTENCIA PROFESIONAL EN TODAS LAS ÁREAS DEL DERECHO. D) LA PRESTACIÓN DE SERVICIOS DE EXTERNALIZACIÓN DE ACTIVIDADES Y PROCESOS DE SIMILIAR NATURALEZA A LOS ANTERIORMENTE RELACIONADOS.",
      "mainEntityOfPage": "https://www.contratacion.euskadi.eus/webkpe00-kperoc/es/ac71aBusquedaRegistrosWar/empresa/01098",
      "_links": {
        "self": {
          "name": "LKS, S. COOP.",
          "href": "https://api.euskadi.eus/procurements/companies/01098"
        }
      }
    },
    {
      "name": "ELECTROTECNICA DEL URUMEA, S.L.",
      "registrationNumber": "05292",
      "identificationNumber": "B20073508",
      "address": "PG BORDA BERRI, 11",
      "location": {
        "postalCode": "20140",
        "municipality": "Andoain",
        "county": "Gipuzkoa",
        "municipalityId": "009",
        "countyId": "20"
      },
      "economicActivities": [
        {
          "id": "1.151.4",
          "name": "Producción de energía no especificada en otros epígrafes",
          "_links": {
            "self": {
              "name": "Producción de energía no especificada en otros epígrafes",
              "href": "https://api.euskadi.eus/procurements/companies/economic-activities/1.151.4"
            }
          }
        },
        {
          "id": "1.342.2",
          "name": "Otro material eléctrico de utilización y equipamiento",
          "_links": {
            "self": {
              "name": "Otro material eléctrico de utilización y equipamiento",
              "href": "https://api.euskadi.eus/procurements/companies/economic-activities/1.342.2"
            }
          }
        },
        {
          "id": "1.504.1",
          "name": "Instalaciones eléctricas en general",
          "_links": {
            "self": {
              "name": "Instalaciones eléctricas en general",
              "href": "https://api.euskadi.eus/procurements/companies/economic-activities/1.504.1"
            }
          }
        }
      ],
      "certificateStartDate": "2025-09-25",
      "certificateEndDate": "2026-03-25",
      "object": "1. INGENIERÍA, ESTUDIO Y PROYECTOS DE INSTALACIONES ELÉCTRICAS DE ALTA, MEDIA Y BAJA TENSIÓN. 1.1. INGENERÍA Y DISEÑO DE SUBESTACIONES ELECTRICAS HASTA 400 KV. 1.2. INGENERÍA Y DISEÑO DE CENTROS DE TRANSFORMACIÓN, TANTO DE COMPAÑÍA COMO DE ABONADO. 1.3. INGENERÍA Y DISEÑO DE LÍNEAS ELÉCTRICAS SUBTERRÁNEAS EN ALTA Y EN BAJA TENSIÓN. 1.4. INGENIERÍA Y DISEÑO DE CENTRALES Y MINICENTRALES HIDROELÉCTRICAS, EÓLICAS, FOTOVOLTÁICAS Y TERMOSOLARES. 1.5. INGENERÍA Y PROYECTOS DEL SECTOR TERCIARIO. 1.6. INGENIERÍA Y DISEÑO DE ARMARIOS ELÉCTRICOS, DE POTENCIA, CONTROL Y PROTECCIÓN, ENTRE OTROS DE LAS SIGUIENTES CARACTERÍSTICAS: 1.6.1. PARA DISTRIBUCIÓN: PUDIENDO SUPERAR LOS 6.300 A Y LOS 150 KA. 1.6.2. PARA ACCIONAMIENTO: VARIADORES Y ARRANCADORES DE LOS PRINCIPALES FABRICANTES. 1.6.3. PARA CENTROS DE CONTROL DE MOTORES. 1.6.4. PARA AUTOMATISMOS: CONTANDO CON LOS PRINCIPALES FABRICANTES DE PLCS INDUSTRIALES PARA AUTOMATIZACIÓN DE LOS PROCESOS. 1.6.5. PARA PROTECCIÓN Y CONTROL: CONTANDO CON LOS PRINCIPALES FABIRCANTES DE RELÉS MULTIFUNCIÓN PARA LA PROTECCIÓN DE EQUIPOS, MOTORES, GENERADORES, TRANSFORMADORES, ETC. 1.7. INGENIERÍA, DISEÑO Y MONTAJE DE ALUMBRADOS DE INTERIORES Y EXTERIORES CON LOS SISTEMAS MÁS ADECUADOS A LAS NECESIDADES Y APLICANDO MEDIDAS DE AHORRO ENERGÉTICO. 1.8. INGENIERÍA Y DISEÑO, DE INSTALACIONES DE MEDIDA DE ENERGÍA. 1.9. INGENERÍA Y DISEÑO DE BATERÍAS DE CONDENSADORES DE MEDIA Y DE BAJA TENSIÓN. 1.10. INGENIERÍA Y DISEÑO DE SISTEMAS Y EQUIPOS DE POTENCIA DE CORRIENTE CONTÍNUA. 1.11. INGENIERÍA, DISEÑO Y MONTAJE DE INSTALACIONES ESPECIALES. 1.12. INGENIERÍA, DISEÑO Y MONTAJE DE AUTOMATIZACIÓN DE PROCESOS, PROGRAMACIÓN Y CONTROL MEDIANTE PLC. 1.13. INGENIERÍA, DISEÑO Y MONTAJE DE SISTEMAS DE SUPERVISIÓN, CONTROL Y ADQUISICIÓN DE DATOS (SCADA). 1.14. ADECUACIÓN DE INSTALACIONES-TOTALES O PARCIALES- A LA NORMATIVA VIGENTE, TANTO DE ALTA COMO DE BAJA TENSIÓN. 1.15. GESTIÓN DE INSPECCIONES TÉCNICAS REGLAMENTARIAS CON ORGANISMOS DE CONTROL AUTORIZADOS (OCA) TANTO EN ALTA COMO EN BAJA TENSIÓN Y CAMBIOS DE LAS MISMAS. 1.16. AUDITORÍAS ENERGÉTICAS DE EDIFICACIÓN E INSTALACIONES. 1.17.ESTUDIOS Y OPTIMIZACIÓN DE SISTEMAS ENERGÉTICOS. GESTIÓN DE LA CONTRATACIÓN ENTRE LAS DIFERENTES COMPAÑÍAS COMERCIALIZADORAS DE SUMINISTRO ELÉCTRICO. 1.18. ASESORAMIENTO, GESTIÓN Y CONTROL DE LA FACTURACIÓN ELÉCTRICA. 1.19. GESTIÓN DE LA DEMANDA: ACTUACIÓN SOBRE CARGAS Y COMPENSACIÓN DE LA ENERGÍA REACTIVA Y EL FILTRADO DE ARMÓNICOS. 1.20. ESTADIOS DE SELECTIVIDAD DE PROTECCIONES EN INSTALACIONES ELÉCTRICAS. 1.21. ESTUDIOS DE TIERRAS. 1.22. ESTUDIOS Y MEDIDAS DE CALIDAD DEL SUMINISTRO. 1.23. EFICIENCIA ENERGÉTICA. 1.23.1. MEDIDA DE VARIABLES, TELEGESTIÓN E INDICADORES DE EFICIENCIA. 1.24. MEJORA DE LA PRODUCTIVIDAD: COSTES PRODUCTIVOS Y DE MANTENIMIENTO. 1.25. APOYO PARA LA OBTENCIÓN DE SUBVENCIONES. 2. DIRECCIÓN DE OBRA Y MONTAJE DE INSTALACIONES ELÉCTRICAS DE ALTA, MEDIA Y BAJA TENSIÓN. 2.1. SUBESTACIONES ELÉCTRICAS ENCAPSULADAS (GIS), HIBRIDAS (HIS) Y CONVENCIONALES (AIS) EN INTERIOR E INTEMPERIE HASTA 400 KV. 2.2. CENTROS DE TRANSFORMACIÓN TANTO DE COMPAÑÍA COMO DE ABONADO DE 12 A 45 KV. 2.3. LÍNEAS ELÉCTRICAS, AÉREAS Y SUBTERRÁNEASHASTA 66 KV. 2.4. INSTALACIÓN Y PUESTA EN MARCHA DE EQUIPOS DE GENERACIÓN DE ENERGÍA ELÉCTRICA. 2.4.1. CENTRALES Y MINI CENTRALES HIDROELÉCTRICAS, EÓLICAS, FOTOVOLTÁICAS Y TERMOSOLARES. 2.4.2. COGENERACIÓN Y CICLO COMBINADO, MOTORES DE COMBUSTIÓN Y URBINAS A GAS. 2.4.3. INVERSORES PARA CENTRALES FOTOVOLTÁICAS. 2.4.4. MONTAJE DE GRUPOS ELECTRÓGENOS DE SERVICIO PERMANENTE Y DE EMERGENCIA. 2.5. COMPENSADORES ESTÁTICOS (SVC) Y BATERÍAS DE CONDENSADORES DE MEDIA Y ALTA TENSIÓN EN INTEMPERIE. 2.6. BATERÍAS DE CONDENSADORES EN BAJA TENSIÓN. 2.7. CENTROS DE TRANSFORMACIÓN DE 12 A 45 KV. 2.8. SISTEMAS DE CONTROL Y PROTECCIÓN DE POTENCIA EN ALTA Y BAJA TENSIÓN. 2.9. ARMARIOS ELÉCTRICOS DEPOTENCIA, CONTROL Y PROTECCIÓN. 2.10. INSTRUMENTACIÓN Y CONTROL DE PROCESOS. 2.11. SISTEMAS DE CONTROL Y PROTECCIÓN DE POTENCIA EN ALTA Y BAJA TENSIÓN. 2.12. INSTALACIÓN DE EQUIPOS DE MEDIDA DE ENERGÍA, DE CONTROL DE CALIDAD DE SUMINISTRO Y PARA LA OPTIMIZACIÓN DE LOS DIFERENTES SISTEMAS ENERGÉTICOS. 2.13. ALUMBRADOS DE INTERIORES Y EXTERIORES CON LOS SISTEMAS MÁS ADECUADOS A LAS NECESIDADES Y APLICANDO MEDIDAS DE AHORRO ENERGÉTICO. 2.14. INSTALACIÓN Y PUESTA EN MARCHA DE EQUIPOS ESPECIALES. 2.14.1. MOTORES SINCRONOS Y ASÍNCRONOS. 2.14.2. VARIADORES DE MEDIA TENSION. 2.14.3. EQUIPOS DE BOMBEO, FILTRADO Y DEPURACIÓN. 3. AUTOMATIZACIÓN Y CONTROL. 3.1. MONTAJE DE INSTALACIONES DE AUTOMATIZACIÓN DE PROCESOS, PROGRAMACIÓN Y CONTROL. 3.2. FABRICACIÓN Y SUMINISTRO DE ARMARIOS DE ADQUISICIÓN DE DATOS, AUTOMATIZACIÓN, CONTROL, SUPERVISIÓN Y PROTECCIÓN. 3.3. PROGRAMACIÓN DEL AUTÓMATA PROGRAMABLE (PLC), SISTEMA DE SUPERVISIÓN (SCADA) Y PUESTA EN MARCHA. 3.4. CALIBRACIÓN DE EQUIPOS EN LABORATORIO PROPIO, CALIBRACIÓN EN DIVERSAS MAGNITUDES. 3.5. SUMINISTRO DE INSTRUMENTACIÓN Y MEDIDA. 4. CLIMATIZACIÓN. 4.1. INGENIERÍA, PROYECTO Y DISEÑO. 4.2. MONTAJE Y PUESTA EN MARCHA: 4.2.1. INSTALACIONES DE VENTILACIÓN. 4.2.2. INSTALACIONES DE CLIMATIZACIÓN. 4.2.3. INSTALACIONES DE REFRIGERACIÓN. 4.2.4. INSTALACIONES DE CALEFACCIÓN. 4.3. MANTENIMIENTO Y SAT. 5.  COMUNICACIÓN INDUSTRIAL. 5.1. INSTALACIÓN Y PUESTA EN MARCHA DE REDES DE COMUNICACIÓN INDUSTRIAL (DE DATOS U OFIMÁTICAS Y DE CONTROL O CAMPO). 5.2. INSTALACIÓN Y PUESTA EN MARCHA DE REDES DOMÓTICAS. 5.2.1. SISTEMAS DOMÓTICOS COMERCIALES. 6. PRESTACIÓN DE SERVICIOS DE ATENCIÓN Y CONSERVACIÓN DE MAQUINARIA, INSTALACIONES Y APARATOS, ESPECIALMENTE ELÉCTRICOS. 6.1. SUBESTACIONES. 6.2. CENTROS DE TRANSFORMACIÓN. 6.3. INSTALACIONES INDUSTRIALES. 6.4. INSTALACIONES DE COGENERACIÓN Y DE CICLO COMBINADO. 6.5. CENTRALES HIDROELÉCTRICAS. 6.6. PARQUES EÓLICOS Y FOTOVOLTÁICOS. 6.7. INSPECCIÓN DE LA INSTALACIÓN DE ALTA TENSIÓN CADA 3 AÑOS (OCA). 6.8. MANTENIMIENTO PREDICTIVO, PREVENTIVO Y CORRECTIVO EN SISTEMAS DE ALTA Y BAJA TENSIÓN. 6.9. MANTENIMIENTO DE ZONAS CLASIFICADAS, LOCALES DE PÚBLICA CONCURRENCIA, QUIRÓFANOS, ETC. 6.10. ANÁLISIS DE ARMÓNICOS Y TERMOGRAFÍA INFRARROJA. 6.11. SELECTIVIDAD DE PROTECCIONES ELÉCTRICAS. 6.12. REGISTRO DE PARÁMETROS Y ANÁLISIS DE CALIDAD DE SUMINISTRO ELÉCTICO. 6.13. REPARACIÓN Y ALQUILER DE EQUIPOS (TRANSFORMADORES, GRUPOS ELECTRÓGENOS, ETC.) 6.14. ADAPTACIÓN DE LAS INSTALACIONES DE AT, MT Y BT A NORMATIVA O NUEVAS CONDICIONES DE EXPLOTACIÓN. 7. GESTIÓN DE INSTALACIONES ENERGÉTICAS. 7.1. AUDITORÍAS ENERGÉTICAS DE EDIFICIOS E INSTALACIONES. 7.2. AUDITORÍA ENERGÉTICA DE DETALLE, ANALIZANDO LOS SISTEMAS DE ILUMINACIÓN, CALEFACCIÓN, CLIMATIZACIÓN YENVOLVENTE TÉRMICA. 7.3. CALIFICACIÓNO Y CERTIFICACIÓN ENERGÉTICA DE EDIFICIOS. 8. GESTIÓN DE SERVICIOS ENERGÉTICOS. 8.1. ASESORAMIENTO EN CONTRATACIÓN DE LOS SUMINISTROS ENERGÉTICOS. 8.2. IMPLANTACIÓN DE SISTEMAS DE GESTIÓN ENERGÉTICA. 8.3. AUDITORÍAS DE GESTIÓN ENERGÉTICA",
      "mainEntityOfPage": "https://www.contratacion.euskadi.eus/webkpe00-kperoc/es/ac71aBusquedaRegistrosWar/empresa/05292",
      "_links": {
        "self": {
          "name": "ELECTROTECNICA DEL URUMEA, S.L.",
          "href": "https://api.euskadi.eus/procurements/companies/05292"
        }
      }
    },
    {
      "name": "ASEMARCE CONSULTING, S.L.",
      "registrationNumber": "05961",
      "identificationNumber": "B20547063",
      "address": "PLAZA BALDOMERO ANABITARTE",
      "location": {
        "postalCode": "20011",
        "municipality": "Donostia / San Sebastián",
        "county": "Gipuzkoa",
        "municipalityId": "069",
        "countyId": "20"
      },
      "economicActivities": [
        {
          "id": "1.842",
          "name": "Servicios financieros y contables",
          "_links": {
            "self": {
              "name": "Servicios financieros y contables",
              "href": "https://api.euskadi.eus/procurements/companies/economic-activities/1.842"
            }
          }
        }
      ],
      "certificateStartDate": "2025-09-25",
      "certificateEndDate": "2026-03-24",
      "object": "LA EXPLOTACIÓN DE UNA OFICINA TÉCNICA DE SERVICIOS REFERIDA A LOS EXTREMOS SIGUIENTES: A) ASESORÍA Y GESTORÍA ADMINISTRATIVA DEDICADA A PROMOVER, ACTIVAR, SOLICITAR Y OBTENER TODA CLASE DE EXPEDIENTES, ASUNTOS Y DOCUMENTOS QUE INTERESEN A PARTICULARES, ENTIDADES Y CORPORACIONES. DE QUIENES RECIBA MANDATO VERBAL O ESCRITOS, EN TODAS LAS OFICINAS DEPENDIENTES DE LA COMUNIDAD AUTÓNOMA VASCA, DEL ESTADO, PROVINCIA O MUNICIPIO, Y EN LAS DE CUALQUIER ENTIDADES QUE TENGA RELACIÓN CON EL SERVICIO PÚBLICO. B) PROMOCIÓN DE EMPRESAS Y NEGOCIOS. C) ESTUDIOS ECONÓMICOS Y FINANCIEROS DE EMPRESAS Y MERCADOS. D) SERVICIOS DE INFORMACIÓN Y ASESORAMIENTO LABORAL, CONTABLE, MERCANTIL Y FISCAL. E) TRAMITACIÓN Y DEFENSA DE ASUNTOS SOCIALES. F) SUMINISTRO DE PROGRAMAS O APLICACIONES INFORMÁTICAS. G) ADAPTACIONES DE RGPD. H) COMPLIANCE LABORAL Y FISCAL. I) PLANES DE IGUALDAD Y PROTOCOLOS ANTI-ACOSO. J)AUDITORÍAS LABORALES. K) SUMINISTRO DE CERTIFICADOS ELECTRÓNICOS O HERRAMIENTAS SIMILARES DE FIRMA. L) TESTAMENTOS Y HERENCIAS.\n",
      "mainEntityOfPage": "https://www.contratacion.euskadi.eus/webkpe00-kperoc/es/ac71aBusquedaRegistrosWar/empresa/05961",
      "_links": {
        "self": {
          "name": "ASEMARCE CONSULTING, S.L.",
          "href": "https://api.euskadi.eus/procurements/companies/05961"
        }
      }
    },
    {
      "name": "CENTRO DE EMERGENCIAS, SALVAMENTO Y SOCORRISMO",
      "registrationNumber": "06805",
      "identificationNumber": "B95811477",
      "address": "CALLE KAREAGA, NÚMERO 55-1º",
      "location": {
        "postalCode": "48903",
        "municipality": "Barakaldo",
        "county": "Bizkaia",
        "municipalityId": "013",
        "countyId": "48"
      },
      "economicActivities": [
        {
          "id": "1.659.3",
          "name": "Venta al por menor de aparatos médicos, ortopédicos, ópticos y fotográficos",
          "_links": {
            "self": {
              "name": "Venta al por menor de aparatos médicos, ortopédicos, ópticos y fotográficos",
              "href": "https://api.euskadi.eus/procurements/companies/economic-activities/1.659.3"
            }
          }
        },
        {
          "id": "1.673.2",
          "name": "Otros cafés y bares",
          "_links": {
            "self": {
              "name": "Otros cafés y bares",
              "href": "https://api.euskadi.eus/procurements/companies/economic-activities/1.673.2"
            }
          }
        },
        {
          "id": "1.849.7",
          "name": "Servicios de gestión administrativa",
          "_links": {
            "self": {
              "name": "Servicios de gestión administrativa",
              "href": "https://api.euskadi.eus/procurements/companies/economic-activities/1.849.7"
            }
          }
        },
        {
          "id": "1.859",
          "name": "Alquiler de otros bienes muebles n.c.o.p. (sin personal permanente)",
          "_links": {
            "self": {
              "name": "Alquiler de otros bienes muebles n.c.o.p. (sin personal permanente)",
              "href": "https://api.euskadi.eus/procurements/companies/economic-activities/1.859"
            }
          }
        },
        {
          "id": "1.934",
          "name": "Enseñanza fuera de establecimiento permanente",
          "_links": {
            "self": {
              "name": "Enseñanza fuera de establecimiento permanente",
              "href": "https://api.euskadi.eus/procurements/companies/economic-activities/1.934"
            }
          }
        },
        {
          "id": "1.942.9",
          "name": "Otros servicios sanitarios sin internados, no clasificados",
          "_links": {
            "self": {
              "name": "Otros servicios sanitarios sin internados, no clasificados",
              "href": "https://api.euskadi.eus/procurements/companies/economic-activities/1.942.9"
            }
          }
        },
        {
          "id": "1.967.1",
          "name": "Instalaciones deportivas",
          "_links": {
            "self": {
              "name": "Instalaciones deportivas",
              "href": "https://api.euskadi.eus/procurements/companies/economic-activities/1.967.1"
            }
          }
        },
        {
          "id": "1.967.2",
          "name": "Escuelas y servicios de perfeccionamiento del deporte",
          "_links": {
            "self": {
              "name": "Escuelas y servicios de perfeccionamiento del deporte",
              "href": "https://api.euskadi.eus/procurements/companies/economic-activities/1.967.2"
            }
          }
        }
      ],
      "certificateStartDate": "2025-09-25",
      "certificateEndDate": "2026-03-22",
      "object": "a) LA IMPARTICIÓN DE CURSOS DE FORMACIÓN DE PERSONAL EN TÉCNICAS DE SALVAMENTO Y SOCORRISMO, LA COBERTURA DE EVENTOS SOCIO-SANIATARIOS, TANTO PÚBLICOS COMO PRIVADOS, ASÍ COMO LA PRESTACIÓN DE TODOS LOS SERVICIOS DE SALVAMENTO Y SOCORRISMO, ACUÁTICO Y TERRESTRE. b) LA ORGANIZACIÓN DE EVENTOS, SEMINARIOS, CAMPAMENTOS Y EN GENERAL TODA CLASE DE ACTIVIDADES RECREATIVAS, LÚDICAS, DE OCIO, ESPARCIMIENTO Y DEPORTE. c) LA GESTIÓN INTEGRAL DE INSTALACIONES DEPORTIVAS, CULTURALES Y EDUCATIVAS, INCLUIDA LA PRESTACIÓN DE SERVICIOS DE HOSTELERÍA EN DICHAS INSTALACIONES. d) LA PRESTACIÓN DE ASESORAMIENTO, Y DE TODO TIPO DE SERVICIOS ASISTENCIALES, QUE DEMANDE LA ORGANIZACIÓN, EJECUCIÓN Y DESARROLLO DE LAS ACTIVIDADES REFERIDAS EN LOS APARTADOS ANTERIORES, ASÍ COMO LA FORMACIÓN DE PERSONAL EN MATERIAL RELACIONADAS CON LA ORGANIZACIÓN, EJECUCIÓN Y DESARROLLO DE TALES ACTIVIDADES. e) LA REALIZACIÓN DE CAMPAÑAS DE PUBLICIDAD, Y EN GENERAL LA PRESTACIÓN DE SERVICIOS EMPRESARIALES DE MARKETING Y COMUNICACIÓN",
      "mainEntityOfPage": "https://www.contratacion.euskadi.eus/webkpe00-kperoc/es/ac71aBusquedaRegistrosWar/empresa/06805",
      "_links": {
        "self": {
          "name": "CENTRO DE EMERGENCIAS, SALVAMENTO Y SOCORRISMO",
          "href": "https://api.euskadi.eus/procurements/companies/06805"
        }
      }
    },
    {
      "name": "AKTING INGENIARITZA, S.L.",
      "registrationNumber": "10345",
      "identificationNumber": "B20942280",
      "address": "mikeletegi 71 - planta 3, oficina 326",
      "location": {
        "postalCode": "20009",
        "municipality": "Donostia / San Sebastián",
        "county": "Gipuzkoa",
        "municipalityId": "069",
        "countyId": "20"
      },
      "economicActivities": [
        {
          "id": "1.843.1",
          "name": "Servicios técnicos de ingeniería",
          "_links": {
            "self": {
              "name": "Servicios técnicos de ingeniería",
              "href": "https://api.euskadi.eus/procurements/companies/economic-activities/1.843.1"
            }
          }
        },
        {
          "id": "1.843.9",
          "name": "Otros servicios técnicos n.c.o.p",
          "_links": {
            "self": {
              "name": "Otros servicios técnicos n.c.o.p",
              "href": "https://api.euskadi.eus/procurements/companies/economic-activities/1.843.9"
            }
          }
        }
      ],
      "certificateStartDate": "2025-09-25",
      "certificateEndDate": "2026-03-09",
      "object": "EL DISEÑO, DESARROLLO Y PRESTACIÓN DE SERVICIOS Y SOLUCIONES TECNOLÓGICAS PARA EMPRESAS E INSTITUCIONES.",
      "mainEntityOfPage": "https://www.contratacion.euskadi.eus/webkpe00-kperoc/es/ac71aBusquedaRegistrosWar/empresa/10345",
      "_links": {
        "self": {
          "name": "AKTING INGENIARITZA, S.L.",
          "href": "https://api.euskadi.eus/procurements/companies/10345"
        }
      }
    },
    {
      "name": "YOLANDA LOPEZ DE LUZURIAGA  BELTRAN DE HEREDIA",
      "registrationNumber": "05997",
      "identificationNumber": "16263441A",
      "address": "PABLO IGLESIAS 9, behea",
      "location": {
        "postalCode": "20100",
        "municipality": "Errenteria",
        "county": "Gipuzkoa",
        "municipalityId": "067",
        "countyId": "20"
      },
      "economicActivities": [
        {
          "id": "2.731",
          "name": "Abogados",
          "_links": {
            "self": {
              "name": "Abogados",
              "href": "https://api.euskadi.eus/procurements/companies/economic-activities/2.731"
            }
          }
        }
      ],
      "certificateStartDate": "2025-09-25",
      "certificateEndDate": "2026-03-25",
      "object": "AHOLKULARITZA  JURIDIKOA",
      "mainEntityOfPage": "https://www.contratacion.euskadi.eus/webkpe00-kperoc/es/ac71aBusquedaRegistrosWar/empresa/05997",
      "_links": {
        "self": {
          "name": "YOLANDA LOPEZ DE LUZURIAGA  BELTRAN DE HEREDIA",
          "href": "https://api.euskadi.eus/procurements/companies/05997"
        }
      }
    },
    {
      "name": "FRIO BILBAO, S.A.",
      "registrationNumber": "04566",
      "identificationNumber": "A48137426",
      "address": "IBARRETA, 1-MERCABILBAO",
      "location": {
        "postalCode": "48970",
        "municipality": "Basauri",
        "county": "Bizkaia",
        "municipalityId": "015",
        "countyId": "48"
      },
      "economicActivities": [
        {
          "id": "1.423.9",
          "name": "Elaboración de otros productos alimenticios n.c.o.p",
          "_links": {
            "self": {
              "name": "Elaboración de otros productos alimenticios n.c.o.p",
              "href": "https://api.euskadi.eus/procurements/companies/economic-activities/1.423.9"
            }
          }
        },
        {
          "id": "1.612.8",
          "name": "Venta al por mayor de pescados y otros productos de pesca y acuicultura",
          "_links": {
            "self": {
              "name": "Venta al por mayor de pescados y otros productos de pesca y acuicultura",
              "href": "https://api.euskadi.eus/procurements/companies/economic-activities/1.612.8"
            }
          }
        }
      ],
      "certificateStartDate": "2025-09-25",
      "certificateEndDate": "2026-03-12",
      "object": "EL ALMACENAMIENTO PARA TRANSFORMACIÓN, MANIPULACIÓN Y COMPRAVENTA DE TODA CLASE DE ARTÍCULOS ALIMENTICIOS, FRESCOS Y CONGELADOS DE PROCEDENCIA VEGETAL O ANIMAL",
      "mainEntityOfPage": "https://www.contratacion.euskadi.eus/webkpe00-kperoc/es/ac71aBusquedaRegistrosWar/empresa/04566",
      "_links": {
        "self": {
          "name": "FRIO BILBAO, S.A.",
          "href": "https://api.euskadi.eus/procurements/companies/04566"
        }
      }
    },
    {
      "name": "ELEKA INGENIARITZA LINGUISTIKOA, S.L.",
      "registrationNumber": "02632",
      "identificationNumber": "B20779161",
      "address": "ZELAI HAUNDI 3, OSINALDE INDUSTRIALDEA",
      "location": {
        "postalCode": "20170",
        "municipality": "Usurbil",
        "county": "Gipuzkoa",
        "municipalityId": "073",
        "countyId": "20"
      },
      "economicActivities": [
        {
          "id": "1.843.9",
          "name": "Otros servicios técnicos n.c.o.p",
          "_links": {
            "self": {
              "name": "Otros servicios técnicos n.c.o.p",
              "href": "https://api.euskadi.eus/procurements/companies/economic-activities/1.843.9"
            }
          }
        }
      ],
      "certificateStartDate": "2025-09-25",
      "certificateEndDate": "2026-03-25",
      "object": "IKERKETAREN ARLOKO JARDUERA ETA PROIEKTUAK BURUTZEA, BERRIKUNTZAN GARATZEA ETA HIZKUNTZAREN INGENIERITZA ARLOKO PRODUKTU ETA ZERBITZUEN GARAPENA ETA KOMERTZIALIZAZIOA",
      "mainEntityOfPage": "https://www.contratacion.euskadi.eus/webkpe00-kperoc/es/ac71aBusquedaRegistrosWar/empresa/02632",
      "_links": {
        "self": {
          "name": "ELEKA INGENIARITZA LINGUISTIKOA, S.L.",
          "href": "https://api.euskadi.eus/procurements/companies/02632"
        }
      }
    },
    {
      "name": "CUATRECASAS LEGAL, S.L.P.",
      "registrationNumber": "07257",
      "identificationNumber": "B59942110",
      "address": "Avenida Diagonal, 191 ",
      "location": {
        "postalCode": "08018",
        "municipality": "Barcelona",
        "county": "Barcelona",
        "municipalityId": "019",
        "countyId": "08"
      },
      "economicActivities": [
        {
          "id": "1.841",
          "name": "Servicios jurídicos",
          "_links": {
            "self": {
              "name": "Servicios jurídicos",
              "href": "https://api.euskadi.eus/procurements/companies/economic-activities/1.841"
            }
          }
        }
      ],
      "certificateStartDate": "2025-09-25",
      "certificateEndDate": "2026-03-23",
      "object": "EL EJERCICIO EN COMÚN DE LA ACTIVIDAD PROFESIONAL CONSISTENTE EN LA PRESTACIÓN DE SERVICIOS JURÍDICOS Y DE ASESORAMIENTO TRIBUTARIO, EN LOS TÉRMINOS QUE ESTABLEZCA LA LEGISLACIÓN QUE SESULTE APLICABLE. EL OBJETO SOCIAL INCLUYE LA INVESTIGACIÓN CIENTÍFICA, LA FORMACIÓN Y LA DIVULGACIÓN EN EL ÁMBITO DEL DERECHO.",
      "mainEntityOfPage": "https://www.contratacion.euskadi.eus/webkpe00-kperoc/es/ac71aBusquedaRegistrosWar/empresa/07257",
      "_links": {
        "self": {
          "name": "CUATRECASAS LEGAL, S.L.P.",
          "href": "https://api.euskadi.eus/procurements/companies/07257"
        }
      }
    },
    {
      "name": "SHERPAS TIME CONSULTING, S.L.",
      "registrationNumber": "09339",
      "identificationNumber": "B56190440",
      "address": "C\\ LOS PRADOS 166",
      "location": {
        "postalCode": "33203",
        "municipality": "Gijón",
        "county": "Asturias",
        "municipalityId": "024",
        "countyId": "33"
      },
      "economicActivities": [
        {
          "id": "1.755",
          "name": "Agencias de viajes",
          "_links": {
            "self": {
              "name": "Agencias de viajes",
              "href": "https://api.euskadi.eus/procurements/companies/economic-activities/1.755"
            }
          }
        },
        {
          "id": "1.844",
          "name": "Servicios de publicidad, relaciones públicas y similares",
          "_links": {
            "self": {
              "name": "Servicios de publicidad, relaciones públicas y similares",
              "href": "https://api.euskadi.eus/procurements/companies/economic-activities/1.844"
            }
          }
        },
        {
          "id": "1.845",
          "name": "Explotación electrónica por cuenta de terceros",
          "_links": {
            "self": {
              "name": "Explotación electrónica por cuenta de terceros",
              "href": "https://api.euskadi.eus/procurements/companies/economic-activities/1.845"
            }
          }
        }
      ],
      "certificateStartDate": "2025-09-25",
      "certificateEndDate": "2026-03-21",
      "object": "ACTIVIDAD PRINCIPAL: ACTIVIDADES DE CONSULTORÍA INFORMÁTICA (CNAE: 6202). OTRAS ACTIVIDADES: ACTIVIDADES DE PROGRAMACIÓN INFORMÁTICA (CNAE: 6201); ACTIVIDADES DE LAS AGENCIAS DE VIAJE (CNAE: 7911); ACTIVIDADES DE LOS OPERADORES TURÍSTICOS (CNAE: 7912); AGENCIAS DE PUBLICIDAD (CNAE: 7311).",
      "mainEntityOfPage": "https://www.contratacion.euskadi.eus/webkpe00-kperoc/es/ac71aBusquedaRegistrosWar/empresa/09339",
      "_links": {
        "self": {
          "name": "SHERPAS TIME CONSULTING, S.L.",
          "href": "https://api.euskadi.eus/procurements/companies/09339"
        }
      }
    }
  ]
}