{
  "totalItems": 9042,
  "totalPages": 905,
  "currentPage": 360,
  "itemsOfPage": 10,
  "items": [
    {
      "name": "GELSUKAR, S.L.",
      "registrationNumber": "08445",
      "identificationNumber": "B20816898",
      "address": "Donosti Ibilbidea 84",
      "location": {
        "postalCode": "20115",
        "municipality": "Astigarraga",
        "county": "Gipuzkoa",
        "municipalityId": "903",
        "countyId": "20"
      },
      "economicActivities": [
        {
          "id": "1.654.1",
          "name": "Venta al por menor de vehículos terrestres",
          "_links": {
            "self": {
              "name": "Venta al por menor de vehículos terrestres",
              "href": "https://api.euskadi.eus/procurements/companies/economic-activities/1.654.1"
            }
          }
        },
        {
          "id": "1.691.2",
          "name": "Reparación de vehículos automóviles, bicicletas y otros vehículos",
          "_links": {
            "self": {
              "name": "Reparación de vehículos automóviles, bicicletas y otros vehículos",
              "href": "https://api.euskadi.eus/procurements/companies/economic-activities/1.691.2"
            }
          }
        }
      ],
      "certificateStartDate": "2025-04-22",
      "certificateEndDate": "2025-10-17",
      "object": "A) LA EXPLOTACIÓN DE CONCESIONES DE MARCAS DE VEHÍCULOS TERRESTRES. B) COMERCIO AL POR MENOR, Y AL POR MAYOR, DISTRIBUCIÓN Y REPRESENTACIÓN DE VEHÍCULOS TERRESTRES NUEVOS Y USADOS. C) COMERCIO AL POR MENOR Y AL POR MAYOR DE REPUESTOS, RECAMBIOS Y TODA CLASE DE ACCESORIOS DE VEHÍCULOS TERRESTRES. D) REPARACIÓN Y MANTENIMIENTO DE VEHÍCULOS TERRESTRES. E) ARRENDAMIENTO DE VEHÍCULOS TERRESTRES.",
      "mainEntityOfPage": "https://www.contratacion.euskadi.eus/webkpe00-kperoc/es/ac71aBusquedaRegistrosWar/empresa/08445",
      "_links": {
        "self": {
          "name": "GELSUKAR, S.L.",
          "href": "https://api.euskadi.eus/procurements/companies/08445"
        }
      }
    },
    {
      "name": "ALUNARTE COMUNICACION, S.L.",
      "registrationNumber": "10146",
      "identificationNumber": "B01581891",
      "address": "Andra Mari de Toloño 1",
      "location": {
        "postalCode": "01193",
        "municipality": "Vitoria-Gasteiz",
        "county": "Araba/Álava",
        "municipalityId": "059",
        "countyId": "01"
      },
      "economicActivities": [
        {
          "id": "1.844",
          "name": "Servicios de publicidad, relaciones públicas y similares",
          "_links": {
            "self": {
              "name": "Servicios de publicidad, relaciones públicas y similares",
              "href": "https://api.euskadi.eus/procurements/companies/economic-activities/1.844"
            }
          }
        }
      ],
      "certificateStartDate": "2025-04-22",
      "certificateEndDate": "2025-10-18",
      "object": "EL ASESORAMIENTO Y GESTIÓN PROFESIONAL DE LA PUBLICIDAD, MARKETING Y COMUNICACIÓN, ASÍ COMO DISEÑO GRÁFICO, CREACIÓN DE PÁGINAS WEB Y GESTIÓN DE REDES SOCIALES. SEGUIMIENTO DE POSICIONAMIENTO Y GENERACIÓN DE CONTENIDOS, LANZAMIENTOS DE CAMPAÑAS DE PUBLICIDAD Y COMUNICACIÓN AUDIOVISUAL. ASESORÍA Y DISEÑO DE IMAGEN PROFESIONAL E IDENTIDAD CORPORATIVA, ABARCANDO LAS DISTINTAS ÁREAS QUE FORMAN UNA IMAGEN INTEGRAL. LA COMPRA Y VENTA DE ARTÍCULOS PROMOCIONALES, ASÍ COMO EL DISEÑO, FABRICACIÓN Y COMERCIALIZACIÓN DE ARTÍCULOS DE REGALO, OBJETOS FUNCIONALES, ACCESORIOS ÚTILES, VESTUARIO, ARTÍCULOS PUBLICITARIOS Y DISEÑO DE PRODUCTOS Y SUS CONTENEDORES, EMBALAJES, ETIQUETAS, ENVASES, MATERIAL DE PACKAGING, MATERIAL DE OFICINA Y MERCHANDISING Y TALLER DE IMPRESIÓN PUBLICITARIA.",
      "mainEntityOfPage": "https://www.contratacion.euskadi.eus/webkpe00-kperoc/es/ac71aBusquedaRegistrosWar/empresa/10146",
      "_links": {
        "self": {
          "name": "ALUNARTE COMUNICACION, S.L.",
          "href": "https://api.euskadi.eus/procurements/companies/10146"
        }
      }
    },
    {
      "name": "GO 4 ATIPICK SL",
      "registrationNumber": "09336",
      "identificationNumber": "B65809410",
      "address": "POLIGONO CAN CASABLANQUES CALLE EMPORDA 57",
      "location": {
        "postalCode": "08192",
        "municipality": "Sant Quirze del Vallès",
        "county": "Barcelona",
        "municipalityId": "238",
        "countyId": "08"
      },
      "economicActivities": [
        {
          "id": "1.613.1",
          "name": "Venta al por mayor de productos textiles, confección calzado y artículos cuero",
          "_links": {
            "self": {
              "name": "Venta al por mayor de productos textiles, confección calzado y artículos cuero",
              "href": "https://api.euskadi.eus/procurements/companies/economic-activities/1.613.1"
            }
          }
        },
        {
          "id": "1.613.9",
          "name": "Venta al por mayor de accesorios del vestido y otros productos textiles",
          "_links": {
            "self": {
              "name": "Venta al por mayor de accesorios del vestido y otros productos textiles",
              "href": "https://api.euskadi.eus/procurements/companies/economic-activities/1.613.9"
            }
          }
        }
      ],
      "certificateStartDate": "2025-04-22",
      "certificateEndDate": "2025-10-21",
      "object": "LA IMPORTACION, EXPORTACIÓN Y COMERCIO MAYOR Y MENOR DE: MATERIAL DEPORTIVO, CALZADO, PRODUCTOS TEXTILES, CONFECCIÓN, APARATOS ELECTRÓNICOS Y FERRETERIA, MENAJE DEL HOGAR, PRENDAS DE VESTIR, PRODUCTOS DE PERFUMERÍA, DROGUERÍA, HIGIENE Y BELLEZA",
      "mainEntityOfPage": "https://www.contratacion.euskadi.eus/webkpe00-kperoc/es/ac71aBusquedaRegistrosWar/empresa/09336",
      "_links": {
        "self": {
          "name": "GO 4 ATIPICK SL",
          "href": "https://api.euskadi.eus/procurements/companies/09336"
        }
      }
    },
    {
      "name": "INIT SERVICES FOR SOCIAL INNOVATION, S.L.",
      "registrationNumber": "03968",
      "identificationNumber": "B95419230",
      "address": "C/ URIBITARTE, 6 - 2º",
      "location": {
        "postalCode": "48001",
        "municipality": "Bilbao",
        "county": "Bizkaia",
        "municipalityId": "020",
        "countyId": "48"
      },
      "economicActivities": [
        {
          "id": "1.845",
          "name": "Explotación electrónica por cuenta de terceros",
          "_links": {
            "self": {
              "name": "Explotación electrónica por cuenta de terceros",
              "href": "https://api.euskadi.eus/procurements/companies/economic-activities/1.845"
            }
          }
        },
        {
          "id": "1.847",
          "name": "Servicios de consultoría",
          "_links": {
            "self": {
              "name": "Servicios de consultoría",
              "href": "https://api.euskadi.eus/procurements/companies/economic-activities/1.847"
            }
          }
        },
        {
          "id": "1.934",
          "name": "Enseñanza fuera de establecimiento permanente",
          "_links": {
            "self": {
              "name": "Enseñanza fuera de establecimiento permanente",
              "href": "https://api.euskadi.eus/procurements/companies/economic-activities/1.934"
            }
          }
        }
      ],
      "certificateStartDate": "2025-04-16",
      "certificateEndDate": "2025-10-16",
      "object": "-) LA ADQUISICIÓN DE CUALQUIER TÍTULO DE FINCAS RÚSTICAS O URBANAS, LA RECONSTRUCCIÓN DE ÉSTAS Y LA ADMINISTRACIÓN, TENENCIA, EXPLOTACIÓN Y ARRENDAMIENTO DE TALES BIENES Y SU VENTA TOTAL O PARCIAL, SEGÚN CONVENGA PARA SU APROVECHAMIENTO FORESTAL, AGRÍCOLA, URBANO, INDUSTRIAL O CUALQUIER OTRO, A REALIZAR TODO ELLO POR CUENTA PROPIA. -) LA ADQUSICIÓN, CESIÓN, TENENCIA Y DISFRUTE EN GENERAL DE TODA CLASE DE TÍTULOS Y VALORES MOBILIARIOS, INCLUÍDOS LOS TÍTULOS Y VALORES MOBILIARIOS EXTRANJEROS, SIN INCIDIR EN LAS OPERACIONES REGULADAS POR LA LEY DEL MERCADO DE VALORES 24/1988 DE 28 DE JULIO, Y LAS DISPOSICIONES QUE SE DESARROLLAN. -) EL ASESORAMIENTO DE PERSONAS FÍSICAS Y JURÍDICAS, TANTO FISCAL COMO JURÍDICO, FINANCIERO O DE CUALQUIER OTRO TIPO; EL ESTUDIO, INVESTIGACIÓN, PROMOCIÓN Y PRESTACIÓN DE TODA CLASE DE SERVICIOS DE ASISTENCIA, FORMACIÓN Y GESTIÓN, TÉCNICA ADMINISTRATIVA, COMERCIAL Y CONTABLE, TODO ELLO A TRAVÉS DE PERSONAS CON TITULACIÓN PARA ELLO. -) LAS ACTIVIDADES DE GESTIÓN DE CENTROS DE INNOVACIÓN E INCUBACIÓN EMPRESARIAL Y SOCIAL",
      "mainEntityOfPage": "https://www.contratacion.euskadi.eus/webkpe00-kperoc/es/ac71aBusquedaRegistrosWar/empresa/03968",
      "_links": {
        "self": {
          "name": "INIT SERVICES FOR SOCIAL INNOVATION, S.L.",
          "href": "https://api.euskadi.eus/procurements/companies/03968"
        }
      }
    },
    {
      "name": "VAM CULTURE APP, S.L.",
      "registrationNumber": "10143",
      "identificationNumber": "B56279953",
      "address": "Plaza Espana 13, 2",
      "location": {
        "postalCode": "01001",
        "municipality": "Vitoria-Gasteiz",
        "county": "Araba/Álava",
        "municipalityId": "059",
        "countyId": "01"
      },
      "economicActivities": [
        {
          "id": "1.845",
          "name": "Explotación electrónica por cuenta de terceros",
          "_links": {
            "self": {
              "name": "Explotación electrónica por cuenta de terceros",
              "href": "https://api.euskadi.eus/procurements/companies/economic-activities/1.845"
            }
          }
        },
        {
          "id": "1.965.4",
          "name": "Empresas de espectáculos",
          "_links": {
            "self": {
              "name": "Empresas de espectáculos",
              "href": "https://api.euskadi.eus/procurements/companies/economic-activities/1.965.4"
            }
          }
        },
        {
          "id": "1.989.1",
          "name": "Exhibición de billetes espectáculos públicos",
          "_links": {
            "self": {
              "name": "Exhibición de billetes espectáculos públicos",
              "href": "https://api.euskadi.eus/procurements/companies/economic-activities/1.989.1"
            }
          }
        }
      ],
      "certificateStartDate": "2025-04-16",
      "certificateEndDate": "2025-10-16",
      "object": "DESARROLLO Y OPERACIÓN DE UNA APLICACIÓN MÓVIL Y/O PLATAFORMA EN LÍNEA QUE PROPORCIONE INFORMACIÓN DETALLADA Y ACTUALIZADA SOBRE EVENTOS CULTURALES, COMO EXPOSICIONES, CONCIERTOS, OBRAS DE TEATRO, CONFERENCIAS, FESTIVALES, CINE, Y OTRAS ACTIVIDADES RELACIONADAS CON LA CULTURA Y EL ENTRETENIMIENTO. RECOPILACIÓN, ORGANIZACIÓN Y DIFUSIÓN DE DATOS RELEVANTES SOBRE EVENTOS CULTURALES, INCLUYENDO FECHAS, HORARIOS, UBICACIONES, ARTISTAS O CONFERENCIANTES, DESCRIPCIONES, RESEÑAS Y OTRA INFORMACIÓN RELACIONADA. FACILITAR LA PARTICIPACIÓN E INTERACCIÓN DE LOS USUARIOS EN LA APLICACIÓN, PERMITIENDO LA BÚSQUEDA, FILTRADO, SELECCIÓN Y RECOMENDACIÓN DE EVENTOS CULTURALES DE ACUERDO CON SUS PREFERENCIAS E INTERESES INDIVIDUALES. ESTABLECER ACUERDOS Y ALIANZAS CON INSTITUCIONES CULTURALES, ORGANIZADORES DE EVENTOS, ARTISTAS, PROMOTORES, SALAS DE CONCIERTOS, TEATROS, GALERÍAS, MUSEOS Y OTROS ACTORES RELEVANTES EN EL ÁMBITO CULTURAL, CON EL FIN DE PROMOVER Y DIFUNDIR SUS ACTIVIDADES A TRAVÉS DE LA APLICACIÓN. DESARROLLAR FUNCIONALIDADES INTERACTIVAS Y SOCIALES DENTRO DE LA APLICACIÓN, COMO LA POSIBILIDAD DE COMPARTIR EVENTOS EN REDES SOCIALES, AGREGAR COMENTARIOS, VALORACIONES Y OPINIONES, CREAR LISTAS DE FAVORITOS, SEGUIR A ARTISTAS O RECIBIR NOTIFICACIONES PERSONALIZADAS. REALIZAR ACTIVIDADES DE MARKETING Y PROMOCIÓN PARA INCREMENTAR EL NÚMERO DE USUARIOS DE LA APLICACIÓN Y AUMENTAR LA VISIBILIDAD DE LOS EVENTOS CULTURALES PROMOVIDOS A TRAVÉS DE ELLA.",
      "mainEntityOfPage": "https://www.contratacion.euskadi.eus/webkpe00-kperoc/es/ac71aBusquedaRegistrosWar/empresa/10143",
      "_links": {
        "self": {
          "name": "VAM CULTURE APP, S.L.",
          "href": "https://api.euskadi.eus/procurements/companies/10143"
        }
      }
    },
    {
      "name": "HOSTELERIA MEATZALDEA, S.L.",
      "registrationNumber": "10142",
      "identificationNumber": "B95475380",
      "address": "CL MIGUEL DE UNAMUNO, 43 LC",
      "location": {
        "postalCode": "48920",
        "municipality": "Portugalete",
        "county": "Bizkaia",
        "municipalityId": "078",
        "countyId": "48"
      },
      "economicActivities": [
        {
          "id": "1.673.2",
          "name": "Otros cafés y bares",
          "_links": {
            "self": {
              "name": "Otros cafés y bares",
              "href": "https://api.euskadi.eus/procurements/companies/economic-activities/1.673.2"
            }
          }
        }
      ],
      "certificateStartDate": "2025-04-16",
      "certificateEndDate": "2025-10-16",
      "object": "LA EXPLOTACIÓN Y DESARROLLO DE ACTIVIDADES CARACTERÍSTICAS DEL NEGOCIO DE HOSTELERÍA, COMO BARES, CAFETERÍAS, DISCOTECAS, DISCO-BARES, RESTAURANTES, HOTELES, LOCALES CONOCIDOS COMO BAR CATEGORÍA ESPECIAL, SALAS DE FIESTAS, Y OTROS SIMILARES, EN LOCALES PROPIOS O AJENOS.",
      "mainEntityOfPage": "https://www.contratacion.euskadi.eus/webkpe00-kperoc/es/ac71aBusquedaRegistrosWar/empresa/10142",
      "_links": {
        "self": {
          "name": "HOSTELERIA MEATZALDEA, S.L.",
          "href": "https://api.euskadi.eus/procurements/companies/10142"
        }
      }
    },
    {
      "name": "MIRANDAGREMIOS, S.L.",
      "registrationNumber": "10139",
      "identificationNumber": "B09522293",
      "address": "CALLE LA CHARCA 12 3ºD",
      "location": {
        "postalCode": "09200",
        "municipality": "Miranda de Ebro",
        "county": "Burgos",
        "municipalityId": "219",
        "countyId": "09"
      },
      "economicActivities": [
        {
          "id": "1.501.1",
          "name": "Construcción completa, reparación y conservación de edificaciones",
          "_links": {
            "self": {
              "name": "Construcción completa, reparación y conservación de edificaciones",
              "href": "https://api.euskadi.eus/procurements/companies/economic-activities/1.501.1"
            }
          }
        }
      ],
      "certificateStartDate": "2025-04-16",
      "certificateEndDate": "2025-10-16",
      "object": "A) LA PROMOCIÓN, CONSTRUCCIÓN Y URBANIZACIÓN DE TODA CLASE DE EDIFICACIONES, POR CUENTA PROPIA O DE TERCEROS, PÚBLICAS O PRIVADAS, CON PROTECCIÓN ESTATAL O SIN ELLA, HACIENDO LAS DIVISIONES PERTINENTES. B) COMERCIO TANTO AL POR MAYOR O AL POR MENOR DE MATERIALES DE CONSTRUCCIÓN. C) ARRENDAMIENTO DE INMUEBLES O PARTE DE INMUEBLES NO ASUMIENDO RIESGOS PROPIOS Y OPERANDO POR PARTE DE TERCEROS. D) REALIZACIÓN DE SERVICIOS RELATIVOS A LA PROPIEDAD INMOBILIARIA INCLUYENDO LA TASACIÓN DE INMUEBLES, Y LOS SERVICIOS RELACIONADOS CON LA ADMINISTRACIÓN DE FINCAS. E) LA COMPRAVENTA DE TERRENOS RÚSTICOS Y URBANOS. F) LA COMPRAVENTA, PERMUTA, ARRENDAMIENTO, ADQUISICIÓN, ENAJENACIÓN DE VIVIENDAS, LOCALES DE NEGOCIOS, NAVES COMERCIALES INDUSTRIALES, Y DE SERVICIOS, ASÍ COMO SU EXPLOTACIÓN. G) ALBAÑILERÍA Y PEQUEÑOS TRABAJOS DE CONSTRUCCIÓN EN GENERAL. H) COLOCACIÓN DE AISLAMIENTOS FÓNICOS, TÉRMICOS Y ACÚSTICOS DE CUALQUIER CLASE Y PARA CUALQUIER OBRA. I) IMPERMEABILIZACIÓN EN TODO TIPO DE EDIFICIOS Y CONSTRUCCIONES POR CUALQUIER PROCEDIMIENTO. J) INSTALACIONES DE FONTANERÍA.",
      "mainEntityOfPage": "https://www.contratacion.euskadi.eus/webkpe00-kperoc/es/ac71aBusquedaRegistrosWar/empresa/10139",
      "_links": {
        "self": {
          "name": "MIRANDAGREMIOS, S.L.",
          "href": "https://api.euskadi.eus/procurements/companies/10139"
        }
      }
    },
    {
      "name": "SERVICIOS GLOBALES ARABA, S.L.",
      "registrationNumber": "07574",
      "identificationNumber": "B01658400",
      "address": "CASTILLO DE QUEJANA 9 OFICINA 9",
      "location": {
        "postalCode": "01010",
        "municipality": "Vitoria-Gasteiz",
        "county": "Araba/Álava",
        "municipalityId": "059",
        "countyId": "01"
      },
      "economicActivities": [
        {
          "id": "1.677.9",
          "name": "Otros servicios de alimentación propios de la restauración",
          "_links": {
            "self": {
              "name": "Otros servicios de alimentación propios de la restauración",
              "href": "https://api.euskadi.eus/procurements/companies/economic-activities/1.677.9"
            }
          }
        },
        {
          "id": "1.922",
          "name": "Servicios de limpieza",
          "_links": {
            "self": {
              "name": "Servicios de limpieza",
              "href": "https://api.euskadi.eus/procurements/companies/economic-activities/1.922"
            }
          }
        },
        {
          "id": "1.965.4",
          "name": "Empresas de espectáculos",
          "_links": {
            "self": {
              "name": "Empresas de espectáculos",
              "href": "https://api.euskadi.eus/procurements/companies/economic-activities/1.965.4"
            }
          }
        },
        {
          "id": "1.966.1",
          "name": "Bibliotecas y museos",
          "_links": {
            "self": {
              "name": "Bibliotecas y museos",
              "href": "https://api.euskadi.eus/procurements/companies/economic-activities/1.966.1"
            }
          }
        },
        {
          "id": "1.979.9",
          "name": "Otros servicios personales n.c.o.p",
          "_links": {
            "self": {
              "name": "Otros servicios personales n.c.o.p",
              "href": "https://api.euskadi.eus/procurements/companies/economic-activities/1.979.9"
            }
          }
        },
        {
          "id": "1.999",
          "name": "Otros servicios n.c.o.p",
          "_links": {
            "self": {
              "name": "Otros servicios n.c.o.p",
              "href": "https://api.euskadi.eus/procurements/companies/economic-activities/1.999"
            }
          }
        }
      ],
      "certificateStartDate": "2025-04-15",
      "certificateEndDate": "2025-10-07",
      "object": "-EXHIBICIÓN, EDICIÓN, IMPORTACIÓN, EXPORTACIÓN, DISTRIBUCIÓN, COMPRAVENTA Y ALQUILER DE TODO TIPO DE PRODUCTOS CINEMATOGRÁFICOS, MUSICALES, AUDIOVISUALES, LIBROS Y OTRAS PUBLICACIONES EN SOPORTE PAPEL, ELECTRÓNICO, AUDIO O VIDEO, ENCUADERNACIONES, COMPOSICIÓN Y FOTOGRABADO. PARTICIPACIÓN EN TODO TIPO DE MUESTRAS, FESTIVALES, FERIAS, CERTÁMENES, ESPECTÁCULOS Y OTROS RELACIONADOS CON CUALQUIER INDUSTRIA O ACTIVIDAD ARTÍSTICA, DEPORTIVA Y DE COMUNICACIÓN Y SU INSTALACIÓN. REPRESENTACIÓN DE PROFESIONALES Y ARTISTAS. AGENCIA DE PUBLICIDAD Y RELACIONES PÚBLICAS. DISEÑO, CONSTRUCCIÓN, MANTENIMIENTO Y EXPLOTACIÓN DE INSTALACIONES DEPORTIVAS. FORMACIÓN EN LOS CAMPOS ARTÍSTICOS Y DEPORTIVOS. IMPORTACIÓN, EXPORTACIÓN, COMPRAVENTA EINTERMEDIACIÓN DE OBRAS DE ARTE ASÍ COMO LA EXPLOTACIÓN DE GALERÍAS DE ARTE DE TODO TIPO. - COMERCIALIZACIÓN, INSTALACIÓN, REPARACIÓN Y ALQUILER, DE TODO TIPO DE MATERIALES DIRIGIDO A EVENTOS CULTURALES.  - PRESTACIÓN DE SERVICIOS, DE MANTENIMIENTO, LIMPIEZA,DESINFECCIÓN Y DESINFECTACIÓN DE PABELLONES, PISOS, EDIFICIOS, LOCALES Y EN GENERAL DE INMUEBLES. LA LIMPIEZA DE EDIFICIOS Y LOCALES PÚBLICOS Y PRIVADOS, PUERTOS Y AEROPUERTOS, LIMPIEZA INDUSTRIAL, LIMPIEZA Y MANTENIMIENTO INTEGRAL DE ESTABLECIMIENTOS DE TODO TIPO, LIMPIEZA DE CALLES, VÍAS PÚBLICAS Y JARDINES Y SERVICIOS DE JARDINERÍA. SERVICIOS DE GUARDAMUEBLES Y DEPÓSITO Y ALMACENAMIENTO DE MERCANCÍAS. - LA INTERMEDIACIÓN, ORGANIZACIÓN Y COORDINACIÓN DE GREMIOS DE LA CONSTRUCCIÓN. LA PROMOCIÓN Y REALIZACIÓN DE TODA CLASE DE OBRAS DE CONSTRUCCIÓN, MEJORA, CONSERVACIÓN, RESTAURACIÓN, REHABILITACIÓN, TANTO PRIVADAS COMO PÚBLICAS, POR CUENTA PROPIA O AJENA. LA REALIZACIÓN DE OBRAS Y CONSTRUCCIONES DE TODO TIPO, CONTRATAS DE OBRAS PÚBLICAS O PARTICULARES, CONTRATOS DE EJECUCIÓN DE OBRAS Y SERVICIOS, LA ADQUISICIÓN, USO, EXPLOTACIÓN ARRENDAMIENTO, VENTA Y ENAJENACIÓN DE FINCAS, TERRENOS, LOCALES Y SOLARES, SU PARCELACIÓN Y URBANIZACIÓN, LA PROMOCIÓN Y CONSTITUCIÓN DE COMUNIDADES DE PROPIETARIOS O CUALQUIER OTRA FORMA DE ASOCIACIÓN O SOCIEDADES CON FINES DE EDIFICACIÓN Y URBANIZACIÓN. - INTERMEDIARIO DE COMERCIO. -IMPORTACIÓN, EXPORTACIÓN, DISEÑO, FABRICACIÓN, INTERMEDIACIÓN Y COMERCIALIZACIÓN AL POR MENOR Y MAYOR DE TODO TIPO DE ARTÍCULOS TEXTILES Y COMPLEMENTOS PARA LA MODA DE SEÑORA Y CABALLERO. - LA COMPRAVENTA, ELABORACIÓN Y TRANSFORMACIÓN DE PIELES Y CURTIDOS; DISEÑO, FABRICACIÓN, CORTADOS, APARADOS Y ACABADO DE TODO TIPO DE CALZADOS, ARTÍCULOS DE GUARNICIONERÍA, MARROQUINERIA Y TALABARTERÍA. SU COMERCIO E INTERMEDIACIÓN AL POR MAYOR Y MENOR, ASÍ COMO SU IMPORTACIÓN Y EXPORTACIÓN. - LA IMPORTACIÓN, EXPORTACIÓN, COMPRAVENTA, COMERCIO AL POR MENOR Y MAYOR, ASÍ COMO LA DISTRIBUCIÓN E INTERMEDIACIÓN DE TODO TIPO DE ARTÍCULOS SANITARIOS, HIGIÉNICOS, DE LIMPIEZA, DE BELLEZA, DE HOGAR, DE REGALO, JUGUETES, INSTRUMENTOS MUSICALES, DECORACIÓN, ELECTRODOMÉSTICOS, MOBILIARIO, PORCELANA, CRISTALERÍA, JOYERÍA, BISUTERÍA, ÓPTICA, EQUIPOS FOTOGRÁFICOS, FLORES, PLANTAS Y ARTÍCULOS DE DEPORTE. RECLAMOS PUBLICITARIOS DE TODO TIPO, ASÍ COMO LOS SERVICIOS RELACIONADOS CON LA PUBLICIDAD Y PROMOCIÓN EMPRESARIAL. - LA EXPLOTACIÓN DE NEGOCIOS DE SEGURIDAD Y VIGILANCIA",
      "mainEntityOfPage": "https://www.contratacion.euskadi.eus/webkpe00-kperoc/es/ac71aBusquedaRegistrosWar/empresa/07574",
      "_links": {
        "self": {
          "name": "SERVICIOS GLOBALES ARABA, S.L.",
          "href": "https://api.euskadi.eus/procurements/companies/07574"
        }
      }
    },
    {
      "name": "EGB SISTEMAS S. COOP. PEQUEÑA",
      "registrationNumber": "10133",
      "identificationNumber": "F42961730",
      "address": "Calle Anboto",
      "location": {
        "postalCode": "01006",
        "municipality": "Vitoria-Gasteiz",
        "county": "Araba/Álava",
        "municipalityId": "059",
        "countyId": "01"
      },
      "economicActivities": [
        {
          "id": "1.504.1",
          "name": "Instalaciones eléctricas en general",
          "_links": {
            "self": {
              "name": "Instalaciones eléctricas en general",
              "href": "https://api.euskadi.eus/procurements/companies/economic-activities/1.504.1"
            }
          }
        }
      ],
      "certificateStartDate": "2025-04-15",
      "certificateEndDate": "2025-10-15",
      "object": "LA INSTALACIÓN Y MANTENIMIENTO DE SISTEMAS CONTRA INCENDIOS Y DE SISTEMAS DE SEGURIDAD, ASÍ COMO LA VENTA DE PRODUCTOS RELACIONADOS CON DICHOS SISTEMAS.",
      "mainEntityOfPage": "https://www.contratacion.euskadi.eus/webkpe00-kperoc/es/ac71aBusquedaRegistrosWar/empresa/10133",
      "_links": {
        "self": {
          "name": "EGB SISTEMAS S. COOP. PEQUEÑA",
          "href": "https://api.euskadi.eus/procurements/companies/10133"
        }
      }
    },
    {
      "name": "ZUTABE ETXEGINTZA, S.L.",
      "registrationNumber": "09379",
      "identificationNumber": "B72918048",
      "address": "Alameda Trenbidearen zumardia",
      "location": {
        "postalCode": "20720",
        "municipality": "Azkoitia",
        "county": "Gipuzkoa",
        "municipalityId": "017",
        "countyId": "20"
      },
      "economicActivities": [
        {
          "id": "1.501.3",
          "name": "Albañilería y pequeños trabajos de construcción en general",
          "_links": {
            "self": {
              "name": "Albañilería y pequeños trabajos de construcción en general",
              "href": "https://api.euskadi.eus/procurements/companies/economic-activities/1.501.3"
            }
          }
        }
      ],
      "certificateStartDate": "2025-04-15",
      "certificateEndDate": "2025-09-09",
      "classification": [
        {
          "id": "O",
          "name": "Obras",
          "groups": [
            {
              "id": "C",
              "name": "EDIFICACIONES",
              "subgroups": [
                {
                  "id": "04",
                  "name": "ALBAÑILERIA, REVOCOS Y REVESTIDOS",
                  "categories": [
                    {
                      "id": "5",
                      "name": "Desde 2.400.001 Hasta 5.000.000",
                      "_links": {
                        "self": {
                          "name": "Desde 2.400.001 Hasta 5.000.000",
                          "href": "https://api.euskadi.eus/procurements/companies/types/O/categories/5"
                        }
                      }
                    }
                  ],
                  "_links": {
                    "self": {
                      "name": "ALBAÑILERIA, REVOCOS Y REVESTIDOS",
                      "href": "https://api.euskadi.eus/procurements/companies/types/O/groups/C/subgroups/04"
                    }
                  }
                },
                {
                  "id": "06",
                  "name": "PAVIMENTOS, SOLADOS Y ALICATADOS",
                  "categories": [
                    {
                      "id": "3",
                      "name": "Desde 360.001 Hasta 840.000",
                      "_links": {
                        "self": {
                          "name": "Desde 360.001 Hasta 840.000",
                          "href": "https://api.euskadi.eus/procurements/companies/types/O/categories/3"
                        }
                      }
                    }
                  ],
                  "_links": {
                    "self": {
                      "name": "PAVIMENTOS, SOLADOS Y ALICATADOS",
                      "href": "https://api.euskadi.eus/procurements/companies/types/O/groups/C/subgroups/06"
                    }
                  }
                },
                {
                  "id": "07",
                  "name": "AISLAMIENTOS E IMPERMEABILIZACIONES",
                  "categories": [
                    {
                      "id": "4",
                      "name": "Desde 840.001 Hasta 2.400.000",
                      "_links": {
                        "self": {
                          "name": "Desde 840.001 Hasta 2.400.000",
                          "href": "https://api.euskadi.eus/procurements/companies/types/O/categories/4"
                        }
                      }
                    }
                  ],
                  "_links": {
                    "self": {
                      "name": "AISLAMIENTOS E IMPERMEABILIZACIONES",
                      "href": "https://api.euskadi.eus/procurements/companies/types/O/groups/C/subgroups/07"
                    }
                  }
                }
              ],
              "_links": {
                "self": {
                  "name": "EDIFICACIONES",
                  "href": "https://api.euskadi.eus/procurements/companies/types/O/groups/C"
                }
              }
            }
          ],
          "_links": {
            "self": {
              "name": "Obras",
              "href": "https://api.euskadi.eus/procurements/companies/types/O"
            }
          }
        }
      ],
      "object": "LA CONSTRUCCIÓN, REHABILITACIÓN Y CONSERVACIÓN DE EDIFICIOS INDUSTRIALES Y COMERCIALES O DE CUALQUIER OTRA CLASE DE USO, ASÍ COMO LA REALIZACIÓN O EJECUCIÓN DE TODO TIPO DE TRABAJOS RELACIONADOS CON LA CONSTRUCCIÓN EN SU SENTIDO MÁS AMPLIO O GENÉRICO, LA COMERCIALIZACIÓN DE TODO TIPO DE MATERIALES DESTINADOS A LA CONSTRUCCIÓN, ASÍ COMO LA COMPRAVENTA Y EL ARRENDAMIENTO (NO FINANCIERO) DE INMUEBLES.",
      "mainEntityOfPage": "https://www.contratacion.euskadi.eus/webkpe00-kperoc/es/ac71aBusquedaRegistrosWar/empresa/09379",
      "_links": {
        "self": {
          "name": "ZUTABE ETXEGINTZA, S.L.",
          "href": "https://api.euskadi.eus/procurements/companies/09379"
        }
      }
    }
  ]
}