{
  "totalItems": 9042,
  "totalPages": 905,
  "currentPage": 577,
  "itemsOfPage": 10,
  "items": [
    {
      "name": "LUZNOR DESARROLLOS ELECTRÓNICOS, S.L.",
      "registrationNumber": "06978",
      "identificationNumber": "B01266451",
      "address": "CALLE PADULETA 47. POLÍGONO DE JÚNDIZ",
      "location": {
        "postalCode": "01015",
        "municipality": "Vitoria-Gasteiz",
        "county": "Araba/Álava",
        "municipalityId": "059",
        "countyId": "01"
      },
      "economicActivities": [
        {
          "id": "1.346",
          "name": "Fabricación de lámparas y material de alumbrado",
          "_links": {
            "self": {
              "name": "Fabricación de lámparas y material de alumbrado",
              "href": "https://api.euskadi.eus/procurements/companies/economic-activities/1.346"
            }
          }
        }
      ],
      "certificateStartDate": "2020-04-27",
      "certificateEndDate": "2020-10-06",
      "object": "EL DESARROLLO, FABRICACIÓN Y VENTA DE EQUIPOS ELECTRÓNICOS Y LA COMPRA, VENTA, ALQUILER Y EXPLOTACIÓN DE INMUEBLES, FINCAS RÚSTICAS Y URBANAS",
      "mainEntityOfPage": "https://www.contratacion.euskadi.eus/webkpe00-kperoc/es/ac71aBusquedaRegistrosWar/empresa/06978",
      "_links": {
        "self": {
          "name": "LUZNOR DESARROLLOS ELECTRÓNICOS, S.L.",
          "href": "https://api.euskadi.eus/procurements/companies/06978"
        }
      }
    },
    {
      "name": "WENCESLAO ARANCETA BARTRINA",
      "registrationNumber": "06973",
      "identificationNumber": "14567652G",
      "address": "CALLE BERGARA 14, 1º IZDA",
      "location": {
        "postalCode": "48280",
        "municipality": "Lekeitio",
        "county": "Bizkaia",
        "municipalityId": "057",
        "countyId": "48"
      },
      "economicActivities": [
        {
          "id": "1.699",
          "name": "Otras reparaciones n.c.o.p",
          "_links": {
            "self": {
              "name": "Otras reparaciones n.c.o.p",
              "href": "https://api.euskadi.eus/procurements/companies/economic-activities/1.699"
            }
          }
        }
      ],
      "certificateStartDate": "2020-04-23",
      "certificateEndDate": "2020-08-03",
      "object": "OTRAS REPARACIONES N.C.O.P.",
      "mainEntityOfPage": "https://www.contratacion.euskadi.eus/webkpe00-kperoc/es/ac71aBusquedaRegistrosWar/empresa/06973",
      "_links": {
        "self": {
          "name": "WENCESLAO ARANCETA BARTRINA",
          "href": "https://api.euskadi.eus/procurements/companies/06973"
        }
      }
    },
    {
      "name": "BENJAMIN PERALES CLIMENT",
      "registrationNumber": "06961",
      "identificationNumber": "20412644Y",
      "address": "AVDA. REPUBLICA ARGENTINA, 2-6º-12",
      "location": {
        "postalCode": "46800",
        "municipality": "Canals",
        "county": "Valencia/València",
        "municipalityId": "081",
        "countyId": "46"
      },
      "economicActivities": [
        {
          "id": "1.911",
          "name": "Servicios agrícolas y ganaderos",
          "_links": {
            "self": {
              "name": "Servicios agrícolas y ganaderos",
              "href": "https://api.euskadi.eus/procurements/companies/economic-activities/1.911"
            }
          }
        }
      ],
      "certificateStartDate": "2020-04-21",
      "certificateEndDate": "2020-10-16",
      "object": "SERVICIOS AGRÍCOLAS Y GANADEROS",
      "mainEntityOfPage": "https://www.contratacion.euskadi.eus/webkpe00-kperoc/es/ac71aBusquedaRegistrosWar/empresa/06961",
      "_links": {
        "self": {
          "name": "BENJAMIN PERALES CLIMENT",
          "href": "https://api.euskadi.eus/procurements/companies/06961"
        }
      }
    },
    {
      "name": "AMALUR ENGINEERING, S.L.",
      "registrationNumber": "06965",
      "identificationNumber": "B95948683",
      "address": "Av. Sabino Arana 8 ",
      "location": {
        "postalCode": "48013",
        "municipality": "Bilbao",
        "county": "Bizkaia",
        "municipalityId": "020",
        "countyId": "48"
      },
      "economicActivities": [
        {
          "id": "1.843.1",
          "name": "Servicios técnicos de ingeniería",
          "_links": {
            "self": {
              "name": "Servicios técnicos de ingeniería",
              "href": "https://api.euskadi.eus/procurements/companies/economic-activities/1.843.1"
            }
          }
        }
      ],
      "certificateStartDate": "2020-04-21",
      "certificateEndDate": "2020-10-07",
      "object": "A).- LA REALIZACIÓN Y PRESTACIÓN DE SERVICIOS DE ASESORÍA Y CONSULTORÍA, INVESTIGACIÓN, PREPARACIÓN Y REDACCIÓN DE ESTUDIOS E INFORMES TÉCNICOS, COMERCIALES, ECONÓMICOS, FINANCIEROS, SOCIALES Y LABORALES; INGENIERÍA, GESTIÓN Y REALIZACIÓN DE PROYECTOS; DISEÑOS Y PROYECTOS ARQUITECTÓNICOS; DIRECCIÓN Y SUPERVISIÓN DE OBRAS; LABORES DE MANTENIMIENTO Y OTROS SERVICIOS COMO REPRESENTACIÓN COMERCIAL DE PRODUCTOS, TRATAMIENTOS INFORMÁTICOS; SISTEMAS Y CONTROL DE CALIDAD; AUDITORÍAS Y CUALQUIER TIPO DE ASISTENCIA TÉCNICA Y LA EJECUCIÓN DE TODO TIPO DE OBRAS, COMPRENDIENDO LA FINANCIACIÓN, CONSTRUCCIÓN, CONSERVACIÓN, EXPLOTACIÓN Y EL MANTENIMIENTO DE NUEVAS INFRAESTRUCTURAS Y DE OTRAS YA EXISTENTES Y CUALQUIER OTROS SERVICIOS DE APOYO A LOS ANTERIORMENTE EXPRESADOS, RELACIONADOS TODOS ELLOS CON LA EDIFICACIÓN Y OBRA CIVIL EN GENERAL, CONSTRUCCIÓN DE INFRAESTRUCTURAS DE URBANIZACIÓN Y SERVICIOS PÚBLICOS, INCLUYENDO VIALES, ACERAS, CANALIZACIONES DE AGUA, ALCANTARILLADO, CONDUCCIONES DE GAS Y ENERGÍA ELÉCTRICA Y OTROS SERVICIOS; INSTALACIÓN DE MOBILIARIO URBANO Y CUALQUIER OTRO ELEMENTO PROPIO DE UN ENTORNO URBANO. B).- LA REALIZACIÓN Y PRESTACIÓN DE SERVICIOS DE ASESORÍA Y CONSULTORÍA;INVESTIGACIÓN, PREPARACIÓN Y REDACCIÓN DE ESTUDIOS, INGENIERÍA, GESTIÓN Y REALIZACIÓN DE PROYECTOS; DISEÑO BÁSICO E INGENIERÍA DE INTEGRACIÓN Y DE DETALLE; SUPERV1S1ON DE CONSTRUCCIÓN Y MONTAJE; FABRICACIÓN Y MONTAJE DE ELEMENTOS AUXILIARES; CONTROL, VIGILANCIA E INSPECCIÓN DE EQUIPOS, OBRAS E INSTALACIONES; DIRECCIÓN DE OBRAS; REALIZACIÓN DE PLANTAS \"LLAVE EN MANO\"; CONSERVACIÓN Y MANTENIMIENTO, TRATAMIENTOS INFORMÁTICOS; SISTEMAS Y CONTROL DE CALIDAD; Y CUALQUIER OTROS SERVICIOS DE APOYO A LOS ANTERIORMENTE EXPRESADOS, RELACIONADOS TODOS ELLOS CON LAS SIGUIENTES ACTIVIDADES O GRUPOS DE ACTIVIDAD: OBRAS HIDRÁULICAS, GEOTECNOLOGÍA, CIENCIA Y TECNOLOGÍA EN RELACIÓN A CUALQUIER CLASE DE METALES, NO METALES, POLÍMEROS, GASES, LÍQUIDOS Y SÓLIDOS, CIENCIA Y TECNOLOGÍA VOLTAICA, NANOTECNOLOGÍA, HIDROLOGÍA, ECOLOGÍA Y MEDIO AMBIENTE EN GENERAL; TRATAMIENTO DE AGUAS; PRODUCCIÓN, TRANSFORMACIÓN Y EXPLOTACIÓN, INCLUYENDO LA CONSTRUCCIÓN, MONTAJE Y OPERACIÓN DE CENTRALES, DE ENERGÍA SOLAR; EÓLICA, HIDRÁULICA, O DERIVADA DE LOS BIOCOMBUSTIBLES; TRATAMIENTO DE RESIDUOS Y DEPURACIÓN INDUSTRIAL Y URBANA, INCLUIDO EL APROVECHAMIENTO ENERGÉTICO DE RESIDUOS URBANOS; AUTOMATIZACIÓN Y CONTROL DE LA ENERGÍA; COGENERACIÓN; REDES DE DISTRIBUCIÓN Y TRANSPORTE DE AGUA, GAS, PETRÓLEO, ENERGÍAS RENOVABLES Y NUEVAS TECNOLOGÍAS DE GENERACIÓN; GESTIÓN DE RECURSOS HIDRÁULICOS Y ENERGÉTICOS DE CUALQUIER CLASE; REDES DE CAPTACIÓN DE DATOS Y MODELOS HIDROLÓGICOS DE SUBSISTEMAS HIDRÁULICOS, CUANT IFICACIÓN Y RECURSOS HÍDRICOS Y ENERGÉTICOS DE CUALQUIER CLASE; OBRAS DE CAPTACIÓN Y REGULACIÓN DE TALES RECURSOS Y OBRAS DE TRANSPORTE Y DISTRIBUCIÓN DE LOS MISMOS; ESTUDIOS ECONÓMICOS Y COMERCIALES; INGENIERÍA Y CONSULTORÍA DE GESTIÓN, COMERCIAL, ADMINISTRATIVA, INFORMÁTICA, DE RECURSOS HUMANOS, ECONÓMICO-ADMINISTRATIVA, DE ORGANIZACIÓN Y DE PLANIFICACIÓN DE INVERSIONES; AUTOMATIZACIÓN, Y, EN GENERAL, TODA CLASE DE ESTUDIOS, PROYECTOS Y OBRAS, PRIVADOS Y PÚBLICOS; Y LA INVESTIGACIÓN Y DESARROLLO EN RELACIÓN CON TODAS LAS ANTERIORES MATERIAS; LA REALIZACIÓN Y PRESTACIÓN DE CUALQUIERA OTRA CLASE DE SERVICIOS EN EL ÁMBITO ENERGÉTICO, EN GENERAL",
      "mainEntityOfPage": "https://www.contratacion.euskadi.eus/webkpe00-kperoc/es/ac71aBusquedaRegistrosWar/empresa/06965",
      "_links": {
        "self": {
          "name": "AMALUR ENGINEERING, S.L.",
          "href": "https://api.euskadi.eus/procurements/companies/06965"
        }
      }
    },
    {
      "name": "INFOBASK AGENCIA DE COMUNICACIÓN S.L.",
      "registrationNumber": "06969",
      "identificationNumber": "B95237129",
      "address": "Calle Buen Pastor,54, 2C",
      "location": {
        "postalCode": "48903",
        "municipality": "Barakaldo",
        "county": "Bizkaia",
        "municipalityId": "013",
        "countyId": "48"
      },
      "economicActivities": [
        {
          "id": "1.476.2",
          "name": "Edición de periódicos y revistas",
          "_links": {
            "self": {
              "name": "Edición de periódicos y revistas",
              "href": "https://api.euskadi.eus/procurements/companies/economic-activities/1.476.2"
            }
          }
        },
        {
          "id": "1.932.2",
          "name": "Enseñanza de formación y perfeccionamiento profesional superior",
          "_links": {
            "self": {
              "name": "Enseñanza de formación y perfeccionamiento profesional superior",
              "href": "https://api.euskadi.eus/procurements/companies/economic-activities/1.932.2"
            }
          }
        }
      ],
      "certificateStartDate": "2020-04-21",
      "certificateEndDate": "2020-10-14",
      "object": "LA EDICIÓN DE PERIÓDICOS, REVISTAS, LIBROS IMÁGENES, GRABADOS, FOLLETOS, MUSICAL IMPRESA O MANUSCRITA, SELLOS DE CORREOS, CALENDARIOS, ALMANAQUES. EDICIÓN DE SOPORTES GRABADOS DE SONIDO, VÍDEO E INFORMÁTICA. IMPRESIÓN DE TEXTOS O IMÁGENES POR CUALQUIER PROCEDIMIENTO O SISTEMA, ASÍ COMO DE LAS ACTIVIDADES A LAS ARTES GRÁFICAS, COMO COMPOSICIÓN, DE TEXTOS, ENCUADERNACIÓN. SERVICIOS DE PUBLICIDAD Y RELACIONES PÚBLICAS. CREACIÓN DE IMÁGENES CORPORATIVAS. AGENCIA DE NOTICIAS. GABINETE DE PRENSA",
      "mainEntityOfPage": "https://www.contratacion.euskadi.eus/webkpe00-kperoc/es/ac71aBusquedaRegistrosWar/empresa/06969",
      "_links": {
        "self": {
          "name": "INFOBASK AGENCIA DE COMUNICACIÓN S.L.",
          "href": "https://api.euskadi.eus/procurements/companies/06969"
        }
      }
    },
    {
      "name": "FUNDACION BEGIRUNE - BEGIRUNE FUNDAZIOA",
      "registrationNumber": "06970",
      "identificationNumber": "G95945705",
      "address": "Calle Santamaría 12, 4º Derecha",
      "location": {
        "postalCode": "48005",
        "municipality": "Bilbao",
        "county": "Bizkaia",
        "municipalityId": "020",
        "countyId": "48"
      },
      "economicActivities": [
        {
          "id": "1.936.4",
          "name": "Investigaciones en ciencias sociales, humanidades y jurídicas",
          "_links": {
            "self": {
              "name": "Investigaciones en ciencias sociales, humanidades y jurídicas",
              "href": "https://api.euskadi.eus/procurements/companies/economic-activities/1.936.4"
            }
          }
        }
      ],
      "certificateStartDate": "2020-04-21",
      "certificateEndDate": "2020-09-10",
      "object": "LA INVESTIGACIÓN, COOPERACIÓN AL DESARROLLO, PROMOCIÓN DEL VOLUNTARIADO O CUALESQUIERA OTROS DE NATURALEZA ANÁLOGA. PARA EL CUMPLIMIENTO DE ESTA FINALIDAD, LA FUNDACIÓN DESARROLLARÁ, COMO ACTIVIDADES CONCRETAS Y MÁS IMPORTANTES E INMEDIATAS, LAS SIGUIENTES: LA ELABORACIÓN DE ESTUDIOS SOCIOLÓGICOS",
      "mainEntityOfPage": "https://www.contratacion.euskadi.eus/webkpe00-kperoc/es/ac71aBusquedaRegistrosWar/empresa/06970",
      "_links": {
        "self": {
          "name": "FUNDACION BEGIRUNE - BEGIRUNE FUNDAZIOA",
          "href": "https://api.euskadi.eus/procurements/companies/06970"
        }
      }
    },
    {
      "name": "FISKALAN S.L.",
      "registrationNumber": "06971",
      "identificationNumber": "B20059655",
      "address": "PLAZA PINARES Nº 1-1º",
      "location": {
        "postalCode": "20001",
        "municipality": "Donostia / San Sebastián",
        "county": "Gipuzkoa",
        "municipalityId": "069",
        "countyId": "20"
      },
      "economicActivities": [
        {
          "id": "1.842",
          "name": "Servicios financieros y contables",
          "_links": {
            "self": {
              "name": "Servicios financieros y contables",
              "href": "https://api.euskadi.eus/procurements/companies/economic-activities/1.842"
            }
          }
        }
      ],
      "certificateStartDate": "2020-04-21",
      "certificateEndDate": "2020-10-06",
      "object": "EL EJERCICIO DE UN DEPACHO BUFFET, EN MATERIA DE ASESORÍA JURÍDICO, FISCAL LABORAL Y SOCIETARIA",
      "mainEntityOfPage": "https://www.contratacion.euskadi.eus/webkpe00-kperoc/es/ac71aBusquedaRegistrosWar/empresa/06971",
      "_links": {
        "self": {
          "name": "FISKALAN S.L.",
          "href": "https://api.euskadi.eus/procurements/companies/06971"
        }
      }
    },
    {
      "name": "RANDSTAD EMPLEO EMPRESA DE TRABAJO TEMPORAL, S.A.U.",
      "registrationNumber": "06950",
      "identificationNumber": "A80652928",
      "address": "C/Vía de los Poblados, 9",
      "location": {
        "postalCode": "28033",
        "municipality": "Madrid",
        "county": "Madrid",
        "municipalityId": "079",
        "countyId": "28"
      },
      "economicActivities": [
        {
          "id": "1.849.6",
          "name": "Servicios de colocación y suministro de personal",
          "_links": {
            "self": {
              "name": "Servicios de colocación y suministro de personal",
              "href": "https://api.euskadi.eus/procurements/companies/economic-activities/1.849.6"
            }
          }
        }
      ],
      "certificateStartDate": "2020-04-17",
      "certificateEndDate": "2020-08-20",
      "object": "- LA PUESTA A DISPOSICIÓN DE OTRAS EMPRESAS, CON CARÁCTER TEMPORAL, DE TRABAJADORES CONTRATADOS POR LA SOCIEDAD DE ACUERDO CON LA LEY 14/1994, DE 1 DE JUNIO, POR LA QUE SE REGULAN LAS EMPRESAS DE TRABAJO TEMPORAL Y DEMÁS NORMATIVA COMPLEMENTARIA O QUE EN EL FUTURO LA SUSTITUYA. - LA REALIZACIÓN DE ACTIVIDADES DE INTERMEDIACIÓN LABORAL Y DE RECOLOCACIÓN RESERVADAS A LAS AGENCIAS DE COLOCACIÓN, DE ACUERDO CON LOS ARTÍCULOS 20 Y SIGUIENTES DE LA LEY 56/2003, DE 16 DE DICIEMBRE, DE EMPLEO, EL REAL DECRETO 1796/2010, DE 30 DE DICIEMBRE, POR EL QUE SE REGULAN LAS AGENCIAS DE COLOCACIÓN, Y DEMÁS NORMATIVA COMPLEMENTARIA O QUE EN EL FUTURO SUSTITUYA A LAS ANTERIORMENTE MENCIONADAS. - LA PRESTACIÓN DE SERVICIOS DE ORIENTACIÓN, FORMACIÓN E INFORMACIÓN PROFESIONAL A PERSONAS QUE BUSQUEN EMPLEO O RECOLOCACIÓN; DE EVALUACIÓN Y SELECCIÓN DE PERSONAL; ASÍ COMO CUALESQUIERA OTRAS ACTIVIDADES RELACIONADAS CON LA BÚSQUEDA DE EMPLEO QUE EN VIRTUD DE LA NORMATIVA APLICABLE PUEDAN SER DESARROLLADAS POR LAS EMPRESAS DE TRABAJO TEMPORAL Y LAS AGENCIAS DE COLOCACIÓN",
      "mainEntityOfPage": "https://www.contratacion.euskadi.eus/webkpe00-kperoc/es/ac71aBusquedaRegistrosWar/empresa/06950",
      "_links": {
        "self": {
          "name": "RANDSTAD EMPLEO EMPRESA DE TRABAJO TEMPORAL, S.A.U.",
          "href": "https://api.euskadi.eus/procurements/companies/06950"
        }
      }
    },
    {
      "name": "DESIGN, BUSINESS & VERIFICATION SERVICES, S.L.L.",
      "registrationNumber": "06952",
      "identificationNumber": "B74388901",
      "address": "POL IND VIELLA - CTRA. ESTACIÓN DE VIELLA 6, NAVE 3",
      "location": {
        "postalCode": "33429",
        "municipality": "Siero",
        "county": "Asturias",
        "municipalityId": "066",
        "countyId": "33"
      },
      "economicActivities": [
        {
          "id": "1.329.9",
          "name": "Construcción de otras máquinas y equipos mecánicos n.c.o.p",
          "_links": {
            "self": {
              "name": "Construcción de otras máquinas y equipos mecánicos n.c.o.p",
              "href": "https://api.euskadi.eus/procurements/companies/economic-activities/1.329.9"
            }
          }
        },
        {
          "id": "1.843.1",
          "name": "Servicios técnicos de ingeniería",
          "_links": {
            "self": {
              "name": "Servicios técnicos de ingeniería",
              "href": "https://api.euskadi.eus/procurements/companies/economic-activities/1.843.1"
            }
          }
        }
      ],
      "certificateStartDate": "2020-04-17",
      "certificateEndDate": "2020-09-12",
      "object": "EL DISEÑO, DESARROLLO E IMPLANTACIÓN Y MANTENIMIENTO DE ESTABLECIMIENTOS INDUSTRIALES: FABRICACIÓN DE MAQUINARIA, CONSTRUCCIÓN, CONSULTORÍA DE GESTIÓN EMPRESARIAL; CONTABILIDAD, TENEDURÍA DE LIBROS, AUDITORÍA Y ASESORÍA FISCAL; GESTIÓN DE SISTEMAS DE PREVENCIÓN DE RIESGOS LABORALES, FORMACIÓN",
      "mainEntityOfPage": "https://www.contratacion.euskadi.eus/webkpe00-kperoc/es/ac71aBusquedaRegistrosWar/empresa/06952",
      "_links": {
        "self": {
          "name": "DESIGN, BUSINESS & VERIFICATION SERVICES, S.L.L.",
          "href": "https://api.euskadi.eus/procurements/companies/06952"
        }
      }
    },
    {
      "name": "GESTIÓN DE ENERGIA Y MERCADOS, S.L.",
      "registrationNumber": "06953",
      "identificationNumber": "B91899062",
      "address": "C/LUIS MONTOTO Nº 107 113 PLANTA 4º PUERTA J EDIFICIO CRISTAL",
      "location": {
        "postalCode": "41007",
        "municipality": "Sevilla",
        "county": "Sevilla",
        "municipalityId": "091",
        "countyId": "41"
      },
      "economicActivities": [
        {
          "id": "1.843.1",
          "name": "Servicios técnicos de ingeniería",
          "_links": {
            "self": {
              "name": "Servicios técnicos de ingeniería",
              "href": "https://api.euskadi.eus/procurements/companies/economic-activities/1.843.1"
            }
          }
        },
        {
          "id": "1.849.9",
          "name": "Otros servicios independientes n.c.o.p",
          "_links": {
            "self": {
              "name": "Otros servicios independientes n.c.o.p",
              "href": "https://api.euskadi.eus/procurements/companies/economic-activities/1.849.9"
            }
          }
        }
      ],
      "certificateStartDate": "2020-04-17",
      "certificateEndDate": "2020-08-20",
      "object": "1. LA REALIZACIÓN DE TODA CLASE DE ACTIVIDADES, OBRAS Y SERVICIOS PROPIOS O RELACIONADOS CON LOS NEGOCIOS DE PRODUCCIÓN Y COMERCIALIZACIÓN DE ENERGÍA ELÉCTRICA O DERIVADOS DE ELECTRICIDAD, DE SUS APLICACIONES Y DE LAS MATERIAS O ENERGÍAS PRIMARIAS NECESARIAS PARA SU GENERACIÓN, SERVICIOS ENERGÉTICOS, DE INGENIERÍA E INFORMÁTICOS. 2.-LA REALIZACIÓN DE OPERACIONES DE TRADING DE ELECTRICIDAD, OTRAS FUENTES DE ENERGÍA Y DE MATERIAS PRIMAS Y COMMODITIES RELACIONADAS CON LA ENERGÍA, INCLUIDOS LOS DERECHOS DE EMISIÓN DE CO2, CERS Y DEMÁS, ASÍ COMO TODOS LOS SERVICIOS Y ACTIVIDADES DIRECTA O INDIRECTAMENTE RELACIONADOS CON DICHAS OPERACIONES. ASÍ COMO LA NEGOCIACIÓN DE PRODUCTOS FINANCIEROS CON SUBYACENTE ENERGÉTICO. EN CUANTO LA COMERCIALIZACIÓN DE ENERGÍA ELÉCTRICA, SE INCLUYE: I) EL ACCESO A LAS REDES DE TRANSPORTE Y DISTRIBUCIÓN DE ELECTRICIDAD EN LOS TÉRMINOS PREVISTOS EN LA LEGISLACIÓN VIGENTE, II) ACTUAR COMO AGENTE DE MERCADO EN EL MERCADO DE PRODUCCIÓN DE ELECTRICIDAD, III) CONTRATAR LIBREMENTE EL SUMINISTRO DE ENERGÍA ELÉCTRICA CON AQUELLOS CONSUMIDORES QUE TENGAN LA CONDICIÓN DE CUALIFICADOS Y OTROS SUJETOS CUALIFICADOS SEGÚN LA NORMATIVA VIGENTE Y IV) ADQUIRIR LA ENERGÍA ELÉCTRICA NECESARIA PARA EL DESARROLLO DE LAS ACTIVIDADES ANTEDICHAS. TODO ELLO CONTANDO, EN SU CASO, CON LOS PERMISOS Y AUTORIZACIONES NECESARIAS CONFORME A LA LEGISLACIÓN VIGENTE. 3.-LA REALIZACIÓN DE LA GESTIÓN ENERGÉTICA DE PLANTAS DE GENERACIÓN ELÉCTRICA Y DE PLANTAS INDUSTRIALES, LLEVANDO A CABO EL SEGUIMIENTO Y MONITORIZACIÓN DE DICHAS PLANTAS, ANALIZANDO LOS DIVERSOS PARÁMETROS ENERGÉTICOS A FIN DE DETECTAR INEFICIENCIAS EN LA EXPLOTACIÓN DE LAS MISMAS Y LOGRAR LA MAYOR EFICIENCIA ENERGÉTICA POSIBLE. 4.- ASESORÍA ENERGÉTICA, REALIZANDO AUDITORÍAS TÉCNICAS Y ENERGÉTICAS, ANALIZANDO LA LEGISLACIÓN E IMPLANTANDO SOLUCIONES PARA OBTENER LA MÁXIMA RENTABILIDAD ECONÓMICA DE PLANTAS DE GENERACIÓN ELÉCTRICA Y DE PLANTAS INDUSTRIALES. 5.- APOYO TÉCNICO AL MANTENIMIENTO, PLANIFICANDO, COORDINANDO Y REALIZANDO LABORES DE DIRECCIÓN DE OBRA EN PLANTAS EN OPERACIÓN. 6.- COMPRA Y VENTA DE TODO TIPO DE BIOMASA. 7.- PERITAJE EN SINIESTROS DE PLANTAS DE GENERACIÓN ELÉCTRICA. 8.-REALIZACIÓN DE TAREAS DE AGENTE DE MERCADO ELÉCTRICO, REPRESENTANDO A INSTALACIONES PRODUCTORAS DE TODO TIPO, DESARROLLANDO LAS TAREAS CORRESPONDIENTES ANTE EL OPERADOR DEL MERCADO IBÉRICO DE LA ELECTRICIDAD, RED ELÉCTRICA Y LA COMISIÓN NACIONAL DE LOS MERCADOS Y LA COMPETENCIA CONFORME A LA LEGISLACIÓN VIGENTE. PRESENTACIÓN DO OFERTAS DE LOS EXCEDENTES ELÉCTRICOS DE LAS PLANTAS REPRESENTADAS EN LOS MERCADOS DIARIOS E INTRADIARIOS ANTE EL OPERADOR DEL MERCADO IBÉRICO DE LA ELECTRICIDAD, Y EN LOS SERVICIOS DE AJUSTE-RESTRICCIONES, SERVICIOS COMPLEMENTARIOS Y GESTIÓN DE DESVÍOS-ANTE RED ELÉCTRICA. LA REPRESENTACIÓN SUPONE LA REALIZACIÓN DE UNA ACTIVIDAD MERAMENTE DE SERVICIOS PROFESIONALES, YA QUE LAS PLANTAS REPRESENTADAS ASUMEN EL RIESGO Y VENTURA DEL BUEN FIN DE LAS OPERACIONES DE VENTA DE ENERGÍA ELÉCTRICA EN EL MERCADO ELÉCTRICO COMO PRODUCTORES; POR TANTO, LAS ACTUACIONES DE REPRESENTACIÓN PODRÁN SER EN NOMBRE PROPIO O AJENO, PERO SERÁN SIEMPRE POR CUENTA DE LAS PLANTAS REPRESENTADAS. 9.-LA REALIZACIÓN DE ESTUDIOS, CONSULTORÍAS Y PROYECTOS, SERVICIOS DE INVESTIGACIÓN Y DESARROLLO, Y LA DIRECCIÓN Y EJECUCIÓN DE TODA CLASE DE OBRAS, INSTALACIONES Y MONTAJES Y MANTENIMIENTOS CON Y SIN SUMINISTRO DE MATERIALES O EQUIPOS -CON REALIZACIÓN EN SU CASO DE LA PARTE DE OBRA CIVIL QUE CORRESPONDA-RELACIONADAS CON EL APROVECHAMIENTO, PRODUCCIÓN, TRANSFORMACIÓN, ALMACENAMIENTO, TRANSPORTE, CANALIZACIÓN, DISTRIBUCIÓN, ENERGÉTICOS, DE ORIGEN FÓSIL, VEGETAL, ANIMAL, EÓLICO, SOLAR, GEOTÉRMICO, MAREO MOTRIZ O BIOQUÍMICO, YA SEAN SÓLIDOS, LÍQUIDOS O GASEOSOS, Y DE CUALQUIER OTRA ENERGÍA QUE PUEDA UTILIZARSE EN EL FUTURO, INCLUIDO EL SUMINISTRO DE SUS EQUIPOS ESPECIALES, ELEMENTOS NECESARIOS PARA LA INSTALACIÓN Y MONTAJE Y MATERIALES DE TODAS CLASES PARA ELLOS NECESARIOS, SIMILARES O DE ENTRE LOS ENUMERADOS EN EL APARTADO QUE PRECEDE. 10.- LA REALIZACIÓN DE ESTUDIOS, CONSULTORÍAS Y PROYECTOS, SERVICIOS DE INVESTIGACIÓN Y DESARROLLO, Y LA DIRECCIÓN Y EJECUCIÓN DE TODA CLASE DE OBRAS, INSTALACIONES Y MONTAJES Y MANTENIMIENTOS CON  Y SIN SUMINISTRO DE MATERIALES O EQUIPOS -CON REALIZACIÓN EN SU CASO DE LA PARTE DE OBRA CIVIL QUE CORRESPONDA- PARA EL APROVECHAMIENTO, TRANSPORTE, CANALIZACIÓN Y DISTRIBUCIÓN DE GASES COMBUSTIBLES LÍQUIDOS Y SÓLIDOS, PARA TODA CLASE DE USOS Y PROYECTO Y EJECUCIÓN DE OBRAS DE TRANSPORTE DE PRODUCTOS PETROLÍFEROS Y GASEOSOS, EN GENERAL: OLEODUCTOS Y GASEODUCTOS. 11.- LA REALIZACIÓN DE ESTUDIOS, CONSULTORÍAS Y PROYECTOS, SERVICIOS DE INVESTIGACIÓN Y DESARROLLO, Y LA DIRECCIÓN Y EJECUCIÓN DE TODA CLASE DE OBRAS, INSTALACIONES Y MONTAJES Y MANTENIMIENTOS CON Y SIN SUMINISTRO DE MATERIALES O EQUIPOS -CON REALIZACIÓN EN SU CASO DE LA PARTE DE OBRA CIVIL QUE CORRESPONDA -DE PLANTAS DE TRATAMIENTOS DE TODO TIPO DE RESIDUOS Y DESECHOS: URBANOS, INDUSTRIALES, TODOS DE DEPURACIÓN DE CONSTRUCCIÓN, TÓXICOS, PELIGROSOS U HOSPITALARIOS, INCLUYENDO LOS PROCESOS DE COGENERACIÓN, GASIFICACIÓN, BIOMETANIZACIÓN Y CICLOS COMBINADOS. 12.- LA REALIZACIÓN DE ESTUDIOS, CONSULTORÍAS Y PROYECTOS, SERVICIOS DE INVESTIGACIÓN Y DESARROLLO, Y LA DIRECCIÓN Y EJECUCIÓN DE TODA CLASE DE OBRAS, INSTALACIONES Y MONTAJES Y MANTENIMIENTOS CON Y SIN SUMINISTRO DE MATERIALES O EQUIPOS -CON REALIZACIÓN EN SU CASO DE LA PARTE DE OBRA CIVIL QUE CORRESPONDA- REFERENTE A CENTRALES Y LÍNEAS DE PRODUCCIÓN Y TRANSPORTE Y DISTRIBUCIÓN DE ENERGÍA ELÉCTRICA DE MUY ALTA, ALTA Y BAJA TENSIÓN, AÉREAS Y SUBTERRÁNEAS, REDES INDUSTRIALES Y URBANAS, SUBESTACIONES, CENTROS DE TRANSFORMACIÓN, INTERCONEXIÓN Y SECCIONAMIENTO, ESTACIONES GENERADORAS Y CONVERTIDORAS, INSTALACIONES ELÉCTRICAS DE DEPURADORAS, DESALINIZADORAS, POTABILIZADORAS DE AGUAS, MUELLES, PUERTOS, AEROPUERTOS Y DÁRSENAS, BARCOS, ASTILLEROS DE BUQUES, PONTONES, PLATAFORMAS Y ELEMENTOS DE  FLOTACIÓN Y DE CUALESQUIERA ELEMENTOS APLICABLES PARA EL DIAGNÓSTICO, ENSAYO, SEGURIDAD Y PROTECCIÓN, A\r\nMANDOS DE CONTROL Y ENCLAVAMIENTOS, MANIOBRA, MEDIDA, DIRECTO O POR TELEMANDO, PARA INDUSTRIA, EDIFICIOS URBANOS, PARA USOS INDUSTRIALES, COMERCIALES, AGRÍCOLAS O DOMÉSTICOS, ASÍ COMO LOS APROPIADOS PARA LAS INSTALACIONES ANTERIORMENTE RELACIONADOS, ELECTRIFICACIÓN DE ZONAS INDUSTRIALES, URBANIZACIONES Y DEPORTIVAS, ILUMINACIÓN Y ALUMBRADO PÚBLICO DE ELECTRIFICACIONES RURALES Y REGADÍOS Y AMBIENTES EXPLOSIVOS; Y EN GENERAL TODO TIPO DE INSTALACIONES RELACIONADAS CON LA PRODUCCIÓN, TRANSPORTE, CONSERVACIÓN Y RECUPERACIÓN Y UTILIZACIÓN DE ENERGÍA ELÉCTRICA EN TODOS SUS GRADOS Y SISTEMAS ASÍ COMO LA EXPLOTACIÓN Y REPARACIÓN, SUSTITUCIÓN Y CONSERVACIÓN DE SUS ELEMENTOS Y PARTES, INCLUSO SIN NECESIDAD DE INTERRUPCIÓN DEL SERVICIO MEDIANTE TÉCNICAS DE TRABAJOS EN TENSIÓN COMO CUALQUIER OTRA TÉCNICA. CONTROL Y AUTOMATIZACIÓN DE TODO TIPO DE REDES E INSTALACIONES ELÉCTRICAS, TELEMANDOS, EQUIPOS INFORMÁTICOS Y RACIONALIZACIÓN DEL CONSUMO DE TODA CLASE DE ENERGÍA ELÉCTRICA. 13.- LA REALIZACIÓN DE ESTUDIOS, CONSULTORÍAS Y PROYECTOS, SERVICIOS DE INVESTIGACIÓN Y DESARROLLO Y LA DIRECCIÓN Y EJECUCIÓN DE TODA CLASE OBRAS, INSTALACIONES Y MONTAJES Y MANTENIMIENTOS CON Y SIN SUMINISTRO DE MATERIALES O EQUIPOS -CON REALIZACIÓN EN SU CASO DE LA PARTE DE OBRA CIVIL QUE CORRESPONDA-REFERENTE AL TRATAMIENTO Y REDUCCIÓN DE TODOS O RESIDUOS AGRÍCOLAS MEDIANTE PLANTA DE COGENERACIÓN DE ENERGÍA ELÉCTRICA Y TÉRMICA PARA LA COMERCIALIZACIÓN DE ESTA ÚLTIMAS Y GENERACIÓN Y COMERCIALIZACIÓN DE ENERGÍA ELÉCTRICA MEDIANTE LA COMBUSTIÓN DE BIOMASA, ASÍ COMO PROYECTOS, CONSTRUCCIÓN, MONTAJE Y MANTENIMIENTO DE INSTALACIONES ELÉCTRICAS Y ELECTRÓNICAS, INCLUYENDO: CENTRALES DE PRODUCCIÓN DE ENERGÍA ELÉCTRICA, EN GENERAL, A PARTIR DE CUALQUIER COMBUSTIBLE Y/O RECURSO, INCLUYENDO LOS PROCESOS DE COGENERACIÓN, GASIFICACIÓN, BIOMETANIZACIÓN Y CICLOS COMBINADOS, LÍNEAS ELÉCTRICAS DE ALTA MEDIA Y BAJA TENSIÓN, SUBESTACIONES Y CENTROS DE TRANSFORMACIÓN Y DISTRIBUCIÓN EN ALTA, MEDIA Y BAJA TENSIÓN, TELECOMUNICACIONES E INSTALACIONES RADIOELÉCTRICAS Y ELECTRÓNICAS. 14.- CONTRATACIÓN, GESTIÓN, PROYECTO, CONSTRUCCIÓN, MONTAJE Y EJECUCIÓN DE TODA CLASE DE OBRA, PÚBLICA O PRIVADA, MOVIMIENTOS DE TIERRAS Y PERFORACIONES, PUENTES, VIADUCTOS Y GRANDES ESTRUCTURAS, FERROCARRILES Y EDIFICACIONES, EN GENERAL, INCLUYENDO INSTALACIONES DE ELECTRICIDAD EN GENERAL (BAJA, MEDIA Y ALTA TENSIÓN), INSTALACIONES DE CALEFACCIÓN, AGUA CALIENTE SANITARIA Y CLIMATIZACIÓN, ASÍ COMO INSTALACIONES DE PROTECCIÓN CONTRA INCENDIOS.  15.- DISEÑAR Y PREPARAR TODA CLASE DE PROYECTOS E INFORMES DE INGENIERÍA PARA EL MONTAJE DE TODA CLASE DE FÁBRICAS, PLANTAS O INSTALACIONES INDUSTRIALES O CIVILES, ASÍ COMO LLEVAR A CABO LA CONSTRUCCIÓN, SUPERVISIÓN Y PUESTA EN MARCHA DE LAS MISMAS EN LA MODALIDAD -LLAVE EN MANO - INTEGRANDO TODOS LOS SERVICIOS NECESARIOS HASTA LA ENTREGA DE LAS INSTALACIÓN AL CLIENTE, Y ELLO BIEN SEA A UN PRECIO A TANTO ALZADO O MEDIANTE OTRAS FORMAS DE PAGO O DE FINANCIACIÓN. 16.- LA ASISTENCIA TÉCNICA PARA LA PUESTA EN MARCHA Y FUNCIONAMIENTO DE CUALQUIER INSTALACIÓN DURANTE LA ETAPA INICIAL DESARROLLANDO PROCESOS PROPIOS O CEDIENDO PATENTES, PROCEDIMIENTOS, O TÉCNICAS DE FABRICACIÓN, SI FUERE REQUERIDA, ASÍ COMO OBTENIENDO EN SU CASO DE TERCEROS AQUÉLLAS TECNOLOGÍAS NECESARIAS PARA LLEVAR A CABO LA GESTIÓN DE COMPRAS DE LOS EQUIPOS, MATERIALES Y LA ACTIVACIÓN DE SUMINISTROS, INSPECCIÓN, TRANSPORTE Y ENTREGA DE DICHOS EQUIPOS Y MATERIALES EN PLANTA, BIEN EN NOMBRE PROPIO O DE TERCEROS. FACILITAR A LOS SUMINISTRADORES LA INFORMACIÓN TÉCNICA PRECISA PARA QUE LOS EQUIPOS, MATERIALES O HERRAMIENTAS SE HAGAN DE ACUERDO CON LAS ESPECIFICACIONES. REALIZAR LA INSPECCIÓN QUE SEA PRECISA PARA QUE LOS EQUIPOS, MATERIALES O HERRAMIENTAS A UTILIZAR EN LA PLANTAS CUMPLAN LAS ESPECIFICACIONES QUE SEAN DEL CASO. ASISTIR  A LA EXPEDICIÓN Y ENTREGA DE LOS EQUIPOS, MATERIALES O HERRAMIENTAS PARA CUMPLIR LOS PLAZOS Y CONDICIONES DE ENTREGA. Y EN GENERAL, LAS ACTIVIDADES AUXILIARES O COMPLEMENTARIAS DE LAS QUE CONSTITUYEN EL OBJETO SOCIAL DESCRITO\r\n",
      "mainEntityOfPage": "https://www.contratacion.euskadi.eus/webkpe00-kperoc/es/ac71aBusquedaRegistrosWar/empresa/06953",
      "_links": {
        "self": {
          "name": "GESTIÓN DE ENERGIA Y MERCADOS, S.L.",
          "href": "https://api.euskadi.eus/procurements/companies/06953"
        }
      }
    }
  ]
}