{
  "totalItems": 9042,
  "totalPages": 905,
  "currentPage": 33,
  "itemsOfPage": 10,
  "items": [
    {
      "name": "ARTXILAN S.L.",
      "registrationNumber": "02359",
      "identificationNumber": "B48922967",
      "address": "C / PLAZA NUEVA 12 4º DCHA",
      "location": {
        "postalCode": "48005",
        "municipality": "Bilbao",
        "county": "Bizkaia",
        "municipalityId": "020",
        "countyId": "48"
      },
      "economicActivities": [
        {
          "id": "1.849.9",
          "name": "Otros servicios independientes n.c.o.p",
          "_links": {
            "self": {
              "name": "Otros servicios independientes n.c.o.p",
              "href": "https://api.euskadi.eus/procurements/companies/economic-activities/1.849.9"
            }
          }
        }
      ],
      "certificateStartDate": "2026-01-30",
      "certificateEndDate": "2026-07-19",
      "classification": [
        {
          "id": "S",
          "name": "Servicios",
          "groups": [
            {
              "id": "M",
              "subgroups": [
                {
                  "id": "05",
                  "name": "Servicios de bibliotecas, archivos y museos",
                  "categories": [
                    {
                      "id": "3",
                      "name": "Desde 300.001 Hasta 600.000",
                      "_links": {
                        "self": {
                          "name": "Desde 300.001 Hasta 600.000",
                          "href": "https://api.euskadi.eus/procurements/companies/types/S/categories/3"
                        }
                      }
                    }
                  ],
                  "_links": {
                    "self": {
                      "name": "Servicios de bibliotecas, archivos y museos",
                      "href": "https://api.euskadi.eus/procurements/companies/types/S/groups/M/subgroups/05"
                    }
                  }
                }
              ],
              "_links": {
                "self": {
                  "href": "https://api.euskadi.eus/procurements/companies/types/S/groups/M"
                }
              }
            }
          ],
          "_links": {
            "self": {
              "name": "Servicios",
              "href": "https://api.euskadi.eus/procurements/companies/types/S"
            }
          }
        }
      ],
      "object": "LA ORGANIZACIÓN DE ARCHIVOS, BIBLIOTECAS Y CENTROS DE DOCUMENTACIÓN, E IMPLANTACIÓN DE SISTEMAS INFORMÁTICOS EN LOS MISMOS. EL DIAGNÓSTICO, ASESORAMIENTO Y MANTENIMIENTO DE ARCHIVOS A EMPRESAS E INSTITUCIONES. LA ORGANIZACIÓN DE CURSOS DE FORMACIÓN GENERALES Y SEMINARIOS ESPECÍFICOS DE ARCHIVÍSTICA, DOCUMENTACIÓN Y BIBLIOTECONOMÍA. LA GUARDA Y CUSTODIA DE TODA CLASE DE DOCUMENTOS",
      "mainEntityOfPage": "https://www.contratacion.euskadi.eus/webkpe00-kperoc/es/ac71aBusquedaRegistrosWar/empresa/02359",
      "_links": {
        "self": {
          "name": "ARTXILAN S.L.",
          "href": "https://api.euskadi.eus/procurements/companies/02359"
        }
      }
    },
    {
      "name": "VICTORIA SARA HUERCANOS MACHIMBARRENA",
      "registrationNumber": "07085",
      "identificationNumber": "44130465C",
      "address": "XABIER LIZARDI 11 BAJO B",
      "location": {
        "postalCode": "20018",
        "municipality": "Donostia / San Sebastián",
        "county": "Gipuzkoa",
        "municipalityId": "069",
        "countyId": "20"
      },
      "economicActivities": [
        {
          "id": "2.751",
          "name": "Profesionales de la publicidad, relaciones públicas y similares",
          "_links": {
            "self": {
              "name": "Profesionales de la publicidad, relaciones públicas y similares",
              "href": "https://api.euskadi.eus/procurements/companies/economic-activities/2.751"
            }
          }
        }
      ],
      "certificateStartDate": "2026-01-30",
      "certificateEndDate": "2026-07-30",
      "object": "PROFESIONALES DE LA PUBLICIDAD, RELACIONES PÚBLICAS Y SIMILARES",
      "mainEntityOfPage": "https://www.contratacion.euskadi.eus/webkpe00-kperoc/es/ac71aBusquedaRegistrosWar/empresa/07085",
      "_links": {
        "self": {
          "name": "VICTORIA SARA HUERCANOS MACHIMBARRENA",
          "href": "https://api.euskadi.eus/procurements/companies/07085"
        }
      }
    },
    {
      "name": "CONSTRUCCIONES Y AUXILIAR DE FERROCARRILES, S.A.",
      "registrationNumber": "07115",
      "identificationNumber": "A20001020",
      "address": "C/ JOSÉ MIGUEL ITURRIOZ, Nº 26 ",
      "location": {
        "postalCode": "20200",
        "municipality": "Beasain",
        "county": "Gipuzkoa",
        "municipalityId": "019",
        "countyId": "20"
      },
      "economicActivities": [
        {
          "id": "1.381.1",
          "name": "Construcción, reparación y mantenimiento de material ferroviario",
          "_links": {
            "self": {
              "name": "Construcción, reparación y mantenimiento de material ferroviario",
              "href": "https://api.euskadi.eus/procurements/companies/economic-activities/1.381.1"
            }
          }
        },
        {
          "id": "1.381.2",
          "name": "Servicios de reparación y mantenimiento de material ferroviario",
          "_links": {
            "self": {
              "name": "Servicios de reparación y mantenimiento de material ferroviario",
              "href": "https://api.euskadi.eus/procurements/companies/economic-activities/1.381.2"
            }
          }
        }
      ],
      "certificateStartDate": "2026-01-30",
      "certificateEndDate": "2026-07-07",
      "object": "LA FABRICACIÓN, REPARACIÓN, COMPRA, VENTA, ARRENDAMIENTO, MANTENIMIENTO, EXPLOTACIÓN EN CUALQUIER FORMA, IMPORTACIÓN Y EXPORTACIÓN: 1.1. DE TODA CLASE DE ELEMENTOS, EQUIPOS, MATERIALES, FIJOS O MÓVILES, Y BIENES DESTINADOS A LA REALIZACIÓN DE ACTIVIDADES DE TRANSPORTE DE CUALQUIER CLASE. 1.2. DE TODA CLASE DE PRODUCTOS, BIENES Y ELEMENTOS PROPIOS DE LAS INDUSTRIAS METALÚRGICAS, SIDERÚRGICAS, PLÁSTICAS, DE CALDERERÍA Y CARPINTERÍA. 1.3. DE TODA CLASE DE MAQUINARIA INDUSTRIAL, MÁQUINAS-HERRAMIENTAS, MAQUINARIA DE OBRAS PÚBLICAS Y MAQUINARIA AGRÍCOLA. 1.4. DE TODA CLASE DE PRODUCTOS, BIENES Y ELEMENTOS RELACIONADOS CON LAS ACTIVIDADES Y CON LAS INDUSTRIAS ELÉCTRICAS, ELECTRÓNCAS DE INFORMÁTICA Y DE DEFENSA. 1.5. DE TODA CLASE DEELEMENTOS, BIENES Y MATERIALES QUE TENGAN EL CARÁCTER DE AUXILIARES, COMPELEMENTARIOS O DERIVADOS DE LAS ACTIVIDADES COMPRENDIDAS EN LOS APARTADOS ANTERIORES. 2º LA REALIZACIÓN DE TODA CLASE DE ACTIVIDADES INOMOBILIARIAS. LA COMPRA Y VENTA DE INMUEBLES, ASÍ COMO SU ARRENDAMIENTO O CESIÓN EN CUALQUIER FORMA. LA PROMOCIÓN Y VENTA DE EDIFICIOS Y OBRAS DE TODAS CLASES, IGUALMENTE POR CUENTA PROPIA O AJENA. 3º LA PRESTACIÓN DE SERVICIOS DE TODAS CLASES Y, EN ESPECIAL, LOS DE ESTUDIO, ASESORAMIENTO, INGENIERÍA Y ASISTENCIA TÉCNICA, RELACIONADOS CON LAS ACTIVIDADES DE LOS APARTADOS 1º Y 2º ANTERIORES. 4º PARTICIPAR, EN LOS TÉRMINOS QUE EL CONSEJO DE ADMINISTRACIÓN DETERMINE, ENEL CAPITAL DE OTRAS SOCIEDADES CUYO OBJETO SOCIAL SEA ANÁLOGO AL DESCRITO EN LOS NÚMEROS PRECEDENTES. 5º LA REALIZACIÓN DE TODA CLASE DE ACTIVIDADES INDUSTRIALES, COMERCIALES, FINANCIERAS, DE SERVICIOS, MOBILIARIAS, INMOBILIARIAS, AGRÍCOLAS, GANADERAS Y FORESTALES, QUE TENGAN RELACIÓN DIRECTA O INDIRECTA CON LAS ACTIVIDADES SEÑALADAS EN LOS APARTADOS ANTERIORES. 6º EL TRANSPORTE DE VIAJEROS Y MERCANCÍAS POR FERROCARRIL, CON APORTE DE TRACCIÓN, EN LOS TÉRMINOS ESTABLECIDOS EN LA LEY DEL SECTOR FERROVIARIO Y EN LAS NORMAS QUE LA DESARROLLEN. ASÍ MISMO PODRÁ PRESTAR, PARA SÍ MISMA O TERCEROS, SERVICIOS ADICIONALES, COMPLEMENTARIOS Y AUXILIARES, SERVICIOS A BORDO DE LOS TRENES, MANTENIMIENTO Y REPARACIÓN DE MATERIAL FERROVIARIO Y OTROS SERVICIOS Y ACTIVIDADES RELACIONADOS CON EL FERROCARRIL. 7º- CONCURRIR A TODA CLASE DE LICITACIONES QUE TENGAN POR OBJETO CONCESIONES O ADJUDICADIONES PARA LA CONSTRUCCIÓN, CONSERVACIÓN Y EXPLOTACIÓN DE INFRAESTRUCUTRAS VIARIAS, YA SEAN FERROCARRILES, METRO O CUALQUIER SECTOR DEL TRANSPORTE, EJERCITAR LOS DERECHOS Y CUMPLIR LAS OBLIGACIONES DERIVADAS DE LAS ADJUDICACIONES DE ESTAS LICITACIONES. LA PRESTACIÓN DE SERVICIOS PÚBLICOS Y PRIVADOS, EL ACCESO, GESTIÓN Y EXPLOTACIÓN DE CUALQUIER CLASE DE CONCESIÓN ADMINISTRATIVA, DE FORMA DIRECTA O INDIRECTA. 8º EL DISEÑO, LA CONSTRUCCIÓN Y EJECUCIÓN, EQUIPAMIENTO, INSTALACIÓN, PUESTA EN MARCHA, FINANCIACIÓN Y TRANSMISIÓN DE TODO TIPO DE OBRAS Y EDIFICACIONES, TENDIDO DE VÍAS, ELEVADOS SOBRE CARRIL O CABLE, SEÑALIZACIONES Y ENCLAVAMIENTOS, ELECTRIFICACIÓN DE FERROCARRILES, ASÍ COMO SU MANTENIMIENTO Y REPARACIÓN, YA SEA EN RÉGIMEN DE CONTRATACIÓN PÚBLICA OO PRIVADA, CONCESIÓN ADMINISTRATIVA O ARRENDAMIENTO, REALIZADA DE FORMA DIRECTA O MEDIANTE LA SUBCONTRATACIÓN CON TERCEROS; 9º LA REALIZACIÓN DE CUALESQUIERA TRABAJOS QUESEAN CONSECUENCIA, COMPLEMENTEN O SE RELACIONEN DIRECTA O INDIRECTAMENTE CON CUALQUIERA DE LAS ACTIVIDADES DESCRITAS EN LOS APARTADAS PRECEDENTES",
      "mainEntityOfPage": "https://www.contratacion.euskadi.eus/webkpe00-kperoc/es/ac71aBusquedaRegistrosWar/empresa/07115",
      "_links": {
        "self": {
          "name": "CONSTRUCCIONES Y AUXILIAR DE FERROCARRILES, S.A.",
          "href": "https://api.euskadi.eus/procurements/companies/07115"
        }
      }
    },
    {
      "name": "CHROMA MULTIMEDIA, S.L.",
      "registrationNumber": "08889",
      "identificationNumber": "B06813844",
      "address": " CALLE BEURKO VIEJO 3 PAB.38 OF.14",
      "location": {
        "postalCode": "48902",
        "municipality": "Barakaldo",
        "county": "Bizkaia",
        "municipalityId": "013",
        "countyId": "48"
      },
      "economicActivities": [
        {
          "id": "1.844",
          "name": "Servicios de publicidad, relaciones públicas y similares",
          "_links": {
            "self": {
              "name": "Servicios de publicidad, relaciones públicas y similares",
              "href": "https://api.euskadi.eus/procurements/companies/economic-activities/1.844"
            }
          }
        }
      ],
      "certificateStartDate": "2026-01-30",
      "certificateEndDate": "2026-07-09",
      "object": "EL DESARROLLO DE LAS ACTIVIDADES CORRESPONDIENTES A LOS SIGUIENTES CÓDIGOS Y DESCRIPCIONES DE LA CLASIFICACIÓN NACIONAL DE ACTIVIDADES ECONÓMICAS: ACTIVIDAD PRINCIPAL: ORGANIZACIÓN DE CONVENCIONES Y FERIAS DE MUESTRAS - NUMERO 8230 DE LA CNAE. OTRAS ACTIVIDADES: AGENCIAS DE PUBLICIDAD - NÚMERO 7311 DE LA CNAE Y SERVICIOS DE REPRESENTACIÓN DE MEDIOS DE COMUNICACIÓN - NÚMERO 7312 DE LA CNAE.",
      "mainEntityOfPage": "https://www.contratacion.euskadi.eus/webkpe00-kperoc/es/ac71aBusquedaRegistrosWar/empresa/08889",
      "_links": {
        "self": {
          "name": "CHROMA MULTIMEDIA, S.L.",
          "href": "https://api.euskadi.eus/procurements/companies/08889"
        }
      }
    },
    {
      "name": "GRUPO TARJETAS Y SISTEMAS, S.L.",
      "registrationNumber": "03202",
      "identificationNumber": "B01302314",
      "address": "C/URBINA, 24  PAB. B1",
      "location": {
        "postalCode": "01015",
        "municipality": "Vitoria-Gasteiz",
        "county": "Araba/Álava",
        "municipalityId": "059",
        "countyId": "01"
      },
      "economicActivities": [
        {
          "id": "1.482.2",
          "name": "Fabricación de artículos acabados de materias plásticas",
          "_links": {
            "self": {
              "name": "Fabricación de artículos acabados de materias plásticas",
              "href": "https://api.euskadi.eus/procurements/companies/economic-activities/1.482.2"
            }
          }
        }
      ],
      "certificateStartDate": "2026-01-30",
      "certificateEndDate": "2026-07-30",
      "object": "LA ELABORACIÓN, MECANIZACIÓN Y DITIGALIZACIÓN DE TODO TIPO DE TARJETAS, PARA CUALQUIER TIPO DE ACTIVIDAD, INCLUSO DE PAGO O DE CRÉDITO, DE FIANZA, SEGURO, SORTEO, O SERVICIOS DE RESERVA, CON LÍNEA O FUERA DE LÍNEA, SANITARIAS O DE USO MILITAR, CUALQUIERA QUE SEA SU FUNCIÓN, O DESTINO; LA COMPRAVENTA DE PRODUCTOS Y SERVICIOS INFORMÁTICOS, Y DE TELECOMUNICACIONES, ASÍ COMO DE LOS SISTEMAS DE SOFTWARE Y DE INTERCONEXIÓN A UNA RED O SISTEMA DE TELECOMUNICACIONES; LA INSTALACIÓN Y MANTENIMIENTO DE EQUIPOS PARA LECTURA DE TARJETAS Y PRODUCTOS DE NOTAS DE RESERVA, ASÍ COMO LOS SERVICIOS DE ADMINISTRACIÓN DE TARJETAS, VENTA Y ALQUILER DE TARJETAS CON SISTEMA CRIPTOGRÁFICOS O DE FIRMA DIGITAL; LA COMPRAVENTA DE PRODUCTOS DE IMPRESIÓN GRÁFICA O ELECTRÓNICA, ASÍ COMO DE SUS ACCESORIOS; LA COMPRAVENTA, ALQUILER DE DERECHOS DE PROTECCIÓN INTELECTUAL, COPYRIGHTS Y DE SALVAGUARDA DE SISTEMAS INFORMÁTICOS, ELECTRÓNICOS Y DE TELECOMUNICACIONES",
      "mainEntityOfPage": "https://www.contratacion.euskadi.eus/webkpe00-kperoc/es/ac71aBusquedaRegistrosWar/empresa/03202",
      "_links": {
        "self": {
          "name": "GRUPO TARJETAS Y SISTEMAS, S.L.",
          "href": "https://api.euskadi.eus/procurements/companies/03202"
        }
      }
    },
    {
      "name": "ARISE ENERGY 2014 SL",
      "registrationNumber": "06041",
      "identificationNumber": "B95769311",
      "address": "C/ Villarías 10, 5º - Dpto.507",
      "location": {
        "postalCode": "48001",
        "municipality": "Bilbao",
        "county": "Bizkaia",
        "municipalityId": "020",
        "countyId": "48"
      },
      "economicActivities": [
        {
          "id": "1.504.12",
          "name": "Instalaciones eléctricas en toda clase de edificios",
          "_links": {
            "self": {
              "name": "Instalaciones eléctricas en toda clase de edificios",
              "href": "https://api.euskadi.eus/procurements/companies/economic-activities/1.504.12"
            }
          }
        },
        {
          "id": "1.843.1",
          "name": "Servicios técnicos de ingeniería",
          "_links": {
            "self": {
              "name": "Servicios técnicos de ingeniería",
              "href": "https://api.euskadi.eus/procurements/companies/economic-activities/1.843.1"
            }
          }
        }
      ],
      "certificateStartDate": "2026-01-30",
      "certificateEndDate": "2026-07-30",
      "object": "COMERCIALIZACIÓN, TRANSPORTE Y DISTRIBUCIÓN DE ENERGÍA. LA PROMOCIÓN, DESARROLLO, IMPLANTACIÓN, IDENTIFICACIÓN, ASESORAMIENTO, MANTENIMIENTO Y EXPLOTACIÓN DE PROYECTOS RELACIONADOS CON LA ENERGÍA. LA GESTIÓN E IDENTIFICACIÓN, PARA SI, O POR CUENTA DE TERCEROS, DE PROYECTOS DE ENERGÍA RENOVABLES PARA LA GENERACIÓN, CONSUMO Y/O VENTA DE ENERGÍA ELÉCTRICA O TÉRMICA DE CONFORMIDAD CON LAS DISPOSICIONES LEGALES APLICABLES. EL ASESORAMIENTO TÉCNICO, PLANIFICACIÓN, GESTIÓN Y ADMINISTRACIÓN A PERSONAS FÍSICAS O JURÍDICAS, SOBRE SUS INVERSIONES Y/O PROYECTOS RELACIONADOS CON LA ENERGÍA Y LA CONFECCIÓN Y COMERCIALIZACIÓN DE ESTUDIOS Y DOCUMENTACIÓN SOBRE PROYECTOS RELACIONADOS CON LA ENERGÍA. LA CONTRATACIÓN Y/O SELECCIÓN DE TERCEROS PARA LA PROMOCIÓN E IMPLANTACIÓN DE LAS ENERGÍAS RENOVABLES. LA ADQUISICIÓN, CESIÓN, TENENCIA, DISFRUTE, ADMINISTRACIÓN, GESTIÓN Y NEGOCIACIÓN DE VALORES MOBILIARIOS E INMUEBLES, PARTICIPACIONES SOCIALES O EN COPROPIEDAD DE TODA CLASE DE BIENES. LA ADQUISICIÓN Y ENAJENACIÓN POR CUALQUIER TÍTULO DE FINCAS RÚSTICAS O URBANAS YA SEAN TIERRAS, SOLARES O EDIFICIOS. LA CONSTRUCCIÓN DE ÉSTOS, LA TENENCIA, EXPLOTACIÓN Y ARRENDAMIENTO, YA SEA ACTIVO O PASIVO, DE TALES BIENES Y SU VENTA TOTAL O PARCIAL, SEGÚN CONVENGA. EL ARRENDAMIENTO Y CUALQUIER OTRA FORMA DE CESIÓN, USO O DISFRUTE QUE ABARQUE TODO O PARTE DE LOS EPÍGRAFES ANTERIORES. LA ADQUISICIÓN, EXPLOTACIÓN Y ENAJENACIÓN DE TODA CLASE DE BIENES INMUEBLES PARA SU EDIFICACIÓN, APROVECHAMIENTO O BENEFICIO DIRECTAMENTE, MEDIANTE LA INSTALACIÓN DE TODA CLASE DE EMPRESAS O NEGOCIOS MERCANTILES, INDUSTRIALES, AGRÍCOLAS, FORESTALES O GANADEROS O INDIRECTAMENTE POR CESIÓN DE SU DISFRUTE EN ARRENDAMIENTO O CUALQUIER FORMA",
      "mainEntityOfPage": "https://www.contratacion.euskadi.eus/webkpe00-kperoc/es/ac71aBusquedaRegistrosWar/empresa/06041",
      "_links": {
        "self": {
          "name": "ARISE ENERGY 2014 SL",
          "href": "https://api.euskadi.eus/procurements/companies/06041"
        }
      }
    },
    {
      "name": "ASOCIACION NACIONAL DE HOGARES PARA NIÑOS PRIVADOS DE AMBIENTE FAMILIAR NUEVO FUTURO",
      "registrationNumber": "06473",
      "identificationNumber": "G28309862",
      "address": "BRETON DE LOS HERREROS 57 ",
      "location": {
        "postalCode": "28003",
        "municipality": "Madrid",
        "county": "Madrid",
        "municipalityId": "079",
        "countyId": "28"
      },
      "economicActivities": [
        {
          "id": "1.951",
          "name": "Asistencia y servicios sociales en centros residenciales",
          "_links": {
            "self": {
              "name": "Asistencia y servicios sociales en centros residenciales",
              "href": "https://api.euskadi.eus/procurements/companies/economic-activities/1.951"
            }
          }
        }
      ],
      "certificateStartDate": "2026-01-30",
      "certificateEndDate": "2026-07-20",
      "object": "LA PROMOCIÓN HUMANA Y SOCIAL DE LOS NIÑOS Y JÓVENES MINUSVÁLIDOS FÍSICOS, PSÍQUICOS, AFECTIVOS Y SOCIALES, PRIVADOS DE UN AMBIENTE FAMILIAR, O QUE POR CUALQUIER CIRCUSTANCIA SE ENCUENTREN DE HECHO FUERA DE UNA VIDA FAMILIAR. LA ATENCIÓN A LAS MUJERES CON MENORES A SU CARGO EN SITUACIÓN DE RIESGO O EN SITUACIÓN VULNERABLE. LA REALIZACIÓN DE ACTIVIDADES RELACIONADAS CON LOS PRINCIPIOS Y OBJETOS DE LA COOPERACIÓN INTERNACIONAL PARA EL DESARROLLO. ADECUAR SU ACTUACIÓN A LOS CAMBIOS SOCIALES ASOCIADOS A UN PROGRESIVO AVANCE HACIA LA IGUALDAD ENTRE LAS MUJERES Y HOMBRES, IMPULSANDO ACTUACIONES Y SERVICIOS QUE ACOMPAÑEN A LAS MUJERES EN SU INCLUSIÓN SOCIAL. INTEGRAR EL PRINCIPIO DE IGUALDAD ENTRE MUJERES Y HOMBRES, GARANTIZAR LA PUESTA EN MARCHA DE LAS MEDIDAS PREVISTAS EN LA LEY 4/2005 DE IGUALDAD ENTRE MUJERES Y HOMBRES A FIN DE EVITAR DISCRIMINACIONES LABORALES POR RAZÓN DE SEXO EN EL ACCESO, EN LA PROMOCIÓN, EN LA FORMACIÓN Y EN LAS RETRIBUCIONES, ASÍ COMO FAVORECER LA CORRESPONSABILIDAD Y PREVENIR EL ACOSO SEXUAL Y EL ACOSO POR RAZÓN DE SEXO, COMPROMETIÉNDOSE, ASIMISMO, A NO UTILIZAR UN USO SEXISTA DEL LENGUAJE Y A LA RECOGIDA DE DATOS DESAGREGADOS POR SEXO. IMPULSAR LA TOMA DE CONCIENCIA CRÍTICA DE LAS PROBLEMÁTICAS MEDIOAMBIENTALES, ASÍ COMO DESARROLLAR PROGRAMAS Y ACCIONES DE EDUCACIÓN AMBIENTAL DIRIGIDOS A NIÑOS, NIÑAS Y JÓVENES PROMOVIENDO LA ADOPCIÓN DE ACTITUDES Y VALORES A FAVOR DE LA CONSERVACIÓN DEL ENTORNO\r\n",
      "mainEntityOfPage": "https://www.contratacion.euskadi.eus/webkpe00-kperoc/es/ac71aBusquedaRegistrosWar/empresa/06473",
      "_links": {
        "self": {
          "name": "ASOCIACION NACIONAL DE HOGARES PARA NIÑOS PRIVADOS DE AMBIENTE FAMILIAR NUEVO FUTURO",
          "href": "https://api.euskadi.eus/procurements/companies/06473"
        }
      }
    },
    {
      "name": "NTT DATA SPAIN, S.L.",
      "registrationNumber": "04314",
      "identificationNumber": "B82387770",
      "address": "CAMINO FUENTE DE LA MORA 1",
      "location": {
        "postalCode": "28050",
        "municipality": "Madrid",
        "county": "Madrid",
        "municipalityId": "079",
        "countyId": "28"
      },
      "economicActivities": [
        {
          "id": "1.845",
          "name": "Explotación electrónica por cuenta de terceros",
          "_links": {
            "self": {
              "name": "Explotación electrónica por cuenta de terceros",
              "href": "https://api.euskadi.eus/procurements/companies/economic-activities/1.845"
            }
          }
        },
        {
          "id": "1.932.2",
          "name": "Enseñanza de formación y perfeccionamiento profesional superior",
          "_links": {
            "self": {
              "name": "Enseñanza de formación y perfeccionamiento profesional superior",
              "href": "https://api.euskadi.eus/procurements/companies/economic-activities/1.932.2"
            }
          }
        }
      ],
      "certificateStartDate": "2026-01-30",
      "certificateEndDate": "2026-07-27",
      "object": "EL ESTUDIO, DESARROLLO, REALIZACIÓN Y EJECUCIÓN DE PROYECTOS DE SISTEMAS DE INFORMACIÓN, TECNOLOGÍA DE LA INFORMACIÓN Y AUTOMATIZACIÓN Y LA PRESTACIÓN DE SERVICIOS DE CONSULTORÍA Y ASISTENCIA A EMPRESAS Y A ADMINISTRACIONES PÚBLICAS EN CUESTIONES DE GESTIÓN, TECNOLOGÍAS DE LA INFORMACIÓN, SISTEMAS DE INFORMACIÓN Y AUTOMATIZACIÓN. LA PRODUCCIÓN, PROMOCIÓN, DISTRIBUCIÓN, ARRENDAMIENTO, VENTA, IMPORTACIÓN Y EXPORTACIÓN DE CUALQUIER PRODUCTO DE HARDWARE Y SOFTWARE, INCLUÍDOS PRODUCTOS DE SOFTWARE SANITARIO BASADOS EN TECNOLOGÍAS Y PRESTACIONES DE SERVICIOS DE ASISTENCIA TÉCNICA PARA EL MONTAJE, MANEJO, USO Y MANTENIMIENTO DE LOS PRODUCTOS SUMINISTRADOS POR LA SOCIEDAD. CUALQUIER FORMACIÓN NO REGLADA Y OTROS SERVICIOS DE EDUCACIÓN, INCLUYENDO, PERO NO LIMITADO EL PERFECCIONAMIENTO Y ENTRENAMIENTO DE PROFESIONALES Y RECURSOS VINCULADOS A CUALESQUIERA ENTIDADES PÚBLICAS Y PRIVADAS. LA ADQUISICIÓN, VENTA, ARRENDAMIENTO DE INMUEBLES PARA EL ESTABLECIMIENTO DE OFICINAS E INSTALACIONES QUE PRECISEN. LA COMPRA, SUSCRIPCIÓN, ASUNCIÓN, PERMUTA, TENENCIA Y VENTA DE PARTICIPACIONES Y VALORES MOBILIARIOS, NACIONALES O EXTRANJEROS, POR CUENTA PROPIA Y SIN ACTIVIDAD DE INTERMEDIACIÓN. SE EXCEPTÚAN LAS ACTIVIDADES EXPRESAMENTE RESERVADAS POR LA LEY A LAS INSTITUCIONES DE INVERSIÓN COLECTIVA, ASI COMO LO EXPRESAMENTE RESERVADO POR LA LEY24/1988 DE 28 DE JULIO, DEL MERCADO DE VALORES A LAS EMPRESAS DE SERVICIOS DE INVERSIÓN.",
      "mainEntityOfPage": "https://www.contratacion.euskadi.eus/webkpe00-kperoc/es/ac71aBusquedaRegistrosWar/empresa/04314",
      "_links": {
        "self": {
          "name": "NTT DATA SPAIN, S.L.",
          "href": "https://api.euskadi.eus/procurements/companies/04314"
        }
      }
    },
    {
      "name": "CLIMANAHER, S.L.",
      "registrationNumber": "03617",
      "identificationNumber": "B95061685",
      "address": "POLÍGONO INDUSTRIAL AURRERA, 8, PAB. 25 A",
      "location": {
        "postalCode": "48510",
        "municipality": "Valle de Trápaga-Trapagaran",
        "county": "Bizkaia",
        "municipalityId": "080",
        "countyId": "48"
      },
      "economicActivities": [
        {
          "id": "1.504.3",
          "name": "Instalaciones de frío, calor y acondicionamiento de aire",
          "_links": {
            "self": {
              "name": "Instalaciones de frío, calor y acondicionamiento de aire",
              "href": "https://api.euskadi.eus/procurements/companies/economic-activities/1.504.3"
            }
          }
        }
      ],
      "certificateStartDate": "2026-01-30",
      "certificateEndDate": "2026-07-30",
      "object": "LA COLOCACIÓN DE AISLAMIENTOS FÓNICOS, TÉRMICOS Y ACÚSTICOS DE CUALQUIER CLASE Y PARA CUALQUER TIPO DE OBRAS; IMPERMIABILIZACIÓN EN TODO TIPO DE EDIFICIOS Y CONSTRUCCIONES POR CUALQUIER PROCEDIMIENTO E INSTALACIÓN Y MANTENIMIENTO DE CLIMATIZACIÓN.",
      "mainEntityOfPage": "https://www.contratacion.euskadi.eus/webkpe00-kperoc/es/ac71aBusquedaRegistrosWar/empresa/03617",
      "_links": {
        "self": {
          "name": "CLIMANAHER, S.L.",
          "href": "https://api.euskadi.eus/procurements/companies/03617"
        }
      }
    },
    {
      "name": "NEXIO ADVISORY, S.L.",
      "registrationNumber": "09790",
      "identificationNumber": "B19844679",
      "address": "Calle Gran Vía Don Diego López de Haro, 81 (48011)",
      "location": {
        "postalCode": "48011",
        "municipality": "Bilbao",
        "county": "Bizkaia",
        "municipalityId": "020",
        "countyId": "48"
      },
      "economicActivities": [
        {
          "id": "1.847",
          "name": "Servicios de consultoría",
          "_links": {
            "self": {
              "name": "Servicios de consultoría",
              "href": "https://api.euskadi.eus/procurements/companies/economic-activities/1.847"
            }
          }
        }
      ],
      "certificateStartDate": "2026-01-30",
      "certificateEndDate": "2026-07-24",
      "object": "LA PRESTACIÓN DE TODO TIPO DE SERVICIOS DE CONSULTORÍA EMPRESARIAL, Y EN ESPECIAL, CONSULTORÍA ESTRATÉGICA, CONSULTORÍA EN INTERNACIONALIZACIÓN Y CONSULTORÍA EN INNOVACIÓN.",
      "mainEntityOfPage": "https://www.contratacion.euskadi.eus/webkpe00-kperoc/es/ac71aBusquedaRegistrosWar/empresa/09790",
      "_links": {
        "self": {
          "name": "NEXIO ADVISORY, S.L.",
          "href": "https://api.euskadi.eus/procurements/companies/09790"
        }
      }
    }
  ]
}