{
  "totalItems": 9042,
  "totalPages": 905,
  "currentPage": 716,
  "itemsOfPage": 10,
  "items": [
    {
      "name": "INSTALL TELECOM, S.A.",
      "registrationNumber": "03723",
      "identificationNumber": "A81297517",
      "address": "AVDA. MONTES DE OCA, 20",
      "location": {
        "postalCode": "28700",
        "municipality": "San Sebastián de los Reyes",
        "county": "Madrid",
        "municipalityId": "134",
        "countyId": "28"
      },
      "economicActivities": [
        {
          "id": "1.504.1",
          "name": "Instalaciones eléctricas en general",
          "_links": {
            "self": {
              "name": "Instalaciones eléctricas en general",
              "href": "https://api.euskadi.eus/procurements/companies/economic-activities/1.504.1"
            }
          }
        }
      ],
      "certificateStartDate": "2011-03-10",
      "certificateEndDate": "2011-07-21",
      "object": "LA REALIZACIÓN DE INSTALACIONES, MONTAJES Y MANTENIMIENTO DE CUALQUIER TIPO DE EQUIPO, SISTEMA O RED DE TELECOMUNICACIONES; EL MONTAJE DE REDES ESTRUCTURADAS; EL DESARROLLO, FABRICACIÓN Y COMERCIALIZACIÓN DE UNIDADES ELÉCTRICAS Y/O ELECTRÓNICAS CON DESTINO A EQUIPOS DE TELECOMUNICACIONES, Y CUALQUIER TIPO DE EQUIPO O RED ESTRUCTURADA O DE TELECOMUNICACIÓN, ASÍ COMO DE SUS EQUIPAMIENTOS COMPLEMENTARIOS",
      "mainEntityOfPage": "https://www.contratacion.euskadi.eus/webkpe00-kperoc/es/ac71aBusquedaRegistrosWar/empresa/03723",
      "_links": {
        "self": {
          "name": "INSTALL TELECOM, S.A.",
          "href": "https://api.euskadi.eus/procurements/companies/03723"
        }
      }
    },
    {
      "name": "LABORATORIO ARAGÓ, S.A.",
      "registrationNumber": "00410",
      "identificationNumber": "A08651481",
      "address": "C/ SALVADOR MUNDI, Nº 11.",
      "location": {
        "postalCode": "08017",
        "municipality": "Barcelona",
        "county": "Barcelona",
        "municipalityId": "019",
        "countyId": "08"
      },
      "economicActivities": [
        {
          "id": "1.254.2",
          "name": "Fabricación de especialidades y otros productos farmacéuticos",
          "_links": {
            "self": {
              "name": "Fabricación de especialidades y otros productos farmacéuticos",
              "href": "https://api.euskadi.eus/procurements/companies/economic-activities/1.254.2"
            }
          }
        }
      ],
      "certificateStartDate": "2011-03-09",
      "certificateEndDate": "2009-12-11",
      "object": "LA FABRICACIÓN, COMERCIALIZACIÓN, IMPORTACIÓN Y EXPORTACIÓN DE ESPECIALIDADES, PRODUCTOS Y PREPARADOS FARMACÉUTICOS, ASÍ COMO DE MATERIALES DE UN SOLO USO, APÓSITOS, SUTURAS Y LIGADURAS QUIRÚRGICAS, Y TAMBIÉN, LA COMPRA, VENTA, COMERCIALIZACIÓN, IMPORTACIÓN Y EXPORTACIÓN DE TODA CLASE DE ARTÍCULOS, PRODUCTOS Y MATERIALES DE USO SANITARIO",
      "mainEntityOfPage": "https://www.contratacion.euskadi.eus/webkpe00-kperoc/es/ac71aBusquedaRegistrosWar/empresa/00410",
      "_links": {
        "self": {
          "name": "LABORATORIO ARAGÓ, S.A.",
          "href": "https://api.euskadi.eus/procurements/companies/00410"
        }
      }
    },
    {
      "name": "SENER, INGENIERÍA Y SISTEMAS, S.A.",
      "registrationNumber": "00165",
      "identificationNumber": "A48024723",
      "address": "C/ AVENIDA DE ZUGAZARTE, Nº 56.",
      "location": {
        "postalCode": "48930",
        "municipality": "Getxo",
        "county": "Bizkaia",
        "municipalityId": "044",
        "countyId": "48"
      },
      "economicActivities": [
        {
          "id": "1.843.1",
          "name": "Servicios técnicos de ingeniería",
          "_links": {
            "self": {
              "name": "Servicios técnicos de ingeniería",
              "href": "https://api.euskadi.eus/procurements/companies/economic-activities/1.843.1"
            }
          }
        }
      ],
      "certificateStartDate": "2011-03-07",
      "certificateEndDate": "2011-07-03",
      "object": "LOS ESTUDIOS, INGENIERÍA BÁSICA Y DE DESARROLLO, PROYECTO Y ASESORAMIENTO TÉCNICO Y LA REALIZACIÓN DE EQUIPOS O INSTALACIONES Y SU PUESTA EN PRÁCTICA, EN LOS CAMPOS NAVAL Y OCEÁNICO; DISEÑO Y CONSTRUCCIÓN DE BUQUES, PLATAFORMAS Y ARTEFACTOS FLOTANTES CON Y SIN INSTALACIONES INDUSTRIALES SOBRE ELLAS Y ELEMENTOS AUXILIARES PARA LOS ANTERIORES; DE LA ENERGÍA EN TODAS SUS EXPRESIONES (ELÉCTRICA, HIDRÁULICA, TÉRMICA, NUCLEAR, EÓLICA O SOLAR; GAS; CARBÓN Y SU GASIFICACIÓN; BIOMASA); EL ESPACIAL; EL AERONÁUTICO; EL DE LA ELECTRÓNICA; EL DE LAS COMUNICACIONES; EL DE LA INFORMÁTICA; EL DE LA DEFENSA Y CUALQUIER OTRO TIPO CIENTÍFICO; LA INVESTIGACIÓN Y DESARROLLO DE PROCESOS QUÍMICOS E INDUSTRIALES; LA REALIZACIÓN Y PUESTA EN PRÁCTICA DE PLANES URBANÍSTICOS, ESTUDIOS DE INFRAESTRUCTURA Y PROYECTOS DE OBRAS CIVILES Y PORTUARIAS Y OTROS RELACIONADOS CON EL TRANSPORTE PÚBLICO, SANEAMIENTO Y ABASTECIMIENTO DE AGUAS; LA INVESTIGACIÓN BÁSICA Y APLICADA, EL DESARROLLO DE NUEVOS MATERIALES; CERÁMICOS, COMPUESTOS, SUPERCONDUCTORES; LA ADQUISICIÓN Y DESARROLLO DE ELEMENTOS Y CONCEPTOS DE LA PROPIEDAD INDUSTRIAL O INTELECTUAL; EL DESARROLLO DE SOFTWARE CIENTÍFICO, TÉCNICO Y DE GESTIÓN, LA FABRICACIÓN, MONTAJE Y PRUEBAS, Y LA EXPLOTACIÓN Y COMERCIALIZACIÓN DE EQUIPOS, INSTALACIONES, PLANTAS INDUSTRIALES, ELEMENTOS DE TRANSPORTE, ELEMENTOS MECÁNICOS, ÓPTICOS, ELECTRÓNICOS, DE COMUNICACIONES, RELACIONADOS CON LA DEFENSA; LA PROMOCIÓN Y DESARROLLO DE PROYECTOS TOTALES EN LAS ÁREAS DE APORTACIÓN TECNOLÓGICA ANTERIORMENTE REFERIDAS; LA ADQUISICIÓN Y EXPLOTACIÓN DE INVERSIONES MOBILIARIAS E INMOBILIARIAS. ASIMISMO, EL ESTUDIO Y FOMENTO DE LAS TÉCNICAS DE CONTROL DE CALIDAD, EN TODO EL TERRITORIO NACIONAL",
      "mainEntityOfPage": "https://www.contratacion.euskadi.eus/webkpe00-kperoc/es/ac71aBusquedaRegistrosWar/empresa/00165",
      "_links": {
        "self": {
          "name": "SENER, INGENIERÍA Y SISTEMAS, S.A.",
          "href": "https://api.euskadi.eus/procurements/companies/00165"
        }
      }
    },
    {
      "name": "CONSTRUCCIONES TRAPAGARAN 2002, S.L.",
      "registrationNumber": "03844",
      "identificationNumber": "B48942429",
      "address": "POL. IND. AURRERA. MANZANA 6 - PAB. 47",
      "location": {
        "postalCode": "48510",
        "municipality": "Valle de Trápaga-Trapagaran",
        "county": "Bizkaia",
        "municipalityId": "080",
        "countyId": "48"
      },
      "economicActivities": [
        {
          "id": "1.501.1",
          "name": "Construcción completa, reparación y conservación de edificaciones",
          "_links": {
            "self": {
              "name": "Construcción completa, reparación y conservación de edificaciones",
              "href": "https://api.euskadi.eus/procurements/companies/economic-activities/1.501.1"
            }
          }
        }
      ],
      "certificateStartDate": "2011-03-01",
      "certificateEndDate": "2011-08-09",
      "object": "LA AQUISICIÓN POR CUALQUIER TÍTULO DE FINCAS RÚSTICAS O URBANAS, LA CONSTRUCCIÓN DE ÉSTAS Y LA ADMINISTRACIÓN, TENENCIA, EXPLOTACIÓN Y ARRENDAMIENTO DE TALES BIENES Y SU VENTA TOTAL O PARCIAL, SEGÚN CONVENGA PARA SU APROVECHAMIENTO AGRÍCOLA, FORESTAL, URBANO, INDUSTRIAL O CUALQUIER OTRO. LA PROMOCIÓN Y CONSTRUCCIÓN DE OBRAS CIVILES, EDIFICIOS Y LOCALES, BIEN SEAN INDUSTRIALES O PARA VIVIENDAS Y, COMO PROCESO PREVIO, LA PERFORACIÓN Y CIMENTACIÓN DE TERRENOS PARA SU UTILIDAD",
      "mainEntityOfPage": "https://www.contratacion.euskadi.eus/webkpe00-kperoc/es/ac71aBusquedaRegistrosWar/empresa/03844",
      "_links": {
        "self": {
          "name": "CONSTRUCCIONES TRAPAGARAN 2002, S.L.",
          "href": "https://api.euskadi.eus/procurements/companies/03844"
        }
      }
    },
    {
      "name": "INEKA EKITALDIAK, S.L.",
      "registrationNumber": "04373",
      "identificationNumber": "B20989232",
      "address": "ORLEGIMENDI  ETXADIA 3",
      "location": {
        "postalCode": "20180",
        "municipality": "Oiartzun",
        "county": "Gipuzkoa",
        "municipalityId": "063",
        "countyId": "20"
      },
      "economicActivities": [
        {
          "id": "1.659.9",
          "name": "Venta al por menor de otros productos no especificados en esta agrupación",
          "_links": {
            "self": {
              "name": "Venta al por menor de otros productos no especificados en esta agrupación",
              "href": "https://api.euskadi.eus/procurements/companies/economic-activities/1.659.9"
            }
          }
        },
        {
          "id": "1.856.1",
          "name": "Alquiler de bienes de consumo",
          "_links": {
            "self": {
              "name": "Alquiler de bienes de consumo",
              "href": "https://api.euskadi.eus/procurements/companies/economic-activities/1.856.1"
            }
          }
        }
      ],
      "certificateStartDate": "2011-02-23",
      "certificateEndDate": "2011-07-18",
      "object": "ALQUILER, VENTA, MONTAJE, DESMONTAJE DE MATERIALES E INFRAESTRUCTURAS PARA EVENTOS Y ORGANIZACIÓN DE EVENTOS",
      "mainEntityOfPage": "https://www.contratacion.euskadi.eus/webkpe00-kperoc/es/ac71aBusquedaRegistrosWar/empresa/04373",
      "_links": {
        "self": {
          "name": "INEKA EKITALDIAK, S.L.",
          "href": "https://api.euskadi.eus/procurements/companies/04373"
        }
      }
    },
    {
      "name": "TEST-TRONIC TECNOLOGÍA APLICADA, S.L.",
      "registrationNumber": "02039",
      "identificationNumber": "B01238989",
      "address": "C/ URARTEA, Nº 21 - PAB. 7",
      "location": {
        "postalCode": "01010",
        "municipality": "Vitoria-Gasteiz",
        "county": "Araba/Álava",
        "municipalityId": "059",
        "countyId": "01"
      },
      "economicActivities": [
        {
          "id": "1.615.4",
          "name": "Venta al por mayor de aparatos y material radioeléctrico y electrónico",
          "_links": {
            "self": {
              "name": "Venta al por mayor de aparatos y material radioeléctrico y electrónico",
              "href": "https://api.euskadi.eus/procurements/companies/economic-activities/1.615.4"
            }
          }
        }
      ],
      "certificateStartDate": "2011-02-17",
      "certificateEndDate": "2011-07-10",
      "object": "LOS TRABAJOS DE DISTRIBUCIÓN Y COMERCIALIZACIÓN, TANTO AL POR MAYOR COMO AL POR MENOR, FABRICACIÓN, DISEÑO, INSTALACIÓN Y REPARACIÓN DE EQUIPOS Y SISTEMAS ELÉCTRICOS, ELECTRÓNICOS Y ELECTROMECÁNICOS, ASÍ COMO CUALQUIER TIPO DE ARTÍCULOS RELACIONADOS CON LOS ANTERIORES",
      "mainEntityOfPage": "https://www.contratacion.euskadi.eus/webkpe00-kperoc/es/ac71aBusquedaRegistrosWar/empresa/02039",
      "_links": {
        "self": {
          "name": "TEST-TRONIC TECNOLOGÍA APLICADA, S.L.",
          "href": "https://api.euskadi.eus/procurements/companies/02039"
        }
      }
    },
    {
      "name": "MOUSE MULTIMEDIA, S.L.",
      "registrationNumber": "02973",
      "identificationNumber": "B48910475",
      "address": "C/BLAS DE OTERO, 2",
      "location": {
        "postalCode": "48014",
        "municipality": "Bilbao",
        "county": "Bizkaia",
        "municipalityId": "020",
        "countyId": "48"
      },
      "economicActivities": [
        {
          "id": "1.659.2",
          "name": "Venta al por menor de muebles de oficina y máquinas y equipos de oficina",
          "_links": {
            "self": {
              "name": "Venta al por menor de muebles de oficina y máquinas y equipos de oficina",
              "href": "https://api.euskadi.eus/procurements/companies/economic-activities/1.659.2"
            }
          }
        },
        {
          "id": "1.845",
          "name": "Explotación electrónica por cuenta de terceros",
          "_links": {
            "self": {
              "name": "Explotación electrónica por cuenta de terceros",
              "href": "https://api.euskadi.eus/procurements/companies/economic-activities/1.845"
            }
          }
        }
      ],
      "certificateStartDate": "2011-02-17",
      "certificateEndDate": "2011-08-04",
      "object": "LA COMPRAVENTA, REPARACIÓN Y DISTRIBUCIÓN DE ELEMENTOS INFORMÁTICOS Y CUALESQUIERA OTROS SERVICIOS INFORMÁTICOS A EMPRESAS O PARTICULARES",
      "mainEntityOfPage": "https://www.contratacion.euskadi.eus/webkpe00-kperoc/es/ac71aBusquedaRegistrosWar/empresa/02973",
      "_links": {
        "self": {
          "name": "MOUSE MULTIMEDIA, S.L.",
          "href": "https://api.euskadi.eus/procurements/companies/02973"
        }
      }
    },
    {
      "name": "TEST TRONIC COMUNICACIONES, S.L.",
      "registrationNumber": "04012",
      "identificationNumber": "B01443159",
      "address": "URARTEA, 21- Pabellón 7",
      "location": {
        "postalCode": "01010",
        "municipality": "Vitoria-Gasteiz",
        "county": "Araba/Álava",
        "municipalityId": "059",
        "countyId": "01"
      },
      "economicActivities": [
        {
          "id": "1.504.7",
          "name": "Instalaciones telefónicas, telegráficas, televisión, etc",
          "_links": {
            "self": {
              "name": "Instalaciones telefónicas, telegráficas, televisión, etc",
              "href": "https://api.euskadi.eus/procurements/companies/economic-activities/1.504.7"
            }
          }
        },
        {
          "id": "1.653.2",
          "name": "Venta al por menor de material y aparatos eléctricos, electrodomésticos y cocina",
          "_links": {
            "self": {
              "name": "Venta al por menor de material y aparatos eléctricos, electrodomésticos y cocina",
              "href": "https://api.euskadi.eus/procurements/companies/economic-activities/1.653.2"
            }
          }
        }
      ],
      "certificateStartDate": "2011-02-17",
      "certificateEndDate": "2011-07-10",
      "object": "OPERACIONES DE COMERCIALIZACIÓN, TANTO AL POR MAYOR COMO AL POR MENOR, FABRICACIÓN, INSTALACIÓN Y REPARACIÓN DE APARATOS ELÉCTRICOS Y ELECTROMECÁNICOS, E IGUALMENTE DE CUALQUIER TIPO DE ARTÍCULOS RELACIONADOS CON LOS ANTERIORES.",
      "mainEntityOfPage": "https://www.contratacion.euskadi.eus/webkpe00-kperoc/es/ac71aBusquedaRegistrosWar/empresa/04012",
      "_links": {
        "self": {
          "name": "TEST TRONIC COMUNICACIONES, S.L.",
          "href": "https://api.euskadi.eus/procurements/companies/04012"
        }
      }
    },
    {
      "name": "AMUITZ BERRIKUNTAK, S.L.",
      "registrationNumber": "04016",
      "identificationNumber": "B20739181",
      "address": "Pº DE BIZKAIA, 15-16 BAJO",
      "location": {
        "postalCode": "20010",
        "municipality": "Donostia / San Sebastián",
        "county": "Gipuzkoa",
        "municipalityId": "069",
        "countyId": "20"
      },
      "economicActivities": [
        {
          "id": "1.314.1",
          "name": "Carpintería metálica",
          "_links": {
            "self": {
              "name": "Carpintería metálica",
              "href": "https://api.euskadi.eus/procurements/companies/economic-activities/1.314.1"
            }
          }
        },
        {
          "id": "1.501.1",
          "name": "Construcción completa, reparación y conservación de edificaciones",
          "_links": {
            "self": {
              "name": "Construcción completa, reparación y conservación de edificaciones",
              "href": "https://api.euskadi.eus/procurements/companies/economic-activities/1.501.1"
            }
          }
        },
        {
          "id": "1.505.1",
          "name": "Revestimientos exteriores e interiores de todas clases",
          "_links": {
            "self": {
              "name": "Revestimientos exteriores e interiores de todas clases",
              "href": "https://api.euskadi.eus/procurements/companies/economic-activities/1.505.1"
            }
          }
        },
        {
          "id": "1.934",
          "name": "Enseñanza fuera de establecimiento permanente",
          "_links": {
            "self": {
              "name": "Enseñanza fuera de establecimiento permanente",
              "href": "https://api.euskadi.eus/procurements/companies/economic-activities/1.934"
            }
          }
        }
      ],
      "certificateStartDate": "2011-02-16",
      "certificateEndDate": "2011-05-24",
      "object": "PROMOVER LA INSERCIÓN SOCIOLABORAL DE PERSONAS QUE PRESENTAN ESPECIALES DIFICULTADES DE ACCESO AL MERCADO LABORAL. PROMOVER LA INCORPORACIÓN AL MERCADO LABORAL DE COLECTIVOS EN SITUACIÓN DE DESVENTAJA SOCIAL O EXCLUSIÓN. REALIZACIÓN DE UN PROYECTO PERSONAL DE INSERCIÓN DE DICHAS PAERSONAS MEDIANTE UN PROCESO DE APRENDIZAJE ADECUADO QUE CONTEMPLE LA CONSECUCIÓN DE HABILIDADES SOCIALES, LABORALES, FORMACIÓN BÁSICA, CUALIFICACIÓN LABORAL Y CONOCIMIENTOS DEL MERCADO QUE LES PERMITAN SUS CONDICIONES DE EMPLEABILIDAD. PROPORCIONAR AL PERSONAL EN PROCESO DE INSERCIÓN MEDIDAS PERSONALIZADAS EN APOYO COMO SON: FORMACIÓN DIRIGIDA AL APRENDIZAJE DE LA ACTIVIDAD PROFESIONAL QUE DEBE REALIZAR EN LA EMPRESA Y LA ADECUACION DEL NIVEL FORMATIVO O LAS COMPETENCIAS PROFESIONALES A LAS EXIGENCIAS DEL MERCADO LABORAL; ESTABLECIMIENTO DE UNAS PAUTAS DE FUNCIONAMIENTO DESTINADAS A LA ADQUISICIÓN DE HÁBITOS SOCIALES Y DE TRABAJO; UN SERVICIO DE ACOMPAÑAMIENTO SOCIAL, ENCAMINADO A SATISFACER O RESOLVER PROBLEMÁTICAS PERSONALES Y DE CONVIVENCIA QUE IMPIDEN O DIFICULTAN EL NORMAL DESARROLLO DEL PROCESO DE ADAPTACIÓN LABORAL. LOS TRABAJOS DE GESTIÓN Y EJECUCIÓN DE TOD TIPO DE PROYECTOS DE URBANIZACIÓN Y PLANES URBANÍSTICOS, ASÍ COMO LA CONSTRUCCIÓN DE TODO GÉNERO DE EDIFICACIONES Y DE OBRAS, TANTO PÚBLICAS COMO PRIVADAS",
      "mainEntityOfPage": "https://www.contratacion.euskadi.eus/webkpe00-kperoc/es/ac71aBusquedaRegistrosWar/empresa/04016",
      "_links": {
        "self": {
          "name": "AMUITZ BERRIKUNTAK, S.L.",
          "href": "https://api.euskadi.eus/procurements/companies/04016"
        }
      }
    },
    {
      "name": "EGUZKI ERAIKUNTZAK, S.L.",
      "registrationNumber": "02993",
      "identificationNumber": "B20658035",
      "address": "PORTUETXE KALEA, 61 BAJO EDIFICIO BONEA",
      "location": {
        "postalCode": "20018",
        "municipality": "Donostia / San Sebastián",
        "county": "Gipuzkoa",
        "municipalityId": "069",
        "countyId": "20"
      },
      "economicActivities": [
        {
          "id": "1.501.1",
          "name": "Construcción completa, reparación y conservación de edificaciones",
          "_links": {
            "self": {
              "name": "Construcción completa, reparación y conservación de edificaciones",
              "href": "https://api.euskadi.eus/procurements/companies/economic-activities/1.501.1"
            }
          }
        },
        {
          "id": "1.501.2",
          "name": "Construcción completa, reparación y conservación obras civiles",
          "_links": {
            "self": {
              "name": "Construcción completa, reparación y conservación obras civiles",
              "href": "https://api.euskadi.eus/procurements/companies/economic-activities/1.501.2"
            }
          }
        }
      ],
      "certificateStartDate": "2011-02-15",
      "certificateEndDate": "2011-07-07",
      "object": "LA COMPRA Y VENTA DE TODA CLASE DE TERRENOS RÚSTICOS O INDUSTRIALES Y SOLARES URBANOS O URBANIZABLES, LA CONSTRUCCIÓN DE EDIFICACIONES DE CUALQUIER CLASE, LA CREACIÓN Y DESENVOLVIMIENTO DE URBANIZACIONES, LA CONSTRUCCIÓN DE OBRAS PÚBLICAS MEDIANTE CONTRATA CON LA ADMINISTRACIÓN DEL ESTADO, COMUNIDADES AUTÓNOMAS, PROVINCIAS, MUNICIPIOS Y ORGANISMOS PÚBLICOS EN GENERAL Y LA PROMOCIÓN Y VENTA DE OBRAS POR EJECUCIÓN DIRECTA O MEDIANTE CONTRATA",
      "mainEntityOfPage": "https://www.contratacion.euskadi.eus/webkpe00-kperoc/es/ac71aBusquedaRegistrosWar/empresa/02993",
      "_links": {
        "self": {
          "name": "EGUZKI ERAIKUNTZAK, S.L.",
          "href": "https://api.euskadi.eus/procurements/companies/02993"
        }
      }
    }
  ]
}