{
  "totalItems": 9042,
  "totalPages": 905,
  "currentPage": 857,
  "itemsOfPage": 10,
  "items": [
    {
      "name": "XENDA, GESTIÓN INTEGRAL DE SERVICIOS, S.L.",
      "registrationNumber": "03745",
      "identificationNumber": "B01396423",
      "address": "C/ ESKALMENDI, Nº 9.PAB. 1",
      "location": {
        "postalCode": "01013",
        "municipality": "Vitoria-Gasteiz",
        "county": "Araba/Álava",
        "municipalityId": "059",
        "countyId": "01"
      },
      "object": "pte",
      "mainEntityOfPage": "https://www.contratacion.euskadi.eus/webkpe00-kperoc/es/ac71aBusquedaRegistrosWar/empresa/03745",
      "_links": {
        "self": {
          "name": "XENDA, GESTIÓN INTEGRAL DE SERVICIOS, S.L.",
          "href": "https://api.euskadi.eus/procurements/companies/03745"
        }
      }
    },
    {
      "name": "TECNOALAS, S.A.",
      "registrationNumber": "03762",
      "identificationNumber": "A01317239",
      "address": "PORTAL DE BETOÑO, 1.EDIFICIO ALAS.",
      "location": {
        "postalCode": "01013",
        "municipality": "Vitoria-Gasteiz",
        "county": "Araba/Álava",
        "municipalityId": "059",
        "countyId": "01"
      },
      "object": "pte",
      "mainEntityOfPage": "https://www.contratacion.euskadi.eus/webkpe00-kperoc/es/ac71aBusquedaRegistrosWar/empresa/03762",
      "_links": {
        "self": {
          "name": "TECNOALAS, S.A.",
          "href": "https://api.euskadi.eus/procurements/companies/03762"
        }
      }
    },
    {
      "name": "LRK EMERGENTZIAK KOOP. E.",
      "registrationNumber": "03771",
      "identificationNumber": "F20839882",
      "address": "C/ URUNE, 35 - POL. IND. 103",
      "location": {
        "postalCode": "20100",
        "municipality": "Lezo",
        "county": "Gipuzkoa",
        "municipalityId": "053",
        "countyId": "20"
      },
      "object": ".",
      "mainEntityOfPage": "https://www.contratacion.euskadi.eus/webkpe00-kperoc/es/ac71aBusquedaRegistrosWar/empresa/03771",
      "_links": {
        "self": {
          "name": "LRK EMERGENTZIAK KOOP. E.",
          "href": "https://api.euskadi.eus/procurements/companies/03771"
        }
      }
    },
    {
      "name": "INGENIERIA Y MONTAJES ELECTRICOS ADUNA, S.L.",
      "registrationNumber": "03772",
      "identificationNumber": "B20963989",
      "address": "POLÍGONO INDUSTRIAL ERRATZU, Nº 220",
      "location": {
        "postalCode": "20130",
        "municipality": "Urnieta",
        "county": "Gipuzkoa",
        "municipalityId": "072",
        "countyId": "20"
      },
      "object": "pte",
      "mainEntityOfPage": "https://www.contratacion.euskadi.eus/webkpe00-kperoc/es/ac71aBusquedaRegistrosWar/empresa/03772",
      "_links": {
        "self": {
          "name": "INGENIERIA Y MONTAJES ELECTRICOS ADUNA, S.L.",
          "href": "https://api.euskadi.eus/procurements/companies/03772"
        }
      }
    },
    {
      "name": "AITZ, S.A.",
      "registrationNumber": "03775",
      "identificationNumber": "A48158323",
      "address": "ERCILLA, 35 - 1 º IZDA.",
      "location": {
        "postalCode": "48011",
        "municipality": "Bilbao",
        "county": "Bizkaia",
        "municipalityId": "020",
        "countyId": "48"
      },
      "object": "pte",
      "mainEntityOfPage": "https://www.contratacion.euskadi.eus/webkpe00-kperoc/es/ac71aBusquedaRegistrosWar/empresa/03775",
      "_links": {
        "self": {
          "name": "AITZ, S.A.",
          "href": "https://api.euskadi.eus/procurements/companies/03775"
        }
      }
    },
    {
      "name": "AGIROMENDI ERAIKUNTZAK, S.A.",
      "registrationNumber": "03778",
      "identificationNumber": "A20904603",
      "address": "SAN JUAN, 20-1º. EDIFICIO AXIRI",
      "location": {
        "postalCode": "20720",
        "municipality": "Azkoitia",
        "county": "Gipuzkoa",
        "municipalityId": "017",
        "countyId": "20"
      },
      "object": "pte",
      "mainEntityOfPage": "https://www.contratacion.euskadi.eus/webkpe00-kperoc/es/ac71aBusquedaRegistrosWar/empresa/03778",
      "_links": {
        "self": {
          "name": "AGIROMENDI ERAIKUNTZAK, S.A.",
          "href": "https://api.euskadi.eus/procurements/companies/03778"
        }
      }
    },
    {
      "name": "CALEFACCIONES BEITIA, S.A.",
      "registrationNumber": "03803",
      "identificationNumber": "A01016336",
      "address": "C/ PARAGUAY, 34-BAJO",
      "location": {
        "postalCode": "01012",
        "municipality": "Vitoria-Gasteiz",
        "county": "Araba/Álava",
        "municipalityId": "059",
        "countyId": "01"
      },
      "object": ".",
      "mainEntityOfPage": "https://www.contratacion.euskadi.eus/webkpe00-kperoc/es/ac71aBusquedaRegistrosWar/empresa/03803",
      "_links": {
        "self": {
          "name": "CALEFACCIONES BEITIA, S.A.",
          "href": "https://api.euskadi.eus/procurements/companies/03803"
        }
      }
    },
    {
      "name": "ASTI MEDIA, S.L.",
      "registrationNumber": "03812",
      "identificationNumber": "B95486619",
      "address": "FRANCESC MACIA, 4-4º",
      "location": {
        "postalCode": "48014",
        "municipality": "Bilbao",
        "county": "Bizkaia",
        "municipalityId": "020",
        "countyId": "48"
      },
      "object": "pte",
      "mainEntityOfPage": "https://www.contratacion.euskadi.eus/webkpe00-kperoc/es/ac71aBusquedaRegistrosWar/empresa/03812",
      "_links": {
        "self": {
          "name": "ASTI MEDIA, S.L.",
          "href": "https://api.euskadi.eus/procurements/companies/03812"
        }
      }
    },
    {
      "name": "SEKY INGENIERÍA DE SEGURIDAD 2006, S.L.",
      "registrationNumber": "03840",
      "identificationNumber": "B01396480",
      "address": "VENTA LA ESTRELLA, Nº 6. PAB. 8-18",
      "location": {
        "postalCode": "01006",
        "municipality": "Vitoria-Gasteiz",
        "county": "Araba/Álava",
        "municipalityId": "059",
        "countyId": "01"
      },
      "object": "pte",
      "mainEntityOfPage": "https://www.contratacion.euskadi.eus/webkpe00-kperoc/es/ac71aBusquedaRegistrosWar/empresa/03840",
      "_links": {
        "self": {
          "name": "SEKY INGENIERÍA DE SEGURIDAD 2006, S.L.",
          "href": "https://api.euskadi.eus/procurements/companies/03840"
        }
      }
    },
    {
      "name": "NABASI 2008, S.L.",
      "registrationNumber": "03841",
      "identificationNumber": "B20989919",
      "address": "PORTUETXE 23-A-B. EDIF. CEMEI, OFICINA 4. 12",
      "location": {
        "postalCode": "20018",
        "municipality": "Donostia / San Sebastián",
        "county": "Gipuzkoa",
        "municipalityId": "069",
        "countyId": "20"
      },
      "object": "Pte.",
      "mainEntityOfPage": "https://www.contratacion.euskadi.eus/webkpe00-kperoc/es/ac71aBusquedaRegistrosWar/empresa/03841",
      "_links": {
        "self": {
          "name": "NABASI 2008, S.L.",
          "href": "https://api.euskadi.eus/procurements/companies/03841"
        }
      }
    }
  ]
}