{
  "totalItems": 9042,
  "totalPages": 905,
  "currentPage": 666,
  "itemsOfPage": 10,
  "items": [
    {
      "name": "TUNELEK, S.L.",
      "registrationNumber": "05260",
      "identificationNumber": "B95743662",
      "address": "C/ SANTIAGO DE COMPOSTELA, 12-1º",
      "location": {
        "postalCode": "48003",
        "municipality": "Bilbao",
        "county": "Bizkaia",
        "municipalityId": "020",
        "countyId": "48"
      },
      "economicActivities": [
        {
          "id": "1.501.2",
          "name": "Construcción completa, reparación y conservación obras civiles",
          "_links": {
            "self": {
              "name": "Construcción completa, reparación y conservación obras civiles",
              "href": "https://api.euskadi.eus/procurements/companies/economic-activities/1.501.2"
            }
          }
        }
      ],
      "certificateStartDate": "2014-10-16",
      "certificateEndDate": "2015-03-10",
      "object": "LA EJECUCIÓN DE OBRAS PÚBLICAS O PRIVADAS, QUE INCLUYEN LA CONSTRUCCIÓN O REPARACIÓN DE TÚNELES Y OBRAS SUBTERRÁNEAS, Y PARTICULARMENTE, EN VÍAS AUTOVÍAS, AUTOPISTAS O CARRETERAS DE CUALQUIER CLASE, ASÍ COMO EN FERROCARRILES Y EN PLANTAS CENTRALES O INSTALACIONES MINERAS, ENERGÉTICAS O INDUSTRIALES. A ESTOS EFECTOS, LA CONSTRUCCIÓN O REPARACIÓN PODRÁ INCLUIR TODAS O ALGUNA DE LAS SIGUIENTES ACTIVIDADES: A) EXCAVACIÓN Y SOSTENIMIENTO. B) IMPERMEABILIZACIÓN. C) REVESTIMIENTO DE HORMIGÓN. D) ESTABILIZACIÓN DE TALUDES. E) LABORES DE DESESCOMBRO EN TÚNELES",
      "mainEntityOfPage": "https://www.contratacion.euskadi.eus/webkpe00-kperoc/es/ac71aBusquedaRegistrosWar/empresa/05260",
      "_links": {
        "self": {
          "name": "TUNELEK, S.L.",
          "href": "https://api.euskadi.eus/procurements/companies/05260"
        }
      }
    },
    {
      "name": "CONSTRUCCIONES J.F. QUINTANA, S.L.",
      "registrationNumber": "05257",
      "identificationNumber": "B95188520",
      "address": "LA CUESTA 26 1º A",
      "location": {
        "postalCode": "48800",
        "municipality": "Balmaseda",
        "county": "Bizkaia",
        "municipalityId": "090",
        "countyId": "48"
      },
      "economicActivities": [
        {
          "id": "1.501.1",
          "name": "Construcción completa, reparación y conservación de edificaciones",
          "_links": {
            "self": {
              "name": "Construcción completa, reparación y conservación de edificaciones",
              "href": "https://api.euskadi.eus/procurements/companies/economic-activities/1.501.1"
            }
          }
        }
      ],
      "certificateStartDate": "2014-10-14",
      "certificateEndDate": "2015-03-17",
      "object": "COMPRA, URBANIZACIÓN, PROMOCIÓN, EDIFICACIÓN, VENTA Y ALQUILER DE TODO TIPO DE INMUEBLES, YA SEAN DE PARCELAS URBANIZADAS O NO, EDIFICIOS COMPLETOS, PISOS, LOCALES, CHALETS, APATAMENTOS, GARAJES, EDIFICIOS COMERCIALES O INDUSTRIALES O CUALQUIER OTRO TIPO DE FINCAS TANTO RÚSTICAS COMO URBANAS. LA CONSTRUCCIÓN POR CUENTA PROPIA O AJENA DE TODA CLASE DE INMUEBLES Y A LA REALIZACIÓN DE TODA CLASE DE OBRAS PÚBLICAS Y PRIVADAS",
      "mainEntityOfPage": "https://www.contratacion.euskadi.eus/webkpe00-kperoc/es/ac71aBusquedaRegistrosWar/empresa/05257",
      "_links": {
        "self": {
          "name": "CONSTRUCCIONES J.F. QUINTANA, S.L.",
          "href": "https://api.euskadi.eus/procurements/companies/05257"
        }
      }
    },
    {
      "name": "CONSTRUCCIONES BASTEGUIETA, S.L.",
      "registrationNumber": "02374",
      "identificationNumber": "B48433403",
      "address": "ZELAIETA, 7. LONJA",
      "location": {
        "postalCode": "48314",
        "municipality": "Gautegiz Arteaga",
        "county": "Bizkaia",
        "municipalityId": "041",
        "countyId": "48"
      },
      "economicActivities": [
        {
          "id": "1.504.1",
          "name": "Instalaciones eléctricas en general",
          "_links": {
            "self": {
              "name": "Instalaciones eléctricas en general",
              "href": "https://api.euskadi.eus/procurements/companies/economic-activities/1.504.1"
            }
          }
        },
        {
          "id": "1.507",
          "name": "Construcción, reparación y conservación de toda clase obras",
          "_links": {
            "self": {
              "name": "Construcción, reparación y conservación de toda clase obras",
              "href": "https://api.euskadi.eus/procurements/companies/economic-activities/1.507"
            }
          }
        }
      ],
      "certificateStartDate": "2014-10-09",
      "certificateEndDate": "2015-02-19",
      "object": "LA REALIZACIÓN DE TODA CLASE DE OBRAS Y CONSTRUCCIONES, TANTO PÚBLICAS COMO PRIVADAS, EDIFICACIONES DE INMUEBLES, URBANIZACIÓN DE PARCELAS O ZONAS, PROMOCIÓN Y COMERCIALIZACIÓN DE ÉSTOS Y AQUÉLLOS Y CUALQUIER CLASE DE ACTIVIDAD LÍCITA, DIRECTA O INDIRECTAMENTE RELACIONADA CON LAS ANTERIORES, YA SEA POR CUENTA PROPIA, YA POR CUENTA AJENA",
      "mainEntityOfPage": "https://www.contratacion.euskadi.eus/webkpe00-kperoc/es/ac71aBusquedaRegistrosWar/empresa/02374",
      "_links": {
        "self": {
          "name": "CONSTRUCCIONES BASTEGUIETA, S.L.",
          "href": "https://api.euskadi.eus/procurements/companies/02374"
        }
      }
    },
    {
      "name": "LLOLEMAR, S.A.",
      "registrationNumber": "00260",
      "identificationNumber": "A48141311",
      "address": "PSO DOLORES IBARRURI PASEALEKUA 80, PAB 1",
      "location": {
        "postalCode": "48901",
        "municipality": "Barakaldo",
        "county": "Bizkaia",
        "municipalityId": "013",
        "countyId": "48"
      },
      "economicActivities": [
        {
          "id": "1.501.1",
          "name": "Construcción completa, reparación y conservación de edificaciones",
          "_links": {
            "self": {
              "name": "Construcción completa, reparación y conservación de edificaciones",
              "href": "https://api.euskadi.eus/procurements/companies/economic-activities/1.501.1"
            }
          }
        },
        {
          "id": "1.501.2",
          "name": "Construcción completa, reparación y conservación obras civiles",
          "_links": {
            "self": {
              "name": "Construcción completa, reparación y conservación obras civiles",
              "href": "https://api.euskadi.eus/procurements/companies/economic-activities/1.501.2"
            }
          }
        }
      ],
      "certificateStartDate": "2014-10-03",
      "certificateEndDate": "2015-03-16",
      "object": "LA CONSTRUCCIÓN DE TODA CLASE DE EDIFICIOS, PÚBLICOS Y PRIVADOS, ASÍ COMO LA REALIZACIÓN DE CUALESQUIERA OBRAS PÚBLICAS Y URBANÍSTICAS QUE LA LEGISLACIÓN AUTORICE",
      "mainEntityOfPage": "https://www.contratacion.euskadi.eus/webkpe00-kperoc/es/ac71aBusquedaRegistrosWar/empresa/00260",
      "_links": {
        "self": {
          "name": "LLOLEMAR, S.A.",
          "href": "https://api.euskadi.eus/procurements/companies/00260"
        }
      }
    },
    {
      "name": "PROMOCIONES IZARKI, S.A.",
      "registrationNumber": "00462",
      "identificationNumber": "A01029974",
      "address": "C/ PLAZA PASCUAL DE ANDAGOYA, Nº 2 - BAJO.",
      "location": {
        "postalCode": "01012",
        "municipality": "Vitoria-Gasteiz",
        "county": "Araba/Álava",
        "municipalityId": "059",
        "countyId": "01"
      },
      "economicActivities": [
        {
          "id": "1.501.1",
          "name": "Construcción completa, reparación y conservación de edificaciones",
          "_links": {
            "self": {
              "name": "Construcción completa, reparación y conservación de edificaciones",
              "href": "https://api.euskadi.eus/procurements/companies/economic-activities/1.501.1"
            }
          }
        }
      ],
      "certificateStartDate": "2014-10-02",
      "certificateEndDate": "2015-03-18",
      "object": "LA EJECUCIÓN DE OBRAS DE CUALQUIER NATURALEZA",
      "mainEntityOfPage": "https://www.contratacion.euskadi.eus/webkpe00-kperoc/es/ac71aBusquedaRegistrosWar/empresa/00462",
      "_links": {
        "self": {
          "name": "PROMOCIONES IZARKI, S.A.",
          "href": "https://api.euskadi.eus/procurements/companies/00462"
        }
      }
    },
    {
      "name": "ELECTROMONTAJE HIRU, S.L.",
      "registrationNumber": "02287",
      "identificationNumber": "B20470845",
      "address": "POL. TXIRRITA-MALEO - PAB. 5N-5P",
      "location": {
        "postalCode": "20100",
        "municipality": "Errenteria",
        "county": "Gipuzkoa",
        "municipalityId": "067",
        "countyId": "20"
      },
      "economicActivities": [
        {
          "id": "1.504.1",
          "name": "Instalaciones eléctricas en general",
          "_links": {
            "self": {
              "name": "Instalaciones eléctricas en general",
              "href": "https://api.euskadi.eus/procurements/companies/economic-activities/1.504.1"
            }
          }
        }
      ],
      "certificateStartDate": "2014-10-02",
      "certificateEndDate": "2015-03-22",
      "object": "LA REPARACIÓN Y MONTAJES ELÉCTRICOS, ASÍ COMO LA VENTA DE MATERIAL Y APARATOS ELÉCTRICOS AL POR MAYOR Y MENOR",
      "mainEntityOfPage": "https://www.contratacion.euskadi.eus/webkpe00-kperoc/es/ac71aBusquedaRegistrosWar/empresa/02287",
      "_links": {
        "self": {
          "name": "ELECTROMONTAJE HIRU, S.L.",
          "href": "https://api.euskadi.eus/procurements/companies/02287"
        }
      }
    },
    {
      "name": "INGENIERÍA DE LA COMUNICACIÓN, S.A.",
      "registrationNumber": "02752",
      "identificationNumber": "A48177091",
      "address": "C/ MANUEL ALLENDE, Nº 16-1º IZDA.",
      "location": {
        "postalCode": "48010",
        "municipality": "Bilbao",
        "county": "Bizkaia",
        "municipalityId": "020",
        "countyId": "48"
      },
      "economicActivities": [
        {
          "id": "1.504.1",
          "name": "Instalaciones eléctricas en general",
          "_links": {
            "self": {
              "name": "Instalaciones eléctricas en general",
              "href": "https://api.euskadi.eus/procurements/companies/economic-activities/1.504.1"
            }
          }
        }
      ],
      "certificateStartDate": "2014-10-02",
      "certificateEndDate": "2015-04-01",
      "object": "LA INSTALACIÓN Y MANTENIMIENTO DE APARATOS, DISPOSITIVOS Y SISTEMAS DE SEGURIDAD EN GENERAL, CON CARÁCTER EXCLUSIVO Y COINCIDENTE",
      "mainEntityOfPage": "https://www.contratacion.euskadi.eus/webkpe00-kperoc/es/ac71aBusquedaRegistrosWar/empresa/02752",
      "_links": {
        "self": {
          "name": "INGENIERÍA DE LA COMUNICACIÓN, S.A.",
          "href": "https://api.euskadi.eus/procurements/companies/02752"
        }
      }
    },
    {
      "name": "ARGALARIO, S.A.",
      "registrationNumber": "01076",
      "identificationNumber": "A48406441",
      "address": "C/ ESKAURITZA, Nº 4.",
      "location": {
        "postalCode": "48903",
        "municipality": "Barakaldo",
        "county": "Bizkaia",
        "municipalityId": "013",
        "countyId": "48"
      },
      "economicActivities": [
        {
          "id": "1.505.2",
          "name": "Solados y pavimentos de todas clases en cualquier tipo de obra",
          "_links": {
            "self": {
              "name": "Solados y pavimentos de todas clases en cualquier tipo de obra",
              "href": "https://api.euskadi.eus/procurements/companies/economic-activities/1.505.2"
            }
          }
        }
      ],
      "certificateStartDate": "2014-10-01",
      "certificateEndDate": "2015-03-30",
      "object": "LA EXPLOTACIÓN DE UNA EMPRESA DEDICADA A LA REALIZACIÓN DE CONSTRUCCIONES Y OBRAS DE TODA CLASE Y NATURALEZA, PROMOCIÓN Y VENTA DE EDIFICACIONES, COMPRA VENTA DE INMUEBLES, SERVICIOS DE MEDIACIÓN EN GENERAL; CUALQUIER OTRA ACTIVIDAD QUE SEA PREPARATORIA, DERIVADA O COMPLEMENTARIA DE LAS ANTERIORES; ASÍ COMO CUALQUIER ACTO DE LÍCITO COMERCIO O INDUSTRIA, SIEMPRE QUE ASÍ LO ACUERDE LA JUNTA GENERAL DE ACCIONANISTAS, EN FORMA LEGAL",
      "mainEntityOfPage": "https://www.contratacion.euskadi.eus/webkpe00-kperoc/es/ac71aBusquedaRegistrosWar/empresa/01076",
      "_links": {
        "self": {
          "name": "ARGALARIO, S.A.",
          "href": "https://api.euskadi.eus/procurements/companies/01076"
        }
      }
    },
    {
      "name": "IMPRESION TECNIGRAF S.L.L.",
      "registrationNumber": "05253",
      "identificationNumber": "B48818678",
      "address": "Polígono Industrial Erletxe, C1 nº 25",
      "location": {
        "postalCode": "48960",
        "municipality": "Galdakao",
        "county": "Bizkaia",
        "municipalityId": "036",
        "countyId": "48"
      },
      "economicActivities": [
        {
          "id": "1.474.1",
          "name": "Impresión de textos o imágenes por cualquier procedimiento",
          "_links": {
            "self": {
              "name": "Impresión de textos o imágenes por cualquier procedimiento",
              "href": "https://api.euskadi.eus/procurements/companies/economic-activities/1.474.1"
            }
          }
        }
      ],
      "certificateStartDate": "2014-10-01",
      "certificateEndDate": "2015-03-15",
      "object": "Constituye su objeto:\r\nEl diseño, la edición y encuadernación y actividades referentes al Gremio de Artes Gráficas, así como la distribución de productos generados con la citada actividad.\r\n",
      "mainEntityOfPage": "https://www.contratacion.euskadi.eus/webkpe00-kperoc/es/ac71aBusquedaRegistrosWar/empresa/05253",
      "_links": {
        "self": {
          "name": "IMPRESION TECNIGRAF S.L.L.",
          "href": "https://api.euskadi.eus/procurements/companies/05253"
        }
      }
    },
    {
      "name": "FOTOCOMPOSICIÓN IKUR, S.A.",
      "registrationNumber": "00860",
      "identificationNumber": "A48415137",
      "address": "C/ CUEVAS DE EKAIN, Nº 3 - 1º.",
      "location": {
        "postalCode": "48005",
        "municipality": "Bilbao",
        "county": "Bizkaia",
        "municipalityId": "020",
        "countyId": "48"
      },
      "economicActivities": [
        {
          "id": "1.474",
          "name": "Artes gráficas (impresión gráfica)",
          "_links": {
            "self": {
              "name": "Artes gráficas (impresión gráfica)",
              "href": "https://api.euskadi.eus/procurements/companies/economic-activities/1.474"
            }
          }
        }
      ],
      "certificateStartDate": "2014-09-29",
      "certificateEndDate": "2015-03-09",
      "object": "LA FOTOCOMPOSICIÓN, FOTOREPRODUCCIÓN, DIBUJO, DISEÑO, MAQUETACIÓN, IMPRESIÓN, GRABADO Y ENCUADERNACIÓN",
      "mainEntityOfPage": "https://www.contratacion.euskadi.eus/webkpe00-kperoc/es/ac71aBusquedaRegistrosWar/empresa/00860",
      "_links": {
        "self": {
          "name": "FOTOCOMPOSICIÓN IKUR, S.A.",
          "href": "https://api.euskadi.eus/procurements/companies/00860"
        }
      }
    }
  ]
}