{
  "totalItems": 9042,
  "totalPages": 905,
  "currentPage": 342,
  "itemsOfPage": 10,
  "items": [
    {
      "name": "EUROFINS IPROMA, S.L.U",
      "registrationNumber": "06293",
      "identificationNumber": "B12227492",
      "address": "Calle Lituania nº 6-8",
      "location": {
        "postalCode": "12006",
        "municipality": "Castelló de la Plana/Castellón de la Plana",
        "county": "Castellón/Castelló",
        "municipalityId": "040",
        "countyId": "12"
      },
      "economicActivities": [
        {
          "id": "1.616.6",
          "name": "Venta al por mayor de productos químicos industriales",
          "_links": {
            "self": {
              "name": "Venta al por mayor de productos químicos industriales",
              "href": "https://api.euskadi.eus/procurements/companies/economic-activities/1.616.6"
            }
          }
        },
        {
          "id": "1.936.9",
          "name": "Otras investigaciones científicas y técnicas n.c.o.p",
          "_links": {
            "self": {
              "name": "Otras investigaciones científicas y técnicas n.c.o.p",
              "href": "https://api.euskadi.eus/procurements/companies/economic-activities/1.936.9"
            }
          }
        }
      ],
      "certificateStartDate": "2025-07-11",
      "certificateEndDate": "2026-01-09",
      "object": "A) LA REALIZACIÓN DE PROYECTOS Y ESTUDIOS INDUSTRIALES, HIDROGEOLÓGICOS, DE MEDIO AMBIENTE Y CONTROL DE VERTIDOS, ASÍ COMO LA TOMA DE MUESTRAS Y DETERMINACIÓN, ANALÍTICA DE PARÁMETROS FÍSICO QUÍMICOS Y MICROBIOLÓGICOS. B) LA COMPRA Y VENTA DE MATERIALES QUE TENGAN RELACIÓN DIRECTA E INMEDIATA CON LAS ACTIVIDADES ANTERIORES\n",
      "mainEntityOfPage": "https://www.contratacion.euskadi.eus/webkpe00-kperoc/es/ac71aBusquedaRegistrosWar/empresa/06293",
      "_links": {
        "self": {
          "name": "EUROFINS IPROMA, S.L.U",
          "href": "https://api.euskadi.eus/procurements/companies/06293"
        }
      }
    },
    {
      "name": "INBOOST TOURISM KO SL",
      "registrationNumber": "05759",
      "identificationNumber": "B95717898",
      "address": "Gran via nº 19-21 (Edificio Regus ) 2º planta oficina 209",
      "location": {
        "postalCode": "48001",
        "municipality": "Bilbao",
        "county": "Bizkaia",
        "municipalityId": "020",
        "countyId": "48"
      },
      "economicActivities": [
        {
          "id": "1.847",
          "name": "Servicios de consultoría",
          "_links": {
            "self": {
              "name": "Servicios de consultoría",
              "href": "https://api.euskadi.eus/procurements/companies/economic-activities/1.847"
            }
          }
        }
      ],
      "certificateStartDate": "2025-07-10",
      "certificateEndDate": "2026-01-10",
      "object": "TRABAJOS DE CONSULTORÍA TURÍSTICA, LA INVESTIGACIÓN DE NUEVAS ÁREAS DE PRODUCTO, LOS ANÁLISIS DE MERCADOS OBJETIVOS, DE NUEVAS HERRAMIENTAS PARA LA PLANIFICACIÓN Y PROMOCIÓN EN MATERIA DE TURISMO; ESTUDIOS DE OPINIÓN, DE HÁBITOS DE COMPRA Y OTROS SERVICIOS INDEPENDIENTES DE INFORMACIÓN E INVESTIGACIÓN COMERCIAL,TODO TIPO DE SERVICIOS PARA REALIZAR Y GESTIONAR PROPUESTAS TURÍSTICAS, CULTURALES Y PROMOCIONALES, TANTO EN EL ÁMBITO PÚBLICO COMO PRIVADO, ASÍ COMO DE CONSULTORÍA EN GENERAL RELACIONADOS CON EL SECTOR DEL TURISMO. LA ORGANIZACIÓN DE EVENTOS Y PRESTACIÓN DE SERVICIOS TURÍSTICOS, GUÍAS ACOMPAÑANTES, VISITAS GUIADAS Y ESCAPADAS Y EXCURSIONES A LA CARTA; ORGANIZACIÓN INTEGRAL DE EVENTOS DEPORTIVOS, TURÍSTICOS Y CULTURALES. LA REALIZACIÓN DE ACTIVIDADES DE ORGANIZACIÓN, PROMOCIÓN, CONTRATACIÓN Y DIFUSIÓN DE EVENTOS Y ESPECTÁCULOS CULTURALES Y DEPORTIVOS, LA PRESTACIÓN DE SERVICIOS INTEGRALES DE PUBLICIDAD, COMUNICACIÓN Y MARKETING DE PROYECTOS DE TURISMO, CULTURA, OCIO Y DEPORTE. LA PROMOCIÓN, DIRECCIÓN, ORGANIZACIÓN, DESARROLLO, DIVULGACIÓN, COMERCIALIZACIÓN Y/O REALIZACIÓN E INSTRUCCIÓN DE TODA CLASE DE PLANES O CURSOS DE FORMACIÓN Y ACTIVIDADES DE LA ENSEÑANZA. LA GESTIÓN CULTURAL, ARTÍSTICA, DE OCIO Y DEPORTE EN TODOS SUS CAMPOS, EXPRESIONES Y DISCIPLINAS, INCLUIDA LA GESTIÓN, SERVICIO Y MANTENIMIENTO DE BIBLIOTECAS, ARCHIVOS Y MUSEOS; GUÍAS SERVICIO TURISMO ACTIVO Y DEPORTES DE AVENTURA, GESTIÓN DE CAMPAÑAS DE OCIO, GESTIÓN DE CAMPAÑAS ESCOLARES, VIAJES ORGANIZADOS CULTURALES Y ORGANIZACIÓN DE EVENTOS; LA GESTIÓN O ALQUILER DE TODO TIPO DE ARTÍCULOS DEPORTIVOS Y DE OCIO, PARQUES INFANTILES,  ÁREAS DE MULTIACTIVIDADES, DISCO MÓVIL, AMENIZACIÓN DE CELEBRACIONES, FIESTAS Y ESPECTÁCULOS, ASÍ COMO LA COMPRAVENTA Y ALQUILER DE DISFRACES Y MATERIAL DIVERSO. LA EXPLOTACIÓN DE ALOJAMIENTOS TURÍSTICOS, ASÍ COMO TODA CLASE DE NEGOCIOS DE HOSTELERÍA. LA VENTA AL POR MENOR DE PRODUCTOS ARTESANOS, ALIMENTARIOS U OTROS",
      "mainEntityOfPage": "https://www.contratacion.euskadi.eus/webkpe00-kperoc/es/ac71aBusquedaRegistrosWar/empresa/05759",
      "_links": {
        "self": {
          "name": "INBOOST TOURISM KO SL",
          "href": "https://api.euskadi.eus/procurements/companies/05759"
        }
      }
    },
    {
      "name": "SEGURIDAD E.V.S., S.L.",
      "registrationNumber": "02604",
      "identificationNumber": "B01118397",
      "address": "C/ Harrobi, 33",
      "location": {
        "postalCode": "01013",
        "municipality": "Vitoria-Gasteiz",
        "county": "Araba/Álava",
        "municipalityId": "059",
        "countyId": "01"
      },
      "economicActivities": [
        {
          "id": "1.504.1",
          "name": "Instalaciones eléctricas en general",
          "_links": {
            "self": {
              "name": "Instalaciones eléctricas en general",
              "href": "https://api.euskadi.eus/procurements/companies/economic-activities/1.504.1"
            }
          }
        },
        {
          "id": "1.849.4",
          "name": "Servicios de custodia, seguridad y protección",
          "_links": {
            "self": {
              "name": "Servicios de custodia, seguridad y protección",
              "href": "https://api.euskadi.eus/procurements/companies/economic-activities/1.849.4"
            }
          }
        }
      ],
      "certificateStartDate": "2025-07-10",
      "certificateEndDate": "2026-01-07",
      "object": "A).- VIGILANCIA Y PROTECCIÓN DE BIENES, ESTABLECIMIENTOS, ESPECTÁCULOS, CERTÁMENES O CONVENCIONES. B).- PROTECCIÓN DE PERSONAS DETERMINADAS, PREVIA LA AUTORIZACIÓN CORRESPONDIENTE. Y LA PRESTACIÓN O DESARROLLO DE LOS SERVICIOS QUE SE ENUMERAN A CONTINUACIÓN DENTRO DEL TERRITORIO DE TODO EL ESTADO: C).-  DEPÓSITO, CUSTODIA, RECUENTO Y CLASIFICACIÓN DE MONEDAS Y BILLETES, TÍTULOS - VALORES Y DEMÁS OBJETOS QUE, POR SU VALOR ECONÓMICO Y EXPECTATIVAS QUE GENEREN, O POR SU PELIGROSIDAD, PUEDAN REQUERIR PROTECCIÓN ESPECIAL, SIN PERJUICIO DE LAS ACTIVIDADES PROPIAS DE LAS ENTIDADES FINANCIERAS. D).-  TRANSPORTE Y DISTRIBUCIÓN DE LOS OBJETOS A QUE SE REFIERE EL APARTADO ANTERIOR A TRAVÉS DE LOS DISTINTOS MEDIOS, REALIZÁNDOLOS, EN SU CASO, MEDIANTE VEHÍCULOS CUYAS CARACTERÍSTICAS SERÁN DETERMINADAS POR EL MINISTERIO DEL INTERIOR, DE FORMA QUE NO PUEDAN CONFUNDIRSE CON LOS DE LAS FUERZAS ARMADAS, NI CON LOS DE LAS FUERZAS Y CUERPOS DE SEGURIDAD. E).-  INSTALACIÓN Y MANTENIMIENTO DE APARATOS, DISPOSITIVOS Y SISTEMAS DE SEGURIDAD. F).- EXPLOTACIÓN DE CENTRALES PARA LA RECEPCIÓN, VERIFICACIÓN Y TRANSMISIÓN DE LAS SEÑALES DE ALARMA Y SU COMUNICACIÓN A LAS FUERZAS Y CUERPOS DE SEGURIDAD, ASÍ COMO PRESTACIÓN DE SERVICIOS DE RESPUESTA CUYA REALIZACIÓN NO SEA DE LA COMPETENCIA DE DICHAS FUERZAS Y CUERPOS. G).- INSTALACIÓN DE SISTEMAS DE PROTECCIÓN CONTRA INCENDIOS Y RECARGA Y RETIMBRADO DE EXTINTORES. H).- PLANIFICACIÓN Y ASESORAMIENTO DE LAS ACTIVIDADES DE SEGURIDAD CONTEMPLADAS EN LA LEY.",
      "mainEntityOfPage": "https://www.contratacion.euskadi.eus/webkpe00-kperoc/es/ac71aBusquedaRegistrosWar/empresa/02604",
      "_links": {
        "self": {
          "name": "SEGURIDAD E.V.S., S.L.",
          "href": "https://api.euskadi.eus/procurements/companies/02604"
        }
      }
    },
    {
      "name": "XAYGOR CARPINTERIA Y EBANISTERIA, S.L.",
      "registrationNumber": "08557",
      "identificationNumber": "B95887030",
      "address": "Poligono Torrelarragoiti, bloque 7, pabellón C16",
      "location": {
        "postalCode": "48170",
        "municipality": "Zamudio",
        "county": "Bizkaia",
        "municipalityId": "905",
        "countyId": "48"
      },
      "economicActivities": [
        {
          "id": "1.505.5",
          "name": "Carpintería y cerrajería",
          "_links": {
            "self": {
              "name": "Carpintería y cerrajería",
              "href": "https://api.euskadi.eus/procurements/companies/economic-activities/1.505.5"
            }
          }
        }
      ],
      "certificateStartDate": "2025-07-09",
      "certificateEndDate": "2026-01-09",
      "object": "FABRICACIÓN DE OTRAS ESTRUCTURAS DE MADERA Y PIEZAS DE CARPINTERÍA Y EBANISTERÍA PARA LA CONSTRUCCIÓN.",
      "mainEntityOfPage": "https://www.contratacion.euskadi.eus/webkpe00-kperoc/es/ac71aBusquedaRegistrosWar/empresa/08557",
      "_links": {
        "self": {
          "name": "XAYGOR CARPINTERIA Y EBANISTERIA, S.L.",
          "href": "https://api.euskadi.eus/procurements/companies/08557"
        }
      }
    },
    {
      "name": "SANDRA MARTIN ANDRES",
      "registrationNumber": "10266",
      "identificationNumber": "72315591A",
      "address": "Calle Ortutxueta (48006), 20 1ºD",
      "location": {
        "postalCode": "48006",
        "municipality": "Bilbao",
        "county": "Bizkaia",
        "municipalityId": "020",
        "countyId": "48"
      },
      "economicActivities": [
        {
          "id": "1.476.1",
          "name": "Edición de libros",
          "_links": {
            "self": {
              "name": "Edición de libros",
              "href": "https://api.euskadi.eus/procurements/companies/economic-activities/1.476.1"
            }
          }
        },
        {
          "id": "2.826",
          "name": "Personal docente de enseñanzas diversas",
          "_links": {
            "self": {
              "name": "Personal docente de enseñanzas diversas",
              "href": "https://api.euskadi.eus/procurements/companies/economic-activities/2.826"
            }
          }
        }
      ],
      "certificateStartDate": "2025-07-09",
      "certificateEndDate": "2026-01-02",
      "object": "PERSONAL DOCENTE DE ENSEÑANZAS DIVERSAS. EDICIÓN DE LIBROS.",
      "mainEntityOfPage": "https://www.contratacion.euskadi.eus/webkpe00-kperoc/es/ac71aBusquedaRegistrosWar/empresa/10266",
      "_links": {
        "self": {
          "name": "SANDRA MARTIN ANDRES",
          "href": "https://api.euskadi.eus/procurements/companies/10266"
        }
      }
    },
    {
      "name": "BIZIKIDETU, S.L.",
      "registrationNumber": "10012",
      "identificationNumber": "B56931538",
      "address": "Uribitarte 6, 1planta",
      "location": {
        "postalCode": "48001",
        "municipality": "Bilbao",
        "county": "Bizkaia",
        "municipalityId": "020",
        "countyId": "48"
      },
      "economicActivities": [
        {
          "id": "1.687.4",
          "name": "Campamentos turísticos de tercera clase",
          "_links": {
            "self": {
              "name": "Campamentos turísticos de tercera clase",
              "href": "https://api.euskadi.eus/procurements/companies/economic-activities/1.687.4"
            }
          }
        },
        {
          "id": "1.966.9",
          "name": "Otros servicios culturales n.c.o.p",
          "_links": {
            "self": {
              "name": "Otros servicios culturales n.c.o.p",
              "href": "https://api.euskadi.eus/procurements/companies/economic-activities/1.966.9"
            }
          }
        }
      ],
      "certificateStartDate": "2025-07-09",
      "certificateEndDate": "2026-01-09",
      "object": "LA ORGANIZACIÓN, PROGRAMACIÓN, GESTIÓN, COORDINACIÓN Y EJERCICIO DE ACTIVIDADES SOCIOCULTURALES.",
      "mainEntityOfPage": "https://www.contratacion.euskadi.eus/webkpe00-kperoc/es/ac71aBusquedaRegistrosWar/empresa/10012",
      "_links": {
        "self": {
          "name": "BIZIKIDETU, S.L.",
          "href": "https://api.euskadi.eus/procurements/companies/10012"
        }
      }
    },
    {
      "name": "HIDROAMBIENTE, S.A.",
      "registrationNumber": "02577",
      "identificationNumber": "A48581904",
      "address": "Mayor, 23 E-1º",
      "location": {
        "postalCode": "48930",
        "municipality": "Getxo",
        "county": "Bizkaia",
        "municipalityId": "044",
        "countyId": "48"
      },
      "economicActivities": [
        {
          "id": "1.507",
          "name": "Construcción, reparación y conservación de toda clase obras",
          "_links": {
            "self": {
              "name": "Construcción, reparación y conservación de toda clase obras",
              "href": "https://api.euskadi.eus/procurements/companies/economic-activities/1.507"
            }
          }
        },
        {
          "id": "1.843.1",
          "name": "Servicios técnicos de ingeniería",
          "_links": {
            "self": {
              "name": "Servicios técnicos de ingeniería",
              "href": "https://api.euskadi.eus/procurements/companies/economic-activities/1.843.1"
            }
          }
        }
      ],
      "certificateStartDate": "2025-07-09",
      "certificateEndDate": "2026-06-22",
      "object": "LA CONTRATACIÓN, GESTIÓN, CONSTRUCCIÓN Y EJECUCIÓN DE TODA CLASE DE OBRAS, PÚBLICAS O PRIVADAS. LA ELABORACIÓN DE ESTUDIOS Y PROYECTOS, CONSTRUCCIÓN, MANTENIMIENTO, EXPLOTACIÓN Y COMERCIALIZACIÓN DE TODO TIPO DE INSTALACIONES, SERVICIO Y SUMINISTROS PARA EL TRATAMIENTO Y DEPURACIÓN DE CUALQUIER CLASE DE AGUAS, RESIDUOS, HUMOS, ASÍ COMO LA INVESTIGACIÓN Y DESARROLLO DE ESTOS MISMOS CAMPOS. LA PRESTACIÓN DE TODA CLASE DE SERVICIOS Y ACTIVIDAES RELACIONADAS CON LA CONSERVACIÓN Y PROTECCIÓN DEL MEDIO AMBIENTE, INCLUSO LA GESTIÓN INTEGRAL DEL AGUA, DE BASURAS Y EL CONTROL DE RUIDOS Y HUMOS. EL ESTABLECIMIENTO DE ACUERDOS MEDIANTE LA PARTICIPACIÓN, REPRESENTACIÓN  U OTRAS FORMAS DE MEDIACIÓN MERCANTIL. LA COMPRA, VENTA, IMPORTACIÓN Y EXPORTACIÓN DE PRODUCTOS, BIENES DE EQUIPO, INSTALACIONES Y SERVICIOS, PARA EL DESARROLLO DE LAS TECNOLOGÍAS ANTERIORMENTE REFERIDAS, ASÍ COMO ACUERDOS ESPECÍFICOS PARA LA CESIÓN Y EXPLOTACIÓN DE MARCAS Y PATENTES.\r\n\r\nTODAS LAS ACTIVIDADES QUE INTEGRAN EL OBJETO SOCIAL MENCIONADO PODRÁN DESARROLLARSE TANTO EN ESPAÑA COMO EN EL EXTRANJERO, PUDIENDO LLEVARSE A CABO TOTAL O PARCIALMENTE DE MODO INDIRECTO, MEDIANTE LA TITULARIDAD DE ACCIONES O DE PARTICIPACIONES EN SOCIEDADES CON OBJETO IDÉNTICO O ANÁLOGO.\r\n\r\nLA SOCIEDAD NO DESARROLLARÁ NINGUNA ACTIVIDAD PARA LA QUE LAS LEYES EXIJAN CONDICIONES O LIMITACIONES ESPECÍFICAS, EN TANTO NO DÉ EXACTO CUMPLIMIENTO DE LAS MISMAS",
      "mainEntityOfPage": "https://www.contratacion.euskadi.eus/webkpe00-kperoc/es/ac71aBusquedaRegistrosWar/empresa/02577",
      "_links": {
        "self": {
          "name": "HIDROAMBIENTE, S.A.",
          "href": "https://api.euskadi.eus/procurements/companies/02577"
        }
      }
    },
    {
      "name": "CONTA REHABILITACIÓN S.L.",
      "registrationNumber": "06036",
      "identificationNumber": "B01346246",
      "address": "C/ Uzbina 24 Pab E-3",
      "location": {
        "postalCode": "01015",
        "municipality": "Vitoria-Gasteiz",
        "county": "Araba/Álava",
        "municipalityId": "059",
        "countyId": "01"
      },
      "economicActivities": [
        {
          "id": "1.501.3",
          "name": "Albañilería y pequeños trabajos de construcción en general",
          "_links": {
            "self": {
              "name": "Albañilería y pequeños trabajos de construcción en general",
              "href": "https://api.euskadi.eus/procurements/companies/economic-activities/1.501.3"
            }
          }
        }
      ],
      "certificateStartDate": "2025-07-09",
      "certificateEndDate": "2026-01-08",
      "object": "LA PROMOCIÓN, CONSTRUCCIÓN, REPARACIÓN, REHABILITACIÓN, DEMOLICIÓN Y DERRIBO POR CUENTA PROPIA O AJENA, DE TODA CLASE DE EDIFICACIONES Y OBRAS CIVILES, TANTO PÚBLICAS COMO PRIVADAS; LA CONSOLIDACIÓN Y PREPARACIÓN DE TERRENOS, ASÍ COMO LA REALIZACIÓN DE TODO TIPO DE TRABAJOS DE ALBAÑILERÍA. LAS ACTIVIDADES ENUMERADAS PODRÁN TAMBIÉN SER DESARROLLADAS POR LA SOCIEDAD, TOTAL O PARCIALMENTE, DE MODO INDIRECTO, MEDIANTE LA PARTICIPACIÓN EN OTRAS SOCIEDADES CON OBJETO ANÁLOGO",
      "mainEntityOfPage": "https://www.contratacion.euskadi.eus/webkpe00-kperoc/es/ac71aBusquedaRegistrosWar/empresa/06036",
      "_links": {
        "self": {
          "name": "CONTA REHABILITACIÓN S.L.",
          "href": "https://api.euskadi.eus/procurements/companies/06036"
        }
      }
    },
    {
      "name": "DICORGES SL",
      "registrationNumber": "05828",
      "identificationNumber": "B20987731",
      "address": "Errebal 9, 1º",
      "location": {
        "postalCode": "20600",
        "municipality": "Eibar",
        "county": "Gipuzkoa",
        "municipalityId": "030",
        "countyId": "20"
      },
      "economicActivities": [
        {
          "id": "1.501.1",
          "name": "Construcción completa, reparación y conservación de edificaciones",
          "_links": {
            "self": {
              "name": "Construcción completa, reparación y conservación de edificaciones",
              "href": "https://api.euskadi.eus/procurements/companies/economic-activities/1.501.1"
            }
          }
        },
        {
          "id": "1.843.2",
          "name": "Servicios técnicos de arquitectura y urbanismo",
          "_links": {
            "self": {
              "name": "Servicios técnicos de arquitectura y urbanismo",
              "href": "https://api.euskadi.eus/procurements/companies/economic-activities/1.843.2"
            }
          }
        }
      ],
      "certificateStartDate": "2025-07-08",
      "certificateEndDate": "2026-01-08",
      "object": "ASESORAMIENTO TÉCNICO EN OPERACIONES URBANÍSTICAS, REALIZACIÓN DE LOS ESTUDIOS Y PROYECTOS, DIRECCIÓN DE OBRAS Y COORDINACIÓN DE GREMIOS EN OBRAS DE REFORMA Y TODO TIPO DE CONSTRUCCIÓN DE INMUEBLES. ADQUISICIÓN, GESTIÓN, ADMINISTRACIÓN Y EXPLOTACIÓN EN FORMA DE ARRIENDO, SUBARRIENDO, TRASPASO O CESIÓN, DE TODA CLASE DE VIVIENDAS, LOCALES INDUSTRIALES Y DE NEGOCIO, GARAJES Y, EN GENERAL DE TODA CLASE DE INMUEBLES, TANTO URBANOS COMO RÚSTICOS",
      "mainEntityOfPage": "https://www.contratacion.euskadi.eus/webkpe00-kperoc/es/ac71aBusquedaRegistrosWar/empresa/05828",
      "_links": {
        "self": {
          "name": "DICORGES SL",
          "href": "https://api.euskadi.eus/procurements/companies/05828"
        }
      }
    },
    {
      "name": "MEDICOS DE BIZKAIA BIZKAIKO SENDAGILEAK, S.L.",
      "registrationNumber": "04879",
      "identificationNumber": "B48526982",
      "address": "Lersundi 9-5º",
      "location": {
        "postalCode": "48009",
        "municipality": "Bilbao",
        "county": "Bizkaia",
        "municipalityId": "020",
        "countyId": "48"
      },
      "economicActivities": [
        {
          "id": "1.849.7",
          "name": "Servicios de gestión administrativa",
          "_links": {
            "self": {
              "name": "Servicios de gestión administrativa",
              "href": "https://api.euskadi.eus/procurements/companies/economic-activities/1.849.7"
            }
          }
        },
        {
          "id": "1.942.9",
          "name": "Otros servicios sanitarios sin internados, no clasificados",
          "_links": {
            "self": {
              "name": "Otros servicios sanitarios sin internados, no clasificados",
              "href": "https://api.euskadi.eus/procurements/companies/economic-activities/1.942.9"
            }
          }
        }
      ],
      "certificateStartDate": "2025-07-08",
      "certificateEndDate": "2026-01-08",
      "object": "A).- ESTUDIOS ECONÓMICOS, TÉCNICOS, FINANCIEROS, PATRIMONIALES, COMERCIALES QUE PRECISEN LOS CONSEJOS DE ADMINISTRACIÓN, ADMINISTRADORES O DIRECTORES DE EMPRESAS, TANTO INDIVIDUALMENTE COMO ENTIDADES JURÍDICAS, PRIVADAS O PÚBLICAS. B ).- EL ASESORAMIENTO A TODA CLASE DE PERSONAS FÍSICAS O JURÍDICAS, TANTO FISCAL COMO JURÍDICO, FINANCIERO, LA ADMINISTRACIÓN, GESTIÓN, ESTUDIO, INVESTIGACIÓN, PROMOCIÓN Y PRESTACIÓN DE TODA CLASE DE SERVICIOS DE ASISTENCIA Y GESTIÓN, TÉCNICA, ADMINISTRATIVA, COMERCIAL Y CONTABLE. C).- LA TENENCIA Y ADQUISICIÓN POR CUALQUIER TÍTULO DE TODA CLASE DE BIENES MUEBLES E INMUEBLES, TERRENOS, EDIFICIOS, FINCAS RÚSTICAS O URBANAS; LA PROMOCIÓN, CONSTRUCCIÓN, URBANIZACIÓN, COMPRA, VENTA ALQUILER O EXPLOTACIÓN DE EDIFICIOS, PISOS, APARTAMENTOS, OFICINAS Y LOCALES COMERCIALES. D).- ACTIVIDADES MÉDICAS Y SANITARIAS, SOCIO-SANITARIAS, DE INSPECCIÓN SANITARIA DE INSTALACIONES, Y ESPECÍFICAMENTE GESTIÓN DE LAS MISMAS.",
      "mainEntityOfPage": "https://www.contratacion.euskadi.eus/webkpe00-kperoc/es/ac71aBusquedaRegistrosWar/empresa/04879",
      "_links": {
        "self": {
          "name": "MEDICOS DE BIZKAIA BIZKAIKO SENDAGILEAK, S.L.",
          "href": "https://api.euskadi.eus/procurements/companies/04879"
        }
      }
    }
  ]
}