{
  "totalItems": 9042,
  "totalPages": 905,
  "currentPage": 13,
  "itemsOfPage": 10,
  "items": [
    {
      "name": "PROES CONSULTORES, S.A.",
      "registrationNumber": "06054",
      "identificationNumber": "A28261196",
      "address": "Calle Virgilio nº 2, Edificio 3",
      "location": {
        "postalCode": "28223",
        "municipality": "Pozuelo de Alarcón",
        "county": "Madrid",
        "municipalityId": "115",
        "countyId": "28"
      },
      "economicActivities": [
        {
          "id": "1.843.1",
          "name": "Servicios técnicos de ingeniería",
          "_links": {
            "self": {
              "name": "Servicios técnicos de ingeniería",
              "href": "https://api.euskadi.eus/procurements/companies/economic-activities/1.843.1"
            }
          }
        }
      ],
      "certificateStartDate": "2026-02-06",
      "certificateEndDate": "2026-08-02",
      "object": "LA PRESTACIÓN DE SERVICIOS PROFESIONALES PROPIOS DE LA INGENIERÍA Y LA ARQUITECTURA Y, EN PARTICULAR, LA REDACCIÓN Y REALIZACIÓN DE ESTUDIOS Y PROYECTOS; LA DIRECCIÓN TÉCNICA Y ECONÓMICA DE TODA CLASE DE OBRAS DE INGENIERÍA Y ARQUITECTURA; EL ASESORAMIENTO TÉCNICO Y ECONÓMICO A LA DIRECCIÓN DE OBRA; EL CONTROL, INSPECCIÓN, SUPERVISIÓN Y LA ASISTENCIA TÉCNICA EN LA INICIACIÓN, MONTAJE, PUESTA EN MARCHA Y FUNCIONAMIENTO DE CUALQUIER OBRA DE INGENIERÍA Y ARQUITECTURA. LA INVESTIGACIÓN, ADQUISICIÓN, POSESIÓN, EXPLOTACIÓN Y CESIÓN DE PATENTES, LICENCIAS, PROCEDIMIENTOS DE FABRICACIÓN U OTROS DERECHOS DE PROPIEDAD INDUSTRIAL RELACIONADOS CON DICHOS PROYECTOS, OBRAS Y SERVICIOS DE INGENIERÍA Y ARQUITECTURA. LA REALIZACIÓN DE ESTUDIOS ECONÓMICOS Y DE MERCADO, DIMENSIÓN, RENTABILIDAD Y OTROS EN EL CAMPO DE LA ORGANIZACIÓN Y RACIONALIZACIÓN DE LAS EMPRESAS RELACIONADAS CON LOS PROYECTOS, OBRAS Y SERVICIOS DE INGENIERÍA Y ARQUITECTURA. EL DESARROLLO DE ACTIVIDADES DE INVESTIGACIÓN CIENTÍFICA EN EL ÁMBITO DE LA INGENIERÍA Y ARQUITECTURA; LA FORMACIÓN DE PROFESIONALES A TRAVÉS DE CURSOS, CONFERENCIAS Y CUALESQUIERA OTROS MEDIOS QUE SE ESTIME CONVENIENTE; LA ORGANIZACIÓN DE SEMINARIOS Y JORNADAS DE INVESTIGACIÓN Y DIVULGACIÓN CIENTÍFICA Y LA PROMOCIÓN DE PUBLICACIONES RELACIONADAS CON LAS CITADAS ACTIVIDADES",
      "mainEntityOfPage": "https://www.contratacion.euskadi.eus/webkpe00-kperoc/es/ac71aBusquedaRegistrosWar/empresa/06054",
      "_links": {
        "self": {
          "name": "PROES CONSULTORES, S.A.",
          "href": "https://api.euskadi.eus/procurements/companies/06054"
        }
      }
    },
    {
      "name": "AGEM CONSULTORES Y AUDITORES",
      "registrationNumber": "05243",
      "identificationNumber": "B75054643",
      "address": "FRANCISCO GRANDMONTAGNE, 1 BAJO LOCAL 8",
      "location": {
        "postalCode": "20018",
        "municipality": "Donostia / San Sebastián",
        "county": "Gipuzkoa",
        "municipalityId": "069",
        "countyId": "20"
      },
      "economicActivities": [
        {
          "id": "1.842",
          "name": "Servicios financieros y contables",
          "_links": {
            "self": {
              "name": "Servicios financieros y contables",
              "href": "https://api.euskadi.eus/procurements/companies/economic-activities/1.842"
            }
          }
        }
      ],
      "certificateStartDate": "2026-02-06",
      "certificateEndDate": "2026-07-29",
      "object": "LA PRESTACIÓN DE SERVICIOS A EMPRESAS Y OTROS ORGANISMOS, DE ASESORÍA, CONSULTORÍA, AUDITORÍA, CENSURA DE CUENTAS, TENEDURÍA DE LIBROS, CONTABILIDAD, MATERIA FISCAL, ECONÓMICA Y FINANCIERA, ASESORAMIENTO JURÍDICO Y DE OTROS SERVICIOS INDEPENDIENTES DE ASESORÍA, CONSULTORÍA Y AUDITORÍA",
      "mainEntityOfPage": "https://www.contratacion.euskadi.eus/webkpe00-kperoc/es/ac71aBusquedaRegistrosWar/empresa/05243",
      "_links": {
        "self": {
          "name": "AGEM CONSULTORES Y AUDITORES",
          "href": "https://api.euskadi.eus/procurements/companies/05243"
        }
      }
    },
    {
      "name": "AYUDAS TÉCNICAS ARABA, S.L.",
      "registrationNumber": "02342",
      "identificationNumber": "B01278134",
      "address": "ADA. GASTEIZ, 51 BAJO ",
      "location": {
        "postalCode": "01008",
        "municipality": "Vitoria-Gasteiz",
        "county": "Araba/Álava",
        "municipalityId": "059",
        "countyId": "01"
      },
      "economicActivities": [
        {
          "id": "1.619.2",
          "name": "Venta al por mayor de aparatos e instrumentos médicos, ortopédicos, ópticos",
          "_links": {
            "self": {
              "name": "Venta al por mayor de aparatos e instrumentos médicos, ortopédicos, ópticos",
              "href": "https://api.euskadi.eus/procurements/companies/economic-activities/1.619.2"
            }
          }
        }
      ],
      "certificateStartDate": "2026-02-06",
      "certificateEndDate": "2026-07-23",
      "object": "LA FABRICACIÓN, COMERCIO AL POR MAYOR Y MENOR, EXPORTACIÓN E IMPORTACIÓN DE AYUDAS TÉCNICAS PARA GERIATRÍA Y MINUSVALÍAS ASÍ COMO LA FABRICACIÓN, COMERCIO, EXPORTACIÓN E IMPORTACIÓN DE TODO TIPO DE MATERIAL SANITARIO. ",
      "mainEntityOfPage": "https://www.contratacion.euskadi.eus/webkpe00-kperoc/es/ac71aBusquedaRegistrosWar/empresa/02342",
      "_links": {
        "self": {
          "name": "AYUDAS TÉCNICAS ARABA, S.L.",
          "href": "https://api.euskadi.eus/procurements/companies/02342"
        }
      }
    },
    {
      "name": "SMG IBERIA, S.L.",
      "registrationNumber": "07212",
      "identificationNumber": "B15730286",
      "address": "CAMINO DEL MARTINETE, 54D",
      "location": {
        "postalCode": "15008",
        "municipality": "Coruña, A",
        "county": "Coruña, A",
        "municipalityId": "030",
        "countyId": "15"
      },
      "economicActivities": [
        {
          "id": "1.504.1",
          "name": "Instalaciones eléctricas en general",
          "_links": {
            "self": {
              "name": "Instalaciones eléctricas en general",
              "href": "https://api.euskadi.eus/procurements/companies/economic-activities/1.504.1"
            }
          }
        },
        {
          "id": "1.692",
          "name": "Reparación de maquinaria industrial",
          "_links": {
            "self": {
              "name": "Reparación de maquinaria industrial",
              "href": "https://api.euskadi.eus/procurements/companies/economic-activities/1.692"
            }
          }
        }
      ],
      "certificateStartDate": "2026-02-06",
      "certificateEndDate": "2026-07-27",
      "object": "DISEÑO, VENTA, INSTALACIÓN, MANTENIMIENTO, REPARACIÓN, ALQUILER, IMPORTACIÓN, EXPORTACIÓN, ALMACENAMIENTO Y DISTRIBUCIÓN DE MAQUINARIA, MOTORES, GENERADORES, COMPONENTES ELÉCTRICOS E INSTALACIONES INDUSTRIALES, ELÉCTRICAS Y COMERCIALES EN MERCADOS NACIONALES O INTERNACIONALES, PARA MERCADOS PARTICULARES O VENTA AL POR MAYOR",
      "mainEntityOfPage": "https://www.contratacion.euskadi.eus/webkpe00-kperoc/es/ac71aBusquedaRegistrosWar/empresa/07212",
      "_links": {
        "self": {
          "name": "SMG IBERIA, S.L.",
          "href": "https://api.euskadi.eus/procurements/companies/07212"
        }
      }
    },
    {
      "name": "SEIDOR TECH, S.A.",
      "registrationNumber": "05657",
      "identificationNumber": "A33204306",
      "address": "C/ GONZALEZ BESADA, 31 BAJO",
      "location": {
        "postalCode": "33007",
        "municipality": "Oviedo",
        "county": "Asturias",
        "municipalityId": "044",
        "countyId": "33"
      },
      "economicActivities": [
        {
          "id": "1.845",
          "name": "Explotación electrónica por cuenta de terceros",
          "_links": {
            "self": {
              "name": "Explotación electrónica por cuenta de terceros",
              "href": "https://api.euskadi.eus/procurements/companies/economic-activities/1.845"
            }
          }
        }
      ],
      "certificateStartDate": "2026-02-06",
      "certificateEndDate": "2026-08-06",
      "object": "LA PRODUCCIÓN, FABRICACIÓN, REALIZACIÓN, DISTRIBUCIÓN, REPARACIÓN, RECONSTRUCCIÓN, VENTA AL POR MAYOR O DETALL Y ALQUILER DE CUALQUIER CLASE DE ARTÍCULOS Y PRODUCTOS INFORMÁTICOS, MECÁNICOS Y ELECTRÓNICOS, TANTO FÍSICOS, INCLUYENDO ORDENADORES Y TODOS SUS ACCESORIOS CUANTO PROGRAMAS INFORMÁTICOS. CREACIÓN, DISEÑO, DESARROLLO Y MANTENIMIENTO DE PÁGINAS DE INFORMACIÓN PARA LA RED INTERNET U OTRAS REDES DE COMUNICACIÓN CON SOPORTE INFORMÁTICO, ASÍ COMO LA PRESTACIÓN DE SERVICIOS COMO SERVIDOS DE REDES DE COMUNICACIÓN INFORMÁTICAS. LA ACTIVIDAD DE ENSEÑANZA Y FORMACIÓN A TERCEROS, SIEMPRE DENTRO DEL ÁMBITO DE LA INFORMÁTICA Y DE LOS SISTEMAS DE COMUNICACIÓN QUE UTILICEN SOPORTE INFORMÁTICO PARA SU DESARROLLO",
      "mainEntityOfPage": "https://www.contratacion.euskadi.eus/webkpe00-kperoc/es/ac71aBusquedaRegistrosWar/empresa/05657",
      "_links": {
        "self": {
          "name": "SEIDOR TECH, S.A.",
          "href": "https://api.euskadi.eus/procurements/companies/05657"
        }
      }
    },
    {
      "name": "AGC ASESORAMIENTO Y GESTIÓN CIBERNÉTICA",
      "registrationNumber": "06668",
      "identificationNumber": "B83262998",
      "address": "C/Benigno Soto 16 Bajo Derecha",
      "location": {
        "postalCode": "28002",
        "municipality": "Madrid",
        "county": "Madrid",
        "municipalityId": "079",
        "countyId": "28"
      },
      "economicActivities": [
        {
          "id": "1.845",
          "name": "Explotación electrónica por cuenta de terceros",
          "_links": {
            "self": {
              "name": "Explotación electrónica por cuenta de terceros",
              "href": "https://api.euskadi.eus/procurements/companies/economic-activities/1.845"
            }
          }
        },
        {
          "id": "1.934",
          "name": "Enseñanza fuera de establecimiento permanente",
          "_links": {
            "self": {
              "name": "Enseñanza fuera de establecimiento permanente",
              "href": "https://api.euskadi.eus/procurements/companies/economic-activities/1.934"
            }
          }
        }
      ],
      "certificateStartDate": "2026-02-06",
      "certificateEndDate": "2026-08-03",
      "object": "LA COMPRA, VENTA, REPARACIÓN DE EQUIPOS INFORMÁTICOS Y ELECTRÓNICOS EN GENERAL Y COMPRA YVENTA YCONFECCIÓN DE PROGRAMAS INFORMÁTICOS. ASESORAMIENTO Y GESTIÓN  ADMINISTRATIVA DE EMPRESAS CON MÉTODOSINFORMÁTICOS",
      "mainEntityOfPage": "https://www.contratacion.euskadi.eus/webkpe00-kperoc/es/ac71aBusquedaRegistrosWar/empresa/06668",
      "_links": {
        "self": {
          "name": "AGC ASESORAMIENTO Y GESTIÓN CIBERNÉTICA",
          "href": "https://api.euskadi.eus/procurements/companies/06668"
        }
      }
    },
    {
      "name": "BASABIDE RESTAURACIONES, S.L.",
      "registrationNumber": "05197",
      "identificationNumber": "B01475938",
      "address": "Rioja, 29 bajo",
      "location": {
        "postalCode": "01005",
        "municipality": "Vitoria-Gasteiz",
        "county": "Araba/Álava",
        "municipalityId": "059",
        "countyId": "01"
      },
      "economicActivities": [
        {
          "id": "1.501.1",
          "name": "Construcción completa, reparación y conservación de edificaciones",
          "_links": {
            "self": {
              "name": "Construcción completa, reparación y conservación de edificaciones",
              "href": "https://api.euskadi.eus/procurements/companies/economic-activities/1.501.1"
            }
          }
        }
      ],
      "certificateStartDate": "2026-02-06",
      "certificateEndDate": "2026-08-06",
      "object": "REHABILITACIÓN DE BIENES INMUEBLES.",
      "mainEntityOfPage": "https://www.contratacion.euskadi.eus/webkpe00-kperoc/es/ac71aBusquedaRegistrosWar/empresa/05197",
      "_links": {
        "self": {
          "name": "BASABIDE RESTAURACIONES, S.L.",
          "href": "https://api.euskadi.eus/procurements/companies/05197"
        }
      }
    },
    {
      "name": "MARIA DEL ROSARIO MARDARAS NAJERA",
      "registrationNumber": "09680",
      "identificationNumber": "16285970S",
      "address": "Calle Valladolid (01002), 2 - 1º E",
      "location": {
        "postalCode": "01002",
        "municipality": "Vitoria-Gasteiz",
        "county": "Araba/Álava",
        "municipalityId": "059",
        "countyId": "01"
      },
      "economicActivities": [
        {
          "id": "1.847",
          "name": "Servicios de consultoría",
          "_links": {
            "self": {
              "name": "Servicios de consultoría",
              "href": "https://api.euskadi.eus/procurements/companies/economic-activities/1.847"
            }
          }
        },
        {
          "id": "2.751",
          "name": "Profesionales de la publicidad, relaciones públicas y similares",
          "_links": {
            "self": {
              "name": "Profesionales de la publicidad, relaciones públicas y similares",
              "href": "https://api.euskadi.eus/procurements/companies/economic-activities/2.751"
            }
          }
        },
        {
          "id": "2.854",
          "name": "Expertos en organización de congresos, asambleas y similares",
          "_links": {
            "self": {
              "name": "Expertos en organización de congresos, asambleas y similares",
              "href": "https://api.euskadi.eus/procurements/companies/economic-activities/2.854"
            }
          }
        },
        {
          "id": "2.861",
          "name": "Pintores, escultores, ceramistas, artesanos, artistas y similares",
          "_links": {
            "self": {
              "name": "Pintores, escultores, ceramistas, artesanos, artistas y similares",
              "href": "https://api.euskadi.eus/procurements/companies/economic-activities/2.861"
            }
          }
        },
        {
          "id": "2.882",
          "name": "Guías de turismo",
          "_links": {
            "self": {
              "name": "Guías de turismo",
              "href": "https://api.euskadi.eus/procurements/companies/economic-activities/2.882"
            }
          }
        },
        {
          "id": "2.883",
          "name": "Guías intérpretes de turismo",
          "_links": {
            "self": {
              "name": "Guías intérpretes de turismo",
              "href": "https://api.euskadi.eus/procurements/companies/economic-activities/2.883"
            }
          }
        }
      ],
      "certificateStartDate": "2026-02-06",
      "certificateEndDate": "2026-08-03",
      "object": "SERVICIOS DE CONSULTORÍA. PROFESIONALES DE LA PUBLICIDAD, RELACIONES PÚBLICAS Y SIMILARES. PINTORES, ESCULTORES, CERAMISTAS, ARTESANOS, ARTISTAS Y SIMILARES. GUÍAS DE TURISMO. GUÍAS INTÉRPRETES DE TURISMO. EXPERTOS EN ORGANIZACIÓN DE CONGRESOS, ASAMBLEAS Y SIMILARES.",
      "mainEntityOfPage": "https://www.contratacion.euskadi.eus/webkpe00-kperoc/es/ac71aBusquedaRegistrosWar/empresa/09680",
      "_links": {
        "self": {
          "name": "MARIA DEL ROSARIO MARDARAS NAJERA",
          "href": "https://api.euskadi.eus/procurements/companies/09680"
        }
      }
    },
    {
      "name": "OSTARBI ERAIKUNTZA ETA ZERBITZUAK, S.L.",
      "registrationNumber": "03654",
      "identificationNumber": "B20584355",
      "address": "KALE BERRIA, 17-BEHEA",
      "location": {
        "postalCode": "20150",
        "municipality": "Villabona",
        "county": "Gipuzkoa",
        "municipalityId": "075",
        "countyId": "20"
      },
      "economicActivities": [
        {
          "id": "1.501.1",
          "name": "Construcción completa, reparación y conservación de edificaciones",
          "_links": {
            "self": {
              "name": "Construcción completa, reparación y conservación de edificaciones",
              "href": "https://api.euskadi.eus/procurements/companies/economic-activities/1.501.1"
            }
          }
        },
        {
          "id": "1.722",
          "name": "Transporte de mercancías por carretera",
          "_links": {
            "self": {
              "name": "Transporte de mercancías por carretera",
              "href": "https://api.euskadi.eus/procurements/companies/economic-activities/1.722"
            }
          }
        },
        {
          "id": "1.833.2",
          "name": "Promoción de edificaciones",
          "_links": {
            "self": {
              "name": "Promoción de edificaciones",
              "href": "https://api.euskadi.eus/procurements/companies/economic-activities/1.833.2"
            }
          }
        }
      ],
      "certificateStartDate": "2026-02-06",
      "certificateEndDate": "2026-08-03",
      "classification": [
        {
          "id": "O",
          "name": "Obras",
          "groups": [
            {
              "id": "A",
              "name": "MOVIMIENTO DE TIERRAS Y PERFORACIONES",
              "subgroups": [
                {
                  "id": "01",
                  "name": "DESMONTES Y VACIADOS",
                  "categories": [
                    {
                      "id": "1",
                      "name": "Desde 0 Hasta 150.000",
                      "_links": {
                        "self": {
                          "name": "Desde 0 Hasta 150.000",
                          "href": "https://api.euskadi.eus/procurements/companies/types/O/categories/1"
                        }
                      }
                    }
                  ],
                  "_links": {
                    "self": {
                      "name": "DESMONTES Y VACIADOS",
                      "href": "https://api.euskadi.eus/procurements/companies/types/O/groups/A/subgroups/01"
                    }
                  }
                }
              ],
              "_links": {
                "self": {
                  "name": "MOVIMIENTO DE TIERRAS Y PERFORACIONES",
                  "href": "https://api.euskadi.eus/procurements/companies/types/O/groups/A"
                }
              }
            },
            {
              "id": "C",
              "name": "EDIFICACIONES",
              "subgroups": [
                {
                  "id": "01",
                  "name": "DEMOLICIONES",
                  "categories": [
                    {
                      "id": "3",
                      "name": "Desde 360.001 Hasta 840.000",
                      "_links": {
                        "self": {
                          "name": "Desde 360.001 Hasta 840.000",
                          "href": "https://api.euskadi.eus/procurements/companies/types/O/categories/3"
                        }
                      }
                    }
                  ],
                  "_links": {
                    "self": {
                      "name": "DEMOLICIONES",
                      "href": "https://api.euskadi.eus/procurements/companies/types/O/groups/C/subgroups/01"
                    }
                  }
                },
                {
                  "id": "02",
                  "name": "ESTRUCTURAS DE FABRICA U HORMIGÓN",
                  "categories": [
                    {
                      "id": "3",
                      "name": "Desde 360.001 Hasta 840.000",
                      "_links": {
                        "self": {
                          "name": "Desde 360.001 Hasta 840.000",
                          "href": "https://api.euskadi.eus/procurements/companies/types/O/categories/3"
                        }
                      }
                    }
                  ],
                  "_links": {
                    "self": {
                      "name": "ESTRUCTURAS DE FABRICA U HORMIGÓN",
                      "href": "https://api.euskadi.eus/procurements/companies/types/O/groups/C/subgroups/02"
                    }
                  }
                },
                {
                  "id": "03",
                  "name": "ESTRUCTURAS METALICAS",
                  "categories": [
                    {
                      "id": "3",
                      "name": "Desde 360.001 Hasta 840.000",
                      "_links": {
                        "self": {
                          "name": "Desde 360.001 Hasta 840.000",
                          "href": "https://api.euskadi.eus/procurements/companies/types/O/categories/3"
                        }
                      }
                    }
                  ],
                  "_links": {
                    "self": {
                      "name": "ESTRUCTURAS METALICAS",
                      "href": "https://api.euskadi.eus/procurements/companies/types/O/groups/C/subgroups/03"
                    }
                  }
                },
                {
                  "id": "04",
                  "name": "ALBAÑILERIA, REVOCOS Y REVESTIDOS",
                  "categories": [
                    {
                      "id": "2",
                      "name": "Desde 150.001 Hasta 360.000",
                      "_links": {
                        "self": {
                          "name": "Desde 150.001 Hasta 360.000",
                          "href": "https://api.euskadi.eus/procurements/companies/types/O/categories/2"
                        }
                      }
                    }
                  ],
                  "_links": {
                    "self": {
                      "name": "ALBAÑILERIA, REVOCOS Y REVESTIDOS",
                      "href": "https://api.euskadi.eus/procurements/companies/types/O/groups/C/subgroups/04"
                    }
                  }
                },
                {
                  "id": "05",
                  "name": "CANTERIA Y MARMOLERIA",
                  "categories": [
                    {
                      "id": "1",
                      "name": "Desde 0 Hasta 150.000",
                      "_links": {
                        "self": {
                          "name": "Desde 0 Hasta 150.000",
                          "href": "https://api.euskadi.eus/procurements/companies/types/O/categories/1"
                        }
                      }
                    }
                  ],
                  "_links": {
                    "self": {
                      "name": "CANTERIA Y MARMOLERIA",
                      "href": "https://api.euskadi.eus/procurements/companies/types/O/groups/C/subgroups/05"
                    }
                  }
                },
                {
                  "id": "06",
                  "name": "PAVIMENTOS, SOLADOS Y ALICATADOS",
                  "categories": [
                    {
                      "id": "1",
                      "name": "Desde 0 Hasta 150.000",
                      "_links": {
                        "self": {
                          "name": "Desde 0 Hasta 150.000",
                          "href": "https://api.euskadi.eus/procurements/companies/types/O/categories/1"
                        }
                      }
                    }
                  ],
                  "_links": {
                    "self": {
                      "name": "PAVIMENTOS, SOLADOS Y ALICATADOS",
                      "href": "https://api.euskadi.eus/procurements/companies/types/O/groups/C/subgroups/06"
                    }
                  }
                },
                {
                  "id": "07",
                  "name": "AISLAMIENTOS E IMPERMEABILIZACIONES",
                  "categories": [
                    {
                      "id": "3",
                      "name": "Desde 360.001 Hasta 840.000",
                      "_links": {
                        "self": {
                          "name": "Desde 360.001 Hasta 840.000",
                          "href": "https://api.euskadi.eus/procurements/companies/types/O/categories/3"
                        }
                      }
                    }
                  ],
                  "_links": {
                    "self": {
                      "name": "AISLAMIENTOS E IMPERMEABILIZACIONES",
                      "href": "https://api.euskadi.eus/procurements/companies/types/O/groups/C/subgroups/07"
                    }
                  }
                },
                {
                  "id": "08",
                  "name": "CARPINTERIA DE MADERA",
                  "categories": [
                    {
                      "id": "1",
                      "name": "Desde 0 Hasta 150.000",
                      "_links": {
                        "self": {
                          "name": "Desde 0 Hasta 150.000",
                          "href": "https://api.euskadi.eus/procurements/companies/types/O/categories/1"
                        }
                      }
                    }
                  ],
                  "_links": {
                    "self": {
                      "name": "CARPINTERIA DE MADERA",
                      "href": "https://api.euskadi.eus/procurements/companies/types/O/groups/C/subgroups/08"
                    }
                  }
                },
                {
                  "id": "09",
                  "name": "CARPINTERIA METALICA",
                  "categories": [
                    {
                      "id": "3",
                      "name": "Desde 360.001 Hasta 840.000",
                      "_links": {
                        "self": {
                          "name": "Desde 360.001 Hasta 840.000",
                          "href": "https://api.euskadi.eus/procurements/companies/types/O/categories/3"
                        }
                      }
                    }
                  ],
                  "_links": {
                    "self": {
                      "name": "CARPINTERIA METALICA",
                      "href": "https://api.euskadi.eus/procurements/companies/types/O/groups/C/subgroups/09"
                    }
                  }
                }
              ],
              "_links": {
                "self": {
                  "name": "EDIFICACIONES",
                  "href": "https://api.euskadi.eus/procurements/companies/types/O/groups/C"
                }
              }
            }
          ],
          "_links": {
            "self": {
              "name": "Obras",
              "href": "https://api.euskadi.eus/procurements/companies/types/O"
            }
          }
        }
      ],
      "object": "CONSTRUCCIÓN COMPLETA, REPARACIÓN Y CONSERVACIÓN DE EDIFICACIONES; CONSERVACIÓN Y MANTENIMIENTO DE BIENES INMUEBLES; PROMOCIÓN DE EDIFICACIONES",
      "mainEntityOfPage": "https://www.contratacion.euskadi.eus/webkpe00-kperoc/es/ac71aBusquedaRegistrosWar/empresa/03654",
      "_links": {
        "self": {
          "name": "OSTARBI ERAIKUNTZA ETA ZERBITZUAK, S.L.",
          "href": "https://api.euskadi.eus/procurements/companies/03654"
        }
      }
    },
    {
      "name": "GARU FONTCLIMA, S.L.",
      "registrationNumber": "10529",
      "identificationNumber": "B24958985",
      "address": "Ntra. Sra. de Aranzazu, 47 bajo",
      "location": {
        "postalCode": "20008",
        "municipality": "Donostia / San Sebastián",
        "county": "Gipuzkoa",
        "municipalityId": "069",
        "countyId": "20"
      },
      "economicActivities": [
        {
          "id": "1.504.3",
          "name": "Instalaciones de frío, calor y acondicionamiento de aire",
          "_links": {
            "self": {
              "name": "Instalaciones de frío, calor y acondicionamiento de aire",
              "href": "https://api.euskadi.eus/procurements/companies/economic-activities/1.504.3"
            }
          }
        }
      ],
      "certificateStartDate": "2026-02-06",
      "certificateEndDate": "2026-08-06",
      "object": "LA FONTANERÍA Y CLIMATIZACIÓN, ASÍ COMO ACTIVIDADES ANÁLOGAS A LAS MISMAS. CÓDIGO CNAE 43.22: FONTANERÍA, INSTALACIONES DE SISTEMAS DE CALEFACCIÓN Y AIRE ACONDICIONADO.",
      "mainEntityOfPage": "https://www.contratacion.euskadi.eus/webkpe00-kperoc/es/ac71aBusquedaRegistrosWar/empresa/10529",
      "_links": {
        "self": {
          "name": "GARU FONTCLIMA, S.L.",
          "href": "https://api.euskadi.eus/procurements/companies/10529"
        }
      }
    }
  ]
}