{
  "totalItems": 9042,
  "totalPages": 905,
  "currentPage": 692,
  "itemsOfPage": 10,
  "items": [
    {
      "name": "SERVICIOS REDACCIONALES BILBAINOS, S.L.",
      "registrationNumber": "03091",
      "identificationNumber": "B95119566",
      "address": "PLAZA SAGRADO CORAZON DE JESÚS Nº 5-2ª PL. EDIF. EUSKALDUNA",
      "location": {
        "postalCode": "48011",
        "municipality": "Bilbao",
        "county": "Bizkaia",
        "municipalityId": "020",
        "countyId": "48"
      },
      "economicActivities": [
        {
          "id": "1.475",
          "name": "Actividades anexas a las artes gráficas",
          "_links": {
            "self": {
              "name": "Actividades anexas a las artes gráficas",
              "href": "https://api.euskadi.eus/procurements/companies/economic-activities/1.475"
            }
          }
        },
        {
          "id": "1.476.1",
          "name": "Edición de libros",
          "_links": {
            "self": {
              "name": "Edición de libros",
              "href": "https://api.euskadi.eus/procurements/companies/economic-activities/1.476.1"
            }
          }
        },
        {
          "id": "1.476.2",
          "name": "Edición de periódicos y revistas",
          "_links": {
            "self": {
              "name": "Edición de periódicos y revistas",
              "href": "https://api.euskadi.eus/procurements/companies/economic-activities/1.476.2"
            }
          }
        }
      ],
      "certificateStartDate": "2012-08-23",
      "certificateEndDate": "2013-01-23",
      "object": "LA EDICIÓN, DISTRIBUCIÓN Y VENTA DE PUBLICACIONES UNITARIAS, PERIÓDICAS O NO, DE INFORMACIÓN GENERAL, CULTURAL, DEPORTIVA, ARTÍSTICA O DE CUALQUIER OTRA NATURALEZA, INCLUSO PUBLICIACIONES GRATUITAS, LA IMPRESIÓN DE LA MISMA, Y LA EXPLOTACIÓN DE TALLERES DE IMPRIMIR Y, EN GENERAL, CUALQUIER OTRA ACTIVIDAD RELACIONADA CON LA INDUSTRIA EDITORIAL Y DE ARTES GRÁFICAS; EL ESTABLECIMIENTO, UTILIZACIÓN Y EXPLOTACIÓN DE EMISORAS DE RADIO, TELEVISIÓN Y CUALESQUIERA OTRAS INSTALACIONES PARA LA EMISIÓN, PRODUCCIÓN Y PROMOCIÓN DE MEDIOS AUDIOVISUALES, ASÍ COMO LA PRODUCCIÓN, EDICIÓN, DISTRIBUCIÓN DE DISCOS Y CASSETTES, CINTAS MAGNETOFÓNICAS, PELÍCULAS, PROGRAMAS O CUALESQUIERA OTROS APARATOS O MEDIOS DE DIFUSIÓN DE CUALQUIER TIPO; LA EXPLOTACIÓN Y COMERCIALIZACIÓN DE CONTENIDOS INFORMATIVOS, LITERARIOS, DE OPINIÓN, Y DE CUALQUIER OTRA NATURALEZA, POR CUALQUIER MEDIO O MODALIDAD DE DIFUSIÓN Y EXPLOTACIÓN, EN PARTICULAR POR INTERNET, POR MEDIOS PROPIOS O MEDIANTE SU CESIÓN A TERCEROS, EN CUALQUIER LUGAR DEL MUNDO. LA SOCIEDAD NO DESARROLLARÁ NINGUNA ACTIVIDAD PARA LA QUE LAS LEYES EXIJAN CONDICIONES O LIMITACIONES EXPECÍFICAS, EN TANTO NO SE DE EXACTO CUMPLIMIENTO A LAS MISMAS",
      "mainEntityOfPage": "https://www.contratacion.euskadi.eus/webkpe00-kperoc/es/ac71aBusquedaRegistrosWar/empresa/03091",
      "_links": {
        "self": {
          "name": "SERVICIOS REDACCIONALES BILBAINOS, S.L.",
          "href": "https://api.euskadi.eus/procurements/companies/03091"
        }
      }
    },
    {
      "name": "MONTAJES ELÉCTRICOS VITORIA-GASTEIZ, S.L.",
      "registrationNumber": "03210",
      "identificationNumber": "B01275312",
      "address": "C/ HARROBI, 53",
      "location": {
        "postalCode": "01013",
        "municipality": "Vitoria-Gasteiz",
        "county": "Araba/Álava",
        "municipalityId": "059",
        "countyId": "01"
      },
      "economicActivities": [
        {
          "id": "1.504.1",
          "name": "Instalaciones eléctricas en general",
          "_links": {
            "self": {
              "name": "Instalaciones eléctricas en general",
              "href": "https://api.euskadi.eus/procurements/companies/economic-activities/1.504.1"
            }
          }
        }
      ],
      "certificateStartDate": "2012-08-22",
      "certificateEndDate": "2013-01-20",
      "object": "TANTO DIRECTAMENTE COMO DE FORMA INDIRECTA, MEDIANTE LA TITULARIDAD DE ACCIONES O PARTICIPACIONES EN SOCIEDADES CON OBJETO IDÉNTICO, EL MANTENIMIENTO ELÉCTRICO Y MECÁNICO DE TODO TIPO DE MAQUINARIA, INSTALACIONES, CONSTRUCCIONES ANÁLOGAS; INSTALACIONES Y REFORMAS ELÉCTRICAS; COMERCIALIZACIÓN Y REPRESENTACIÓN DE PRODUCTOS RELACIONADOS CON LA ACTIVIDAD, MONTAJE Y PROGRAMACIÓN DE EQUIPOS ELÉCTRICOS, INSTALACIONES PARA TELECOMUNICACIONES Y SONIDO, CONTROL Y REGULACIÓN, MEDIDA DE EQUIPOS; Y CUALQUIER ACTIVIDAD DIRECTA O INDIRECTAMENTE RELACIONADA CON EL MONTAJE E INSTALACIONES, ELECTROMECÁNICO Y ELECTRÓNICO",
      "mainEntityOfPage": "https://www.contratacion.euskadi.eus/webkpe00-kperoc/es/ac71aBusquedaRegistrosWar/empresa/03210",
      "_links": {
        "self": {
          "name": "MONTAJES ELÉCTRICOS VITORIA-GASTEIZ, S.L.",
          "href": "https://api.euskadi.eus/procurements/companies/03210"
        }
      }
    },
    {
      "name": "ELITE OFICINAS S.L.",
      "registrationNumber": "03998",
      "identificationNumber": "B20182499",
      "address": "ISASI 29",
      "location": {
        "postalCode": "2600",
        "municipality": "Eibar",
        "county": "Gipuzkoa",
        "municipalityId": "030",
        "countyId": "20"
      },
      "economicActivities": [
        {
          "id": "1.659.2",
          "name": "Venta al por menor de muebles de oficina y máquinas y equipos de oficina",
          "_links": {
            "self": {
              "name": "Venta al por menor de muebles de oficina y máquinas y equipos de oficina",
              "href": "https://api.euskadi.eus/procurements/companies/economic-activities/1.659.2"
            }
          }
        },
        {
          "id": "1.659.4",
          "name": "Venta al por menor de libros, periódicos y artículos de papelería y escritorio",
          "_links": {
            "self": {
              "name": "Venta al por menor de libros, periódicos y artículos de papelería y escritorio",
              "href": "https://api.euskadi.eus/procurements/companies/economic-activities/1.659.4"
            }
          }
        }
      ],
      "certificateStartDate": "2012-08-21",
      "certificateEndDate": "2013-02-21",
      "object": "LA EXPLOTACIÓN DE UN NEGOCIO DEDICADO A LA COMERCIALIZACIÓN Y VENTA AL POR MAYOR Y MENOR DE MOBILIARIO, MATERIAL Y MÁQUINAS DE OFICINA, DIBUJO Y ESCRITORIO, ASÍ COMO DE TODO TIPO DE MATERIAL DIDÁCTICO Y DE ENSEÑANZA Y EN GENERAL, A CUANTAS ACTIVIDADES ANÁLOGAS O COMPLEMENTARIAS DE LAS ANTERIORES ACUERDEN LOS ADMINISTRADORES DE LA SOCIEDAD",
      "mainEntityOfPage": "https://www.contratacion.euskadi.eus/webkpe00-kperoc/es/ac71aBusquedaRegistrosWar/empresa/03998",
      "_links": {
        "self": {
          "name": "ELITE OFICINAS S.L.",
          "href": "https://api.euskadi.eus/procurements/companies/03998"
        }
      }
    },
    {
      "name": "NIHON KOHDEN IBERICA, S.L.",
      "registrationNumber": "04413",
      "identificationNumber": "B83544734",
      "address": "C/ ULISES 75 A",
      "location": {
        "postalCode": "28043",
        "municipality": "Madrid",
        "county": "Madrid",
        "municipalityId": "079",
        "countyId": "28"
      },
      "economicActivities": [
        {
          "id": "1.619.2",
          "name": "Venta al por mayor de aparatos e instrumentos médicos, ortopédicos, ópticos",
          "_links": {
            "self": {
              "name": "Venta al por mayor de aparatos e instrumentos médicos, ortopédicos, ópticos",
              "href": "https://api.euskadi.eus/procurements/companies/economic-activities/1.619.2"
            }
          }
        }
      ],
      "certificateStartDate": "2012-08-21",
      "certificateEndDate": "2013-02-10",
      "object": "LA IMPORTACIÓN, EXPORTACIÓN Y DISTRIBUCIÓN DE APARATOS MÉDICOS, ESPECIALMENTE APARATOS MÉDICOS ELECTRÓNICOS Y LOS RELACIONADOS CON LOS MISMOS, ASÍ COMO LA DISTRIBUCIÓN, PRESTACIÓN DE SERVICIOS Y DEMÁS NEGOCIOS RELACIONADOS",
      "mainEntityOfPage": "https://www.contratacion.euskadi.eus/webkpe00-kperoc/es/ac71aBusquedaRegistrosWar/empresa/04413",
      "_links": {
        "self": {
          "name": "NIHON KOHDEN IBERICA, S.L.",
          "href": "https://api.euskadi.eus/procurements/companies/04413"
        }
      }
    },
    {
      "name": "EQUIPAMIENTO INSTITUCIONAL, S.A. (EKINSA)",
      "registrationNumber": "01701",
      "identificationNumber": "A28816221",
      "address": "C/ SANTA LEONOR, 61",
      "location": {
        "postalCode": "28037",
        "municipality": "Madrid",
        "county": "Madrid",
        "municipalityId": "079",
        "countyId": "28"
      },
      "economicActivities": [
        {
          "id": "1.611",
          "name": "Venta al por mayor de toda clase de mercancías",
          "_links": {
            "self": {
              "name": "Venta al por mayor de toda clase de mercancías",
              "href": "https://api.euskadi.eus/procurements/companies/economic-activities/1.611"
            }
          }
        },
        {
          "id": "1.699",
          "name": "Otras reparaciones n.c.o.p",
          "_links": {
            "self": {
              "name": "Otras reparaciones n.c.o.p",
              "href": "https://api.euskadi.eus/procurements/companies/economic-activities/1.699"
            }
          }
        },
        {
          "id": "1.843.1",
          "name": "Servicios técnicos de ingeniería",
          "_links": {
            "self": {
              "name": "Servicios técnicos de ingeniería",
              "href": "https://api.euskadi.eus/procurements/companies/economic-activities/1.843.1"
            }
          }
        },
        {
          "id": "1.844",
          "name": "Servicios de publicidad, relaciones públicas y similares",
          "_links": {
            "self": {
              "name": "Servicios de publicidad, relaciones públicas y similares",
              "href": "https://api.euskadi.eus/procurements/companies/economic-activities/1.844"
            }
          }
        }
      ],
      "certificateStartDate": "2012-08-14",
      "certificateEndDate": "2013-01-24",
      "object": "LA COMPRAVENTA DE BIENES  INMUEBLES, CONSTRUCCIÓN EN GENERAL, PARCELACIÓN Y URBANIZACIÓN DE TERRENOS, EXPLOTACIONES HOTELERAS, EN GENERAL, INDUSTRIALES Y COMERCIALES RELACIONADAS CON LAS ACTIVIDADES ANTERIORMENTE DETALLADAS. LA PROMOCIÓN DE TODA CLASE DE INVERSIONES TANTO FINANCIERAS COMO INMOBILIARIAS, INDUSTRIALES, COMERCIALES Y DE CUALQUIER OTRO CARÁCTER O CLASE. EL ASESORAMIENTO TÉCNICO DE TODA CLASE DE EMPRESAS Y ENTIDADES. LA IMPORTACIÓN, DISTRIBUCIÓN Y VENTA EN TODO EL TERRITORIO ESPAÑOL DE TODA CLASE DE MERCANCÍAS Y PRODUCTOS DE ORIGEN EXTRANJERO. LA EXPORTACIÓN DE TODA CLASE DE MERCANCÍAS Y PRODUCTOS, INCLUSO SU DISTRIBUCIÓN Y VENTA EN CUALQUIER PAÍS. LA REPRESENTACIÓN, GESTIÓN, DISTRIBUCIÓN Y VENTA EN FIRME O A COMISIÓN EN CUALQUIER PAÍS DE PRODUCTOS Y ARTÍCULOS DE FIRMAS NACIONALES Y EXTRANJERAS. LA ADQUISICIÓN, ENAJENACIÓN Y EXPLOTACIÓN, EN TODAS LAS FORMAS PERMITIDAS EN DERECHO, EN ESPAÑA Y EN EL EXTRANJERO, DE PATENTES PRIVILEGIOS, LICENCIAS, MARCAS Y MODELOS DE UTILIDAD DE CUALQUIER CLASE. EL FOMENTO DE LA INDUSTRIA Y EL COMERCIO. LA INGERENCIA Y PARTICIPACIÓN EN EMPRESAS INDUSTRIALES, FINANCIERAS Y MERCANTILES EN GENERAL, CON INVERSIONES DE CAPITAL O SIN ELLAS. LA COMPRAVENTA Y DISTRIBUCIÓN DE TODOS LOS ELEMENTOS INTEGRANTES PARA EL EQUIPAMIENTO DE ORGANISMOS PÚBLICOS, INSTITUCIONES, ENTIDADES Y GRANDES CENTROS. REALIZACIÓN DE ACTIVIDADES DE CREACIÓN, PREPARACIÓN, PROGRAMACIÓN, DISTRIBUCIÓN Y DIFUSIÓN DE ANUNCIOS O CAMPAÑAS DE PUBLICIDAD, COMUNICACIÓN PÚBLICA O INSTITUCIONAL, PROPAGANDA E IMAGEN CORPORATIVA, A TRAVÉS DE CUALQUIER MEDIO, Y LAS USUALES DE TIPO COMPLEMENTARIO DENTRO DE LA MISMA ESPECIALIDAD. MANTENIMIENTO DE EQUIPOS E INSTALACIONES DE REDES DE TELECOMUNICACIÓN Y TELEMÁTICA, PROYECTO E INSTALACIONES ELECTRÓNICAS. REALIZACIÓN DE PROYECTOS, DIRECCIÓN E INSTALACIÓN DE TELECOMUNICACIÓN E INFORMÁTICA",
      "mainEntityOfPage": "https://www.contratacion.euskadi.eus/webkpe00-kperoc/es/ac71aBusquedaRegistrosWar/empresa/01701",
      "_links": {
        "self": {
          "name": "EQUIPAMIENTO INSTITUCIONAL, S.A. (EKINSA)",
          "href": "https://api.euskadi.eus/procurements/companies/01701"
        }
      }
    },
    {
      "name": "ARABAKO LANKETA, S.L.",
      "registrationNumber": "02396",
      "identificationNumber": "B01106517",
      "address": "BOULEVARD DE MARITURRI, 42-BAJO",
      "location": {
        "postalCode": "01015",
        "municipality": "Vitoria-Gasteiz",
        "county": "Araba/Álava",
        "municipalityId": "059",
        "countyId": "01"
      },
      "economicActivities": [
        {
          "id": "1.501.1",
          "name": "Construcción completa, reparación y conservación de edificaciones",
          "_links": {
            "self": {
              "name": "Construcción completa, reparación y conservación de edificaciones",
              "href": "https://api.euskadi.eus/procurements/companies/economic-activities/1.501.1"
            }
          }
        },
        {
          "id": "1.501.2",
          "name": "Construcción completa, reparación y conservación obras civiles",
          "_links": {
            "self": {
              "name": "Construcción completa, reparación y conservación obras civiles",
              "href": "https://api.euskadi.eus/procurements/companies/economic-activities/1.501.2"
            }
          }
        },
        {
          "id": "1.507",
          "name": "Construcción, reparación y conservación de toda clase obras",
          "_links": {
            "self": {
              "name": "Construcción, reparación y conservación de toda clase obras",
              "href": "https://api.euskadi.eus/procurements/companies/economic-activities/1.507"
            }
          }
        },
        {
          "id": "1.833.2",
          "name": "Promoción de edificaciones",
          "_links": {
            "self": {
              "name": "Promoción de edificaciones",
              "href": "https://api.euskadi.eus/procurements/companies/economic-activities/1.833.2"
            }
          }
        }
      ],
      "certificateStartDate": "2012-08-14",
      "certificateEndDate": "2013-02-02",
      "object": "a) LA CONSTRUCCIÓN Y EDIFICACIÓN DE OBRAS CIVILES, ASÍ COMO DE TODA CLASE DE INMUEBLES.\r\nb) LA EXPLOTACIÓN DE EDIFICIOS, FINCAS Y CONSTRUCCIONES DE TODA CLASE.\r\nc) LA URBANIZACIÓN DE TERRENOS Y LA PROMOCIÓN INMOBILIARIA, ENTENDIENDO POR LA LA PRÁCTICA DE CUANTAS GESTIONES ESTÉN ENCAMINADAS A LA VENTA DE INMUEBLES. ",
      "mainEntityOfPage": "https://www.contratacion.euskadi.eus/webkpe00-kperoc/es/ac71aBusquedaRegistrosWar/empresa/02396",
      "_links": {
        "self": {
          "name": "ARABAKO LANKETA, S.L.",
          "href": "https://api.euskadi.eus/procurements/companies/02396"
        }
      }
    },
    {
      "name": "GRAMA ESTUDIO DE ARQUITECTURA Y MEDIO AMBIENTE, S.L.",
      "registrationNumber": "04377",
      "identificationNumber": "B01460070",
      "address": "JOAQUIN COLLAR 4",
      "location": {
        "postalCode": "01002",
        "municipality": "Vitoria-Gasteiz",
        "county": "Araba/Álava",
        "municipalityId": "059",
        "countyId": "01"
      },
      "economicActivities": [
        {
          "id": "1.843.2",
          "name": "Servicios técnicos de arquitectura y urbanismo",
          "_links": {
            "self": {
              "name": "Servicios técnicos de arquitectura y urbanismo",
              "href": "https://api.euskadi.eus/procurements/companies/economic-activities/1.843.2"
            }
          }
        }
      ],
      "certificateStartDate": "2012-08-13",
      "certificateEndDate": "2013-02-02",
      "object": "DE UNA PARTE, LA REALIZACIÓN DE TODA CLASE DE TRABAJOS Y SERVICIOS DE PROMOCIÓN, PLANIFICACIÓN, CONTROL Y EJECUCIÓN DE OBRAS Y PROYECTO, ASÍ COMO LA FORMULAICÓN, PROGRAMACIÓN Y EJECUCIÓN DE PLANES URBANÍSTICOS Y TODA CLASE DE SERVICIOS DIRIGIDOS A LA MEJORA DEL MEDIO AMBIENTE Y AL DESARROLLO DE LA CALIDAD INTEGRAL DEL MEDIO NATURAL; Y ASIMISMO LA EXPLOTACIÓN DE CUALQUIER TIPO DE INSTALACIONES Y LA PRESTACIÓN DE TODA CLASE DE SERVICIOS A EMPRESAS PRIVADAS O PÚBLICAS, INCLUSO EL ASESORAMIENTO, CONSULTA E INFORMACÓN SOBRE ACTIVIDADES INDUSTRIALES Y ECONÓMICAS EN GENERAL; Y, DE OTRA PARTE, LA ADQUISICIÓN Y TRANSMISIÓN, POR CUALQUIER CLASE DE TÍTULO, Y SU ARRENDAMIENTO Y EXPLOTACIÓN DE TODA CLASE DE INMUEBLES Y FINCAS URBANAS Y URBANIZABLES, Y LA PROMOCIÓN, DISEÑO, PLANEAMIENTO Y EDIFICACIÓN DE LOS MISMOS",
      "mainEntityOfPage": "https://www.contratacion.euskadi.eus/webkpe00-kperoc/es/ac71aBusquedaRegistrosWar/empresa/04377",
      "_links": {
        "self": {
          "name": "GRAMA ESTUDIO DE ARQUITECTURA Y MEDIO AMBIENTE, S.L.",
          "href": "https://api.euskadi.eus/procurements/companies/04377"
        }
      }
    },
    {
      "name": "PROMOCIONES Y CONSTRUCCIONES URDELAR-1, S.L.",
      "registrationNumber": "02835",
      "identificationNumber": "B20679312",
      "address": "BARRIO IURRE, 12 BAJO",
      "location": {
        "postalCode": "20400",
        "municipality": "Tolosa",
        "county": "Gipuzkoa",
        "municipalityId": "071",
        "countyId": "20"
      },
      "economicActivities": [
        {
          "id": "1.833.2",
          "name": "Promoción de edificaciones",
          "_links": {
            "self": {
              "name": "Promoción de edificaciones",
              "href": "https://api.euskadi.eus/procurements/companies/economic-activities/1.833.2"
            }
          }
        }
      ],
      "certificateStartDate": "2012-08-10",
      "certificateEndDate": "2013-01-25",
      "object": "LAS ACTIVIDADES QUE SEGUIDAMENTE SE DETALLAN, QUE PODRÁN SER REALIZADAS POR LA SOCIEDAD, YA  DIRECTAMENTE, YA INDIRECTAMENTE, INCLUSO MEDIANTE SU PARTICIPACIÓN EN OTRAS SOCIEDADES DE OBJETO IDÉNTICO O ANÁLOGO, Y QUE SON: \"CONSTRUCCIÓN, REPARACIÓN Y CONSERVACIÓN DE TODA CLASE DE OBRAS, LA ADQUISICIÓN, TRANSFORMACIÓN, PLANIFICACIÓN Y ENAJENACIÓN DE TODA CLASE DE TERRENOS, SU URBANIZACIÓN Y PARCELACIÓN, LA CONSTRUCCIÓN DE EDIFICIOS DE TODAS CLASES; EL USO, ARRENDAMIENTOS Y VENTA DE LOS EDIFICIOS REFERIDOS Y DE CUALQUIER OTRA CLASE, LA REALIZACIÓN DE OPERACIONES INMOBILIARIAS EN TODA SU AMPLITUD, LA CONSTRUCCIÓN DE OBRAS PÚBLICAS MEDIANTE CONTRATA CON LA ADMINISTRACIÓN DEL ESTADO, COMUNIDADES AUTÓNOMAS, PROVINCIAS, MUNICIPIOS Y ORGANISMOS PÚBLICOS EN GENERAL\" ",
      "mainEntityOfPage": "https://www.contratacion.euskadi.eus/webkpe00-kperoc/es/ac71aBusquedaRegistrosWar/empresa/02835",
      "_links": {
        "self": {
          "name": "PROMOCIONES Y CONSTRUCCIONES URDELAR-1, S.L.",
          "href": "https://api.euskadi.eus/procurements/companies/02835"
        }
      }
    },
    {
      "name": "KUDEA SOLUCIONES, S.L.",
      "registrationNumber": "04688",
      "identificationNumber": "B01416270",
      "address": "AVDA. LOS OLMOS, Nº 1. EDIFICIO A. OFICINA 101",
      "location": {
        "postalCode": "01013",
        "municipality": "Vitoria-Gasteiz",
        "county": "Araba/Álava",
        "municipalityId": "059",
        "countyId": "01"
      },
      "economicActivities": [
        {
          "id": "1.844",
          "name": "Servicios de publicidad, relaciones públicas y similares",
          "_links": {
            "self": {
              "name": "Servicios de publicidad, relaciones públicas y similares",
              "href": "https://api.euskadi.eus/procurements/companies/economic-activities/1.844"
            }
          }
        },
        {
          "id": "1.845",
          "name": "Explotación electrónica por cuenta de terceros",
          "_links": {
            "self": {
              "name": "Explotación electrónica por cuenta de terceros",
              "href": "https://api.euskadi.eus/procurements/companies/economic-activities/1.845"
            }
          }
        }
      ],
      "certificateStartDate": "2012-08-10",
      "certificateEndDate": "2013-01-30",
      "object": "LA REALIZACIÓN DE ACTIVIDADES EN EL ÁMBITO DE LOS SISTEMAS DE INFORMACIÓN. DICHAS ACTIVIDADES INCLUYEN EL DESARROLLO Y COMERCIALIZACIÓN DE APLICACIONES INFORMÁTICS, LA CREACIÓN DE SOLUCIONES DE INTERNET Y OS SERVICIOS DE IMAGEN Y COMUNICACIÓN",
      "mainEntityOfPage": "https://www.contratacion.euskadi.eus/webkpe00-kperoc/es/ac71aBusquedaRegistrosWar/empresa/04688",
      "_links": {
        "self": {
          "name": "KUDEA SOLUCIONES, S.L.",
          "href": "https://api.euskadi.eus/procurements/companies/04688"
        }
      }
    },
    {
      "name": "PUBLICIDAD PELCONS, S.L.",
      "registrationNumber": "02634",
      "identificationNumber": "B01329739",
      "address": "C/ PEDRO ASUA, 45",
      "location": {
        "postalCode": "01008",
        "municipality": "Vitoria-Gasteiz",
        "county": "Araba/Álava",
        "municipalityId": "059",
        "countyId": "01"
      },
      "economicActivities": [
        {
          "id": "1.476.2",
          "name": "Edición de periódicos y revistas",
          "_links": {
            "self": {
              "name": "Edición de periódicos y revistas",
              "href": "https://api.euskadi.eus/procurements/companies/economic-activities/1.476.2"
            }
          }
        },
        {
          "id": "1.844",
          "name": "Servicios de publicidad, relaciones públicas y similares",
          "_links": {
            "self": {
              "name": "Servicios de publicidad, relaciones públicas y similares",
              "href": "https://api.euskadi.eus/procurements/companies/economic-activities/1.844"
            }
          }
        }
      ],
      "certificateStartDate": "2012-08-09",
      "certificateEndDate": "2013-01-30",
      "object": "LA PRESTACIÓN DE SERVICIOS DE PUBLICIDAD, MEDIANTE ANUNCIOS, CARTELES, FOLLETOS, PELÍCULAS PUBLICITARIAS, ETC., A TRAVÉS DE LA PRENSA, RADIO, TELEVISIÓN, PUBLICIDAD AÉREA Y OTROS MEDIOS. LA CREACIÓN Y DIFUSIÓN DE ANUNCIOS O CAMPÑAS DE INFORMACIÓN PUBLICITARIA, PROPAGANDA ELECTORAL, COMUNICACIÓN INSTITUCIONAL O PÚBLICA E IMAGEN CORPORATIVA, ASÍ COMO EXCLUSIVISTAS DE MEDIOS PUBLICITARIOS, PUBLICIDAD EXTERIOR, PUBLICIDAD DIRECTA Y MARKETING DIRECTO, DISTRIBUIDORAS Y CENTRALES DE COMPRAS Y ESTUDIOS DE PUBLICIDAD Y PRESTACIÓN DE SERVICIOS DE RELACIONES PÚBLICAS Y COMPLEMENTOS DE LOS MISMOS Y EL DISEÑO PUBLICITARIO, ARTÍSTICIO E INDUSTRIAL.\r\nLA   PRETACIÓN, DE FORMA DIRECTA, A LAS SOCIEDADES EN LAS QUE PARTICIPE DE SERVICIOS DE ASESORAMIENTO, ASISTENCIA TÉCNICA Y OTROS SIMILARES QUE GUARDEN RELACIÓN CON LA ADMINISTRACIÓN DE LAS SOCIEDADES PARTICIPADAS, CON SU ESTRUCTURA FINANCIERA O CON SUS PROCESOS  PRODUCTIVOS O DE COMERCIALIZACIÓN.\r\nPODRÁ, ADEMÁS, PARTICIPAR EN OTRAS SOCIEDADES A TRAVÉS  DE LAS CUALES PODRÁ DESARROLLAR EL ANTERIOR OBJEO SOCIAL ",
      "mainEntityOfPage": "https://www.contratacion.euskadi.eus/webkpe00-kperoc/es/ac71aBusquedaRegistrosWar/empresa/02634",
      "_links": {
        "self": {
          "name": "PUBLICIDAD PELCONS, S.L.",
          "href": "https://api.euskadi.eus/procurements/companies/02634"
        }
      }
    }
  ]
}