{
  "totalItems": 9042,
  "totalPages": 905,
  "currentPage": 227,
  "itemsOfPage": 10,
  "items": [
    {
      "name": "INDUSTRIAL FERRETERA LEIOA, S.L.",
      "registrationNumber": "07272",
      "identificationNumber": "B48253801",
      "address": "INDEPENDENCIA, 6 BAJO",
      "location": {
        "postalCode": "48940",
        "municipality": "Leioa",
        "county": "Bizkaia",
        "municipalityId": "054",
        "countyId": "48"
      },
      "economicActivities": [
        {
          "id": "1.653.3",
          "name": "Venta al por menor de artículos de menaje, ferretería, adorno, regalo",
          "_links": {
            "self": {
              "name": "Venta al por menor de artículos de menaje, ferretería, adorno, regalo",
              "href": "https://api.euskadi.eus/procurements/companies/economic-activities/1.653.3"
            }
          }
        }
      ],
      "certificateStartDate": "2025-10-08",
      "certificateEndDate": "2026-04-08",
      "object": "LA COMPRAVENTA AL POR MAYOR Y MENOR, IMPORTACIÓN Y EXPORTACIÓN DE TODA CLASE DE PRODUCTOS DE FERRETERÍA",
      "mainEntityOfPage": "https://www.contratacion.euskadi.eus/webkpe00-kperoc/es/ac71aBusquedaRegistrosWar/empresa/07272",
      "_links": {
        "self": {
          "name": "INDUSTRIAL FERRETERA LEIOA, S.L.",
          "href": "https://api.euskadi.eus/procurements/companies/07272"
        }
      }
    },
    {
      "name": "AUTOLASA, S.A.",
      "registrationNumber": "09608",
      "identificationNumber": "A01121714",
      "address": "Calle Alto de Armentia 3",
      "location": {
        "postalCode": "01007",
        "municipality": "Vitoria-Gasteiz",
        "county": "Araba/Álava",
        "municipalityId": "059",
        "countyId": "01"
      },
      "economicActivities": [
        {
          "id": "1.654.1",
          "name": "Venta al por menor de vehículos terrestres",
          "_links": {
            "self": {
              "name": "Venta al por menor de vehículos terrestres",
              "href": "https://api.euskadi.eus/procurements/companies/economic-activities/1.654.1"
            }
          }
        },
        {
          "id": "1.691.2",
          "name": "Reparación de vehículos automóviles, bicicletas y otros vehículos",
          "_links": {
            "self": {
              "name": "Reparación de vehículos automóviles, bicicletas y otros vehículos",
              "href": "https://api.euskadi.eus/procurements/companies/economic-activities/1.691.2"
            }
          }
        }
      ],
      "certificateStartDate": "2025-10-08",
      "certificateEndDate": "2026-04-08",
      "object": "LA COMPRAVENTA, IMPORTACIÓN, EXPORTACIÓN Y REPARACIÓN DE VEHÍCULOS DE AUTOMOCIÓN.",
      "mainEntityOfPage": "https://www.contratacion.euskadi.eus/webkpe00-kperoc/es/ac71aBusquedaRegistrosWar/empresa/09608",
      "_links": {
        "self": {
          "name": "AUTOLASA, S.A.",
          "href": "https://api.euskadi.eus/procurements/companies/09608"
        }
      }
    },
    {
      "name": "DUOK INFORMÁTICA, S.L.",
      "registrationNumber": "05638",
      "identificationNumber": "B20613733",
      "address": "PASEO DE LUGARITZ 23-BAJO",
      "location": {
        "postalCode": "20018",
        "municipality": "Donostia / San Sebastián",
        "county": "Gipuzkoa",
        "municipalityId": "069",
        "countyId": "20"
      },
      "economicActivities": [
        {
          "id": "1.845",
          "name": "Explotación electrónica por cuenta de terceros",
          "_links": {
            "self": {
              "name": "Explotación electrónica por cuenta de terceros",
              "href": "https://api.euskadi.eus/procurements/companies/economic-activities/1.845"
            }
          }
        }
      ],
      "certificateStartDate": "2025-10-08",
      "certificateEndDate": "2026-04-08",
      "object": "LA INSTALACIÓN DE MÁQUINAS DE OFICINA Y ORDENADORES, LA PRESTACIÓN DE SERVICIOS DE ESTUDIO Y ANÁLISIS DE PROCESOS PARA SU TRATAMIENTO MECÁNICO, DE PROGRAMACIÓN PARA EQUIPOS ELECTRÓNICOS, DE REGISTRO DE DATOS EN SOPORTES DE ENTRADA PARA ORDENADORES, ASÍ COMO LA VENTA E INSTALACIÓN DE PROGRAMAS. SERVICIO DE REPARACIÓN Y ASISTENCIA TÉCNICA DE MÁQUINAS DE OFICINA Y ORDENADORES",
      "mainEntityOfPage": "https://www.contratacion.euskadi.eus/webkpe00-kperoc/es/ac71aBusquedaRegistrosWar/empresa/05638",
      "_links": {
        "self": {
          "name": "DUOK INFORMÁTICA, S.L.",
          "href": "https://api.euskadi.eus/procurements/companies/05638"
        }
      }
    },
    {
      "name": "CURTIDOS GALAICOS, S.L.",
      "registrationNumber": "07980",
      "identificationNumber": "B27101740",
      "address": "Rof Codina 3-5",
      "location": {
        "postalCode": "27400",
        "municipality": "Monforte de Lemos",
        "county": "Lugo",
        "municipalityId": "031",
        "countyId": "27"
      },
      "economicActivities": [
        {
          "id": "1.451.2",
          "name": "Calzado de calle fabricado en serie",
          "_links": {
            "self": {
              "name": "Calzado de calle fabricado en serie",
              "href": "https://api.euskadi.eus/procurements/companies/economic-activities/1.451.2"
            }
          }
        }
      ],
      "certificateStartDate": "2025-10-08",
      "certificateEndDate": "2026-04-08",
      "object": "LA FABRICACIÓN, ELABORACIÓN, DISTRIBUCIÓN, VENTA Y COMERCIALIZACIÓN DE CALZADO Y SUS DISTINTOS COMPONENTES.",
      "mainEntityOfPage": "https://www.contratacion.euskadi.eus/webkpe00-kperoc/es/ac71aBusquedaRegistrosWar/empresa/07980",
      "_links": {
        "self": {
          "name": "CURTIDOS GALAICOS, S.L.",
          "href": "https://api.euskadi.eus/procurements/companies/07980"
        }
      }
    },
    {
      "name": "LIMPIEZAS ARRATIA, S.L.",
      "registrationNumber": "02317",
      "identificationNumber": "B95061826",
      "address": "GOIKO KALEA, 19",
      "location": {
        "postalCode": "48143",
        "municipality": "Areatza",
        "county": "Bizkaia",
        "municipalityId": "093",
        "countyId": "48"
      },
      "economicActivities": [
        {
          "id": "1.922",
          "name": "Servicios de limpieza",
          "_links": {
            "self": {
              "name": "Servicios de limpieza",
              "href": "https://api.euskadi.eus/procurements/companies/economic-activities/1.922"
            }
          }
        }
      ],
      "certificateStartDate": "2025-10-08",
      "certificateEndDate": "2026-04-08",
      "classification": [
        {
          "id": "S",
          "name": "Servicios",
          "groups": [
            {
              "id": "U",
              "subgroups": [
                {
                  "id": "01",
                  "name": "Servicios de limpieza ",
                  "categories": [
                    {
                      "id": "1",
                      "name": "Desde 0 Hasta 150.000",
                      "_links": {
                        "self": {
                          "name": "Desde 0 Hasta 150.000",
                          "href": "https://api.euskadi.eus/procurements/companies/types/S/categories/1"
                        }
                      }
                    }
                  ],
                  "_links": {
                    "self": {
                      "name": "Servicios de limpieza ",
                      "href": "https://api.euskadi.eus/procurements/companies/types/S/groups/U/subgroups/01"
                    }
                  }
                }
              ],
              "_links": {
                "self": {
                  "href": "https://api.euskadi.eus/procurements/companies/types/S/groups/U"
                }
              }
            }
          ],
          "_links": {
            "self": {
              "name": "Servicios",
              "href": "https://api.euskadi.eus/procurements/companies/types/S"
            }
          }
        }
      ],
      "object": "LA ACTIVIDAD DE SERVICIOS DE LIMPIEZA INTERIOR Y EXTERIOR DE EDIFICIOS, OBRAS DE ALBAÑILERÍA, TRABAJOS DE FONTANERÍA Y PINTURA, ALQUILER DE MÁQUINAS PARA LA CONSTRUCCIÓN, MONTAJE DE ANDAMIAJES.",
      "mainEntityOfPage": "https://www.contratacion.euskadi.eus/webkpe00-kperoc/es/ac71aBusquedaRegistrosWar/empresa/02317",
      "_links": {
        "self": {
          "name": "LIMPIEZAS ARRATIA, S.L.",
          "href": "https://api.euskadi.eus/procurements/companies/02317"
        }
      }
    },
    {
      "name": "LANCHAS BUS, S.L.",
      "registrationNumber": "04587",
      "identificationNumber": "B20621090",
      "address": "SIERRA DE ARALAR, Nº 68-2º C",
      "location": {
        "postalCode": "20014",
        "municipality": "Donostia / San Sebastián",
        "county": "Gipuzkoa",
        "municipalityId": "069",
        "countyId": "20"
      },
      "economicActivities": [
        {
          "id": "1.721.3",
          "name": "Transporte de viajeros por carretera",
          "_links": {
            "self": {
              "name": "Transporte de viajeros por carretera",
              "href": "https://api.euskadi.eus/procurements/companies/economic-activities/1.721.3"
            }
          }
        }
      ],
      "certificateStartDate": "2025-10-08",
      "certificateEndDate": "2026-04-08",
      "classification": [
        {
          "id": "S",
          "name": "Servicios",
          "groups": [
            {
              "id": "R",
              "subgroups": [
                {
                  "id": "01",
                  "name": "Transporte de viajeros por carretera",
                  "categories": [
                    {
                      "id": "4",
                      "name": "Desde 600.001 Hasta 1.1200.000",
                      "_links": {
                        "self": {
                          "name": "Desde 600.001 Hasta 1.1200.000",
                          "href": "https://api.euskadi.eus/procurements/companies/types/S/categories/4"
                        }
                      }
                    }
                  ],
                  "_links": {
                    "self": {
                      "name": "Transporte de viajeros por carretera",
                      "href": "https://api.euskadi.eus/procurements/companies/types/S/groups/R/subgroups/01"
                    }
                  }
                }
              ],
              "_links": {
                "self": {
                  "href": "https://api.euskadi.eus/procurements/companies/types/S/groups/R"
                }
              }
            }
          ],
          "_links": {
            "self": {
              "name": "Servicios",
              "href": "https://api.euskadi.eus/procurements/companies/types/S"
            }
          }
        }
      ],
      "object": "EL TRANSPORTE DE VIAJEROS POR CARRETERA, TRANSPORTE ESCOLAR O CUALQUIER OTRA ACTIVIDAD RELACIONADA CON EL TRANSPORTE",
      "mainEntityOfPage": "https://www.contratacion.euskadi.eus/webkpe00-kperoc/es/ac71aBusquedaRegistrosWar/empresa/04587",
      "_links": {
        "self": {
          "name": "LANCHAS BUS, S.L.",
          "href": "https://api.euskadi.eus/procurements/companies/04587"
        }
      }
    },
    {
      "name": "SOLA, TORRES, VIDAURRAZAGA ARQUITECTOS S.L.P",
      "registrationNumber": "03007",
      "identificationNumber": "B95232484",
      "address": "AV. RIBERA DE AXPE, 6-1º DCHA DPTO 3 Y 4",
      "location": {
        "postalCode": "48950",
        "municipality": "Erandio",
        "county": "Bizkaia",
        "municipalityId": "902",
        "countyId": "48"
      },
      "economicActivities": [
        {
          "id": "1.843.2",
          "name": "Servicios técnicos de arquitectura y urbanismo",
          "_links": {
            "self": {
              "name": "Servicios técnicos de arquitectura y urbanismo",
              "href": "https://api.euskadi.eus/procurements/companies/economic-activities/1.843.2"
            }
          }
        }
      ],
      "certificateStartDate": "2025-10-08",
      "certificateEndDate": "2026-03-29",
      "object": "LA REALIZACIÓN DE LAS ACTIVIDADES PROPIAS DEL EJERCICIO DE LA PROFESIÓN DE ARQUITECTO.",
      "mainEntityOfPage": "https://www.contratacion.euskadi.eus/webkpe00-kperoc/es/ac71aBusquedaRegistrosWar/empresa/03007",
      "_links": {
        "self": {
          "name": "SOLA, TORRES, VIDAURRAZAGA ARQUITECTOS S.L.P",
          "href": "https://api.euskadi.eus/procurements/companies/03007"
        }
      }
    },
    {
      "name": "ADVANCED LOGISTICS AND ENGINEERING SOLUTIONS, S.L.",
      "registrationNumber": "10371",
      "identificationNumber": "B19800275",
      "address": "Calle Mendibilostekoa 18 2B (48940)",
      "location": {
        "postalCode": "48940",
        "municipality": "Leioa",
        "county": "Bizkaia",
        "municipalityId": "054",
        "countyId": "48"
      },
      "economicActivities": [
        {
          "id": "1.184.31",
          "name": "SERVICIOS TECNICOS DE INGENIERIA",
          "_links": {
            "self": {
              "name": "SERVICIOS TECNICOS DE INGENIERIA",
              "href": "https://api.euskadi.eus/procurements/companies/economic-activities/1.184.31"
            }
          }
        },
        {
          "id": "1.612.3",
          "name": "Venta al por mayor de frutas y verduras, patatas, legumbres frescas",
          "_links": {
            "self": {
              "name": "Venta al por mayor de frutas y verduras, patatas, legumbres frescas",
              "href": "https://api.euskadi.eus/procurements/companies/economic-activities/1.612.3"
            }
          }
        },
        {
          "id": "1.612.4",
          "name": "Venta al por mayor de carnes, huevos, aves y caza",
          "_links": {
            "self": {
              "name": "Venta al por mayor de carnes, huevos, aves y caza",
              "href": "https://api.euskadi.eus/procurements/companies/economic-activities/1.612.4"
            }
          }
        },
        {
          "id": "1.612.5",
          "name": "Venta al por mayor de leche, productos lácteos, miel, aceites y grasas",
          "_links": {
            "self": {
              "name": "Venta al por mayor de leche, productos lácteos, miel, aceites y grasas",
              "href": "https://api.euskadi.eus/procurements/companies/economic-activities/1.612.5"
            }
          }
        },
        {
          "id": "1.615.1",
          "name": "Venta al por mayor de vehículos, motocicletas, bicicletas y sus accesorios",
          "_links": {
            "self": {
              "name": "Venta al por mayor de vehículos, motocicletas, bicicletas y sus accesorios",
              "href": "https://api.euskadi.eus/procurements/companies/economic-activities/1.615.1"
            }
          }
        },
        {
          "id": "1.641",
          "name": "Venta al por menor de frutas, verduras, hortalizas y tubérculos",
          "_links": {
            "self": {
              "name": "Venta al por menor de frutas, verduras, hortalizas y tubérculos",
              "href": "https://api.euskadi.eus/procurements/companies/economic-activities/1.641"
            }
          }
        },
        {
          "id": "1.642.5",
          "name": "Venta al por menor de huevos, aves, conejos de granja, caza",
          "_links": {
            "self": {
              "name": "Venta al por menor de huevos, aves, conejos de granja, caza",
              "href": "https://api.euskadi.eus/procurements/companies/economic-activities/1.642.5"
            }
          }
        },
        {
          "id": "1.653.1",
          "name": "Venta al por menor de muebles (excepto los de oficina)",
          "_links": {
            "self": {
              "name": "Venta al por menor de muebles (excepto los de oficina)",
              "href": "https://api.euskadi.eus/procurements/companies/economic-activities/1.653.1"
            }
          }
        },
        {
          "id": "1.654.4",
          "name": "Venta al por menor de vehículos fluviales y marítimos a vela o motor",
          "_links": {
            "self": {
              "name": "Venta al por menor de vehículos fluviales y marítimos a vela o motor",
              "href": "https://api.euskadi.eus/procurements/companies/economic-activities/1.654.4"
            }
          }
        },
        {
          "id": "1.722",
          "name": "Transporte de mercancías por carretera",
          "_links": {
            "self": {
              "name": "Transporte de mercancías por carretera",
              "href": "https://api.euskadi.eus/procurements/companies/economic-activities/1.722"
            }
          }
        },
        {
          "id": "1.843.1",
          "name": "Servicios técnicos de ingeniería",
          "_links": {
            "self": {
              "name": "Servicios técnicos de ingeniería",
              "href": "https://api.euskadi.eus/procurements/companies/economic-activities/1.843.1"
            }
          }
        },
        {
          "id": "1.843.9",
          "name": "Otros servicios técnicos n.c.o.p",
          "_links": {
            "self": {
              "name": "Otros servicios técnicos n.c.o.p",
              "href": "https://api.euskadi.eus/procurements/companies/economic-activities/1.843.9"
            }
          }
        },
        {
          "id": "1.921.1",
          "name": "Servicios de limpieza en calles, vías públicas y jardines",
          "_links": {
            "self": {
              "name": "Servicios de limpieza en calles, vías públicas y jardines",
              "href": "https://api.euskadi.eus/procurements/companies/economic-activities/1.921.1"
            }
          }
        },
        {
          "id": "1.922",
          "name": "Servicios de limpieza",
          "_links": {
            "self": {
              "name": "Servicios de limpieza",
              "href": "https://api.euskadi.eus/procurements/companies/economic-activities/1.922"
            }
          }
        }
      ],
      "certificateStartDate": "2025-10-08",
      "certificateEndDate": "2026-04-07",
      "object": "ACTIVIDAD PRINCIPAL: 71.12/SERVICIOS TÉCNICOS DE INGENIERÍA Y OTRAS ACTIVIDADES RELACIONADAS CON EL ASESORAMIENTO TÉCNICO. OTRAS ACTIVIDADES: 46.32/COMERCIO AL POR MAYOR DE CARNE Y PRODUCTOS CÁRNICOS, 49.41/TRANSPORTE DE MERCANCÍAS POR CARRETERA, 47.21/COMERCIO AL POR MENOR DE FRUTAS Y HORTALIZAS EN ESTABLECIMIENTOS ESPECIALIZADOS, 47.22/COMERCIO AL POR  MENOR DE CARNE Y PRODUCTOS CÁRNICOS EN ESTABLECIMIENTOS ESPECIALIZADOS, 70.22/OTRAS ACTIVIDADES DE CONSULTORÍA DE GESTIÓN EMPRESARIAL, 81.22/OTRAS ACTIVIDADES DE LIMPIEZA INDUSTRIAL Y DE EDIFICIIOS, 81.29/OTRAS ACTIVIDADES DE LIMPIEZA, 46.33/COMERCIO AL POR MAYOR DE PRODUCTOS LÁCTEOS, HUEVOS, ACEITES Y GRASAS COMESTIBLES, 47.59/COMERCIO AL POR MENOR DE MUEBLES, APARATOS DE ILUMINACIÓN Y OTROS ARTÍCULOS DE USO DOMÉSTICO EN ESTABLECIMIENTOS ESPECIALIZADOS, 46.31/ COMERCIO AL POR MAYOR DE FRUTAS Y HORTALIZAS, 38.11/RECOGIDA DE RESIDUOS NO PELIGROSOS, 81.21/LIMPIEZA GENERAL DE EDIFICIOS, 45.19/VENTA DE OTROS VEHÍCULOS DE MOTOR, 45.11/VENTA DE AUTOMÓVILES Y VEHÍCULOS DE MOTOR LIGEROS.",
      "mainEntityOfPage": "https://www.contratacion.euskadi.eus/webkpe00-kperoc/es/ac71aBusquedaRegistrosWar/empresa/10371",
      "_links": {
        "self": {
          "name": "ADVANCED LOGISTICS AND ENGINEERING SOLUTIONS, S.L.",
          "href": "https://api.euskadi.eus/procurements/companies/10371"
        }
      }
    },
    {
      "name": "IÑAKI BECERRA S.L.",
      "registrationNumber": "06139",
      "identificationNumber": "B20591798",
      "address": "URUNE KALEA,  29 - 2º",
      "location": {
        "postalCode": "20100",
        "municipality": "Lezo",
        "county": "Gipuzkoa",
        "municipalityId": "053",
        "countyId": "20"
      },
      "economicActivities": [
        {
          "id": "1.389.9",
          "name": "Construcción de accesorios, partes y piezas sueltas de otro material transporte",
          "_links": {
            "self": {
              "name": "Construcción de accesorios, partes y piezas sueltas de otro material transporte",
              "href": "https://api.euskadi.eus/procurements/companies/economic-activities/1.389.9"
            }
          }
        },
        {
          "id": "1.859",
          "name": "Alquiler de otros bienes muebles n.c.o.p. (sin personal permanente)",
          "_links": {
            "self": {
              "name": "Alquiler de otros bienes muebles n.c.o.p. (sin personal permanente)",
              "href": "https://api.euskadi.eus/procurements/companies/economic-activities/1.859"
            }
          }
        }
      ],
      "certificateStartDate": "2025-10-08",
      "certificateEndDate": "2026-03-30",
      "object": "LA FABRICACIÓN Y ALQUILER DE CARROZAS Y LA VENTA AL POR MENOR DE TELAS",
      "mainEntityOfPage": "https://www.contratacion.euskadi.eus/webkpe00-kperoc/es/ac71aBusquedaRegistrosWar/empresa/06139",
      "_links": {
        "self": {
          "name": "IÑAKI BECERRA S.L.",
          "href": "https://api.euskadi.eus/procurements/companies/06139"
        }
      }
    },
    {
      "name": "MANITU COMUNICACIÓN, S.L.",
      "registrationNumber": "06223",
      "identificationNumber": "B95891248",
      "address": "GOBELA 18, 2º DTO 4",
      "location": {
        "postalCode": "48930",
        "municipality": "Getxo",
        "county": "Bizkaia",
        "municipalityId": "044",
        "countyId": "48"
      },
      "economicActivities": [
        {
          "id": "1.989.2",
          "name": "Servicios de organización de congresos, asambleas y similares",
          "_links": {
            "self": {
              "name": "Servicios de organización de congresos, asambleas y similares",
              "href": "https://api.euskadi.eus/procurements/companies/economic-activities/1.989.2"
            }
          }
        }
      ],
      "certificateStartDate": "2025-10-08",
      "certificateEndDate": "2026-04-06",
      "object": "LA ORGANIZACIÓN DE CAMPAÑAS DE MARKETING DE CIUDAD, DE PROMOCIÓN ECONÓMICA Y TURÍSTICA.  DISEÑO Y ORGANIZACIÓN DE TODO TIPO DE EVENTOS, PRESENTACIONES DE PRODUCTOS, INAUGURACIONES, CELEBRACIONES, ACTOS CORPORATIVOS, CONCURSOS, ACTIVIDADES CULTURALES Y CREATIVAS, LABORES DE CONSULTORÍA, PLANIFICACIÓN, DISEÑO, DIRECCIÓN Y ORGANIZACIÓN DE TODO TIPO DE JORNADAS, CONGRESOS, CONVENCIONES O SEMINARIOS. SERVICIOS DE GESTIÓN, ATENCIÓN AL PÚBLICO  Y LABORES DE TELE-MARKETING. DISEÑO GRÁFICO, MAQUETACIÓN, Y COMUNICACIÓN AUDIOVISUAL.  DISEÑO Y DECORACIÓN DE STANDS, ESCENOGRAFÍAS, VESTUARIO Y OTROS PROYECTOS CREATIVOS",
      "mainEntityOfPage": "https://www.contratacion.euskadi.eus/webkpe00-kperoc/es/ac71aBusquedaRegistrosWar/empresa/06223",
      "_links": {
        "self": {
          "name": "MANITU COMUNICACIÓN, S.L.",
          "href": "https://api.euskadi.eus/procurements/companies/06223"
        }
      }
    }
  ]
}