{
  "totalItems": 9042,
  "totalPages": 905,
  "currentPage": 26,
  "itemsOfPage": 10,
  "items": [
    {
      "name": "ISUSKO ARTABE RODRIGUEZ Y ANA HERRERO CARDOSO, S.C.",
      "registrationNumber": "10518",
      "identificationNumber": "J02660207",
      "address": "Calle El Pinar 5J, 4º dcha",
      "location": {
        "postalCode": "48930",
        "municipality": "Getxo",
        "county": "Bizkaia",
        "municipalityId": "044",
        "countyId": "48"
      },
      "economicActivities": [
        {
          "id": "1.844",
          "name": "Servicios de publicidad, relaciones públicas y similares",
          "_links": {
            "self": {
              "name": "Servicios de publicidad, relaciones públicas y similares",
              "href": "https://api.euskadi.eus/procurements/companies/economic-activities/1.844"
            }
          }
        }
      ],
      "certificateStartDate": "2026-02-03",
      "certificateEndDate": "2026-08-03",
      "object": "LA PRESTACIÓN DE SERVICIOS PUBLICITARIOS, CONSULTORÍA DE COMUNICACIÓN Y AGENCIA CREATIVA.",
      "mainEntityOfPage": "https://www.contratacion.euskadi.eus/webkpe00-kperoc/es/ac71aBusquedaRegistrosWar/empresa/10518",
      "_links": {
        "self": {
          "name": "ISUSKO ARTABE RODRIGUEZ Y ANA HERRERO CARDOSO, S.C.",
          "href": "https://api.euskadi.eus/procurements/companies/10518"
        }
      }
    },
    {
      "name": "URANGA ROYO UR ARQUITECTURA S.L.P.",
      "registrationNumber": "06246",
      "identificationNumber": "B75206870",
      "address": "Paseo Zubiberri 31 Edificio Urumea Planta Baja Local 3",
      "location": {
        "postalCode": "20018",
        "municipality": "Donostia / San Sebastián",
        "county": "Gipuzkoa",
        "municipalityId": "069",
        "countyId": "20"
      },
      "economicActivities": [
        {
          "id": "1.843.2",
          "name": "Servicios técnicos de arquitectura y urbanismo",
          "_links": {
            "self": {
              "name": "Servicios técnicos de arquitectura y urbanismo",
              "href": "https://api.euskadi.eus/procurements/companies/economic-activities/1.843.2"
            }
          }
        }
      ],
      "certificateStartDate": "2026-02-03",
      "certificateEndDate": "2026-07-14",
      "object": "SERVICIOS DE ARQUITECTURA",
      "mainEntityOfPage": "https://www.contratacion.euskadi.eus/webkpe00-kperoc/es/ac71aBusquedaRegistrosWar/empresa/06246",
      "_links": {
        "self": {
          "name": "URANGA ROYO UR ARQUITECTURA S.L.P.",
          "href": "https://api.euskadi.eus/procurements/companies/06246"
        }
      }
    },
    {
      "name": "OBRAS HIDRÁULICAS HIDROARABA, S.L.",
      "registrationNumber": "05754",
      "identificationNumber": "B01511955",
      "address": "C/ TRATADO DE PARÍS 1 PABELLÓN 20 - P.I. SUBILLABIDE",
      "location": {
        "postalCode": "01230",
        "municipality": "Iruña Oka/Iruña de Oca",
        "county": "Araba/Álava",
        "municipalityId": "901",
        "countyId": "01"
      },
      "economicActivities": [
        {
          "id": "1.501.2",
          "name": "Construcción completa, reparación y conservación obras civiles",
          "_links": {
            "self": {
              "name": "Construcción completa, reparación y conservación obras civiles",
              "href": "https://api.euskadi.eus/procurements/companies/economic-activities/1.501.2"
            }
          }
        }
      ],
      "certificateStartDate": "2026-02-03",
      "certificateEndDate": "2026-07-27",
      "object": "- INSTALACIONES DE REDES DE DISTRIBUCIÓN DE AGUA, RIEGOS, BOMBEOS, SANEAMIENTO Y ABASTECIMIENTO. DEPURACIÓN Y FILTRACIÓN DE AGUA, ASÍ COMO LA COMPRAVENTA AL POR MAYOR Y/O POR MENOR DE PIEZAS Y UTENSILIOS RELACIONADOS CON LA ACTIVIDAD DESCRITA ANTERIORMENTE. - INSTALACIÓN Y COMERCIO DE FONTANERÍA Y CALEFACCIÓN ASÍ COMO LA COMPRAVENTA AL POR MAYOR Y/O POR MENOR DE MATERIALES RELACIONADOS CON DICHA ACTIVIDAD. - REALIZACIÓN DE ESTUDIOS DE INGENIERÍA Y TOPOGRAFÍA. - DISEÑO, INSTALACIÓN Y CONSTRUCCIÓN DE PARQUES Y JARDINES. - REALIZACIÓN DE ESTUDIOS E INSTALACIONES DE MEDIO AMBIENTE O PROTECCIÓN AMBIENTAL. - LA EXPLOTACIÓN, PROMOCIÓN Y PUESTA EN PRODUCCIÓN DE TODA CLASE DE ACTIVIDADES AGRÍCOLAS, GANADERAS, PECUARIAS, CINEGÉTICAS Y FORESTALES, MEDIANTE EL EJERCICIO DE DICHAS ACTIVIDADES POR SÍ O A TRAVÉS DE TERCEROS. - LA ADQUISICIÓN, URBANIZACIÓN, PARCELACIÓN, CONSTRUCCIÓN, EDIFICACIÓN, CONSTITUCIÓN EN PROPIEDAD HORIZONTAL, REFORMA, AMPLIACIÓN, EXPLOTACIÓN DIRECTA O INDIRECTA, ENAJENACIÓN, ARRENDAMIENTO Y PROMOCIÓN Y EN GENERAL, TODA ACTIVIDAD RELATIVA A BIENES INMUEBLES, ASÍ RÚSTICOS COMO URBANOS, Y LA REALIZACIÓN DE OBRAS PRIVADAS Y/O PÚBLICAS Y TODA SUERTE DE INVERSIONES Y PROMOCIONES RELACIONADAS CON EL RAMO DE LA CONSTRUCCIÓN, ACUDIENDO A SUBASTAS Y CONTRATACIONES PÚBLICAS Y PRIVADAS. - REALIZACIÓN DE CANALIZACIONES ELÉCTRICAS",
      "mainEntityOfPage": "https://www.contratacion.euskadi.eus/webkpe00-kperoc/es/ac71aBusquedaRegistrosWar/empresa/05754",
      "_links": {
        "self": {
          "name": "OBRAS HIDRÁULICAS HIDROARABA, S.L.",
          "href": "https://api.euskadi.eus/procurements/companies/05754"
        }
      }
    },
    {
      "name": "IGUALATORIO MÉDICO QUIRÚRGICO PREVENCIÓN, S.L.",
      "registrationNumber": "03478",
      "identificationNumber": "B95431367",
      "address": "CTRA ASUA A ERLETXES. POL TORRELARRAGOITI PARC. 2F-7",
      "location": {
        "postalCode": "48170",
        "municipality": "Zamudio",
        "county": "Bizkaia",
        "municipalityId": "905",
        "countyId": "48"
      },
      "economicActivities": [
        {
          "id": "1.659.3",
          "name": "Venta al por menor de aparatos médicos, ortopédicos, ópticos y fotográficos",
          "_links": {
            "self": {
              "name": "Venta al por menor de aparatos médicos, ortopédicos, ópticos y fotográficos",
              "href": "https://api.euskadi.eus/procurements/companies/economic-activities/1.659.3"
            }
          }
        },
        {
          "id": "1.843.9",
          "name": "Otros servicios técnicos n.c.o.p",
          "_links": {
            "self": {
              "name": "Otros servicios técnicos n.c.o.p",
              "href": "https://api.euskadi.eus/procurements/companies/economic-activities/1.843.9"
            }
          }
        },
        {
          "id": "1.942.1",
          "name": "Consultorios médicos, centros de socorro sanitarios y urgencias",
          "_links": {
            "self": {
              "name": "Consultorios médicos, centros de socorro sanitarios y urgencias",
              "href": "https://api.euskadi.eus/procurements/companies/economic-activities/1.942.1"
            }
          }
        }
      ],
      "certificateStartDate": "2026-02-03",
      "certificateEndDate": "2026-07-14",
      "object": "LA ACTUACIÓN COMO SERVICIO DE PREVENCIÓN AJENO PARA LAS EMPRESAS ASOCIADAS EN CADA MOMENTO A &quot;MUTUALIA&quot;, MUTUA DE ACCIDENTES DE TRABAJO Y ENFERMEDADES PROFESIONALES DE LA SEGURIDAD SOCIAL Nº 20, EN CUMPLIMIENTO DE LO DISPUESTO EN EL ARTÍCULO 13 DEL REAL DECRETO 1993/1995, DE 7 DE DICIEMBRE, QUE APRUEBA EL REGLAMENTO SOBRE COLABORACIÓN DE LAS MUTUAS DE ACCIDENTES DE TRABAJO Y ENFERMEDADES PROFESIONALES EN LA GESTIÓN DE LA SEGURIDAD SOCIAL, EN LA REDACCIÓN DADA AL MISMO POR EL REAL DECRETO 688/2005, DE 10 DE JUNIO, ASÍ COMO DEMÁS NORMATIVA CONCORDANTE QUE RESULTE DE APLICACIÓN",
      "mainEntityOfPage": "https://www.contratacion.euskadi.eus/webkpe00-kperoc/es/ac71aBusquedaRegistrosWar/empresa/03478",
      "_links": {
        "self": {
          "name": "IGUALATORIO MÉDICO QUIRÚRGICO PREVENCIÓN, S.L.",
          "href": "https://api.euskadi.eus/procurements/companies/03478"
        }
      }
    },
    {
      "name": "ACUNTIA, S.A.",
      "registrationNumber": "04004",
      "identificationNumber": "A80644081",
      "address": "CALLE QUINTANAVIDES, Nº 15. EDIFICIO 2, PLANTA 3ª (PARQUE EMPRESARIAL VÍA NORTE)",
      "location": {
        "postalCode": "28050",
        "municipality": "Madrid",
        "county": "Madrid",
        "municipalityId": "079",
        "countyId": "28"
      },
      "economicActivities": [
        {
          "id": "1.615.4",
          "name": "Venta al por mayor de aparatos y material radioeléctrico y electrónico",
          "_links": {
            "self": {
              "name": "Venta al por mayor de aparatos y material radioeléctrico y electrónico",
              "href": "https://api.euskadi.eus/procurements/companies/economic-activities/1.615.4"
            }
          }
        },
        {
          "id": "1.699",
          "name": "Otras reparaciones n.c.o.p",
          "_links": {
            "self": {
              "name": "Otras reparaciones n.c.o.p",
              "href": "https://api.euskadi.eus/procurements/companies/economic-activities/1.699"
            }
          }
        },
        {
          "id": "1.843.1",
          "name": "Servicios técnicos de ingeniería",
          "_links": {
            "self": {
              "name": "Servicios técnicos de ingeniería",
              "href": "https://api.euskadi.eus/procurements/companies/economic-activities/1.843.1"
            }
          }
        },
        {
          "id": "1.845",
          "name": "Explotación electrónica por cuenta de terceros",
          "_links": {
            "self": {
              "name": "Explotación electrónica por cuenta de terceros",
              "href": "https://api.euskadi.eus/procurements/companies/economic-activities/1.845"
            }
          }
        }
      ],
      "certificateStartDate": "2026-02-03",
      "certificateEndDate": "2026-07-22",
      "object": "FABRICACIÓN, COMPRA, VENTA, IMPORTACIÓN, EXPORTAICÓN, MANTENIMIENTO Y DISTRIBUCIÓN, DE FORMA DIRECTA O INDIRECTA, POR CUENTA PROPIA ODE TERCEROS, DE MATERIAL ELECTRÓNICO, ELECTROMECÁNICO, ELECTROTÉCNICO Y DE TELECOMUNICACIÓN, ASÍ COMO LA REALIZACIÓN DE CURSOS DE FORMAICÓN Y PUBLICACIONES RELATIVAS A ESTOS MATERIALES; NEGOCIAR Y POSEER ACCIONES, PARTICIPACIONES, OBLIGACIONES, BONOS, PAGARÉS LETRAS Y OTROS VALORES PÚBLICOS O PRIVADOS, Y EN GENERAL, ACTIVOS FINANCIEROS, SIN NINGUNA DE LAS CARACTERÍSTICAS PROPIAS DE ACTIVIDADES RESERVADAS A LAS SOCIEDADES DE INVERSIÓN COLECTIVA; NEGOCIAR Y POSEER BIENES INMUBELES, RÚSTICOS O URBANOS, CONSTRUIDOS O NO; CONCEPCIÓN, DESARROLLO, VENTA Y PUESTA EN MARCHA DE PROYECTOS DE INGENERÍA DE SISTEMAS DE INTEGRACIÓN DE VOZ, DATOS E IMAGEN, SISTEMAS DE CABLEADO, REDES LOCALES Y TECNOLOGÍA DE FIBRA ÓPTICA, ASÍ COMO LA PRESTACIÓN DE SERVICIOS RELATIVOS A TALES SISTEMAS Y PROYECTOS, INCLUYENDO OTROS SERVICOS DE VALOR AÑADIDO; PRESTACIÓN DE SERVICIOS ASOCIADOS A LA PUESTA EN FUNCIONAMIENTO, EL SEGUIMIENTO, LA GESTIÓN Y CONTROL DE EQUIPOS Y SISTEMAS INFORMÁTICOS Y DE LAS INFRAESTRUCTURAS TELEMÁTICAS, PARA LA ADECUADA EXPLOTACIÓN DE PROGRAMAS Y APLICACIONES INFORMÁTICAS; IGUALMENTE, LA PRESTACIÓN DE SERVICIOS RELATIVOS A LA PLANIFICACIÓN, ANÁLISIS, DISEÑO, CONSTRUCIÓN, REALIZACIÓN DE PRUEBAS Y MANTENIMIENTO DE PROGRAMAS Y APLICACIONES INFORMÁTICAS; PRESTACIÓN DE SERVICIOS DE COMUNICACIÓN DE VOZ Y/O DATOS, ALQUILER DE CIRCUITOS PARA LA TRANSMISIÓN DE VOZ Y/O DATOS, ASÍ COMO LA PROVISIÓN DE LOS MEDIOS TÉCNICOS Y HUMANOS NECESARIOS PARA QUE LOS USUARIOS FINALES DE LAS REDES DE TELECOMUNICACIONES ACCEDAN Y TENGAN PRESENCIA EN INTERNET Y OTROS SERVICIOS DE VALOR AÑADIDO SOBRE REDES DE TELECOMUNICACIONES; REALIZACIÓN DE TRABAJOS TÉCNICOS PARA DISEÑAR, CONSTRUIR Y EJECUTAR LAS PRUEBAS QUE PERMITEN LA EVALUACIÓN DE UN PRODUCTO O SISTEMA RESPECTO DE UNOS CRITERIOS O MÉTODOS DE EVALUACIÓN PARA DETERMINAR SU COMPORTAMIENTO ANTE LAS CARACTERÍSTICAS Y FUNCIONALIDADES QUE LE SON ATRIBUIDAS PARA CERTIFICAR LOS RESULTADOS OBTENIDOS; EL ARRENDAMIENTO, CUALQUIERA QUE SEA SU MODALIDAD, INCLUYENDO EL ARRENDAMIENTO EMPRESAIRAL Y EL LEASING OPERATIVO, DE CUALQUIER MAQUINARIA, EQUIPO, PRODUCTO O MATERIAL QUE SEA PROPIEDAD O ESTÉ EN POSESIÓN DE LA SOCIEDAD; PARA EL EJERCICIO DE LAS ACTIVIDADES QUE CONSTITUYEN EL OBJETO SOCIAL SERÁ PRECISO EL CUMPLIMIENTO PREVIO DE LOS REQUISITOS QUE LE LEGISLACIÓN EXIJA EN CADA CASO, TALES COMO TITULACIONES ESPECIALES, INSCRIPCIONES EN REGISTROS U OTROS",
      "mainEntityOfPage": "https://www.contratacion.euskadi.eus/webkpe00-kperoc/es/ac71aBusquedaRegistrosWar/empresa/04004",
      "_links": {
        "self": {
          "name": "ACUNTIA, S.A.",
          "href": "https://api.euskadi.eus/procurements/companies/04004"
        }
      }
    },
    {
      "name": "ANAIAK APLISERVICIOS, S.L.",
      "registrationNumber": "07757",
      "identificationNumber": "B01301936",
      "address": "AVDA.8 DE MARZO  N º 10",
      "location": {
        "postalCode": "01002",
        "municipality": "Vitoria-Gasteiz",
        "county": "Araba/Álava",
        "municipalityId": "059",
        "countyId": "01"
      },
      "economicActivities": [
        {
          "id": "1.501.1",
          "name": "Construcción completa, reparación y conservación de edificaciones",
          "_links": {
            "self": {
              "name": "Construcción completa, reparación y conservación de edificaciones",
              "href": "https://api.euskadi.eus/procurements/companies/economic-activities/1.501.1"
            }
          }
        },
        {
          "id": "1.653.9",
          "name": "Venta al por menor de otros artículos para el equipamiento del hogar",
          "_links": {
            "self": {
              "name": "Venta al por menor de otros artículos para el equipamiento del hogar",
              "href": "https://api.euskadi.eus/procurements/companies/economic-activities/1.653.9"
            }
          }
        }
      ],
      "certificateStartDate": "2026-02-03",
      "certificateEndDate": "2026-08-03",
      "object": "REALIZACIÓN DE TRABAJOS  DE PINTURA DE CONSTRUCCIÓN E INDUSTRIAL, RÓTULOS LACADOS Y COLOCACIÓN DE PARQUET",
      "mainEntityOfPage": "https://www.contratacion.euskadi.eus/webkpe00-kperoc/es/ac71aBusquedaRegistrosWar/empresa/07757",
      "_links": {
        "self": {
          "name": "ANAIAK APLISERVICIOS, S.L.",
          "href": "https://api.euskadi.eus/procurements/companies/07757"
        }
      }
    },
    {
      "name": "HIERROS ABRA, S.L.",
      "registrationNumber": "08715",
      "identificationNumber": "B95265682",
      "address": "Polígono Industrial El Abra, P2-2-2",
      "location": {
        "postalCode": "48500",
        "municipality": "Abanto y Ciérvana-Abanto Zierbena",
        "county": "Bizkaia",
        "municipalityId": "002",
        "countyId": "48"
      },
      "economicActivities": [
        {
          "id": "1.314.2",
          "name": "Fabricación de estructuras metálicas",
          "_links": {
            "self": {
              "name": "Fabricación de estructuras metálicas",
              "href": "https://api.euskadi.eus/procurements/companies/economic-activities/1.314.2"
            }
          }
        },
        {
          "id": "1.754.9",
          "name": "Otros depósitos y almacenes especiales n.c.o.p",
          "_links": {
            "self": {
              "name": "Otros depósitos y almacenes especiales n.c.o.p",
              "href": "https://api.euskadi.eus/procurements/companies/economic-activities/1.754.9"
            }
          }
        }
      ],
      "certificateStartDate": "2026-02-03",
      "certificateEndDate": "2026-07-19",
      "object": "-LA FABRICACIÓN DE FERRALLA PARA OBRAS DE HORMIGÓN ARMADO, COMERCIO MENOR DE METALES DE TODAS CLASES Y SUS ALEACIONES EN FORMA DE ALAMBRES, BARRAS, LINGOTES, GALÁPAGOS, PLANCHAS, TUBOS, AROS, FLEJES, EJES, MUELLES, BALLESTAS O LIMONERAS. -LA FABRICACIÓN, CONSTRUCCIÓN, REPARACIÓN, MONTAJES, DISEÑO, PLANIFICACIÓN, ESTUDIOS TÉCNICOS, INFORMES, ASISTENCIA TÉCNICA, MANTENIMIENTO DE INSTALACIONES, ALQUILER Y TRANSPORTE, DE ESTRUCTURAS METÁLICAS PARA TODA CLASE DE EDIFICACIONES. -TODA CLASE DE TRABAJOS DE FORJA, SOLDADURA Y CALDERERÍA. -RECUBRIMIENTOS Y PINTURA DE TODA CLASE DE ESTRUCTURAS. -LA PROMOCIÓN Y EJECUCIÓN COMPLETA O POR RAMAS DE TODA CLASE DE OBRAS DE CONSTRUCCIÓN E INDUSTRIALES, ASÍ COMO REPARACIÓN O CONSERVACIÓN DE LAS MISMAS, BIEN POR CUENTA PROPIA O DE TERCEROS. -LA COMPRA-VENTA, CONSTRUCCIÓN Y EL ARRENDAMIENTO DE TODO TIPO DE BIENES INMUEBLES.",
      "mainEntityOfPage": "https://www.contratacion.euskadi.eus/webkpe00-kperoc/es/ac71aBusquedaRegistrosWar/empresa/08715",
      "_links": {
        "self": {
          "name": "HIERROS ABRA, S.L.",
          "href": "https://api.euskadi.eus/procurements/companies/08715"
        }
      }
    },
    {
      "name": "API MOVILIDAD, S.A.",
      "registrationNumber": "05255",
      "identificationNumber": "A78015880",
      "address": "C/ VIA DE LOS POBLADOS, 9-11",
      "location": {
        "postalCode": "28033",
        "municipality": "Madrid",
        "county": "Madrid",
        "municipalityId": "079",
        "countyId": "28"
      },
      "economicActivities": [
        {
          "id": "1.501.2",
          "name": "Construcción completa, reparación y conservación obras civiles",
          "_links": {
            "self": {
              "name": "Construcción completa, reparación y conservación obras civiles",
              "href": "https://api.euskadi.eus/procurements/companies/economic-activities/1.501.2"
            }
          }
        },
        {
          "id": "1.506.0",
          "name": "Instalaciones de andamios, cimbras, encofrados, etc",
          "_links": {
            "self": {
              "name": "Instalaciones de andamios, cimbras, encofrados, etc",
              "href": "https://api.euskadi.eus/procurements/companies/economic-activities/1.506.0"
            }
          }
        },
        {
          "id": "1.911",
          "name": "Servicios agrícolas y ganaderos",
          "_links": {
            "self": {
              "name": "Servicios agrícolas y ganaderos",
              "href": "https://api.euskadi.eus/procurements/companies/economic-activities/1.911"
            }
          }
        },
        {
          "id": "1.912",
          "name": "Servicios forestales",
          "_links": {
            "self": {
              "name": "Servicios forestales",
              "href": "https://api.euskadi.eus/procurements/companies/economic-activities/1.912"
            }
          }
        }
      ],
      "certificateStartDate": "2026-02-03",
      "certificateEndDate": "2026-06-30",
      "object": "LA REALIZACIÓN DE OBRAS Y SUMINISTROS, ASÍ COMO LA PRESTACIÓN DE SERVICIOS, EN ORDEN A LA CONSRUCCIÓN, CONSERVACIÓN MANTENIMIENTO Y EXPLOTACIÓN, EN CUALQUIERA DE LAS FORMAS PREVISTAS POR LA LEY, DE AUTOPISTAS, AUTOVÍAS, CARRETERAS O CUALQUIER OTRA OBRA PÚBLICA, ASÍ COMO LA PRESTACIÓN DE LOS SERVICIOS PARA LA ADOPCIÓN DE MEDIDAS ESPECIALES DE CIRCULACIÓN EN AUTOPISTAS, AUTOVÍAS Y CARRETERAS. LA PREPARACIÓN, CONSERVACIÓN Y MANTENIMIENTO DE EDIFICIOS, MONUMENTOS Y CONSTRUCCIONES DE CUALQUIER TIPO, ASÍ COMO LA APLICACIÓN DE PINTURAS CON MATERIALES PROPIOS O AJENOS, BARNICES, REVESTIMIENTOS DE TODA CLASE DE OBRAS, TANTO PRIVADAS COMO PÚBLICAS. LA REALIZACIÓN DE OBRAS Y SUMINISTROS, ASÍ COMO LA INSTALACIÓN, CONSRVACIÓN Y MANTENIMIENTO DE MARQUESINAS, BANCOS, MESAS, PAPELERAS, BOLARDOS Y CUALQUIER TIPO DE ELEMENTO O CONSTRUCCIÓN QUE TENGA EL CARÁCTER DE MOVILIDAD URBANO. LA REALIZACIÓN DE OBRAS Y SUMINISTROS, ASÍ COMO LA PRESTACIÓN DE SERVICIOS EN ORDEN A LA CONSTRUCCIÓN, LA CONSERVACIÓN Y EL MANTENIMIENTO DE CANALIZACIONES Y REDES DE AGUA Y ALCANTARILLADO, GALERÍAS SUBTARRÁNEAS, ACEQUIAS, EMISARIOS Y DEPÓSITOS Y CISTERNAS. EL MANTENIMIENTO, CONSERVACIÓN Y REPARACIÓN DE INSTALACIONES ELÉCTRICAS, DE EQUIPOS ELÉCTRICOS Y ELECTRÓNICOS Y DE MAQUINARIA EN GENERAL. LA REALIZACIÓN DE ESTUDIOS, INFORMES, PROYECTOS Y DIRECCIÓN, CONSTRUCCIÓN Y EJECUCIÓN DE TODA CLASE DE OBRA. LA PRESTACIÓN DE SERVICIOS DE TRATAMIENTO DE LA INFORMACIÓN Y ACTUALIZACIÓN DE PROGRAMAS Y APLICACIONES INFORMÁTICAS, DE APOYO ADMINISTRATIVO Y DE INFORMACIÓN Y ATENCIÓN TELEFÓNICA. LA PRESTACIÓN CON CARÁCTER ESTABLE DE SERVICIOS DE LIMPIEZA EN GENERAL DE TODA CLASE DE INSTALACIONES, EDIFICIOS, LOCALES, CALLES, VIALES, PISTAS, MONTES, JARDÍNES, PLAYAS, ALCANTARILLAS Y OTROS, ASÍ COMO LOS DE HIGIENIZACIÓN, DESINFECCIÓN, DESINSECTACIÓN Y DESRATIZACIÓN. LA REALIZACIÓN DE OBRAS Y SUMINISTROS Y LA PRESTACIÓN DE SERVICIOS, INCLUIDOS LOS DE VIGILANCIA Y CONTROL, TENDENTES A LA PREVENCIÓN Y APOYO A LA EXTINCIÓN DE INCENDIOS FORESTALES. LA ELABORACIÓN DE ESTUDIOS, INFORMES Y PROYECTOS, LA REALIZACIÓN DE OBRAS Y SUMINISTROS Y LA PRESTACIÓN DE SERVICIOS PARA LA RESTAURACIÓN, CONSERVACIÓN Y MANTENIMIENTO DE MONTES, ÁREAS VERDES, INCLUÍDAS LAS FORESTALES, PARQUES Y JARDÍNES, ASÍ COMO LA RESTAURACIÓN, MANTENIMIENTO Y CONSERVACIÓN HIDROLÓCIGA, LA DE ÁREAS DEGRADADAS Y CUALQUIER OTRA ACTIVIDAD RELACIONADA CON LA RESTAURACIÓN, PROTECCIÓN, CONSRVACIÓN Y MEJORA DEL MEDIO NATURAL, INCLUIDOS LOS TRABAJOS DE PODA, REPOSICÓN, DESBROCE, RIEGOS, ABONADO, TRATAMIENTOS FITOSANITARIOS Y DEMÁS TRABAJOS AGRÍCOLAS Y FORESTALES. LA REALIZACIÓN DE ACTIVIDADES PARA SI O PARA TERCEROS, TANTO SEAN PARTICULARES, SOCIEDADES, ESTADO, COMUNIDADES AUTÓNOMAS, PROVINCIAS, MUNICIPIOS, COMO CUALQUIER OTRA ENTIDAD PÚBLICA O PRIVADA, DE CONSTRUCCIÓN, EDIFICACIÓN, EJECUCIÓN, REPARACIÓN CONSERVACIÓN Y MANTENIMIENTO DE TODA CLASE DE OBRAS, INSTALACIONES ELÉCRICAS, HIDRÁULICAS, DE GAS, DE DEPURACIÓN, DE TRATAMIENTO DE AGUAS, DE SANEAMIENTOS, DE SEGURIDA DE DETECCIÓN, CONTROL Y EXTINCIÓN DE INCENDIOS, DE COGENERACIÓN, DE CONTROL DE TRÁFICO Y REDES SEMAFÓRICAS, DE FRÍO, CALOR Y ACONDICIONAMIENTOS DE AIRE, DE FUENTES ARTÍSTICAS Y ORNAMENTALES, DE DETECCIÓN, CONTROL Y EJECUCIÓN DE PARÁMETROS Y CONTAMINACIONES MEDIOAMBIENTALES, DE TELECOMUNICACIÓN, MEGAFONÍA Y TELEFONÍA, DE SISTEMAS INFORMÁTICOS. LECTURA DE CONTADORES Y MEDIDA DE CONSUMOS. LA GESTIÓN DE COBRO DE IMPUESTOS, ASÍ COMO LOS SERVICIOS PRESTADOS POR LAS ADMINISTRACIONES PÚBLICAS. LA EXPLOTACIÓN, INSTALACIÓN, MANTENIMIENTO DE PARQUÍMETROS Y APARATOS DE MEDICIÓN, PEAJE, CONTROL, VIGILANCIA Y SEGURIDAD DE ESTACIONAMIENTO, APARCAMIENTO DE TODA CLASE DE VEHÍCULOS, ASÍ COMO LA EXPLOTACIÓN EN TODO SU MÁS AMPLIO SENTIDO. VIGILANCIA, SEGURIDAD, RECAUDACIÓN Y TRASLADO DE FONDOS DE ESTACIONAMIENTO Y APARCAMIENTOS DE TODA CLASE DE VEHÍCULOS ASÍ COMO LA EXPLOTACIÓN EN TODO SU MÁS AMPLIO SENTIDO. VIGILANCIA, SEGURIDAD, RECAUDACIÓN Y TRASLADO DE FONDOS DE ESTACIONAMIENTOS Y APARCAMIENTOS DE TODA CLASE DE VEHÍCULOS, ASÍ COMO LA RETIRADA DE LOS MISMOS, DE LAS VÍAS PÚBLICAS. PA PROMOCIÓN, OBTENCIÓN, ARRENDAMIENTO Y EXPLOTACIÓN DE CONCESIONES ADMINISTRATIVAS RELACIONADAS CON LAS ACTIVIDADES ANTES EXPRESADAS. LA GESTIÓN, EXPLOTACIÓN, ADMINISTRACIÓN, MANTENIMIENTO, CONSERVACIÓN, REHABILITACIÓN Y ACONDICIONAMIENTO DE TIDO TIPO DE CONCESIONES EN SU MÁS AMPLIO SENTIDO, TANTO DE AQUELLAS EN LAS QUE FORME PARTE DEL ACCIONARIADO DE LA SOCIEDAD CONCESIONARIA, COMO DE AQUELLAS CON LAS QUE MANENGA ALGÚN TIPO DE ELACIÓN CONTRACTUAL PARA DESARROLLAR ALGUNA DE LAS ACTIVIDADES ANTES RELACIONADAS",
      "mainEntityOfPage": "https://www.contratacion.euskadi.eus/webkpe00-kperoc/es/ac71aBusquedaRegistrosWar/empresa/05255",
      "_links": {
        "self": {
          "name": "API MOVILIDAD, S.A.",
          "href": "https://api.euskadi.eus/procurements/companies/05255"
        }
      }
    },
    {
      "name": "ANJANA DATA, S.L.",
      "registrationNumber": "09240",
      "identificationNumber": "B88463450",
      "address": "Alameda Mazarredo 35, 3A",
      "location": {
        "postalCode": "48009",
        "municipality": "Bilbao",
        "county": "Bizkaia",
        "municipalityId": "020",
        "countyId": "48"
      },
      "economicActivities": [
        {
          "id": "1.845",
          "name": "Explotación electrónica por cuenta de terceros",
          "_links": {
            "self": {
              "name": "Explotación electrónica por cuenta de terceros",
              "href": "https://api.euskadi.eus/procurements/companies/economic-activities/1.845"
            }
          }
        }
      ],
      "certificateStartDate": "2026-02-03",
      "certificateEndDate": "2026-08-02",
      "object": "EL DESARROLLO DE SOFTWARE ESPECÍFICO PARA GOBIERNO DEL DATO Y SU COMERCIALIZACIÓN JUNTO CON LA PRESTACIÓN DE SERVICIOS PROFESIONALES DE CONSULTORÍA Y DE FORMACIÓN ESPECÍFICA EN TORNO A LAS HERRAMIENTAS Y PRODUCTOS QUE DESARROLLE.",
      "mainEntityOfPage": "https://www.contratacion.euskadi.eus/webkpe00-kperoc/es/ac71aBusquedaRegistrosWar/empresa/09240",
      "_links": {
        "self": {
          "name": "ANJANA DATA, S.L.",
          "href": "https://api.euskadi.eus/procurements/companies/09240"
        }
      }
    },
    {
      "name": "ZABALIT IT, S.L.",
      "registrationNumber": "05290",
      "identificationNumber": "B95630562",
      "address": "SAN VICENTE, 1D Local Bajo",
      "location": {
        "postalCode": "48902",
        "municipality": "Barakaldo",
        "county": "Bizkaia",
        "municipalityId": "013",
        "countyId": "48"
      },
      "economicActivities": [
        {
          "id": "1.845",
          "name": "Explotación electrónica por cuenta de terceros",
          "_links": {
            "self": {
              "name": "Explotación electrónica por cuenta de terceros",
              "href": "https://api.euskadi.eus/procurements/companies/economic-activities/1.845"
            }
          }
        }
      ],
      "certificateStartDate": "2026-02-03",
      "certificateEndDate": "2026-08-02",
      "object": "PROPORCIONAR SOLUCIONES TECNOLÓCIAS Y SERVICIOS INFORMÁTICOS ORIENTADOS A TODOS LOS NIVELES, DESDE PARTICULARES, EMPRESAS E INSTITUCIONES PÚBLICAS. ASÍ MISMO OFRECE SOLUCIONES DE INFORMÁTICA PARA LA MEJORA DE LOS PROCESOS DE NEGOCIO. FACILITA A SUS CLIENTES LOS MÉTODOS PARA HACER FRENTE A LOS PROBLEMAS EMPRESARIALES DE INFORMÁTICA MEDIANTE UNA ADECUADA UTILIZACIÓN DE LAS TECNOLOGÍAS DE LA INFORMACIÓN INCLUYENDO SISTEMAS INFORMÁTICOS, SOFTWARE Y REDES",
      "mainEntityOfPage": "https://www.contratacion.euskadi.eus/webkpe00-kperoc/es/ac71aBusquedaRegistrosWar/empresa/05290",
      "_links": {
        "self": {
          "name": "ZABALIT IT, S.L.",
          "href": "https://api.euskadi.eus/procurements/companies/05290"
        }
      }
    }
  ]
}