{
  "totalItems": 9042,
  "totalPages": 905,
  "currentPage": 646,
  "itemsOfPage": 10,
  "items": [
    {
      "name": "LANGEST SL",
      "registrationNumber": "05543",
      "identificationNumber": "B95321790",
      "address": "BAILEN 1 - 1",
      "location": {
        "postalCode": "48003",
        "municipality": "Bilbao",
        "county": "Bizkaia",
        "municipalityId": "020",
        "countyId": "48"
      },
      "economicActivities": [
        {
          "id": "1.843.2",
          "name": "Servicios técnicos de arquitectura y urbanismo",
          "_links": {
            "self": {
              "name": "Servicios técnicos de arquitectura y urbanismo",
              "href": "https://api.euskadi.eus/procurements/companies/economic-activities/1.843.2"
            }
          }
        }
      ],
      "certificateStartDate": "2016-10-26",
      "certificateEndDate": "2017-03-15",
      "object": "1.-LA PROMOCIÓN, CONSTRUCCIÓN, COMPRA , VENTA, ARRENDAMIENTO Y COMERCIALIZACIÓN EN GENERAL DE TODA CLASE DE EDIFICACIONES, TERRENOS, SOLARES, FINCAS RÚSTICAS Y URBANAS; LA EDIFICACIÓN, URBANIZACIÓN, EXCAVACIÓN, CIMENTACIÓN Y DERRIBO, BIEN POR CUENTA PROPIA COMO AJENA, ASÍ COMO LA ENAJENACIÓN , VENTA, ARRIENDO O EXPLOTACIÓN, EN CUALQUIER FORMA DE TODA CLASE DE INMUEBLES, EDIFICIOS, PISOS, APARTAMENTOS, LOCALES COMERCIALES O INDUSTRIALES, OFICINAS Y HOTELES O ESTABLECIMIENTOS DE HOSTELERÍA EN GENERAL. 2..-TODA CLASE DE OPERACIONES INMOBILIARIAS SOBRE FINCAS RÚSTICAS Y URBANAS, PROMOCIÓN DE CONTRATOS O REALIZACIONES DE PARCELACIONES, URBANIZACIONES, CONSTRUCCIONES Y OBRAS PRIVADAS O PÚBLICAS, LA VENTA, HIPOTECA, ARRENDAMIENTO, TRANSFORMACIÓN, MEJORA, ADMINISTRACIÓN, PUESTA EN EXPLOTACIÓN Y LA EXPLOTACIÓN MISMA, DE FINCAS RUSTICAS Y URBANAS, LA ORGANIZACIÓN, PROMOCIÓN, ASESORAMIENTO, Y GESTIÓN EN SU CASO DE SOCIEDADES, COOPERATIVAS, COMUNIDADES, ENTIDADES, GRUPOS O EMPRESAS PARTICULARES ORIENTADAS A LA CONSTRUCCIÓN O URBANIZACIÓN, LA PLANIFICACIÓN Y ESTUDIO DE MERCADOS EN MATERIA INMOBILIARIA. 3.-LA ADMINISTRACIÓN DE FINCAS Y COMUNIDADES, TANTO DE PROPIETARIOS COMO DE AUTOPROMOTORES, ASÍ COMO LA PRESTACIÓN DE TODA CLASE DE SERVICIOS RELACIONADOS CON EL ÁMBITO INMOBILIARIO, ARQUITECTÓNICO, DE TÉCNICA DE LA CONSTRUCCIÓN E INGENIERÍA EN GENERAL, POR MEDIO DE LA FORMULACIÓN, DESARROLLO Y PUESTA EN MARCHA DE ESTUDIOS, ACTUACIONES Y PROYECTOS. 4.-LA GESTIÓN, DIRECCIÓN Y EJECUCIÓN POR CUENTA PROPIA O AJENA DE TODA CLASE DE CONSTRUCCIONES, INSTALACIONES, REFORMAS, REHABILITACIONES, DECORACIONES Y OBRAS DE RESTAURACIÓN EXTERNA O INTERNA DE ESTRUCTURAS Y REVESTIMIENTOS DE EDIFICIOS Y MONUMENTOS; LIMPIEZA, IMPERMEABILIZACIÓN, TRATAMIENTO, PINTURA, RECONSTRUCCIÓN Y LA IMPLANTACIÓN, CUIDADO Y MANTENIMIENTO DE JARDINES Y EXPLOTACIONES FORESTALES. LA SUPERVISIÓN Y CONTROL DE OBRAS, ASÍ COMO LA COORDINACIÓN DE GREMIOS, EL ASESORAMIENTO Y LA ASISTENCIA TÉCNICA DE TODO CUANTO SE RELACIONE CON EL CAMPO DE LA CONSTRUCCIÓN DE EDIFICIOS Y DE LAS OBRAS PÚBLICAS O CIVILES. 5.-LA COMPRA, VENTA, DE TODA CLASE DE MATERIALES DE LA CONSTRUCCIÓN Y/O DECORATIVOS, ASÍ COMO CUALESQUIERA INSTALACIONES, ELEMENTOS O SERVICIOS DE LAS EDIFICACIONES; LA IMPORTACIÓN, EXPORTACIÓN, REPRESENTACIÓN, DISTRIBUCIÓN, EXPLOTACIÓN Y COMERCIALIZACIÓN DE PRODUCTOS ELABORADOS Y SEMIELABORADOS, ARTÍCULOS, BIENES, MERCADERÍAS, EQUIPOS INDUSTRIALES, MAQUINARIA, HERRAMIENTAS, UTILLAJES, REPUESTOS Y ACCESORIOS, ALIMENTOS DE CONSUMO HUMANO Y ANIMAL. 6.-LA ADQUISICIÓN, CESIÓN, TENENCIA, DISFRUTE, ADMINISTRACIÓN, GESTIÓN Y NEGOCIACIÓN EN GENERAL DE VALORES MOBILIARIOS E INMUEBLES; TODO ELLO SIN INCIDIR EN LAS ACTIVIDADES U OPERACIONES REGULADAS POR LA LEGISLACIÓN DE INSTITUCIONES DE INVERSIÓN COLECTIVA Y LEY DE MERCADO DE VALORES. 7.-LA PRESTACIÓN DE SERVICIOS PROFESIONALES DE ASESORÍA DE EMPRESAS EN GENERAL, Y EN PARTICULAR, DE ASESORAMIENTO Y GESTIÓN FISCAL, ASESORAMIENTO Y GESTIÓN CONTABLE, ASESORAMIENTO Y GESTIÓN EN MATERIA LABORAL, ASESORÍA JURÍDICA, SERVICIO DE COBRO DE CRÉDITOS MOROSOS, VALORACIÓN DE EMPRESAS, ESTUDIO Y REDACCIÓN DE ESTATUTOS PARA LA CONSTITUCIÓN DE ENTIDADES DE CUALQUIER NATURALEZA, ESTUDIO Y REDACCIÓN DE PLANES DE VIABILIDAD, ESTUDIO DE TRAMITACIÓN DE SUBVENCIONES, CRÉDITOS Y OTRAS AYUDAS FINANCIERAS DE LOS ORGANISMOS DEL ESTADO CENTRAL, DEL GOBIERNO VASCO Y DE LAS DIPUTACIONES FORALES, DE TODO TIPO DE ENTIDADES PÚBLICAS Y PRIVADAS, PARA TODO TIPO DE EMPRESAS; Y , EN CONCRETO, LA PRESTACIÓN DE SERVICIOS DE VERIFICACIONES REGISTRALES , INFORMES COMERCIALES, GRABACIONES DE DATOS Y RECOBROS. 8.-LA INVESTIGACIÓN Y EL DESARROLLO DE TÉCNICAS ENERGÉTICAS, ACÚSTICAS, ELECTRÓNICAS Y, EN GENERAL, TODA CLASE DE ASISTENCIAS O SERVICIOS RELACIONADOS CON LA INFORMÁTICA. LA REPRESENTACIÓN COMO AGENTE, COMISIONISTA, DELEGADO O CUALQUIER OTRA FORMA DE MEDIACIÓN MERCANTIL DE EMPRESAS NACIONALES O EXTRANJERAS, DE TODA ÍNDOLE, ASÍ COMO LA EXPLOTACIÓN DE PATENTES, Y DEMÁS DERECHOS DE PROPIEDAD, INDUSTRIA, INCLUIDOS LOS MÉTODOS, PROCEDIMIENTOS Y ORGANIZACIÓN DE TRABAJOS INDUSTRIALES, COMERCIALES O DE OTRA ÍNDOLE. 9.-LA FORMACIÓN E INFORMACIÓN DE TODO TIPO DE PERSONAS MEDIANTE CURSOS, SEMINARIOS, JORNADAS, TANTO DE PRESENCIA COMO A DISTANCIA EN CUALQUIER MATERIA, ASÍ COMO LA EDICIÓN DE LOS TEXTOS Y LIBROS ENCAMINADOS A TAL FIN, REVISTAS Y CUALQUIER OTRO MEDIO DE DIFUSIÓN QUE CONSIDERE IDÓNEO PARA SUS FINES; LA GESTIÓN, CREACIÓN, TOMA DE PARTICIPACIONES Y ASESORAMIENTO DE TODO TIPO DE EMPRESAS, CONSULTORÍA, GESTIÓN, DISTRIBUCIÓN, IMPORTACIÓN Y EXPORTACIÓN DE TODO TIPO DE PRODUCTOS CONEXOS CON DICHAS ACTIVIDADES DE FORMACIÓN, INFORMACIÓN Y ASESORAMIENTO. 10.-LA COMPRA , TENENCIA, ENAJENACIÓN Y EXPLOTACIÓN, INCLUSO EN EXCLUSIVA POR Y A FAVOR DE LA SOCIEDAD, DE TÍTULOS, VALORES, ACCIONES, BONOS, OBLIGACIONES, PATENTES, LICENCIAS, MARCAS, RÓTULOS, NOMBRES COMERCIALES Y TODA CLASE DE PERTENENCIAS DE PROPIEDAD INDUSTRIAL O INTELECTUAL, Y CUALESQUIERA OTRA CLASE DE BIENES MUEBLES; TODO ELLO SIN INCIDIR EN LAS ACTIVIDADES U OPERACIONES REGULADAS POR LA LEGISLACIÓN DE INSTITUCIONES DE INVERSIÓN COLECTIVA Y LEY DE MERCADO DE VALORES",
      "mainEntityOfPage": "https://www.contratacion.euskadi.eus/webkpe00-kperoc/es/ac71aBusquedaRegistrosWar/empresa/05543",
      "_links": {
        "self": {
          "name": "LANGEST SL",
          "href": "https://api.euskadi.eus/procurements/companies/05543"
        }
      }
    },
    {
      "name": "ACHE MUNARRIZ Y OSES ARQUITECTURA SLP",
      "registrationNumber": "03966",
      "identificationNumber": "B31643760",
      "address": "Monasterio de Usún nº 1 bajo",
      "location": {
        "postalCode": "31011",
        "municipality": "Pamplona/Iruña",
        "county": "Navarra",
        "municipalityId": "201",
        "countyId": "31"
      },
      "economicActivities": [
        {
          "id": "2.411",
          "name": "Arquitectos",
          "_links": {
            "self": {
              "name": "Arquitectos",
              "href": "https://api.euskadi.eus/procurements/companies/economic-activities/2.411"
            }
          }
        }
      ],
      "certificateStartDate": "2016-10-17",
      "certificateEndDate": "2017-04-15",
      "object": "La actividad propia del ejercicio de la arquitectura",
      "mainEntityOfPage": "https://www.contratacion.euskadi.eus/webkpe00-kperoc/es/ac71aBusquedaRegistrosWar/empresa/03966",
      "_links": {
        "self": {
          "name": "ACHE MUNARRIZ Y OSES ARQUITECTURA SLP",
          "href": "https://api.euskadi.eus/procurements/companies/03966"
        }
      }
    },
    {
      "name": "SHIRE PHARMACEUTICALS IBERICA S.L.",
      "registrationNumber": "05535",
      "identificationNumber": "B82526773",
      "address": "AVDA. PARTENON 16-18",
      "location": {
        "postalCode": "28042",
        "municipality": "Madrid",
        "county": "Madrid",
        "municipalityId": "079",
        "countyId": "28"
      },
      "economicActivities": [
        {
          "id": "1.614.1",
          "name": "Venta al por mayor de productos farmacéuticos y medicamentos",
          "_links": {
            "self": {
              "name": "Venta al por mayor de productos farmacéuticos y medicamentos",
              "href": "https://api.euskadi.eus/procurements/companies/economic-activities/1.614.1"
            }
          }
        }
      ],
      "certificateStartDate": "2016-10-11",
      "certificateEndDate": "2017-03-12",
      "object": "A) GESTIÓN, ASESORAMIENTO Y PRESTACIÓN DE SERVICIOS INFORMÁTICOS, CONTABLES, LABORALES, ADMINISTRATIVOS, DE GESTIÓN DE EMPRESA, DE ESTRUCTURA DE LA MISMA, DE ESTRATEGIAS COMERCIALES E INDUSTRIALES, Y DE ORGANIZACIÓN INTERNA Y EXTERNA, RACIONALIZACIÓN Y PLANIFICACIÓN DE LA EMPRESA, DE LA PRODUCCIÓN Y DE LOS RECURSOS. B) TENENCIA E INVERSIÓN DE ACTIVOS FINANCIEROS Y DE CUALQUIER OTRO TIPO, OBLIGACIONES, ACCIONES, PARTICIPACIONES DE OTRAS COMPAÑÍAS, ASÍ COMO LA COMPRA, VENTA, ARRENDAMIENTO Y GRAVAMEN, EN CUALQUIERA DE SUS FORMAS, DE VALORES, A EXCEPCIÓN DEL ARRENDAMIENTO FINANCIERO Y DE LAS ACTIVIDADES RESERVADAS A LAS ENTIDADES DE INVERSIÓN COLECTIVA, SOCIEDADES Y AGENCIAS DE VALORES. C) ADQUISICIÓN, TENENCIA,  ADMINISTRACIÓN, CESIÓN, ENAJENACIÓN Y ARRENDAMIENTO NO FINANCIERO DE BIENES INMUEBLES, RÚSTICOS O URBANOS, ASÍ COMO LA REALIZACIÓN DE ACTIVIDADES DE PROMOCIÓN INMOBILIARIA. D) PRODUCCIÓN, FABRICACIÓN, COMERCIO, DISTRIBUCIÓN, COMPRA, VENTA, ANÁLISIS, IMPORTACIÓN Y EXPORTACIÓN DE PRODUCTOS FARMACÉUTICOS, PARAFARMACÉUTICOS, HOSPITALARIOS Y SANITARIOS, HOMEOPÁTICOS, DIETÉTICOS Y VETERINARIOS EN SUS MÁS AMPLIOS TÉRMINOS, ASÍ COMO EL ASESORAMIENTO Y LA REALIZACIÓN DE ESTUDIOS DE MERCADO EN RELACIÓN CON LOS CITADOS PRODUCTOS",
      "mainEntityOfPage": "https://www.contratacion.euskadi.eus/webkpe00-kperoc/es/ac71aBusquedaRegistrosWar/empresa/05535",
      "_links": {
        "self": {
          "name": "SHIRE PHARMACEUTICALS IBERICA S.L.",
          "href": "https://api.euskadi.eus/procurements/companies/05535"
        }
      }
    },
    {
      "name": "EVOMED, S.L.",
      "registrationNumber": "05536",
      "identificationNumber": "B82665365",
      "address": "CARRETERA TORREJON AJALVIR KM 5,200",
      "location": {
        "postalCode": "28864",
        "municipality": "Madrid",
        "county": "Madrid",
        "municipalityId": "079",
        "countyId": "28"
      },
      "economicActivities": [
        {
          "id": "1.619.2",
          "name": "Venta al por mayor de aparatos e instrumentos médicos, ortopédicos, ópticos",
          "_links": {
            "self": {
              "name": "Venta al por mayor de aparatos e instrumentos médicos, ortopédicos, ópticos",
              "href": "https://api.euskadi.eus/procurements/companies/economic-activities/1.619.2"
            }
          }
        }
      ],
      "certificateStartDate": "2016-10-11",
      "certificateEndDate": "2017-03-23",
      "object": "A) LA COMERCIALIZACIÓN Y VENTA DE PRODUCTOS MÉDICO-QUIRÚRGICOS, Y LA IMPORTACIÓN Y EXPORTACIÓN DE LOS MISMOS. B) Y LA ADQUISICIÓN, EXPLOTACIÓN Y ENAJENACIÓN DE INMUEBLES",
      "mainEntityOfPage": "https://www.contratacion.euskadi.eus/webkpe00-kperoc/es/ac71aBusquedaRegistrosWar/empresa/05536",
      "_links": {
        "self": {
          "name": "EVOMED, S.L.",
          "href": "https://api.euskadi.eus/procurements/companies/05536"
        }
      }
    },
    {
      "name": "CONTRATAS Y CONSTRUCCIONES BIKANI, S.L.",
      "registrationNumber": "03536",
      "identificationNumber": "B95511481",
      "address": "PASEO LANDABARRI 3,3ª.OF.A EDIF.LA AVANZADA-ARTAZA ETXEA ",
      "location": {
        "postalCode": "48940",
        "municipality": "Leioa",
        "county": "Bizkaia",
        "municipalityId": "054",
        "countyId": "48"
      },
      "economicActivities": [
        {
          "id": "1.507",
          "name": "Construcción, reparación y conservación de toda clase obras",
          "_links": {
            "self": {
              "name": "Construcción, reparación y conservación de toda clase obras",
              "href": "https://api.euskadi.eus/procurements/companies/economic-activities/1.507"
            }
          }
        }
      ],
      "certificateStartDate": "2016-10-05",
      "certificateEndDate": "2017-03-21",
      "object": "A) LA PROMOCIÓN, URBANIZACIÓN, CONSTRUCCIÓN Y REFORMA DE TODA CLASE DE FINCAS, RÚSTICAS O URBANAS PARA REALIZAR EN LAS MISMAS LA CONSTRUCCIÓN DE TODO TIPO DE EDIFICIOS, VIVIENDAS, LOCALES, COMERCIALES, CHALETS O NAVES, TANTO COMERCIALES COMO INDUSTRIALES, PÚBLICOS O PRIVADOS; REALIZAR OBRAS DE IRRIGACIÓN Y SANEAMIENTO; ENAJENAR Y ADQUIRIR PARCELAS Y SOLARES; LLEVAR A EFECTO LAS ACTIVIDADES MENCIONADAS DIRECTAMENTE PPOR LA PROPIA SOCIEDAD CUANTO LAS REALIZARA SOBRE BIENES PROPIOS, O EFECTUAR SU EJECUCIÓN POR CUALQUIERA DE LOS MEDIOS LEGALES, CUANDO SE TRATARE DE OBRAS AJENAS; ACOGER LAS ACTIVIDADES MENCIONADAS A PROGRAMAS OFICIALES DE CONSTRUCCIÓN Y OBTENER LAS CORRESPONDIENTES PROTECCIONES OFICIALES, SUBVENCIONES Y BONIFICACIONS; Y EN GENERAL, DESARROLLAR EN TODA SU EXTENSIÓN LAS ACTIVIDADES DE LA CONSTRUCCIÓN, YA SEAN OBRAS PROPIAS O AJENAS; B) LA COMPRA Y VENTA DE FINCAS RÚSTICAS Y URBANAS, INCLUSO LA ADQUISICIÓN DE DICHAS FINCAS, AUNQUE EN LAS MISMAS EXISTIEREN CONSTRUCCIONES DE CUALQUIER TIPO Y SU ADQUISICIÓN SE EFECTUARA PARA SU DEMOLICIÓN Y NUEVA CONSTRUCCIÓN; Y LA ENAJENACIÓN Y EXPLOTACIÓN COMECIAL, A TRAVÉS DE CUALESQUIERA FORMAS VÁLIDAS EN DERECHO, DE TODAS LAS CONSTRUCCIONES REALIZADAS POR LA SOCIEDAD O DE FINCAS RÚSTICAS O URBANAS QUE FUEREN PROPIEDAD DE LA MISMA; C) LA EXPLOTACIÓN DE LOCALES DESTINADOS A GARAJES, APARCAMIENTOS Y TALLERES DE REPARAICÓN DE TODA CLASE DE VEHÍCULOS, TANTO DE LA SOCIEDAD COMO DE TERCERAS PERSONAS Y, EN RELACIÓN CON LAS ACTIVIDADES MENCIONADAS, REALIZAR LA COMPRA Y VENTA DE TODA CLASE DE VEHÍCULOS Y SUS ACCESORIOS; Y DESARROLLAR CUANTO SE DETALLA EN ESTE APARTADO BIEN EN NOMBRE PROPIO, BIEN EN COLABORAICÓN CON CUALQUIER CLASE DE PERSONAS, FÍSICAS O OJURÍDICAS, PÚBLICAS O PRIVADAS; D) EL DESARROLLO Y EJECUCIÓN DE OPERACIONES COMERCIALE SO INDUSTRIALES, O DE SERIVCIOS, OQUE TENGAN DIRECTA RELACIÓN CON EL NEGOCIO DE LA CONSTRUCCIÓN INMOBILIARIA EN GENERAL; LA PROMOCIÓN Y REALIZACIÓN DE LOS ESTUDIOS Y GESTIONES PRECIOS QUE FUEREN NECESARIOS A NIVEL NACIONAL O INTERNACIONAL Y EN TODOS LOS CAMOS, TÉCNICO, ECONÓMICO, SOCIAL, ESTUDIO DE MERCADOS, PROPIEDAD INDUSTRIAL EINTELECTUAL, ADMINISTRATIVO, FISCAL, ETC. PARA LA COMPLETA PLANIFICACIÓN, CREACIÓN Y PUESTA EN MARCHA DE LOS CITADOS NEGOCIOS, BIEN POR CUENTA DE LA SOCIEDAD O POR CUENTA DE TERCERAS PERSONAS FÍSICAS O JURÍDICAS, PÚLBICAS O PRIVADAS; E) LA COMPRA Y VENTA AL POR MAYOR Y MENOR, Y LA IMPORTACIÓN Y EXPORTACIÓN DE TODA CLASE DE MATERIALES, MERCANTÍAS, MAQUINARIAS, PRODUCTOS, ACCESORIOS Y VEHÍCULOS, ASÍ COMO LA OBTENCIÓN Y EXPLOTACIÓN EN SU CASO, DE PERMISOS, CONCESIONES, PATENTES, MARCAS Y MODELOS QUE GUARDEN RELACIÓN CON LAS ACTIVIDADES PREVISTAS EN LOS APARTADOS A), B), C) Y D) PRECEDENTES; F) LA EXPLOTACIÓN COMERCIAL O INDUSTRIAL EN CUALQUIER FORMA ECONÓMICA O POR CUALQUIER TÍTULO JURÍDICO DE: PROCEDIMIENTOS DE FABRICACIÓN O VENTA DE MARCAS COMERCIALES E INDUSTRIALES, PATENTES DE INVENCIÓN, INTRODUCCIÓN O CUALQUIER OTRA MODALIDAD Y DE MODELOS DE IUTILIDAD; OSTENTAR LA REPRESENTACIÓN DE FIRMAS Y EMPRESAS COMERCIALES, INDUSTRIALES O FINANCIERAS, FÍSICAS O JURÍDICAS, PÚBLICAS O OPRIVADAS, Y ASÍ NACIONALES O EXTRANJERAS; Y COLABORAR CON LAS MISMAS MEDIANTE CUALQUIER TIPO DE ASOCIACIÓN LEGAL; TODO ELLO, SIEMPRE QUE SE TRATE DE ACTIVIDADES RELACIONADAS CON LAS QUE SE DETALLAN EN LOS APARTADOS A), B), C) Y D) PRECEDENTES; G) LA FABRICACIÓN, CONSTRUCCIÓN, TRANSFORMACIÓN O ELABORACIÓN DE MATERIALES, PIEZAS, O ELEMENTOS DEL RAMO DE LA CONSTRUCCIÓN, ASÍ COMO SU IMPORTACIÓN O EXPORTACIÓN, Y QUE SEAN COMPLEMENTARIOS Y ESTÉN EN RELACIÓN DIRECTA O INDIRECTA CON LAS ACTIVIDADES SEÑALADAS EN EL APARTADO A) PRECEDENTE; H) LA PROMOCIÓN, ORGANIZACIÓN, PLANIFICACIÓNM, REPARCELACIÓN, ENAJENACIÓN Y EXPLOTACIÓN COMERCIAL, EN NFORMA LEGAL, DE ZONAS O POLÍGOCNOS URBANOS, CON FINES INDUSTRIALES O RESIDENCIALES Y POR CUENTA PROPIA O AJENA; I) LA PROMOCIÓN Y CREACIÓN, EN CUALQUIER FORMA LEGAL, DE COMUNIDADES Y AGRUPACIONES DE PROPIETARIOS DE FINCAS URBANAS Y DE ENTIDADES SIMILARES DE TODO GÉNERO, ASÍ COMO SU DIRECCIÓN Y ADMINISTRACIÓN; J) LA EJECUCIÓN Y MANTENIMIENTO DE INSTALACIONES ELÉCTRICAS EN GENERAL, EN ALTA, BAJA Y MEDIA TENSIÓN, INSTALACIONES DE TELECOMUNICACIONES, INSTALACIONES ELECTRÓNICAS E INSTALACIONES DE SISTEMAS DE SEÑALIZACIÓN Y BALIZACIÓN DE PUERTOS, EROPUERTOS Y CARRETERAS, INSTALACIONES DE SEGURIDAD Y CONTRA INCENDIOS; K) LA EJECUCIÓN Y MANTENIMIENTO DE INSTALACIONES MECÁNICAS EN GENERAL, INSTALACIONES DE CALEFACCIÓN, VENTILACIÓN Y CLIMATIZACIÓN, INSTALACIONES ELEVADORAS Y TRANSPORTADORAS E INSTALACIÓN DE TRATAMIENTO DE AGUAS DE TODO TIPO; L) LA CONSTRUCCIÓN COMPLETA, REPARACÓN Y CONSERVACIÓN DE EDIFICACIONEES Y OBRAS CIVILES; LL) CONTRATAR OBRA SY SERVICIOS CON CUALQUIER ORGANISMO DE LAS ADMINISTRACIONES PÚBLICAS Y CON TODA CLASE DE ENTIDADES Y PARTICULARES; M) LA MEDIACIÓN Y COORDINACÓN EN LA REDACCIÓN Y CONFECCÓN DE PROYECTOS TÉCNICOS DE TODO TIPO, DIRECCIÓN DE OBRA Y CONTROL DE CALIDAD, REALIZACIÓN DE ESTUDIOS E NFORMES Y ASESORAMIENTO TÉCNICO; N) LA PLANTACÓN Y MANTENIMIENTO DE PARQUES Y JARDINES. PLANTACIÓN Y MATENIMIENTO FORESTALES, REPOBLACIÓN FORESTAL, LUCHA CONTRA PLAGASY LUCHA, DEFENSA Y PREVENCIÓN CONTRA INCENDIOS FORESTALES ",
      "mainEntityOfPage": "https://www.contratacion.euskadi.eus/webkpe00-kperoc/es/ac71aBusquedaRegistrosWar/empresa/03536",
      "_links": {
        "self": {
          "name": "CONTRATAS Y CONSTRUCCIONES BIKANI, S.L.",
          "href": "https://api.euskadi.eus/procurements/companies/03536"
        }
      }
    },
    {
      "name": "POLICARE SPAGNA S.L.",
      "registrationNumber": "04670",
      "identificationNumber": "B85549020",
      "address": "JEREZ DE LOS CABALLEROS 2",
      "location": {
        "postalCode": "28043",
        "municipality": "Madrid",
        "county": "Madrid",
        "municipalityId": "079",
        "countyId": "28"
      },
      "economicActivities": [
        {
          "id": "1.614.1",
          "name": "Venta al por mayor de productos farmacéuticos y medicamentos",
          "_links": {
            "self": {
              "name": "Venta al por mayor de productos farmacéuticos y medicamentos",
              "href": "https://api.euskadi.eus/procurements/companies/economic-activities/1.614.1"
            }
          }
        },
        {
          "id": "1.619.2",
          "name": "Venta al por mayor de aparatos e instrumentos médicos, ortopédicos, ópticos",
          "_links": {
            "self": {
              "name": "Venta al por mayor de aparatos e instrumentos médicos, ortopédicos, ópticos",
              "href": "https://api.euskadi.eus/procurements/companies/economic-activities/1.619.2"
            }
          }
        }
      ],
      "certificateStartDate": "2016-09-27",
      "certificateEndDate": "2017-03-27",
      "object": "LA PRODUCCIÓN, COMERCIALIZACIÓN, SEA POR CUENTA PROPIA O A TRAVÉS DE TERCEROS, REPRESENTACI´NO, CONSULTORÍA Y LA ACTIVIDAD DE AGENCIA COMERCIAL EN MATERIA DE DISPOSITIVOS MÉDICO-QUIRÚRGICOS, DE PRODUCTOS, IMPLANTACIONES, APARATOS, MATERIALES Y ACCESORIOS PARAFARMACÉUTICOS, MÉDICOS, PAREMÉDICOS, HOSPITALARIOS, ELECTROMÉDICOS Y FISIOTERAPÉUTICOS PARA LA HIGIENE Y LA SANIDAD, Y DE VESTIMENTA PARA USO MÉDICO. EL ALQUILER, COMODATO Y MANTENIMIENTO DE APARATOS MÉDICOS Y ELECTROMÉDICOS EN GENERAL. LA REALIZACIÓN DE SERVICIOS RELATIVOS A LOS APARATOS Y A LOS PRODUCTOS ANTES INDICADOS. LA PROYECCIÓN, REALIZACIÓN Y GESTIÓN DE CENTROS PARA CURAS A DOMICILIO Y DE CENTROS DE MEDICINA Y CIRUGÍA, SEAN DE CARÁCTER CONCERTADO O NO CONCERTADO",
      "mainEntityOfPage": "https://www.contratacion.euskadi.eus/webkpe00-kperoc/es/ac71aBusquedaRegistrosWar/empresa/04670",
      "_links": {
        "self": {
          "name": "POLICARE SPAGNA S.L.",
          "href": "https://api.euskadi.eus/procurements/companies/04670"
        }
      }
    },
    {
      "name": "EXPORIGGING, S.L.",
      "registrationNumber": "04982",
      "identificationNumber": "B95317723",
      "address": "Avda. Zugazarte, 8-3ª planta. Dpto. 5",
      "location": {
        "postalCode": "48930",
        "municipality": "Getxo",
        "county": "Bizkaia",
        "municipalityId": "044",
        "countyId": "48"
      },
      "economicActivities": [
        {
          "id": "1.505.5",
          "name": "Carpintería y cerrajería",
          "_links": {
            "self": {
              "name": "Carpintería y cerrajería",
              "href": "https://api.euskadi.eus/procurements/companies/economic-activities/1.505.5"
            }
          }
        }
      ],
      "certificateStartDate": "2016-09-14",
      "certificateEndDate": "2017-01-21",
      "object": "LA REALIZACIÓN DE TRABAJOS ESPECIALES A BASE DEL MANTENIMIENTO, REPARACIONES E INSTALACIONES Y MONTAJES DE CUALQUIER TIPO PARA LA CONSTRUCCIÓN E INDUSTRIA Y ESPECTÁCULO EN GENERAL. LA PRODUCCIÓN, ORGANIZACIÓN, MONTAJE E INSTALACIONES DE CONCIERTOS, CONGRESOS, CONVENCIONES, ASAMBLEAS, ESPECTÁCULOS, GABINETES DE PRENSA, FERIAS, VERBENAS, REPRESENTACIONES Y ACTOS PÚBLICOS. LA ELABORACIÓN DE CAMPAÑAS DE IMAGEN DE PERSONAS, OBJETOS, BIENES Y DISEÑOS PARA LA PROMOCIÓN PÚBLICA Y PRIVADA. LA CONTRATACIÓN DE ARTISTAS Y LA PRESTACIÓN DE SERVICIOS DE TODA CLASE DE PERSONAS Y EMPRESAS RELACIONADAS CON EL OCIO, LA CULTURA Y EL TIEMPO LIBRE, PUBLICIDAD Y PROMOCIÓN. LA ACTIVIDAD DE LOS TRANSPORTE EN GENERAL, PUDIENDO EXPLOTAR LÍNEAS REGULARES Y DISCRECIONALES DE ÁMBITO INTERNACIONAL, NACIONAL, COMARCAL, PROVINCIAL Y LOCAL, ASÍ COMO EL ESTABLECIMIENTO Y EXPLOTACIÓN DE AGENCIAS DE TRANSPORTE, APARCAMIENTOS, GARAJES, CENTROS DE ESTACIONES DE SERVICIOS O DE ASISTENCIA DE VEHÍCULOS. EL DISEÑO, LA PRODUCCIÓN Y COMERCIALIZACIÓN DE ANAGRAMAS, LOGOTIPOS E IMAGEN; Y LA PRESTACIÓN DE SERVICIOS INFORMÁTICOS, PUBLICITARIOS, NOTICIAS ESCRITAS O POR IMAGEN, POR CUALQUIER MEDIO Y SISTEMA, A ENTIDADES JURÍDICAS, PRIVADAS, PERSONALES, NATURALES O JURÍDICAS. LA COMPRA, VENTA, DISTRIBUCIÓN, REPARACIÓN, COMERCIALIZACIÓN Y ALQUILER DE APARATOS Y ELEMENTOS INDIVIDUALIZADOS Y EN EQUIPO, POR CUENTA PROPIA O DE TERCEROS, AL POR MAYOR Y MENOR, DE APARATOS Y MATERIAL DESTINADOS A LA INDUSTRIA, ELÉCTRICA, MECÁNICA, HIDRÁULICA, TELECOMUNICACIÓN Y ELECTRÓNICA Y LA IMPORTACIÓN Y EXPORTACIÓN DE DICHOS APARATOS Y ELEMENTOS, PROYECTOS DE ILUMINACIÓN EXTERIOR Y PROYECCIÓN EN MACRO FORMATO. LA COMPRAVENTA, INVERSIÓN, TENENCIA, ADMINISTRACIÓN Y ARRENDAMIENTO DE BIENES INMUEBLES RÚSTICOS Y URBANOS: LA ADQUISICIÓN, TENENCIA, DISFRUTE, ADMINISTRACIÓN, ENAJENACIÓN DE TODA CLASE DE TÍTULOS, COMO VALORES MOBILIARIOS, ACTIVOS FINANCIEROS, DERECHOS, VALORES, CUOTAS O PARTICIPACIONES EN EMPRESAS INDIVIDUALES O SOCIALES POR CUENTA PROPIA Y CON EXCEPCIÓN DE INTERMEDIACIÓN, NO INCLUYÉNDOSE, EN NINGÚN CASO, LAS ACTIVIDADES OBJETO DE LA LEGISLACIÓN DE INSTITUCIONES DE INVERSIÓN COLECTIVA Y DE MERCADO DE VALORES. LA TENENCIA, DISFRUTE Y DISPOSICIÓN DE CUALQUIER FORMA DE INMUEBLES, ACCIONES, PARTICIPACIONES SOCIALES, OBLIGACIONES, BONOS DE CAJA, CERTIFICADOS DE DEPÓSITO DE TODA CLASE DE EMPRESAS O NEGOCIOS",
      "mainEntityOfPage": "https://www.contratacion.euskadi.eus/webkpe00-kperoc/es/ac71aBusquedaRegistrosWar/empresa/04982",
      "_links": {
        "self": {
          "name": "EXPORIGGING, S.L.",
          "href": "https://api.euskadi.eus/procurements/companies/04982"
        }
      }
    },
    {
      "name": "TECNICAS CIENTIFICAS PARA LABORATORIO, S.A.",
      "registrationNumber": "03590",
      "identificationNumber": "A59030411",
      "address": "LOPE DE VEGA 99-101/ PJE. ROVIRA, 25",
      "location": {
        "postalCode": "08005",
        "municipality": "Barcelona",
        "county": "Barcelona",
        "municipalityId": "019",
        "countyId": "08"
      },
      "economicActivities": [
        {
          "id": "1.619.7",
          "name": "Venta al por mayor de instrumentos de precisión, medida y similares",
          "_links": {
            "self": {
              "name": "Venta al por mayor de instrumentos de precisión, medida y similares",
              "href": "https://api.euskadi.eus/procurements/companies/economic-activities/1.619.7"
            }
          }
        }
      ],
      "certificateStartDate": "2016-09-08",
      "certificateEndDate": "2017-03-07",
      "object": "VENTA Y COMERCIALIZACIÓN DE INSTRUMENTACIÓN Y MATERIAL DE LABORATOIRIO NACIONAL Y DE IMPORTACIÓN",
      "mainEntityOfPage": "https://www.contratacion.euskadi.eus/webkpe00-kperoc/es/ac71aBusquedaRegistrosWar/empresa/03590",
      "_links": {
        "self": {
          "name": "TECNICAS CIENTIFICAS PARA LABORATORIO, S.A.",
          "href": "https://api.euskadi.eus/procurements/companies/03590"
        }
      }
    },
    {
      "name": "CENTRO REGIONAL DE SERVICIOS AVANZADOS, S.A.",
      "registrationNumber": "05529",
      "identificationNumber": "A09310475",
      "address": "Lopez Bravo, 1",
      "location": {
        "postalCode": "09001",
        "municipality": "Burgos",
        "county": "Burgos",
        "municipalityId": "059",
        "countyId": "09"
      },
      "economicActivities": [
        {
          "id": "1.504.7",
          "name": "Instalaciones telefónicas, telegráficas, televisión, etc",
          "_links": {
            "self": {
              "name": "Instalaciones telefónicas, telegráficas, televisión, etc",
              "href": "https://api.euskadi.eus/procurements/companies/economic-activities/1.504.7"
            }
          }
        },
        {
          "id": "1.845",
          "name": "Explotación electrónica por cuenta de terceros",
          "_links": {
            "self": {
              "name": "Explotación electrónica por cuenta de terceros",
              "href": "https://api.euskadi.eus/procurements/companies/economic-activities/1.845"
            }
          }
        },
        {
          "id": "1.853",
          "name": "Alquiler de maquinaria y equipo contable de oficina y cálculo",
          "_links": {
            "self": {
              "name": "Alquiler de maquinaria y equipo contable de oficina y cálculo",
              "href": "https://api.euskadi.eus/procurements/companies/economic-activities/1.853"
            }
          }
        },
        {
          "id": "1.936",
          "name": "Investigación científica y técnica",
          "_links": {
            "self": {
              "name": "Investigación científica y técnica",
              "href": "https://api.euskadi.eus/procurements/companies/economic-activities/1.936"
            }
          }
        }
      ],
      "certificateStartDate": "2016-09-07",
      "certificateEndDate": "2017-02-05",
      "object": "Consultoria para empresas y profesionales\r\nDesarrollo de Proyectos y Sistemas de Información\r\nAuditorías de Sistemas\r\nFormación en sistemas y procesos informáticos y de información\r\nServicios de Gestión de comunicaciones, de aplicaciones y servicios de Centro de procesos de Datos\r\nDesarrollo y distribución de programas y equipos informáticos\r\nServicio de Gestion de Proceso\r\nLa participación en otras sociedades que tengan objeto social idéntico o análogo",
      "mainEntityOfPage": "https://www.contratacion.euskadi.eus/webkpe00-kperoc/es/ac71aBusquedaRegistrosWar/empresa/05529",
      "_links": {
        "self": {
          "name": "CENTRO REGIONAL DE SERVICIOS AVANZADOS, S.A.",
          "href": "https://api.euskadi.eus/procurements/companies/05529"
        }
      }
    },
    {
      "name": "MEIK INGENIERÍA Y CONSULTORÍA S.L.",
      "registrationNumber": "05528",
      "identificationNumber": "B75132159",
      "address": "C/ GOIKALE 10, BAJO 2",
      "location": {
        "postalCode": "20160",
        "municipality": "Lasarte-Oria",
        "county": "Gipuzkoa",
        "municipalityId": "902",
        "countyId": "20"
      },
      "economicActivities": [
        {
          "id": "1.843.1",
          "name": "Servicios técnicos de ingeniería",
          "_links": {
            "self": {
              "name": "Servicios técnicos de ingeniería",
              "href": "https://api.euskadi.eus/procurements/companies/economic-activities/1.843.1"
            }
          }
        }
      ],
      "certificateStartDate": "2016-08-29",
      "certificateEndDate": "2016-12-22",
      "object": "REDACCIÓN DE PROYECTOS DE INGENIERÍA RELACIONADAS CON EL CAMPO PROFESIONAL DE LA ENERGÍA, DE LAS INSTALACIONES ELÉCTRICAS, MECÁNICAS, INDUSTRIALES, INFORMÁTICAS Y TODAS AQUELLAS LIGADAS A LAS TELECOMUNICACIONES ASÍ COMO LA SEGURIDAD TANTO DE LAS PROPIAS INSTALACIONES COMO DE AQUELLAS PERSONAS RELACIONADAS CON SU USO. DIRECCIÓN DE OBRAS RELATIVAS A PROYECTOS EN LOS CAMPOS PROFESIONALES ANTERIORMENTE INDICADOS. ASESORÍA, AUDITORÍA Y CONSULTORÍA RELACIONADAS CON LOS CAMPOS PROFESIONALES ANTERIORMENTE CITADOS. ELABORACIÓN DE INFORMES Y ESTUDIOS RELACIONADAS CON LOS CAMPOS PROFESIONALES ANTERIORMENTE CITADOS. IMPARTICIÓN DE CURSOS DE FORMACIÓN RELACIONADOS CON LOS CAMPOS PROFESIONALES ANTERIORMENTE CITADOS. COMERCIALIZACIÓN E INSTALACIÓN DE SOLUCIONES DE MONITORIZACIÓN, AUTOMATIZACIÓN Y GESTIÓN DE ENERGÍA",
      "mainEntityOfPage": "https://www.contratacion.euskadi.eus/webkpe00-kperoc/es/ac71aBusquedaRegistrosWar/empresa/05528",
      "_links": {
        "self": {
          "name": "MEIK INGENIERÍA Y CONSULTORÍA S.L.",
          "href": "https://api.euskadi.eus/procurements/companies/05528"
        }
      }
    }
  ]
}