{
  "totalItems": 9042,
  "totalPages": 905,
  "currentPage": 137,
  "itemsOfPage": 10,
  "items": [
    {
      "name": "ONDARTEZ, S.L.",
      "registrationNumber": "06574",
      "identificationNumber": "B20919429",
      "address": "SEGUNDO ISPIZUA, 28 1B",
      "location": {
        "postalCode": "20001",
        "municipality": "Donostia / San Sebastián",
        "county": "Gipuzkoa",
        "municipalityId": "069",
        "countyId": "20"
      },
      "economicActivities": [
        {
          "id": "1.966.9",
          "name": "Otros servicios culturales n.c.o.p",
          "_links": {
            "self": {
              "name": "Otros servicios culturales n.c.o.p",
              "href": "https://api.euskadi.eus/procurements/companies/economic-activities/1.966.9"
            }
          }
        }
      ],
      "certificateStartDate": "2025-11-26",
      "certificateEndDate": "2026-05-22",
      "object": "LA CONSULTORÍA, INVESTIGACIÓN, DIFUSIÓN Y GESTIÓN DE PATRIMONIO CULTURAL Y NATURAL. PRESTAR SERVICIOS DE GESTIÓN CULTURAL, DE MEDIO AMBIENTE Y DE TURISMO. OFRECER SOLUCIONES INTEGRALES A LAS NECESIDADES QUE SE GENEREN EN EL SENO DE LAS ENTIDADES IMPLICADAS EN LA GESTIÓN Y EN LA DIFUSIÓN DEL PATRIMONIO CULTURAL Y TURÍSTICO, CONSIDERADO ÉSTE COMO UN ELEMENTO CLAVE EN EL DESARROLLO LOCAL DENTRO DE LAS POLÍTICAS CULTURALES, DE PLANIFICACIÓN Y DE COHESIÓN TERRITORIAL. ÁMBITOS DE ACTUACIÓN: INVESTIGACIÓN SOBRE PATRIMONIO, DESARROLLO DE CONTENIDOS SOBRE PATRIMONIO APLICANDO LAS NUEVAS TECNOLOGÍAS A TRAVÉS DE PLATAFORMAS DE DISTRIBUCIÓN MULTIMEDIA, EDUCACIÓN, DIFUSIÓN Y ANIMACIÓN DE PATRIMONIO, MUSEOLOGÍA, GESTIÓN TURÍSTICA Y DE PATRIMONIO Y ESTUDIOS DE MEDIO AMBIENTE",
      "mainEntityOfPage": "https://www.contratacion.euskadi.eus/webkpe00-kperoc/es/ac71aBusquedaRegistrosWar/empresa/06574",
      "_links": {
        "self": {
          "name": "ONDARTEZ, S.L.",
          "href": "https://api.euskadi.eus/procurements/companies/06574"
        }
      }
    },
    {
      "name": "VERJURA Y CORONDEL, S.L.",
      "registrationNumber": "07662",
      "identificationNumber": "B48664270",
      "address": "Estrada de Mala, 4 - 1º izq",
      "location": {
        "postalCode": "48012",
        "municipality": "Bilbao",
        "county": "Bizkaia",
        "municipalityId": "020",
        "countyId": "48"
      },
      "economicActivities": [
        {
          "id": "1.475",
          "name": "Actividades anexas a las artes gráficas",
          "_links": {
            "self": {
              "name": "Actividades anexas a las artes gráficas",
              "href": "https://api.euskadi.eus/procurements/companies/economic-activities/1.475"
            }
          }
        }
      ],
      "certificateStartDate": "2025-11-26",
      "certificateEndDate": "2026-05-17",
      "object": "A).-LA RESTAURACIÓN Y ENCUADERNACIÓN DE PAPEL, TELAS, PERGAMINOS, CUADROS, LIBROS, ASÍ COMO DE CUALESQUIERA OBRAS DE ARTE. B).-LA COMPRA, VENTA, IMPORTACIÓN Y EXPORTACIÓN, DE LOS ARTÍCULOS ANTERIORMENTE CITADOS, ASÍ COMO DE LOS PRODUCTOS Y MATERIALES NECESARIOS PARA SU RESTAURACIÓN Y ENCUADERNACIÓN. C).-LA DOCENCIA EN CURSOS DE ENCUADERNACIÓN Y RESTAURACIÓN, DICTAMEN DE INFORMES Y ASESORAMIENTO SOBRE DICHAS MATERIAS. D).-LOS SERVICIOS DE CONSERVACIÓN Y PRESERVACIÓN DE FONDOS BIBLIOGRÁFICOS Y DOCUMENTALES DE ARCHIVOS, BIBLIOTECAS Y MUSEOS. E).-LOS SERVICIOS DE INSTALACIÓN, ALMACENAMIENTO, LIMPIEZA, EXHIBICIÓN, PROTECCIÓN ANTE DESASTRES, RECUPERACIÓN DESPUÉS DE UN DESASTRE, VALORACIÓN DE NECESIDADES DE RESTAURACIÓN, TRATAMIENTOS MASIVOS DE DESACIDIFICACIÓN Y ELIMINACIÓN DE PLAGAS, MEDIANTE SISTEMA NO-TÓXICO PARA FONDOS BIBLIOGRÁFICOS Y DOCUMENTALES DE ARCHIVOS, BIBLIOTECAS, MUSEOS Y CENTROS DE DOCUMENTACIÓN",
      "mainEntityOfPage": "https://www.contratacion.euskadi.eus/webkpe00-kperoc/es/ac71aBusquedaRegistrosWar/empresa/07662",
      "_links": {
        "self": {
          "name": "VERJURA Y CORONDEL, S.L.",
          "href": "https://api.euskadi.eus/procurements/companies/07662"
        }
      }
    },
    {
      "name": "SOFTDINSA SOFTWARE DINAMICO, S.A.",
      "registrationNumber": "10456",
      "identificationNumber": "A48933048",
      "address": "Calle Karl Marx ",
      "location": {
        "postalCode": "48950",
        "municipality": "Erandio",
        "county": "Bizkaia",
        "municipalityId": "902",
        "countyId": "48"
      },
      "economicActivities": [
        {
          "id": "1.847",
          "name": "Servicios de consultoría",
          "_links": {
            "self": {
              "name": "Servicios de consultoría",
              "href": "https://api.euskadi.eus/procurements/companies/economic-activities/1.847"
            }
          }
        }
      ],
      "certificateStartDate": "2025-11-26",
      "certificateEndDate": "2026-05-26",
      "object": "CONSULTORÍA, ANÁLISIS, PRODUCCIÓN, EDICIÓN, DISTRIBUCIÓN, COMERCIALIZACIÓN Y FORMACIÓN EN CAMPOS RELACIONADOS CON LA INFORMÁTICA, LA INGENIERÍA Y LA GESTIÓN DE EMPRESAS.",
      "mainEntityOfPage": "https://www.contratacion.euskadi.eus/webkpe00-kperoc/es/ac71aBusquedaRegistrosWar/empresa/10456",
      "_links": {
        "self": {
          "name": "SOFTDINSA SOFTWARE DINAMICO, S.A.",
          "href": "https://api.euskadi.eus/procurements/companies/10456"
        }
      }
    },
    {
      "name": "ENDIKA PORTILLO BERASALUCE",
      "registrationNumber": "07294",
      "identificationNumber": "30688783K",
      "address": "Francisco Javier Landaburu 62 2ºA",
      "location": {
        "postalCode": "01010",
        "municipality": "Vitoria-Gasteiz",
        "county": "Araba/Álava",
        "municipalityId": "059",
        "countyId": "01"
      },
      "economicActivities": [
        {
          "id": "1.973.1",
          "name": "Servicios fotográficos",
          "_links": {
            "self": {
              "name": "Servicios fotográficos",
              "href": "https://api.euskadi.eus/procurements/companies/economic-activities/1.973.1"
            }
          }
        },
        {
          "id": "2.826",
          "name": "Personal docente de enseñanzas diversas",
          "_links": {
            "self": {
              "name": "Personal docente de enseñanzas diversas",
              "href": "https://api.euskadi.eus/procurements/companies/economic-activities/2.826"
            }
          }
        }
      ],
      "certificateStartDate": "2025-11-26",
      "certificateEndDate": "2026-05-20",
      "object": "SERVICIOS FOTOGRÁFICOS. SERVICIOS DE GESTIÓN ADMINISTRATIVA. PERSONAL DOCENTE DE ENSEÑANZAS DIVERSAS",
      "mainEntityOfPage": "https://www.contratacion.euskadi.eus/webkpe00-kperoc/es/ac71aBusquedaRegistrosWar/empresa/07294",
      "_links": {
        "self": {
          "name": "ENDIKA PORTILLO BERASALUCE",
          "href": "https://api.euskadi.eus/procurements/companies/07294"
        }
      }
    },
    {
      "name": "PHASE, S.L.",
      "registrationNumber": "02485",
      "identificationNumber": "B48142343",
      "address": "C/FERNANDEZ DEL CAMPO, 12",
      "location": {
        "postalCode": "48010",
        "municipality": "Bilbao",
        "county": "Bizkaia",
        "municipalityId": "020",
        "countyId": "48"
      },
      "economicActivities": [
        {
          "id": "1.653.2",
          "name": "Venta al por menor de material y aparatos eléctricos, electrodomésticos y cocina",
          "_links": {
            "self": {
              "name": "Venta al por menor de material y aparatos eléctricos, electrodomésticos y cocina",
              "href": "https://api.euskadi.eus/procurements/companies/economic-activities/1.653.2"
            }
          }
        }
      ],
      "certificateStartDate": "2025-11-26",
      "certificateEndDate": "2026-05-20",
      "object": "A) LA FABRICACIÓN, COMERCIALIZACIÓN, IMPORTACIÓN, EXPORTACIÓN, ALQUILER Y VENTA, AL POR MAYOR Y MENOR DE EQUIPOS DE SONIDO, VIDEO E ILUMINACIÓN ESPECTACULAR, ASÍ COMO DE APARATOS ELECTRODOMÉSTICOS Y ELECTRÓNICOS, Y LA REPARACIÓN DE TODO TIPO DE MATERIAL ELÉCTRICO.\r\nB) CONSULTORÍA DE SONIDO, ACÚSTICA, VIDEO, MICROPROCESADORES, ASÍ COMO SUS ACCESORIOS Y COMPLEMENTOS. \r\nC) VENTA, INSTALACIÓN Y MANTENIMIENTO DE EQUIPAMIENTOS DE TEATRO (BUTACAS, TELONES, MAQUINARIA, ETC.)\r\nTALES ACTIVIDADES PODRÁN SER REALIZADAS POR LA SOCIEDAD, TOTAL O PARCIALMENTE, DE MODO INDIRECTO, MEDIANTE LA TITULARIDAD DE ACCIONES O PARTICIPACIONES EN SOCIEDADES DE OBJETO ANÁLOGO O IDÉNTICO",
      "mainEntityOfPage": "https://www.contratacion.euskadi.eus/webkpe00-kperoc/es/ac71aBusquedaRegistrosWar/empresa/02485",
      "_links": {
        "self": {
          "name": "PHASE, S.L.",
          "href": "https://api.euskadi.eus/procurements/companies/02485"
        }
      }
    },
    {
      "name": "ANDREA ARANGUREN ELOSEGUI",
      "registrationNumber": "10220",
      "identificationNumber": "44566312V",
      "address": "Avenida Gipuzkoa",
      "location": {
        "postalCode": "20302",
        "municipality": "Irun",
        "county": "Gipuzkoa",
        "municipalityId": "045",
        "countyId": "20"
      },
      "economicActivities": [
        {
          "id": "2.776",
          "name": "Doctores y licenciados en ciencias políticas y sociales",
          "_links": {
            "self": {
              "name": "Doctores y licenciados en ciencias políticas y sociales",
              "href": "https://api.euskadi.eus/procurements/companies/economic-activities/2.776"
            }
          }
        }
      ],
      "certificateStartDate": "2025-11-26",
      "certificateEndDate": "2026-05-18",
      "object": "DOCTORES Y LICENCIADOS EN CIENCIAS POLÍTICAS Y SOCIALES.",
      "mainEntityOfPage": "https://www.contratacion.euskadi.eus/webkpe00-kperoc/es/ac71aBusquedaRegistrosWar/empresa/10220",
      "_links": {
        "self": {
          "name": "ANDREA ARANGUREN ELOSEGUI",
          "href": "https://api.euskadi.eus/procurements/companies/10220"
        }
      }
    },
    {
      "name": "ABITURA ARQUITECTOS, S.L.",
      "registrationNumber": "09912",
      "identificationNumber": "B95548111",
      "address": "C/BAILÉN 1, 10º",
      "location": {
        "postalCode": "48003",
        "municipality": "Bilbao",
        "county": "Bizkaia",
        "municipalityId": "020",
        "countyId": "48"
      },
      "economicActivities": [
        {
          "id": "1.501.1",
          "name": "Construcción completa, reparación y conservación de edificaciones",
          "_links": {
            "self": {
              "name": "Construcción completa, reparación y conservación de edificaciones",
              "href": "https://api.euskadi.eus/procurements/companies/economic-activities/1.501.1"
            }
          }
        },
        {
          "id": "1.843.2",
          "name": "Servicios técnicos de arquitectura y urbanismo",
          "_links": {
            "self": {
              "name": "Servicios técnicos de arquitectura y urbanismo",
              "href": "https://api.euskadi.eus/procurements/companies/economic-activities/1.843.2"
            }
          }
        }
      ],
      "certificateStartDate": "2025-11-26",
      "certificateEndDate": "2026-05-13",
      "object": "LA ACTIVIDAD PROPIA DE LOS PROFESIONALES DE LA ARQUITECTURA. GRUPO CNAE KK.- ACTIVIDADES INMOBILIARIAS Y DE ALQUILER; SERVICIOS EMPRESARIALES. CÓDIGO CNAE 47201.- SERVICIOS TÉCNICOS DE ARQUITECTURA.",
      "mainEntityOfPage": "https://www.contratacion.euskadi.eus/webkpe00-kperoc/es/ac71aBusquedaRegistrosWar/empresa/09912",
      "_links": {
        "self": {
          "name": "ABITURA ARQUITECTOS, S.L.",
          "href": "https://api.euskadi.eus/procurements/companies/09912"
        }
      }
    },
    {
      "name": "BERDINDU, SOCIEDAD CIVIL",
      "registrationNumber": "07890",
      "identificationNumber": "J95354742",
      "address": "ALAMEDA URQUIJO 74,1º IZDA",
      "location": {
        "postalCode": "48013",
        "municipality": "Bilbao",
        "county": "Bizkaia",
        "municipalityId": "020",
        "countyId": "48"
      },
      "economicActivities": [
        {
          "id": "1.841",
          "name": "Servicios jurídicos",
          "_links": {
            "self": {
              "name": "Servicios jurídicos",
              "href": "https://api.euskadi.eus/procurements/companies/economic-activities/1.841"
            }
          }
        }
      ],
      "certificateStartDate": "2025-11-26",
      "certificateEndDate": "2026-05-17",
      "object": "EL EJERCICIO PROFESIONAL DE LA ABOGACIA, Y LA DEFENSA Y PROMOCION, DE LOS INTERESES Y DERECHOS INDIVIDUALES Y COLECTIVOS, DE LA MUJER , PERSONAS EN SITUACION DE DESIGUALDAD, E INFANCIA. ",
      "mainEntityOfPage": "https://www.contratacion.euskadi.eus/webkpe00-kperoc/es/ac71aBusquedaRegistrosWar/empresa/07890",
      "_links": {
        "self": {
          "name": "BERDINDU, SOCIEDAD CIVIL",
          "href": "https://api.euskadi.eus/procurements/companies/07890"
        }
      }
    },
    {
      "name": "ANTIDESLIZANTES ARTIA, S.L.",
      "registrationNumber": "10455",
      "identificationNumber": "B75014530",
      "address": "C/ Pío Baroja, nº28 bajo",
      "location": {
        "postalCode": "20305",
        "municipality": "Irun",
        "county": "Gipuzkoa",
        "municipalityId": "045",
        "countyId": "20"
      },
      "economicActivities": [
        {
          "id": "1.505.4",
          "name": "Colocación y aislamiento fónicos, térmicos y acústicos",
          "_links": {
            "self": {
              "name": "Colocación y aislamiento fónicos, térmicos y acústicos",
              "href": "https://api.euskadi.eus/procurements/companies/economic-activities/1.505.4"
            }
          }
        }
      ],
      "certificateStartDate": "2025-11-26",
      "certificateEndDate": "2026-05-26",
      "object": "LA APLICACIÓN DE TRATAMIENTOS ANTIDESLIZANTES, TRATAMIENTOS QUÍMICOS, PINTURA Y LIMPIEZAS ESPECIALES DE SUELOS.",
      "mainEntityOfPage": "https://www.contratacion.euskadi.eus/webkpe00-kperoc/es/ac71aBusquedaRegistrosWar/empresa/10455",
      "_links": {
        "self": {
          "name": "ANTIDESLIZANTES ARTIA, S.L.",
          "href": "https://api.euskadi.eus/procurements/companies/10455"
        }
      }
    },
    {
      "name": "GUREAK ARABA, S.L.U.",
      "registrationNumber": "04896",
      "identificationNumber": "B01257641",
      "address": "AVDA. LOS HUETOS, 50 - PAB. 48",
      "location": {
        "postalCode": "01010",
        "municipality": "Vitoria-Gasteiz",
        "county": "Araba/Álava",
        "municipalityId": "059",
        "countyId": "01"
      },
      "economicActivities": [
        {
          "id": "1.644.2",
          "name": "Despachos de pan, panes especiales y bollería",
          "_links": {
            "self": {
              "name": "Despachos de pan, panes especiales y bollería",
              "href": "https://api.euskadi.eus/procurements/companies/economic-activities/1.644.2"
            }
          }
        },
        {
          "id": "1.647.4",
          "name": "Autoservicio de superficie igual o superior a 400 m. cuadrados",
          "_links": {
            "self": {
              "name": "Autoservicio de superficie igual o superior a 400 m. cuadrados",
              "href": "https://api.euskadi.eus/procurements/companies/economic-activities/1.647.4"
            }
          }
        },
        {
          "id": "1.655.3",
          "name": "Venta al por menor de carburantes para el surtido de vehículos",
          "_links": {
            "self": {
              "name": "Venta al por menor de carburantes para el surtido de vehículos",
              "href": "https://api.euskadi.eus/procurements/companies/economic-activities/1.655.3"
            }
          }
        },
        {
          "id": "1.659.4",
          "name": "Venta al por menor de libros, periódicos y artículos de papelería y escritorio",
          "_links": {
            "self": {
              "name": "Venta al por menor de libros, periódicos y artículos de papelería y escritorio",
              "href": "https://api.euskadi.eus/procurements/companies/economic-activities/1.659.4"
            }
          }
        },
        {
          "id": "1.662.2",
          "name": "Venta al por menor de toda clase de artículos, pequeños establecimientos",
          "_links": {
            "self": {
              "name": "Venta al por menor de toda clase de artículos, pequeños establecimientos",
              "href": "https://api.euskadi.eus/procurements/companies/economic-activities/1.662.2"
            }
          }
        },
        {
          "id": "1.844",
          "name": "Servicios de publicidad, relaciones públicas y similares",
          "_links": {
            "self": {
              "name": "Servicios de publicidad, relaciones públicas y similares",
              "href": "https://api.euskadi.eus/procurements/companies/economic-activities/1.844"
            }
          }
        },
        {
          "id": "1.849.9",
          "name": "Otros servicios independientes n.c.o.p",
          "_links": {
            "self": {
              "name": "Otros servicios independientes n.c.o.p",
              "href": "https://api.euskadi.eus/procurements/companies/economic-activities/1.849.9"
            }
          }
        },
        {
          "id": "1.911",
          "name": "Servicios agrícolas y ganaderos",
          "_links": {
            "self": {
              "name": "Servicios agrícolas y ganaderos",
              "href": "https://api.euskadi.eus/procurements/companies/economic-activities/1.911"
            }
          }
        },
        {
          "id": "1.922",
          "name": "Servicios de limpieza",
          "_links": {
            "self": {
              "name": "Servicios de limpieza",
              "href": "https://api.euskadi.eus/procurements/companies/economic-activities/1.922"
            }
          }
        }
      ],
      "certificateStartDate": "2025-11-26",
      "certificateEndDate": "2026-05-18",
      "classification": [
        {
          "id": "S",
          "name": "Servicios",
          "groups": [
            {
              "id": "U",
              "subgroups": [
                {
                  "id": "01",
                  "name": "Servicios de limpieza ",
                  "categories": [
                    {
                      "id": "2",
                      "name": "Desde 150.001 Hasta 300.000",
                      "_links": {
                        "self": {
                          "name": "Desde 150.001 Hasta 300.000",
                          "href": "https://api.euskadi.eus/procurements/companies/types/S/categories/2"
                        }
                      }
                    }
                  ],
                  "_links": {
                    "self": {
                      "name": "Servicios de limpieza ",
                      "href": "https://api.euskadi.eus/procurements/companies/types/S/groups/U/subgroups/01"
                    }
                  }
                }
              ],
              "_links": {
                "self": {
                  "href": "https://api.euskadi.eus/procurements/companies/types/S/groups/U"
                }
              }
            }
          ],
          "_links": {
            "self": {
              "name": "Servicios",
              "href": "https://api.euskadi.eus/procurements/companies/types/S"
            }
          }
        }
      ],
      "object": "LOS TRABAJOS DE SUBCONTRATACIÓN INDUSTRIAL, LA COMERCIALIZACIÓN DE PRODUCTOS INDUSTRIALES Y DE OTRO TIPO Y LA PRESTACIÓN DE SERVICIOS A TERCEROS. LAS ACTIVIDADES Y SERVICIOS CORRESPONDIENTES A UN OPERADOR DE MARKETING DIRECTO Y PROMOCIONAL: SOLUCIONES GRÁFICAS DE FORMA DIGITAL Y OFFSET, PERSONALIZACIÓN DE DOCUMENTOS CON IMPRESIÓN LÁSER E INKJET; MANIPULADOS Y MECANIZADOS (PLEGADOS, EMBOLSADOS, RETRACTILADOS, ENSOBRADOS, ETIQUETADOS, ENTUBADOS, GUILLOTINADOS); TRATAMIENTOS POSTALES PARA DEPÓSITO EN OPERADORES LOGÍSTICOS, DISTRIBUCIÓN, BUZONEO, LOGÍSTICA Y TRATAMIENTO DE BASES DE DATOS (NORMALIZACIÓN, DEDUPLICACIÓN, ENRIQUECIMIENTO, GEOMARKETING, ALBERGUE, ETC.); CONTACT CENTER (RECEPCIÓN Y EMISIÓN DE LLAMADAS TELEFÓNICAS, ESTUDIOS DE MERCADO, BACK OFFICE); CAPTURA DE DATOS DE DOCUMENTACIÓN FÍSICA, DIGITALIZACIÓN E INDEXACIÓN DE DOCUMENTOS; MOBILE MARKETING (ENVÍO Y RECEPCIÓN DE SMS Y E-MAIL-S), COORDINACIÓN DE CAMPAÑAS PROMOCIONALES MULTICANALES, MARKETING ON LINE Y REDES SOCIALES; PACKAGING Y MANIPULADOS DIVERSOS; EXTERNALIZACIÓN DE SERVICIOS DIVERSOS A ENTIDADES FINANCIERAS Y LA ADMINISTRACIÓN PÚBLICA (BILLING, SERVICIOS AUXILIARES PARA TRABAJOS ADMINISTRATIVOS); SERVICIOS DE ARCHIVO, BIBLIOTECA, CUSTODIA DE DOCUMENTOS; TRATAMIENTO Y GESTIÓN DE APLICACIONES INFORMÁTICAS; SERVICIOS DE ATENCIÓN E INFORMACIÓN PRESENCIAL; CONTROL DE ACCESO O ALMACENAJE; TRATAMIENTO DOCUMENTAL DE DOCUMENTACIÓN HISTÓRICA Y ADMINISTRATIVA; ELABORACIÓN DE INFORMES DE CAMPAÑAS. LOS SERVICIOS DE HOSTELERÍA Y DE COMIDAS; RESTAURANTES, CAFETERÍAS Y BARES; SERVICIOS DE HOSPEDAJE EN HOTELES, MOTELES, ALBERGUES Y CAMPAMENTOS; LA EXPLOTACIÓN EN SERVICIOS DE HOSTELERÍA SITUADOS EN POLIDEPORTIVOS, ASILOS, HOSPITALES, AYUNTAMIENTOS Y OTROS LOCALES PÚBLICOS; EL ARRENDAMIENTO DE SERVICIOS DE HOSTELERÍA. LOS SERVICIOS DE LIMPIEZA Y SANEAMIENTO DE LAS VÍAS PÚBLICAS Y SIMILARES, EDIFICIOS, CENTROS PÚBLICOS, OFICINAS, ESTABLECIMIENTOS COMERCIALES, RESIDENCIAS, CENTROS SANITARIOS, ESTABLECIMIENTOS INDUSTRIALES Y ANÁLOGOS. LA CONSERVACIÓN, MANTENIMIENTO Y CONTROL DE INSTALACIONES DE TODO TIPO EN EDIFICIOS, RESIDENCIAS, HOTELES, CENTROS PÚBLICOS, INDUSTRIALES, COMERCIALES, SANITARIOS Y SIMILARES. LA PRESTACIÓN DE SERVICIOS DE RECEPCIÓN, RELACIONES PÚBLICAS, ADMINISTRATIVOS, CONSERJERÍA, SECRETARÍA, ATENCIÓN TELEFÓNICA, LAVANDERÍA, PLANCHADO Y COSTURA. SERVICIOS DE ATENCIÓN Y TRANSPORTE PÚBLICO DE PERSONAS DEPENDIENTES EN CENTROS DE ACOGIDA, CENTROS DE DÍA, ASISTENCIALES, O EN SUS DOMICILIOS; SERVICIOS DE CONDUCTORES DE VEHÍCULOS. SERVICIOS DE DISTRIBUCIÓN A TRAVÉS DE MEDIOS PROPIOS. SERVICIOS RELACIONADOS CON LA REDUCCIÓN, REUTILIZACIÓN Y RECICLAJE DE RESIDUOS DE CUALQUIER TIPO, TANTO URBANOS COMO INDUSTRIALES. INSTALACIÓN, MANTENIMIENTO, EXPLOTACIÓN Y CONTROL DE MÁQUINAS EXPENDEDORAS, APARATOS, ELEMENTOS, UTENSILIOS DE Y PARA BEBIDAS FRÍAS Y CALIENTES, HIGIENE, ALIMENTACIÓN Y PRODUCTOS DE HOSTELERÍA. SERVICIOS DE BIBLIOTECAS, ARCHIVOS Y MUSEOS. GESTIÓN DE ESTACIONES DE SERVICIO. DESARROLLO DE EXPLOTACIONES AGRÍCOLAS FORESTALES, LA PRESTACIÓN DE SERVICIOS DE MANTENIMIENTO, PLANTACIÓN, JARDINERÍA Y DE CONSERVACIÓN DE PARQUES Y JARDINES, INSTALACIONES DEPORTIVAS Y INTERIORES; LA COMERCIALIZACIÓN DE TODA CLASE DE ARTÍCULOS RELACIONADOS CON LA JARDINERÍA, FLORISTERÍA, ASÍ COMO PRODUCTOS AGROALIMENTARIOS; VENTA DE PRODUCTOS DE ALIMENTACIÓN, DROGUERÍA Y BAZAR. LA INSERCIÓN LABORAL DE PERSONAS CON CERTIFICADO DE GRADO DE DISCAPACIDAD IGUAL O MAYOR AL 33%, MEDIANTE EL ESTUDIO Y MEJORA DE SU EMPLEABILIDAD, LA ORIENTACIÓN PROFESIONAL, LA INTERMEDIACIÓN, LA CAPACITACIÓN Y EL ACOMPAÑAMIENTO EN EL PUESTO DE TRABAJO. PARA LA CONSECUCIÓN DE LOS MISMOS, LA SOCIEDAD PRESTARÁ SERVICIOS DE CARÁCTER INTEGRAL A TRAVÉS DE LA METODOLOGÍA DE EMPLEO CON APOYO, APOYO PERSONALIZADO Y DE PROXIMIDAD A LO LARGO DE TODO EL PROCESO DE BÚSQUEDA DEL EMPLEO Y COLOCACIÓN POSTERIOR EN EL PUESTO DE TRABAJO. \n\n",
      "mainEntityOfPage": "https://www.contratacion.euskadi.eus/webkpe00-kperoc/es/ac71aBusquedaRegistrosWar/empresa/04896",
      "_links": {
        "self": {
          "name": "GUREAK ARABA, S.L.U.",
          "href": "https://api.euskadi.eus/procurements/companies/04896"
        }
      }
    }
  ]
}