{
  "totalItems": 9042,
  "totalPages": 905,
  "currentPage": 742,
  "itemsOfPage": 10,
  "items": [
    {
      "name": "MIESA MONTAJE, S.L.",
      "registrationNumber": "03983",
      "identificationNumber": "B95275756",
      "address": "AMBROSIO DE LOS HEROS, S/N.  LAS CARRERAS",
      "location": {
        "postalCode": "48540",
        "municipality": "Abanto y Ciérvana-Abanto Zierbena",
        "county": "Bizkaia",
        "municipalityId": "002",
        "countyId": "48"
      },
      "economicActivities": [
        {
          "id": "1.504.1",
          "name": "Instalaciones eléctricas en general",
          "_links": {
            "self": {
              "name": "Instalaciones eléctricas en general",
              "href": "https://api.euskadi.eus/procurements/companies/economic-activities/1.504.1"
            }
          }
        }
      ],
      "certificateStartDate": "2009-08-13",
      "certificateEndDate": "2009-12-17",
      "object": "SERVICIOS DE MONTAJE DE INSTRUMENTACIÓN ELÉCTRICA Y MECÁNICA, INCLUÍDAS LAS OPERACIONES DE COMPRA, TRANSFORMACIÓN Y VENTA DE TODO TIPO DE INSTRUMENTOS Y APARATOS ELÉCTRICOS Y MECÁNICOS.",
      "mainEntityOfPage": "https://www.contratacion.euskadi.eus/webkpe00-kperoc/es/ac71aBusquedaRegistrosWar/empresa/03983",
      "_links": {
        "self": {
          "name": "MIESA MONTAJE, S.L.",
          "href": "https://api.euskadi.eus/procurements/companies/03983"
        }
      }
    },
    {
      "name": "MIESA MANTENIMIENTO, S.L.",
      "registrationNumber": "03985",
      "identificationNumber": "B95275764",
      "address": "AMBROSIO DE LOS HEROS, S/N",
      "location": {
        "postalCode": "48540",
        "municipality": "Abanto y Ciérvana-Abanto Zierbena",
        "county": "Bizkaia",
        "municipalityId": "002",
        "countyId": "48"
      },
      "economicActivities": [
        {
          "id": "1.504.1",
          "name": "Instalaciones eléctricas en general",
          "_links": {
            "self": {
              "name": "Instalaciones eléctricas en general",
              "href": "https://api.euskadi.eus/procurements/companies/economic-activities/1.504.1"
            }
          }
        }
      ],
      "certificateStartDate": "2009-08-13",
      "certificateEndDate": "2009-12-17",
      "object": "SERVICIOS DE MANTENIMIENTO DE INSTRUMENTACIÓN ELÉCTRICA Y MECÁNICA, INCLUÍDAS LAS OPERACIONES DE COMPRA, TRANSFORMACIÓN Y VENTA DE TODO TIPO DE INSTRUMENTOS Y APARATOS ELÉCTRICOS Y MECÁNICOS",
      "mainEntityOfPage": "https://www.contratacion.euskadi.eus/webkpe00-kperoc/es/ac71aBusquedaRegistrosWar/empresa/03985",
      "_links": {
        "self": {
          "name": "MIESA MANTENIMIENTO, S.L.",
          "href": "https://api.euskadi.eus/procurements/companies/03985"
        }
      }
    },
    {
      "name": "M.B.A. DEL NORTE, S.A.",
      "registrationNumber": "00694",
      "identificationNumber": "A48281703",
      "address": "C/ MÚSICO SARASATE, 2-4 BAJO ",
      "location": {
        "postalCode": "48014",
        "municipality": "Bilbao",
        "county": "Bizkaia",
        "municipalityId": "020",
        "countyId": "48"
      },
      "economicActivities": [
        {
          "id": "1.619.2",
          "name": "Venta al por mayor de aparatos e instrumentos médicos, ortopédicos, ópticos",
          "_links": {
            "self": {
              "name": "Venta al por mayor de aparatos e instrumentos médicos, ortopédicos, ópticos",
              "href": "https://api.euskadi.eus/procurements/companies/economic-activities/1.619.2"
            }
          }
        }
      ],
      "certificateStartDate": "2009-08-10",
      "certificateEndDate": "2009-12-19",
      "object": "EL ASESORAMIENTO, INTERMEDIACIÓN, FABRICACIÓN Y COMERCIO AL POR MENOR Y AL POR MAYOR DE APARATOS E INSTRUMENTOS MÉDICO-QUIRÚRGICOS DE TODAS CLASES",
      "mainEntityOfPage": "https://www.contratacion.euskadi.eus/webkpe00-kperoc/es/ac71aBusquedaRegistrosWar/empresa/00694",
      "_links": {
        "self": {
          "name": "M.B.A. DEL NORTE, S.A.",
          "href": "https://api.euskadi.eus/procurements/companies/00694"
        }
      }
    },
    {
      "name": "QED SYSTEMS, S.L.",
      "registrationNumber": "02849",
      "identificationNumber": "B15556665",
      "address": "AVDA. DEL PASAJE, 32. BLOQUE 1-2º",
      "location": {
        "postalCode": "15006",
        "municipality": "Coruña, A",
        "county": "Coruña, A",
        "municipalityId": "030",
        "countyId": "15"
      },
      "economicActivities": [
        {
          "id": "1.659.2",
          "name": "Venta al por menor de muebles de oficina y máquinas y equipos de oficina",
          "_links": {
            "self": {
              "name": "Venta al por menor de muebles de oficina y máquinas y equipos de oficina",
              "href": "https://api.euskadi.eus/procurements/companies/economic-activities/1.659.2"
            }
          }
        }
      ],
      "certificateStartDate": "2009-08-10",
      "certificateEndDate": "2009-12-10",
      "object": "A) PRESTACIÓN DE SERVICIOS DE ESTUDIOS Y ANÁLISIS DE PROCESOS PARA SU TRATAMIENTO MECÁNICO DE PROGRAMACIÓN PARA EQUIPOS ELECTRÓNICOS O DE REGISTRO DE DATOS EN SOPORTES DE ENTRADA PARA ORDENADORES, ASÍ COMO LA VENTA DE PROGRAMAS EN PROCESOS DE DATOS POR CUENTA DE TERCEROS Y OTROS SERVICIOS INDEPENDIENTES DE ELABORACIÓN DE DATOS Y TABULACIÓN. B) COMERCIO DE APARATOS Y DE MATERIAL INFORMÁTICO",
      "mainEntityOfPage": "https://www.contratacion.euskadi.eus/webkpe00-kperoc/es/ac71aBusquedaRegistrosWar/empresa/02849",
      "_links": {
        "self": {
          "name": "QED SYSTEMS, S.L.",
          "href": "https://api.euskadi.eus/procurements/companies/02849"
        }
      }
    },
    {
      "name": "CONSTRUCCIONES LEMZA, S.L.",
      "registrationNumber": "00532",
      "identificationNumber": "B20142766",
      "address": "AVDA. DONOSTIA, 26. POLIGONO BIDEBITARTE, PARCELA 12 ",
      "location": {
        "postalCode": "20115",
        "municipality": "Astigarraga",
        "county": "Gipuzkoa",
        "municipalityId": "903",
        "countyId": "20"
      },
      "economicActivities": [
        {
          "id": "1.507",
          "name": "Construcción, reparación y conservación de toda clase obras",
          "_links": {
            "self": {
              "name": "Construcción, reparación y conservación de toda clase obras",
              "href": "https://api.euskadi.eus/procurements/companies/economic-activities/1.507"
            }
          }
        }
      ],
      "certificateStartDate": "2009-08-07",
      "certificateEndDate": "2010-01-01",
      "object": "LA REALIZACIÓN DE OBRAS DE CONSTRUCCIÓN Y REHABILITACIÓN DESDE SU EJECUCIÓN Y MEJORA HASTA SU CERRAMIENTO E IMPERMEABILIZACIÓN",
      "mainEntityOfPage": "https://www.contratacion.euskadi.eus/webkpe00-kperoc/es/ac71aBusquedaRegistrosWar/empresa/00532",
      "_links": {
        "self": {
          "name": "CONSTRUCCIONES LEMZA, S.L.",
          "href": "https://api.euskadi.eus/procurements/companies/00532"
        }
      }
    },
    {
      "name": "EZPELETA PLASTIVAL, S.A.",
      "registrationNumber": "03623",
      "identificationNumber": "A46015335",
      "address": "BO. KORTEDERRA CTRA. BILBAO A SAN SEBASTIÁN KM. 16,5",
      "location": {
        "postalCode": "48340",
        "municipality": "Amorebieta-Etxano",
        "county": "Bizkaia",
        "municipalityId": "003",
        "countyId": "48"
      },
      "economicActivities": [
        {
          "id": "1.617.3",
          "name": "Venta al por mayor de madera y corcho",
          "_links": {
            "self": {
              "name": "Venta al por mayor de madera y corcho",
              "href": "https://api.euskadi.eus/procurements/companies/economic-activities/1.617.3"
            }
          }
        }
      ],
      "certificateStartDate": "2009-08-07",
      "certificateEndDate": "2009-12-23",
      "object": "LA EXPLOTACIÓN DE CENTROS DE COMERCIALIZACIÓN DE PRODUCTOS PARA LA CONSTRUCCIÓN, BRICOLAGE, MOBILIARIO DE TODO TIPO, ELECTRODOMÉSTICOS, FERRETERÍA, PRODUCTOS DE DECORACIÓN PARA SUELOS, TECHOS Y PAREDES Y SU INSTALACIÓN, ARTÍCULOS DE CARPINTERÍA EN GENERAL E INCLUSO LA FABRICACIÓN O TRANSFORMACIÓN DE CUALQUIERA DE ELLOS. PODRÁ ADEMÁS DESARROLLAR EL OBJETO SOCIAL TOTAL O PARCIALMENTE DE MODO INDIRECTO MEDIANTE LA TITULARIDAD DE ACCIONES O DE PARTICIPACIONES EN SOCIEDADES CON OBJETO IDÉNTICO, ANÁLOGO O COMPLEMENTARIO",
      "mainEntityOfPage": "https://www.contratacion.euskadi.eus/webkpe00-kperoc/es/ac71aBusquedaRegistrosWar/empresa/03623",
      "_links": {
        "self": {
          "name": "EZPELETA PLASTIVAL, S.A.",
          "href": "https://api.euskadi.eus/procurements/companies/03623"
        }
      }
    },
    {
      "name": "CARDIOMEDICAL DEL MEDITERRÁNEO, S.L.",
      "registrationNumber": "02750",
      "identificationNumber": "B30349401",
      "address": "C/ CALASPARRA, S/N  POL. IND. LA POLVORISTA",
      "location": {
        "postalCode": "30500",
        "municipality": "Molina de Segura",
        "county": "Murcia",
        "municipalityId": "027",
        "countyId": "30"
      },
      "economicActivities": [
        {
          "id": "1.652.1",
          "name": "Farmacias",
          "_links": {
            "self": {
              "name": "Farmacias",
              "href": "https://api.euskadi.eus/procurements/companies/economic-activities/1.652.1"
            }
          }
        }
      ],
      "certificateStartDate": "2009-08-04",
      "certificateEndDate": "2010-01-09",
      "object": "LA COMPRA, VENTA, DISTRIBUCIÓN Y EXPLOTACIÓN DE MATERIAL MÉDICO-SANITARIO",
      "mainEntityOfPage": "https://www.contratacion.euskadi.eus/webkpe00-kperoc/es/ac71aBusquedaRegistrosWar/empresa/02750",
      "_links": {
        "self": {
          "name": "CARDIOMEDICAL DEL MEDITERRÁNEO, S.L.",
          "href": "https://api.euskadi.eus/procurements/companies/02750"
        }
      }
    },
    {
      "name": "PROMOCIONES ERBINOR, S.L.",
      "registrationNumber": "03495",
      "identificationNumber": "B01037308",
      "address": "C/ RIOJA, 27- BAJO IZDA.",
      "location": {
        "postalCode": "01005",
        "municipality": "Vitoria-Gasteiz",
        "county": "Araba/Álava",
        "municipalityId": "059",
        "countyId": "01"
      },
      "economicActivities": [
        {
          "id": "1.501.1",
          "name": "Construcción completa, reparación y conservación de edificaciones",
          "_links": {
            "self": {
              "name": "Construcción completa, reparación y conservación de edificaciones",
              "href": "https://api.euskadi.eus/procurements/companies/economic-activities/1.501.1"
            }
          }
        },
        {
          "id": "1.833.2",
          "name": "Promoción de edificaciones",
          "_links": {
            "self": {
              "name": "Promoción de edificaciones",
              "href": "https://api.euskadi.eus/procurements/companies/economic-activities/1.833.2"
            }
          }
        }
      ],
      "certificateStartDate": "2009-08-04",
      "certificateEndDate": "2010-01-01",
      "object": "LA PROMOCIÓN, CONSTRUCCIÓN, REALIZACIÓN, REHABILITACIÓN Y URBANIZACIÓN DE TODO TIPO DE INMUEBLES, INCLUSO DE VIVIENDAS DE PROTECCIÓN OFICIAL, BIEN POR CUENTA PROPIA O POR ENCARGO DE TERCEROS, YA SEAN PERSONAS FÍSICAS O JURÍDICAS, PÚBLICAS O PRIVADAS, LA ADQUISICIÓN, TENENCIA, ADMINISTRACIÓN Y EXPLOTACIÓN DE TODA CLASE DE BIENES INMUEBLES, SU ENAJENACIÓN Y ARRENDAMIENTO",
      "mainEntityOfPage": "https://www.contratacion.euskadi.eus/webkpe00-kperoc/es/ac71aBusquedaRegistrosWar/empresa/03495",
      "_links": {
        "self": {
          "name": "PROMOCIONES ERBINOR, S.L.",
          "href": "https://api.euskadi.eus/procurements/companies/03495"
        }
      }
    },
    {
      "name": "EXCAVACIONES BILSAMAR, S.L.",
      "registrationNumber": "03529",
      "identificationNumber": "B48727267",
      "address": "Bº  URIOSTE, 77",
      "location": {
        "postalCode": "48530",
        "municipality": "Ortuella",
        "county": "Bizkaia",
        "municipalityId": "083",
        "countyId": "48"
      },
      "economicActivities": [
        {
          "id": "1.507",
          "name": "Construcción, reparación y conservación de toda clase obras",
          "_links": {
            "self": {
              "name": "Construcción, reparación y conservación de toda clase obras",
              "href": "https://api.euskadi.eus/procurements/companies/economic-activities/1.507"
            }
          }
        }
      ],
      "certificateStartDate": "2009-08-04",
      "certificateEndDate": "2010-01-06",
      "object": "LA REALIZACIÓN DE EXCAVACIONES, DERRIBOS, EXPLANACIONES Y EL ALQUILER DE MAQUINARIA; LA ADSQUISICIÓN Y ENAJENACIÓN DE TERRENOS, SOLARES, EDIFICIOS, FINCAS RÚSTICAS Y URBANAS; LA REFORMA, EDIFICACIÓN, URBANIZACIÓN Y CONSTRUCCIÓN, REALIZACIÓN DE SU PARCELACIÓN, URBANIZACIÓN Y EDIFICACIÓN; LA COMPRA, VENTA, ARRENDAMIENTO Y REHABILITACIÓN DE LONJAS Y LOCALES COMERCIALES, PABELLONES INDUSTRIALES Y CUALQUIER OTRO BIEN INMUEBLE; ASESORAMIENTO, CONSULTORÍA Y PRESTACIÓN DE SERVICIOS INFORMÁTICOS E INSTITUCIONALES, EMPRESAS PÚBLICAS O PRIVADAS, ADEMÁS DE CUALQUIER ACTUACIÓN RELACIONADA CON LA INFORMÁTICA ACTUAL Y DE NUEVA IMPLANTACIÓN",
      "mainEntityOfPage": "https://www.contratacion.euskadi.eus/webkpe00-kperoc/es/ac71aBusquedaRegistrosWar/empresa/03529",
      "_links": {
        "self": {
          "name": "EXCAVACIONES BILSAMAR, S.L.",
          "href": "https://api.euskadi.eus/procurements/companies/03529"
        }
      }
    },
    {
      "name": "AISLAMIENTOS AZCORRA, S.L.",
      "registrationNumber": "03828",
      "identificationNumber": "B48255137",
      "address": "UR/ LUBERRIETAONDO, 64",
      "location": {
        "postalCode": "48110",
        "municipality": "Gatika",
        "county": "Bizkaia",
        "municipalityId": "040",
        "countyId": "48"
      },
      "economicActivities": [
        {
          "id": "1.505.4",
          "name": "Colocación y aislamiento fónicos, térmicos y acústicos",
          "_links": {
            "self": {
              "name": "Colocación y aislamiento fónicos, térmicos y acústicos",
              "href": "https://api.euskadi.eus/procurements/companies/economic-activities/1.505.4"
            }
          }
        }
      ],
      "certificateStartDate": "2009-08-03",
      "certificateEndDate": "2010-01-06",
      "object": "LA REALIZACIÓN DE OBRAS DE AISLAMIENTO DE TODO TIPO MEDIANTE EL PROCEDIMIENTO ADECUADO, EN CUALQUIER EDIFICACIÓN, ASÍ COMO AQUELLAS OTRAS ACTIVIDADES COMPLEMENTARIAS CON EL NEGOCIO DEL AISLAMIENTO",
      "mainEntityOfPage": "https://www.contratacion.euskadi.eus/webkpe00-kperoc/es/ac71aBusquedaRegistrosWar/empresa/03828",
      "_links": {
        "self": {
          "name": "AISLAMIENTOS AZCORRA, S.L.",
          "href": "https://api.euskadi.eus/procurements/companies/03828"
        }
      }
    }
  ]
}