{
  "totalItems": 9042,
  "totalPages": 905,
  "currentPage": 704,
  "itemsOfPage": 10,
  "items": [
    {
      "name": "MENCHACA, S.A.",
      "registrationNumber": "01212",
      "identificationNumber": "A48115190",
      "address": "C/ MUELLE DE URIBITARTE, Nº 15 - BAJO.",
      "location": {
        "postalCode": "48001",
        "municipality": "Bilbao",
        "county": "Bizkaia",
        "municipalityId": "020",
        "countyId": "48"
      },
      "economicActivities": [
        {
          "id": "1.455.9",
          "name": "Confección de otros artículos con materias textiles n.c.o.p",
          "_links": {
            "self": {
              "name": "Confección de otros artículos con materias textiles n.c.o.p",
              "href": "https://api.euskadi.eus/procurements/companies/economic-activities/1.455.9"
            }
          }
        }
      ],
      "certificateStartDate": "2011-12-22",
      "certificateEndDate": "2012-05-29",
      "object": "LA FABRICACIÓN, VENTA, ALQUILER, IMPORTACIÓN, EXPORTACIÓN, COMERCIALIZACIÓN EN GENERAL DE TODA CLASE DE TOLDOS, LONAS, VELAS, ROPAS DE AGUA, BANDERAS, SALVAVIDAS, FILTROS, TEJIDOS ESPECIALES, MATERIALES DE SEGURIDAD, TODA CLASE DE CONFECCIONES INDUSTRIALES Y NAVALES, ASÍ COMO ARTÍCULOS DE CAMPO, PLAYA O DEPORTE Y CUANTO SEA ANTECEDENTE, COMPLEMENTO O CONSECUENCIA DE LO ANUNCIADO",
      "mainEntityOfPage": "https://www.contratacion.euskadi.eus/webkpe00-kperoc/es/ac71aBusquedaRegistrosWar/empresa/01212",
      "_links": {
        "self": {
          "name": "MENCHACA, S.A.",
          "href": "https://api.euskadi.eus/procurements/companies/01212"
        }
      }
    },
    {
      "name": "C.I.G. OBRA CIVIL, S.L.",
      "registrationNumber": "03070",
      "identificationNumber": "B01355858",
      "address": "C/ UZBINA, 4  P.I. JUNDIZ",
      "location": {
        "postalCode": "01015",
        "municipality": "Vitoria-Gasteiz",
        "county": "Araba/Álava",
        "municipalityId": "059",
        "countyId": "01"
      },
      "economicActivities": [
        {
          "id": "1.501.1",
          "name": "Construcción completa, reparación y conservación de edificaciones",
          "_links": {
            "self": {
              "name": "Construcción completa, reparación y conservación de edificaciones",
              "href": "https://api.euskadi.eus/procurements/companies/economic-activities/1.501.1"
            }
          }
        },
        {
          "id": "1.501.2",
          "name": "Construcción completa, reparación y conservación obras civiles",
          "_links": {
            "self": {
              "name": "Construcción completa, reparación y conservación obras civiles",
              "href": "https://api.euskadi.eus/procurements/companies/economic-activities/1.501.2"
            }
          }
        }
      ],
      "certificateStartDate": "2011-12-22",
      "certificateEndDate": "2012-06-19",
      "object": "EL ESTUDIO, PROMOCIÓN, GESTIÓN, CONTROL, ADMINISTRACIÓN, DIRECCIÓN, CONTRATACIÓN Y REALIZACIÓN DE TODA CLASE DE OBRAS, TANTO PRIVADAS COMO PÚBLICAS, YA SEAN DE CONSTRUCCIÓN, MEJORA Y CONSERVACIÓN, O INDUSTRIALES, DE INGENIERÍA CIVIL Y CARRETERAS.\r\nEL MENCIONADO OBJETO SOCIAL INCLUIRÁ, EN CONCRETO,  LA REALIZACIÓN DE LAS SIGUIENTES ACTIVIDADES U OBRAS: \r\nA) MOVIMIENTO DE TIERRAS Y PERFORACIONES\r\nB) PUENTES, VIADUCTOS Y GRANDES ESTRUCTURAS\r\nC) EDIFICACIONES \r\nD) HIDRÁULICAS\r\nE) VIALES Y PISTAS\r\nF) INSTALACIONES ELÉCTRICAS\r\nG) INSTALACOINES MECÁNICAS\r\nH) ORNAMENTACIONES Y JARDINERÍA.\r\n\r\nLAS ACTIVIDADES ENUMERADAS PODRÁN TAMBIÉN SER DESARROLLADAS POR LA SOCIEDAD, TOTAL O PARCIALMENTE, DE MODO INDIRECTO, MEDIANTE LA PARTICIPACIÓN EN  OTRAS SOCIEDADES CON OBJETO ANÁLOGO",
      "mainEntityOfPage": "https://www.contratacion.euskadi.eus/webkpe00-kperoc/es/ac71aBusquedaRegistrosWar/empresa/03070",
      "_links": {
        "self": {
          "name": "C.I.G. OBRA CIVIL, S.L.",
          "href": "https://api.euskadi.eus/procurements/companies/03070"
        }
      }
    },
    {
      "name": "CONSTRUCCIONES Y PROMOCIONES POSPER, S.L.",
      "registrationNumber": "03144",
      "identificationNumber": "B48563415",
      "address": "C/ JUAN BAUTISTA ZABALA, 3 - 4ªP.",
      "location": {
        "postalCode": "48991",
        "municipality": "Getxo",
        "county": "Bizkaia",
        "municipalityId": "044",
        "countyId": "48"
      },
      "economicActivities": [
        {
          "id": "1.501.1",
          "name": "Construcción completa, reparación y conservación de edificaciones",
          "_links": {
            "self": {
              "name": "Construcción completa, reparación y conservación de edificaciones",
              "href": "https://api.euskadi.eus/procurements/companies/economic-activities/1.501.1"
            }
          }
        }
      ],
      "certificateStartDate": "2011-12-22",
      "certificateEndDate": "2012-05-16",
      "object": "LA CONSTRUCCIÓN Y PROMOCIÓN DE TODA CLASE DE OBRAS, TANTO EDIFICIOS EN SUS DIVERSAS MODALIDADES, COMO OBRAS DE CARÁCTER CIVIL PARA LA ADMINISTRACIÓN PÚBLICA",
      "mainEntityOfPage": "https://www.contratacion.euskadi.eus/webkpe00-kperoc/es/ac71aBusquedaRegistrosWar/empresa/03144",
      "_links": {
        "self": {
          "name": "CONSTRUCCIONES Y PROMOCIONES POSPER, S.L.",
          "href": "https://api.euskadi.eus/procurements/companies/03144"
        }
      }
    },
    {
      "name": "JUAN AJA, S.A.",
      "registrationNumber": "04444",
      "identificationNumber": "A01013283",
      "address": "PORTAL DE GAMARRA, 11",
      "location": {
        "postalCode": "01013",
        "municipality": "Vitoria-Gasteiz",
        "county": "Araba/Álava",
        "municipalityId": "059",
        "countyId": "01"
      },
      "economicActivities": [
        {
          "id": "1.721.3",
          "name": "Transporte de viajeros por carretera",
          "_links": {
            "self": {
              "name": "Transporte de viajeros por carretera",
              "href": "https://api.euskadi.eus/procurements/companies/economic-activities/1.721.3"
            }
          }
        }
      ],
      "certificateStartDate": "2011-12-21",
      "certificateEndDate": "2012-05-23",
      "object": "LA PRESTACIÓN DE SERVICIOS PÚBLICOS DE TRANSPORTES DE VIAJEROS Y MERCANCÍAS POR CARRETERA O CUALQUIER OTRA VÍA, EN SUS MODALIDADES DE SERVICIOS PÚBLICOS REGULARES Y DISCRECCIONALES",
      "mainEntityOfPage": "https://www.contratacion.euskadi.eus/webkpe00-kperoc/es/ac71aBusquedaRegistrosWar/empresa/04444",
      "_links": {
        "self": {
          "name": "JUAN AJA, S.A.",
          "href": "https://api.euskadi.eus/procurements/companies/04444"
        }
      }
    },
    {
      "name": "TIKTAK MULTIMEDIA, S.L.",
      "registrationNumber": "01875",
      "identificationNumber": "B01211366",
      "address": "C/ CORRERÍA, Nº 84 BAJO",
      "location": {
        "postalCode": "01001",
        "municipality": "Vitoria-Gasteiz",
        "county": "Araba/Álava",
        "municipalityId": "059",
        "countyId": "01"
      },
      "economicActivities": [
        {
          "id": "1.475.3",
          "name": "Reproducción de textos, imágenes destinados a la impresión",
          "_links": {
            "self": {
              "name": "Reproducción de textos, imágenes destinados a la impresión",
              "href": "https://api.euskadi.eus/procurements/companies/economic-activities/1.475.3"
            }
          }
        }
      ],
      "certificateStartDate": "2011-12-14",
      "certificateEndDate": "2012-05-29",
      "object": "a) ELABORACIÓN DE APLICACIONES INFORMÁTICAS MULTIMEDIA. b) DISEÑO GRÁFICO. c) ILUSTRACIÓN GRÁFICA",
      "mainEntityOfPage": "https://www.contratacion.euskadi.eus/webkpe00-kperoc/es/ac71aBusquedaRegistrosWar/empresa/01875",
      "_links": {
        "self": {
          "name": "TIKTAK MULTIMEDIA, S.L.",
          "href": "https://api.euskadi.eus/procurements/companies/01875"
        }
      }
    },
    {
      "name": "DEBELAIZ TALLERES, S.L.",
      "registrationNumber": "03773",
      "identificationNumber": "B20880365",
      "address": "ORIA ETORBIDEA, 4 LOCAL 3",
      "location": {
        "postalCode": "20160",
        "municipality": "Lasarte-Oria",
        "county": "Gipuzkoa",
        "municipalityId": "902",
        "countyId": "20"
      },
      "economicActivities": [
        {
          "id": "1.319.9",
          "name": "Talleres mecánicos n.c.o.p",
          "_links": {
            "self": {
              "name": "Talleres mecánicos n.c.o.p",
              "href": "https://api.euskadi.eus/procurements/companies/economic-activities/1.319.9"
            }
          }
        }
      ],
      "certificateStartDate": "2011-12-02",
      "certificateEndDate": "2012-05-23",
      "object": "pte",
      "mainEntityOfPage": "https://www.contratacion.euskadi.eus/webkpe00-kperoc/es/ac71aBusquedaRegistrosWar/empresa/03773",
      "_links": {
        "self": {
          "name": "DEBELAIZ TALLERES, S.L.",
          "href": "https://api.euskadi.eus/procurements/companies/03773"
        }
      }
    },
    {
      "name": "CONSTRUCCIONES J.C. MENDIOLA, S.A.",
      "registrationNumber": "00629",
      "identificationNumber": "A20038287",
      "address": "LABEAGA, 9  1º",
      "location": {
        "postalCode": "20700",
        "municipality": "Urretxu",
        "county": "Gipuzkoa",
        "municipalityId": "077",
        "countyId": "20"
      },
      "economicActivities": [
        {
          "id": "1.501.1",
          "name": "Construcción completa, reparación y conservación de edificaciones",
          "_links": {
            "self": {
              "name": "Construcción completa, reparación y conservación de edificaciones",
              "href": "https://api.euskadi.eus/procurements/companies/economic-activities/1.501.1"
            }
          }
        },
        {
          "id": "1.501.2",
          "name": "Construcción completa, reparación y conservación obras civiles",
          "_links": {
            "self": {
              "name": "Construcción completa, reparación y conservación obras civiles",
              "href": "https://api.euskadi.eus/procurements/companies/economic-activities/1.501.2"
            }
          }
        },
        {
          "id": "1.833.2",
          "name": "Promoción de edificaciones",
          "_links": {
            "self": {
              "name": "Promoción de edificaciones",
              "href": "https://api.euskadi.eus/procurements/companies/economic-activities/1.833.2"
            }
          }
        }
      ],
      "certificateStartDate": "2011-12-01",
      "certificateEndDate": "2012-05-17",
      "object": "NEGOCIO DE CONSTRUCCION DE OBRAS, PUBLICAS Y PRIVADAS",
      "mainEntityOfPage": "https://www.contratacion.euskadi.eus/webkpe00-kperoc/es/ac71aBusquedaRegistrosWar/empresa/00629",
      "_links": {
        "self": {
          "name": "CONSTRUCCIONES J.C. MENDIOLA, S.A.",
          "href": "https://api.euskadi.eus/procurements/companies/00629"
        }
      }
    },
    {
      "name": "AUTO PULLMANS PALACIO S.L.",
      "registrationNumber": "03930",
      "identificationNumber": "B48151633",
      "address": "ERREMENTARI BIDEA, 2-LOIU",
      "location": {
        "postalCode": "48180",
        "municipality": "Loiu",
        "county": "Bizkaia",
        "municipalityId": "903",
        "countyId": "48"
      },
      "economicActivities": [
        {
          "id": "1.721.3",
          "name": "Transporte de viajeros por carretera",
          "_links": {
            "self": {
              "name": "Transporte de viajeros por carretera",
              "href": "https://api.euskadi.eus/procurements/companies/economic-activities/1.721.3"
            }
          }
        }
      ],
      "certificateStartDate": "2011-12-01",
      "certificateEndDate": "2012-05-23",
      "object": "EL TRANSPORTE DE VIAJEROS POR TERRITORIO NACIONAL O EXTRANJERO, ASÍ COMO EL RÉGIMEN PROPIO DE EQUIPAJES",
      "mainEntityOfPage": "https://www.contratacion.euskadi.eus/webkpe00-kperoc/es/ac71aBusquedaRegistrosWar/empresa/03930",
      "_links": {
        "self": {
          "name": "AUTO PULLMANS PALACIO S.L.",
          "href": "https://api.euskadi.eus/procurements/companies/03930"
        }
      }
    },
    {
      "name": "MC CONSTRUCCIÓN, INGENIERÍA Y GESTIÓN DE OBRAS, S.A.",
      "registrationNumber": "03635",
      "identificationNumber": "A01039320",
      "address": "ZUBIBARRI, 2",
      "location": {
        "postalCode": "01013",
        "municipality": "Vitoria-Gasteiz",
        "county": "Araba/Álava",
        "municipalityId": "059",
        "countyId": "01"
      },
      "economicActivities": [
        {
          "id": "1.501.1",
          "name": "Construcción completa, reparación y conservación de edificaciones",
          "_links": {
            "self": {
              "name": "Construcción completa, reparación y conservación de edificaciones",
              "href": "https://api.euskadi.eus/procurements/companies/economic-activities/1.501.1"
            }
          }
        },
        {
          "id": "1.501.2",
          "name": "Construcción completa, reparación y conservación obras civiles",
          "_links": {
            "self": {
              "name": "Construcción completa, reparación y conservación obras civiles",
              "href": "https://api.euskadi.eus/procurements/companies/economic-activities/1.501.2"
            }
          }
        },
        {
          "id": "1.507",
          "name": "Construcción, reparación y conservación de toda clase obras",
          "_links": {
            "self": {
              "name": "Construcción, reparación y conservación de toda clase obras",
              "href": "https://api.euskadi.eus/procurements/companies/economic-activities/1.507"
            }
          }
        },
        {
          "id": "1.722",
          "name": "Transporte de mercancías por carretera",
          "_links": {
            "self": {
              "name": "Transporte de mercancías por carretera",
              "href": "https://api.euskadi.eus/procurements/companies/economic-activities/1.722"
            }
          }
        }
      ],
      "certificateStartDate": "2011-11-25",
      "certificateEndDate": "2012-05-08",
      "object": "TRABAJOS RELACIONADOS CON LA CONSTRUCCIÓN DE OBRAS DE EDIFICACIÓN URBANA, INDUSTRIAL, URBANIZACIÓN, SANEAMIENTO, MOVIMIENTO DE TIERRAS Y LOS TRABAJOS, FABRICACIONES Y NEGOCIOS RELACIONADOS CON DICHAS INDUSTRIA, DIRIGIDOS TANTO AL SECTOR PÚBLICO COMO AL PRIVADO; A LOS TRABAJOS DE REPARACIÓN Y CONSERVACIÓN DE OBRAS RELACIONADAS ANTERIORMENTE; A LA PROMOCIÓN DE TODA CLASE DE EDIFICACIONES, REPARCELACIONES Y URBANIZACIÓN DEL SUELO, COMPRA-VENTA DE PARCELAS Y EDIFICIOS. EJECUCIÓN Y MANTENIMIENTO DE INSTALACIONES ELÉCTRICAS EN GENERAL, EN ALTA, BAJA Y MEDIA TENSIÓN, INSTALACIONES, INSTALACIONES DE TELECOMUNICIÓN, INSTALACIONES ELECTRÓNICAS E INSTALACIONES DE SISTEMAS DE SEÑALIZACIÓN Y BALIZAMIENTO DE PUERTOS, AEROPUERTOS Y CARRETERAS, INSTALACIONES DE SEGURIDAD Y CONTRA INCENDIOS. EJECUCIÓN Y MANTENIMIENTO DE INSTALACIONES MECÁNICAS EN GENERAL, INSTALACIONES DE FONTANERÍA, INSTALACIONES FRIGORÍFICAS, INSTALACIONES DE CALEFACCIÓN, VENTILACIÓN Y CLIMATIZACIÓN, INSTALACIONES ELEVADORAS Y TRANSPORTADORAS E INSTALACIONES DE TRATAMEINTO DE AGUAS DE TODO TIPO. CONSTRUCCIÓN COMPLETA, REPARACIÓN Y CONSERVACIÓN DE EDIFICACIONES Y OBRAS CIVILES. CONTRATAR OBRAS Y SERVICIOS CON CUALQUIER ORGANISMO DE LAS ADMINISTRACIONES PÚBLICAS Y CON TODA CLASE DE ENTIDADES PARTICULARES. REDACCIÓN Y CONFECCIÓN DE PROYECTOS TÉCNICOS DE TODO TIPO, DIRECCIÓN DE OBRA Y CONTROL DE CALIDAD, REALIZACIÓN DE ESTUDIOS E INFORMES Y ASESORAMIENTO TÉCNICO",
      "mainEntityOfPage": "https://www.contratacion.euskadi.eus/webkpe00-kperoc/es/ac71aBusquedaRegistrosWar/empresa/03635",
      "_links": {
        "self": {
          "name": "MC CONSTRUCCIÓN, INGENIERÍA Y GESTIÓN DE OBRAS, S.A.",
          "href": "https://api.euskadi.eus/procurements/companies/03635"
        }
      }
    },
    {
      "name": "TALDE CLIMATIZACIÓN REFRIGERACIÓN, S.L.",
      "registrationNumber": "02492",
      "identificationNumber": "B20561577",
      "address": "ZUAZNABAR KALEA, 131",
      "location": {
        "postalCode": "20180",
        "municipality": "Oiartzun",
        "county": "Gipuzkoa",
        "municipalityId": "063",
        "countyId": "20"
      },
      "economicActivities": [
        {
          "id": "1.504.3",
          "name": "Instalaciones de frío, calor y acondicionamiento de aire",
          "_links": {
            "self": {
              "name": "Instalaciones de frío, calor y acondicionamiento de aire",
              "href": "https://api.euskadi.eus/procurements/companies/economic-activities/1.504.3"
            }
          }
        }
      ],
      "certificateStartDate": "2011-11-22",
      "certificateEndDate": "2012-05-11",
      "object": "EL DISEÑO, DESARROLLO, MONTAJE, MANTENIMIENTO Y REPARACIÓN DE INSTALACIONES DE AIRE ACONDICIONADO Y DE REFRIGERACIÓN, ASÍ COMO LA COMERCIALIZACIÓN AL POR MAYOR Y POR MENOR DE LAS INSTALACIONES ANTERIORMENTE CITADAS. ",
      "mainEntityOfPage": "https://www.contratacion.euskadi.eus/webkpe00-kperoc/es/ac71aBusquedaRegistrosWar/empresa/02492",
      "_links": {
        "self": {
          "name": "TALDE CLIMATIZACIÓN REFRIGERACIÓN, S.L.",
          "href": "https://api.euskadi.eus/procurements/companies/02492"
        }
      }
    }
  ]
}