{
  "totalItems": 9042,
  "totalPages": 905,
  "currentPage": 809,
  "itemsOfPage": 10,
  "items": [
    {
      "name": "PROYECTOS E INSTALACIONES DE DESALACIÓN, S.A.",
      "registrationNumber": "01811",
      "identificationNumber": "A28395754",
      "address": "C/ JOSÉ LUIS GOYOAGA, 36 ",
      "location": {
        "postalCode": "48950",
        "municipality": "Erandio",
        "county": "Bizkaia",
        "municipalityId": "902",
        "countyId": "48"
      },
      "economicActivities": [
        {
          "id": "1.501.2",
          "name": "Construcción completa, reparación y conservación obras civiles",
          "_links": {
            "self": {
              "name": "Construcción completa, reparación y conservación obras civiles",
              "href": "https://api.euskadi.eus/procurements/companies/economic-activities/1.501.2"
            }
          }
        },
        {
          "id": "1.507",
          "name": "Construcción, reparación y conservación de toda clase obras",
          "_links": {
            "self": {
              "name": "Construcción, reparación y conservación de toda clase obras",
              "href": "https://api.euskadi.eus/procurements/companies/economic-activities/1.507"
            }
          }
        },
        {
          "id": "1.921.2",
          "name": "Servicios de recogida de basuras y desechos",
          "_links": {
            "self": {
              "name": "Servicios de recogida de basuras y desechos",
              "href": "https://api.euskadi.eus/procurements/companies/economic-activities/1.921.2"
            }
          }
        },
        {
          "id": "1.921.4",
          "name": "Servicios de alcantarillado, evacuación y depuración de aguas residuales",
          "_links": {
            "self": {
              "name": "Servicios de alcantarillado, evacuación y depuración de aguas residuales",
              "href": "https://api.euskadi.eus/procurements/companies/economic-activities/1.921.4"
            }
          }
        }
      ],
      "certificateStartDate": "2002-05-20",
      "certificateEndDate": "2002-09-25",
      "object": "LA OFERTA, DISEÑO, SUMINISTRO Y VENTA  DE INSTALACIONES DE DESALACIÓN Y TRATAMIENTO DE AGUAS, POR LOS PROCESOS CONOCIDOS ACTUALMENTE Y POR LOS FUTUROS QUE PUEDAN DESCUBRIRSE",
      "mainEntityOfPage": "https://www.contratacion.euskadi.eus/webkpe00-kperoc/es/ac71aBusquedaRegistrosWar/empresa/01811",
      "_links": {
        "self": {
          "name": "PROYECTOS E INSTALACIONES DE DESALACIÓN, S.A.",
          "href": "https://api.euskadi.eus/procurements/companies/01811"
        }
      }
    },
    {
      "name": "SAPROLIMP, S.L.",
      "registrationNumber": "00769",
      "identificationNumber": "B48239040",
      "address": "C/ ORIXE, Nº 2 y 4.",
      "location": {
        "postalCode": "48015",
        "municipality": "Bilbao",
        "county": "Bizkaia",
        "municipalityId": "020",
        "countyId": "48"
      },
      "economicActivities": [
        {
          "id": "1.614.2",
          "name": "Venta al por mayor de productos de perfumería, droguería, higiene y belleza",
          "_links": {
            "self": {
              "name": "Venta al por mayor de productos de perfumería, droguería, higiene y belleza",
              "href": "https://api.euskadi.eus/procurements/companies/economic-activities/1.614.2"
            }
          }
        },
        {
          "id": "1.617.5",
          "name": "Venta al por mayor de maquinaria para la madera y el metal",
          "_links": {
            "self": {
              "name": "Venta al por mayor de maquinaria para la madera y el metal",
              "href": "https://api.euskadi.eus/procurements/companies/economic-activities/1.617.5"
            }
          }
        }
      ],
      "certificateStartDate": "2002-05-15",
      "certificateEndDate": "2002-10-16",
      "object": "LA VENTA Y DISTRIBUCIÓN DE PRODUCTOS, ÚTILES Y MAQUINARIA DE LIMPIEZA Y CUALQUIER OTRA ACTIVIDAD COMPLEMENTARIA DE LAS ANTERIORES",
      "mainEntityOfPage": "https://www.contratacion.euskadi.eus/webkpe00-kperoc/es/ac71aBusquedaRegistrosWar/empresa/00769",
      "_links": {
        "self": {
          "name": "SAPROLIMP, S.L.",
          "href": "https://api.euskadi.eus/procurements/companies/00769"
        }
      }
    },
    {
      "name": "ARENAL ARQUITECTOS, S.L.",
      "registrationNumber": "01990",
      "identificationNumber": "B48559066",
      "address": "C/ ALAMEDA URQUIJO, Nº 12.",
      "location": {
        "postalCode": "48005",
        "municipality": "Bilbao",
        "county": "Bizkaia",
        "municipalityId": "020",
        "countyId": "48"
      },
      "economicActivities": [
        {
          "id": "1.843.2",
          "name": "Servicios técnicos de arquitectura y urbanismo",
          "_links": {
            "self": {
              "name": "Servicios técnicos de arquitectura y urbanismo",
              "href": "https://api.euskadi.eus/procurements/companies/economic-activities/1.843.2"
            }
          }
        }
      ],
      "certificateStartDate": "2002-05-15",
      "certificateEndDate": "2002-10-23",
      "object": "ÚNICA Y EXCLUSIVAMENTE, LA PRESTACIÓN DE SERVICIOS PROFESIONALES REGULADOS POR LOS COLEGIOS OFICIALES DE ARQUITECTOS Y ARQUITECTOS-TÉCNICOS A PERSONAS FÍSICAS Y/O JURÍDICAS, DENTRO DEL ÁMBITO Y LÍMITES DE LA PROFESIÓN COLEGIADA QUE EJERCEN LOS SOCIOS.\r\n\r\nIGUALMENTE, LA COMPRA, TENENCIA, ADMINISTRACIÓN, PERMUTA Y VENTA DE TODA CLASE DE VALORES MOBILIARIOS TANTO PÚBLICOS COMO PRIVADOS.\r\n\r\nLAS ACTIVIDADES COMPRENDIDAS EN EL PÁRRAFO ANTERIOR ÚNICAMENTE PODRÁN SER DESARROLLADAS POR LA SOCIEDAD POR CUENTA PROPIA Y CON EXCEPCIÓN DE LA INTERMEDIACIÓN, Y DEJANDO SIEMPRE FUERA LAS ACTIVIDADES OBJETO DE LA LEGISLACIÓN DE INSTITUCIONES DE INVERSIÓN COLECTIVA Y DE MERCADO DE VALORES.\r\n\r\nQUEDA EXPESAMENTE EXCLUÍDO DEL OBJETO DE LA SOCIEDAD LA REALIZACIÓN DE ACTIVIDADES PROPIAS DE LA PROMOCIÓN, LA CONTRATA O LA VENTA DE INMUEBLES",
      "mainEntityOfPage": "https://www.contratacion.euskadi.eus/webkpe00-kperoc/es/ac71aBusquedaRegistrosWar/empresa/01990",
      "_links": {
        "self": {
          "name": "ARENAL ARQUITECTOS, S.L.",
          "href": "https://api.euskadi.eus/procurements/companies/01990"
        }
      }
    },
    {
      "name": "INTEGRACIÓN DE NEGOCIOS Y TECNOLOGÍA, S.A",
      "registrationNumber": "02531",
      "identificationNumber": "A82498171",
      "address": "AVDA. DE LA INDUSTRIA Nº 26",
      "location": {
        "postalCode": "28760",
        "municipality": "Tres Cantos",
        "county": "Madrid",
        "municipalityId": "903",
        "countyId": "28"
      },
      "economicActivities": [
        {
          "id": "1.769",
          "name": "Otros servicios de telecomunicaciones",
          "_links": {
            "self": {
              "name": "Otros servicios de telecomunicaciones",
              "href": "https://api.euskadi.eus/procurements/companies/economic-activities/1.769"
            }
          }
        },
        {
          "id": "1.843.1",
          "name": "Servicios técnicos de ingeniería",
          "_links": {
            "self": {
              "name": "Servicios técnicos de ingeniería",
              "href": "https://api.euskadi.eus/procurements/companies/economic-activities/1.843.1"
            }
          }
        },
        {
          "id": "1.845",
          "name": "Explotación electrónica por cuenta de terceros",
          "_links": {
            "self": {
              "name": "Explotación electrónica por cuenta de terceros",
              "href": "https://api.euskadi.eus/procurements/companies/economic-activities/1.845"
            }
          }
        }
      ],
      "certificateStartDate": "2002-05-02",
      "certificateEndDate": "2002-08-19",
      "object": "EL DESARROLLO DE ACTIVIDADES Y PRESTACIÓN Y EXPLOTACIÓN DE SERVICIOS EN EL ÁREA DE LAS TELECOMUNICACIONES, NACIONALES E INTERNACIONALES, SERVICIOS CONEXOS DE PRODUCCIÓN DE CONTENIDOS PARA ACCESO ON LINE E INTERNET, SERVICIOS INTERACTIVOS DE INFORMACIÓN Y COMUNICACIÓN, LA COMERCIALIZACIÓN Y VENTA DE SISTEMAS, METODOLOGÍA, CONSULTORÍA, ASESORAMIENTO, PROMOCIÓN DE SOFWARE, HARDWARE Y CUALQUIER SERVICIO DE VALOR AÑADIDO EN EN INFORMÁTICA Y COMUNICACIONES.\r\n\r\nLA ADQUISICIÓN, EXPLOTACIÓN Y ENAJENACIÓN DE BIENES INMUEBLES.\r\n\r\nLAS ACTIVIDADES INTEGRANTES DEL OBJETO SOCIAL PODRÁN SER DESARROLLADAS POR LA SOCIEDAD, TOTAL O PARCIALMENTE, DE MODO INDIRECTO, MEDIANTE LA TITULARIDAD DE ACCIONES O DE PARTICIPACIONES EN SOCIEDADES CON OBJETO IDÉNTICO O ANÁLOGO.\r\nQUEDAN EXPRESAMENTE EXCLUIDAS TODAS AQUELLAS ACTIVIDADES PARA CUYO EJERCICIO LA LEY EXIJA REQUISITOS ESPECIALES QUE NO QUEDEN CUMPLIDOS POR ESTA SOCIEDAD ",
      "mainEntityOfPage": "https://www.contratacion.euskadi.eus/webkpe00-kperoc/es/ac71aBusquedaRegistrosWar/empresa/02531",
      "_links": {
        "self": {
          "name": "INTEGRACIÓN DE NEGOCIOS Y TECNOLOGÍA, S.A",
          "href": "https://api.euskadi.eus/procurements/companies/02531"
        }
      }
    },
    {
      "name": "LABORATORIOS HUBBER, S.L.",
      "registrationNumber": "02174",
      "identificationNumber": "B58873811",
      "address": "C/ CASANOVA, Nº 27 - 31",
      "location": {
        "postalCode": "08757",
        "municipality": "Corbera de Llobregat",
        "county": "Barcelona",
        "municipalityId": "072",
        "countyId": "08"
      },
      "economicActivities": [
        {
          "id": "1.754.1",
          "name": "Depósitos y almacenes generales",
          "_links": {
            "self": {
              "name": "Depósitos y almacenes generales",
              "href": "https://api.euskadi.eus/procurements/companies/economic-activities/1.754.1"
            }
          }
        }
      ],
      "certificateStartDate": "2002-04-25",
      "certificateEndDate": "2002-10-02",
      "object": "LA FABRICACIÓN, COMERCIALIZACIÓN Y VENTA DE PRODUCTOS FARMACÉUTICOS, QUÍMICO-FARMACÉUTICOS, PARAFARMACÉUTICOS, COSMÉTICOS Y VETERINARIOS",
      "mainEntityOfPage": "https://www.contratacion.euskadi.eus/webkpe00-kperoc/es/ac71aBusquedaRegistrosWar/empresa/02174",
      "_links": {
        "self": {
          "name": "LABORATORIOS HUBBER, S.L.",
          "href": "https://api.euskadi.eus/procurements/companies/02174"
        }
      }
    },
    {
      "name": "DRAWING PUBLIMARK, S.L.",
      "registrationNumber": "02523",
      "identificationNumber": "B48480479",
      "address": "CTRA. BILBAO-BOLUETA, Nº 2-2º. EDIFICIO BOLUETA",
      "location": {
        "postalCode": "48004",
        "municipality": "Bilbao",
        "county": "Bizkaia",
        "municipalityId": "020",
        "countyId": "48"
      },
      "economicActivities": [
        {
          "id": "1.844",
          "name": "Servicios de publicidad, relaciones públicas y similares",
          "_links": {
            "self": {
              "name": "Servicios de publicidad, relaciones públicas y similares",
              "href": "https://api.euskadi.eus/procurements/companies/economic-activities/1.844"
            }
          }
        }
      ],
      "certificateStartDate": "2002-04-10",
      "certificateEndDate": "2002-09-27",
      "object": "LA PUBLICIDAD DIRECTA E INDIRECTA, ASÍ COMO LA PUBLICACIÓN Y EDICIÓN DE TODA CLASE DE ANUNCIOS PUBLICITARIOS",
      "mainEntityOfPage": "https://www.contratacion.euskadi.eus/webkpe00-kperoc/es/ac71aBusquedaRegistrosWar/empresa/02523",
      "_links": {
        "self": {
          "name": "DRAWING PUBLIMARK, S.L.",
          "href": "https://api.euskadi.eus/procurements/companies/02523"
        }
      }
    },
    {
      "name": "ANTONIO DIEZ ESTEBAN, S.L.",
      "registrationNumber": "02524",
      "identificationNumber": "B95040598",
      "address": "CTRA. BILBAO-GALDACANO, Nº 2-2º. EDIFICIO BOLUETA",
      "location": {
        "postalCode": "48004",
        "municipality": "Bilbao",
        "county": "Bizkaia",
        "municipalityId": "020",
        "countyId": "48"
      },
      "economicActivities": [
        {
          "id": "1.849.5",
          "name": "Servicios de recadería y reparto y manipulación de correspondencia",
          "_links": {
            "self": {
              "name": "Servicios de recadería y reparto y manipulación de correspondencia",
              "href": "https://api.euskadi.eus/procurements/companies/economic-activities/1.849.5"
            }
          }
        },
        {
          "id": "1.859",
          "name": "Alquiler de otros bienes muebles n.c.o.p. (sin personal permanente)",
          "_links": {
            "self": {
              "name": "Alquiler de otros bienes muebles n.c.o.p. (sin personal permanente)",
              "href": "https://api.euskadi.eus/procurements/companies/economic-activities/1.859"
            }
          }
        }
      ],
      "certificateStartDate": "2002-04-10",
      "certificateEndDate": "2002-09-27",
      "object": "LA PUBLICIDAD DIRECTA E INDIRECTA, ASÍ COMO LA PUBLICACIÓN Y EDICIÓN DE TODA CLASE DE ANUNCIOS PUBLICITARIOS",
      "mainEntityOfPage": "https://www.contratacion.euskadi.eus/webkpe00-kperoc/es/ac71aBusquedaRegistrosWar/empresa/02524",
      "_links": {
        "self": {
          "name": "ANTONIO DIEZ ESTEBAN, S.L.",
          "href": "https://api.euskadi.eus/procurements/companies/02524"
        }
      }
    },
    {
      "name": "LABORATORIOS GELOS, S.A.",
      "registrationNumber": "02182",
      "identificationNumber": "A08057507",
      "address": "C/ JOAN XXIII, Nº 10.",
      "location": {
        "postalCode": "08950",
        "municipality": "Esplugues de Llobregat",
        "county": "Barcelona",
        "municipalityId": "077",
        "countyId": "08"
      },
      "economicActivities": [
        {
          "id": "1.254.2",
          "name": "Fabricación de especialidades y otros productos farmacéuticos",
          "_links": {
            "self": {
              "name": "Fabricación de especialidades y otros productos farmacéuticos",
              "href": "https://api.euskadi.eus/procurements/companies/economic-activities/1.254.2"
            }
          }
        }
      ],
      "certificateStartDate": "2002-04-09",
      "certificateEndDate": "2001-12-20",
      "object": "LA PREPARACIÓN Y VENTA DE ESPECIALIDADES FARMACÉUTICAS",
      "mainEntityOfPage": "https://www.contratacion.euskadi.eus/webkpe00-kperoc/es/ac71aBusquedaRegistrosWar/empresa/02182",
      "_links": {
        "self": {
          "name": "LABORATORIOS GELOS, S.A.",
          "href": "https://api.euskadi.eus/procurements/companies/02182"
        }
      }
    },
    {
      "name": "OCHANDI, S.L.",
      "registrationNumber": "02520",
      "identificationNumber": "B01247725",
      "address": "C/ ADRIANO VI, 14 - 1ºIZDA.",
      "location": {
        "postalCode": "01008",
        "municipality": "Vitoria-Gasteiz",
        "county": "Araba/Álava",
        "municipalityId": "059",
        "countyId": "01"
      },
      "economicActivities": [
        {
          "id": "1.932.2",
          "name": "Enseñanza de formación y perfeccionamiento profesional superior",
          "_links": {
            "self": {
              "name": "Enseñanza de formación y perfeccionamiento profesional superior",
              "href": "https://api.euskadi.eus/procurements/companies/economic-activities/1.932.2"
            }
          }
        }
      ],
      "certificateStartDate": "2002-04-09",
      "certificateEndDate": "2002-09-06",
      "object": "LOS SERVICIOS EN EL AREA DE RECURSOS HUMANOS Y CALIDAD",
      "mainEntityOfPage": "https://www.contratacion.euskadi.eus/webkpe00-kperoc/es/ac71aBusquedaRegistrosWar/empresa/02520",
      "_links": {
        "self": {
          "name": "OCHANDI, S.L.",
          "href": "https://api.euskadi.eus/procurements/companies/02520"
        }
      }
    },
    {
      "name": "CONSTRUCCIONES NEOUVILLE, S.A.",
      "registrationNumber": "01985",
      "identificationNumber": "A20453155",
      "address": "C/ PASEO DE LOS OLMOS, Nº 14 - 13ª.",
      "location": {
        "postalCode": "20016",
        "municipality": "Donostia / San Sebastián",
        "county": "Gipuzkoa",
        "municipalityId": "069",
        "countyId": "20"
      },
      "economicActivities": [
        {
          "id": "1.501.1",
          "name": "Construcción completa, reparación y conservación de edificaciones",
          "_links": {
            "self": {
              "name": "Construcción completa, reparación y conservación de edificaciones",
              "href": "https://api.euskadi.eus/procurements/companies/economic-activities/1.501.1"
            }
          }
        }
      ],
      "certificateStartDate": "2002-03-25",
      "certificateEndDate": "2002-09-13",
      "object": "LA PROYECCIÓN, EJECUCIÓN, VENTA Y ALQUILER DE CONSTRUCCIONES Y EDIFICIOS DE TODO TIPO. LA PROMOCIÓN, REALIZACIÓN Y EJECUCIÓN DE PROYECTOS DE OBRA DE URBANIZACIÓN, PARCELACIÓN Y REPARCELACIÓN. LA EXPLOTACIÓN DE FINCAS URBANAS OBTENIDAS EN ARRENDAMIENTO, PROPIEDAD, USUFRUCTO O CUALQUIER OTRO TÍTULO. LA TRANSFORMACIÓN DE CALIFICACIÓN Y USOS DE VUELO, MEDIANTE LA REDACCIÓN DE PLANOS DE ORDENACIÓN Y ESTUDIOS DE DETALLE QUE SE CONSIDEREN OPORTUNOS. LA ADQUISICIÓN, TENENCIA Y TRANSMISIÓN DE BIENES INMUEBLES, O MUEBLES, INCLUSO ACCIONES, OBLIGACIONES Y CUALQUIER OTRA CLASE DE TÍTULOS-VALORES, POR CUENTA PROPIA. LA PARTICIPACIÓN EN SOCIEDADES, COMUNIDADES O ASOCIACIONES DE CUALQUIER TIPO. LA ORGANIZACIÓN Y GESTIÓN DE COMUNIDADES DE PROPIETARIOS PARA LA FORMALIZACIÓN DE CUALQUIER TIPO DE URBANIZACIÓN O VIVIENDAS. LA PRESTACIÓN DE TODA CLASE DE SERVICIOS DE ASESORAMIENTO, CONSULTA Y ADMINISTRACIÓN",
      "mainEntityOfPage": "https://www.contratacion.euskadi.eus/webkpe00-kperoc/es/ac71aBusquedaRegistrosWar/empresa/01985",
      "_links": {
        "self": {
          "name": "CONSTRUCCIONES NEOUVILLE, S.A.",
          "href": "https://api.euskadi.eus/procurements/companies/01985"
        }
      }
    }
  ]
}