{
  "totalItems": 9042,
  "totalPages": 905,
  "currentPage": 836,
  "itemsOfPage": 10,
  "items": [
    {
      "name": "CHIRON ESPAÑA, S.A.",
      "registrationNumber": "01387",
      "identificationNumber": "A59994517",
      "address": "PARQUE EMPRESARIAL SAN FERNANDO - EDIFICIO DUBLIN",
      "location": {
        "postalCode": "28831",
        "municipality": "San Fernando de Henares",
        "county": "Madrid",
        "municipalityId": "130",
        "countyId": "28"
      },
      "economicActivities": [
        {
          "id": "1.619.2",
          "name": "Venta al por mayor de aparatos e instrumentos médicos, ortopédicos, ópticos",
          "_links": {
            "self": {
              "name": "Venta al por mayor de aparatos e instrumentos médicos, ortopédicos, ópticos",
              "href": "https://api.euskadi.eus/procurements/companies/economic-activities/1.619.2"
            }
          }
        }
      ],
      "certificateStartDate": "1998-06-15",
      "certificateEndDate": "1998-11-08",
      "object": "LA FABRICACIÓN, PRODUCCIÓN, CONSTRUCCIÓN, DISTRIBUCIÓN, EXPLOTACIÓN, IMPORTACIÓN, EXPORTACIÓN, PROMOCIÓN, COMPRA, VENTA, REPRESENTACIÓN, INSTALACIÓN, MANTENIMIENTO Y GESTIÓN DE TODA CLASE DE EQUIPOS, INSTRUMENTOS, REACTIVOS, PRODUCTOS BIOLÓGICOS, ACCESORIOS Y PROCESOS PARA FINES MEDICOS, BIOQUÍMICOS, CIENTÍFICOS, INDUSTRIALES O CUALQUIER OTRO FIN DE ANALISIS O DIAGNÓSTICO, ASÍ COMO LA FABRICACIÓN Y ELABORACIÓN, COMPRA-VENTA, DISTRIBUCIÓN, IMPORTACIÓN Y EXPORTACIÓN DE TODA CLASE DE PRODUCTOS Y ESPECIALIDADES FARMACÉUTICAS Y VETERINARIAS, PRODUCTOS DIETÉTICOS, VACUNAS, COSMÉTICOS, ASÍ COMO DE PRODUCTOS, UTENSILIOS E IMPLANTES PARA EL CUIDADO DE LA VISIÓN Y SALUD OCULAR HUMANAS Y DE CORRECCIÓN DE LA VISTA",
      "mainEntityOfPage": "https://www.contratacion.euskadi.eus/webkpe00-kperoc/es/ac71aBusquedaRegistrosWar/empresa/01387",
      "_links": {
        "self": {
          "name": "CHIRON ESPAÑA, S.A.",
          "href": "https://api.euskadi.eus/procurements/companies/01387"
        }
      }
    },
    {
      "name": "AZUL MARINO VIAJES, S.A.",
      "registrationNumber": "01409",
      "identificationNumber": "A48145411",
      "address": "C/ AYALA, 2",
      "location": {
        "postalCode": "48008",
        "municipality": "Bilbao",
        "county": "Bizkaia",
        "municipalityId": "020",
        "countyId": "48"
      },
      "economicActivities": [
        {
          "id": "1.755",
          "name": "Agencias de viajes",
          "_links": {
            "self": {
              "name": "Agencias de viajes",
              "href": "https://api.euskadi.eus/procurements/companies/economic-activities/1.755"
            }
          }
        }
      ],
      "certificateStartDate": "1998-06-08",
      "certificateEndDate": "1998-10-24",
      "object": "EL DESARROLLO DE TODO TIPO DE ACTIVIDADES QUE CORRESPONDEN A LAS AGENCIAS DE VIAJES",
      "mainEntityOfPage": "https://www.contratacion.euskadi.eus/webkpe00-kperoc/es/ac71aBusquedaRegistrosWar/empresa/01409",
      "_links": {
        "self": {
          "name": "AZUL MARINO VIAJES, S.A.",
          "href": "https://api.euskadi.eus/procurements/companies/01409"
        }
      }
    },
    {
      "name": "DEMOLICIONES DE EQUIPOS Y MÁQUINAS, S.L.",
      "registrationNumber": "01493",
      "identificationNumber": "B20426458",
      "address": "IDIAQUEZ, 13 - 2º B",
      "location": {
        "postalCode": "20004",
        "municipality": "Donostia / San Sebastián",
        "county": "Gipuzkoa",
        "municipalityId": "069",
        "countyId": "20"
      },
      "economicActivities": [
        {
          "id": "1.621",
          "name": "Venta al por mayor de chatarra y metales de desecho férreos y no férreos",
          "_links": {
            "self": {
              "name": "Venta al por mayor de chatarra y metales de desecho férreos y no férreos",
              "href": "https://api.euskadi.eus/procurements/companies/economic-activities/1.621"
            }
          }
        }
      ],
      "certificateStartDate": "1998-05-28",
      "certificateEndDate": "1998-11-22",
      "object": "EL DESGUACE Y APROVECHAMIENTO DE MAQUINARIA, INSTALACIONES Y EQUIPOS FERROVIARIOS, NAVALES E INDUSTRIALES EN GENERAL",
      "mainEntityOfPage": "https://www.contratacion.euskadi.eus/webkpe00-kperoc/es/ac71aBusquedaRegistrosWar/empresa/01493",
      "_links": {
        "self": {
          "name": "DEMOLICIONES DE EQUIPOS Y MÁQUINAS, S.L.",
          "href": "https://api.euskadi.eus/procurements/companies/01493"
        }
      }
    },
    {
      "name": "YEREGUI, S.A. EMPRESA CONSTRUCTORA",
      "registrationNumber": "00910",
      "identificationNumber": "A20010336",
      "address": "C/ EASO, Nº 31 - 2º",
      "location": {
        "postalCode": "20006",
        "municipality": "Donostia / San Sebastián",
        "county": "Gipuzkoa",
        "municipalityId": "069",
        "countyId": "20"
      },
      "economicActivities": [
        {
          "id": "1.501.1",
          "name": "Construcción completa, reparación y conservación de edificaciones",
          "_links": {
            "self": {
              "name": "Construcción completa, reparación y conservación de edificaciones",
              "href": "https://api.euskadi.eus/procurements/companies/economic-activities/1.501.1"
            }
          }
        }
      ],
      "certificateStartDate": "1998-05-27",
      "certificateEndDate": "1998-11-21",
      "object": "LA CONSTRUCCION DE TODA CLASE DE OBRAS Y EDIFICIOS PUBLICOS Y PARTICULARES, COMPRA VENTA DE TODA CLASE DE INMUEBLES Y TERRENOS; EXPLOTACION DE TALLERES DE CARPINTERIA, EBANISTERIA, HERRERIA, LINTERNERIA, DE CONSTRUCCIONES MECANICAS, DE TEJERIAS Y LADRILLOS, DE PINTURA Y DECORACION, DE PIEZAS PREFABRICADAS DE HORMIGON ARMADO O CERAMICA, DE CANTERIA Y MARMOLERIA, DE FUMISTERIA, ARTICULOS SANITARIOS Y DE HIGIENE, DE CALEFACCION, DE ELECTRICIDAD, DE CORTA Y ASERRADERO DE MADERAS, DE FUNDICION Y LAMINACION DE HIERRO, DE FABRICA DE CEMENTO Y DE VIDRIO, COMPRA DE CANTERAS Y SU EXPLOTACION",
      "mainEntityOfPage": "https://www.contratacion.euskadi.eus/webkpe00-kperoc/es/ac71aBusquedaRegistrosWar/empresa/00910",
      "_links": {
        "self": {
          "name": "YEREGUI, S.A. EMPRESA CONSTRUCTORA",
          "href": "https://api.euskadi.eus/procurements/companies/00910"
        }
      }
    },
    {
      "name": "TELTRAFIC, S.L.",
      "registrationNumber": "01988",
      "identificationNumber": "B81801433",
      "address": "C/ JORGE LUIS BORGES, Nº 19",
      "location": {
        "postalCode": "28806",
        "municipality": "Alcalá de Henares",
        "county": "Madrid",
        "municipalityId": "005",
        "countyId": "28"
      },
      "economicActivities": [
        {
          "id": "1.615.4",
          "name": "Venta al por mayor de aparatos y material radioeléctrico y electrónico",
          "_links": {
            "self": {
              "name": "Venta al por mayor de aparatos y material radioeléctrico y electrónico",
              "href": "https://api.euskadi.eus/procurements/companies/economic-activities/1.615.4"
            }
          }
        }
      ],
      "certificateStartDate": "1998-05-26",
      "certificateEndDate": "1998-11-04",
      "object": "LA COMERCIALIZACIÓN, DISTRIBUCIÓN, PROMOCIÓN, TRANSPORTE, MONTAJE, ENSAMBLAJE, FABRICACIÓN, INSTALACIÓN, ALMACENAJE, IMPORTACIÓN, EXPORTACIÓN, DISEÑO, MANTENIMIENTO, REPARACIÓN, ASISTENCIA TÉCNICA, ASESORAMIENTO, ENSEÑANZA Y ADIESTRAMIENTO, INTERMEDIACIÓN, CONTRATACIÓN, DIFUSIÓN, ARRENDAMIENTO, GESTIÓN, REPRESENTACIÓN, REALIZACIÓN, DE APARATOS Y DISPOSITIVOS ELECTRÓNICOS DE SEGURIDAD, DE TELEMETRÍA Y TELECONTROL; CINEMÓMETROS, CON SUS EQUIPOS DE EVALUACIÓN ÓPTICO-MECÁNICA; APARATOS DE VISIÓN ARTIFICIAL; SEÑALIZACIONES; COMUNICACIÓN, SISTEMAS DE POSICIONAMIENTO, SISTEMAS DE LOCALIZACIÓN, SISTEMAS DE TRANSMISIÓN DE DATOS E IMÁGENES, VÍA RADIOFRECUENCIA Y VÍA SATÉLITE; SISTEMAS DE CONTROL Y DE GESTIÓN DE TRÁFICO VIAL Y DE ESTACIONAMIENTO; PREPARACIÓN Y EQUIPAMIENTO DE VEHÍCULOS ESPECIALES; Y LOS ACCESORIOS Y PERIFÉRICOS DE TODO ELLO. COMPLEMENTARIAMENTE, LAS ANTEDICHAS ACTIVIDADES PARA CONSUMIBLES, COMPLEMENTOS Y RECAMBIOS DE LOS ANTERIORES ELEMENTOS; Y LA CONSULTORÍA, ADMINISTRACIÓN, ESTUDIOS, INFORMES, DICTÁMENES, RECOPILACIÓN DE DATOS, SOBRE AQUELLOS",
      "mainEntityOfPage": "https://www.contratacion.euskadi.eus/webkpe00-kperoc/es/ac71aBusquedaRegistrosWar/empresa/01988",
      "_links": {
        "self": {
          "name": "TELTRAFIC, S.L.",
          "href": "https://api.euskadi.eus/procurements/companies/01988"
        }
      }
    },
    {
      "name": "PROSANITAS, S.A.",
      "registrationNumber": "00441",
      "identificationNumber": "A08906901",
      "address": "C/ CASANOVA, 49-53",
      "location": {
        "postalCode": "08011",
        "municipality": "Barcelona",
        "county": "Barcelona",
        "municipalityId": "019",
        "countyId": "08"
      },
      "economicActivities": [
        {
          "id": "1.619.2",
          "name": "Venta al por mayor de aparatos e instrumentos médicos, ortopédicos, ópticos",
          "_links": {
            "self": {
              "name": "Venta al por mayor de aparatos e instrumentos médicos, ortopédicos, ópticos",
              "href": "https://api.euskadi.eus/procurements/companies/economic-activities/1.619.2"
            }
          }
        }
      ],
      "certificateStartDate": "1998-04-24",
      "certificateEndDate": "1998-09-06",
      "object": "FABRICACION, COMPRAVENTA, IMPORTACION, EXPORTACION, COMERCIALIZACION Y DISTRIBUCION DE TODA CLASE DE PRODUCTOS DE MATERIAL MEDICO, QUIRURGICO, ORTOPEDIA Y SIMILARES",
      "mainEntityOfPage": "https://www.contratacion.euskadi.eus/webkpe00-kperoc/es/ac71aBusquedaRegistrosWar/empresa/00441",
      "_links": {
        "self": {
          "name": "PROSANITAS, S.A.",
          "href": "https://api.euskadi.eus/procurements/companies/00441"
        }
      }
    },
    {
      "name": "F.B.A. FERNANDO BAJO Y ASOCIADOS, S.L.",
      "registrationNumber": "01535",
      "identificationNumber": "B01154806",
      "address": "C/ SAN PRUDENCIO, 20 - 4º",
      "location": {
        "postalCode": "01005",
        "municipality": "Vitoria-Gasteiz",
        "county": "Araba/Álava",
        "municipalityId": "059",
        "countyId": "01"
      },
      "economicActivities": [
        {
          "id": "1.843.2",
          "name": "Servicios técnicos de arquitectura y urbanismo",
          "_links": {
            "self": {
              "name": "Servicios técnicos de arquitectura y urbanismo",
              "href": "https://api.euskadi.eus/procurements/companies/economic-activities/1.843.2"
            }
          }
        }
      ],
      "certificateStartDate": "1998-03-31",
      "certificateEndDate": "1998-09-04",
      "object": "LA ORDENACION, URBANIZACION, PARCELACION, GESTION, CONTROL, CONSTRUC- CION, PROMOCION, TENENCIA, ADQUISICION, VENTA, ARRENDAMIENTO, ADMINISTRACION Y CONTRATACION DE TODA CLASE DE TERRENOS Y FINCAS RUSTICAS O URBANAS, SOLARES, OBRAS, VIVIENDAS, LOCALES, GARAGES, PABELLONES Y TODA CLASE DE INMUEBLES; Y LA PRESTACION DE SERVICIOS, ASESORAMIENTO E INFORMES, DE CARACTER TECNICO, CUYO OBJETO SEA LA CONSTRUCCION EN GENERAL, MEDIANTE LA REALIZACION DE LOS CORRESPONDIENTES ESTUDIOS Y PROYECTOS, CON LA CONTRATACION PARA ELLO, EN SU CASO, DE ARQUITECTOS, APAREJADORES Y OTROS TECNICOS Y TERCEROS CON COMPETENCIA EN LA MATERIA",
      "mainEntityOfPage": "https://www.contratacion.euskadi.eus/webkpe00-kperoc/es/ac71aBusquedaRegistrosWar/empresa/01535",
      "_links": {
        "self": {
          "name": "F.B.A. FERNANDO BAJO Y ASOCIADOS, S.L.",
          "href": "https://api.euskadi.eus/procurements/companies/01535"
        }
      }
    },
    {
      "name": "SERVICIOS INTEGRALES DERECO, S.L.",
      "registrationNumber": "01686",
      "identificationNumber": "B48708226",
      "address": "CTRA. BILBAO-GALDAKAO, KM. 3",
      "location": {
        "postalCode": "48004",
        "municipality": "Bilbao",
        "county": "Bizkaia",
        "municipalityId": "020",
        "countyId": "48"
      },
      "economicActivities": [
        {
          "id": "1.501.1",
          "name": "Construcción completa, reparación y conservación de edificaciones",
          "_links": {
            "self": {
              "name": "Construcción completa, reparación y conservación de edificaciones",
              "href": "https://api.euskadi.eus/procurements/companies/economic-activities/1.501.1"
            }
          }
        }
      ],
      "certificateStartDate": "1998-03-31",
      "certificateEndDate": "1998-09-24",
      "object": "LA CONTRATA Y EJECUCION DE TODA CLASE DE OBRAS DE PINTADO Y EMPAPELADO DE EDIFICIOS, VIVIENDAS Y LOCALES COMERCIALES O INDUSTRIALES, CON O SIN SUMINISTRO DE MATERIALES",
      "mainEntityOfPage": "https://www.contratacion.euskadi.eus/webkpe00-kperoc/es/ac71aBusquedaRegistrosWar/empresa/01686",
      "_links": {
        "self": {
          "name": "SERVICIOS INTEGRALES DERECO, S.L.",
          "href": "https://api.euskadi.eus/procurements/companies/01686"
        }
      }
    },
    {
      "name": "EUROSTUDY, S.A.",
      "registrationNumber": "00790",
      "identificationNumber": "A48136030",
      "address": "MÁXIMO AGUIRRE, 18 - BIS, 8º",
      "location": {
        "postalCode": "48011",
        "municipality": "Bilbao",
        "county": "Bizkaia",
        "municipalityId": "020",
        "countyId": "48"
      },
      "economicActivities": [
        {
          "id": "1.849.3",
          "name": "Servicios de traducción y similares",
          "_links": {
            "self": {
              "name": "Servicios de traducción y similares",
              "href": "https://api.euskadi.eus/procurements/companies/economic-activities/1.849.3"
            }
          }
        },
        {
          "id": "1.933.9",
          "name": "Otras actividades de enseñanza tales como idiomas, mecanografía",
          "_links": {
            "self": {
              "name": "Otras actividades de enseñanza tales como idiomas, mecanografía",
              "href": "https://api.euskadi.eus/procurements/companies/economic-activities/1.933.9"
            }
          }
        }
      ],
      "certificateStartDate": "1998-03-25",
      "certificateEndDate": "1998-09-17",
      "object": "LA ENSEÑANZA DE IDIOMAS, IMPARTIENDO CLASES DE LOS MISMOS A EMPLEADOS DE EMPRESAS E INSTITUCIONES DENTRO DE LAS MISMAS Y A PARTICULARES EN EL CENTRO DE ESTUDIOS DE LA EMPRESA; EJERCIENDO TAMBIEN LA ACTIVIDAD DE INTERMEDIARIO O AGENTE PARA TRASLADAR Y ALOJAR A ESTUDIANTES A DIVERSOS PAISES EXTRANJEROS PARA PERFECCIONAR LOS IDIOMAS; TRADUCCIONES; INTERPRETES. LA FABRICACION, COMPRA, VENTA, IMPORTACION, EXPORTACION, ARRENDAMIENTO, LEASING Y COMERCIALIZACION DE MATERIAL EDUCATIVO O DOCENTE, INCLUYENDO EL IMPARTIR CUALESQUIERA CURSOS O ESTUDIOS ASI COMO LA PRESTACION DE TODA CLASE DE ACTIVIDADES O SERVICIOS DIRIGIDOS A LA FORMACION, INSTRUCCION, EDUCACION Y DOCENCIA EN TODOS SUS GRADOS Y MATERIALES, ORGANIZAR Y PROMOVER CURSILLOS DE ESTUDIO, VIAJES DE FORMACION, INTERCAMBIOS CULTURALES, CONFERENCIAS, ACTIVIDADES RELACIONADAS DIRECTA O INDIRECTAMENTE CON LAS FUNCIONES DOCENTES O DIDACTICAS",
      "mainEntityOfPage": "https://www.contratacion.euskadi.eus/webkpe00-kperoc/es/ac71aBusquedaRegistrosWar/empresa/00790",
      "_links": {
        "self": {
          "name": "EUROSTUDY, S.A.",
          "href": "https://api.euskadi.eus/procurements/companies/00790"
        }
      }
    },
    {
      "name": "CONSTRUCCIONES Y EXCAVACIONES AMURRIO, S.L.",
      "registrationNumber": "01807",
      "identificationNumber": "B01027671",
      "address": "C/ UGARTEBETXI, 14",
      "location": {
        "postalCode": "01470",
        "municipality": "Amurrio",
        "county": "Araba/Álava",
        "municipalityId": "002",
        "countyId": "01"
      },
      "economicActivities": [
        {
          "id": "1.502.2",
          "name": "Consolidación y preparación de terrenos para la construcción de edificaciones",
          "_links": {
            "self": {
              "name": "Consolidación y preparación de terrenos para la construcción de edificaciones",
              "href": "https://api.euskadi.eus/procurements/companies/economic-activities/1.502.2"
            }
          }
        }
      ],
      "certificateStartDate": "1998-03-25",
      "certificateEndDate": "1998-09-16",
      "object": "LA CONSTRUCCION Y EXCAVACION DE OBRAS TANTO PUBLICAS COMO PRIVADAS Y, EN GENERAL, TODAS AQUELLAS ACTIVIDADES QUE DIRECTA O INDIRECTAMENTE SE DERIVEN DEL OBJETO PRINCIPAL",
      "mainEntityOfPage": "https://www.contratacion.euskadi.eus/webkpe00-kperoc/es/ac71aBusquedaRegistrosWar/empresa/01807",
      "_links": {
        "self": {
          "name": "CONSTRUCCIONES Y EXCAVACIONES AMURRIO, S.L.",
          "href": "https://api.euskadi.eus/procurements/companies/01807"
        }
      }
    }
  ]
}