{
  "totalItems": 9042,
  "totalPages": 905,
  "currentPage": 606,
  "itemsOfPage": 10,
  "items": [
    {
      "name": "ZIMMERLAN INGENIERIA Y ARQUITECTURA SL",
      "registrationNumber": "06341",
      "identificationNumber": "B75143784",
      "address": "PASEO UBARBURU 38",
      "location": {
        "postalCode": "20014",
        "municipality": "Donostia / San Sebastián",
        "county": "Gipuzkoa",
        "municipalityId": "069",
        "countyId": "20"
      },
      "economicActivities": [
        {
          "id": "1.834",
          "name": "Servicios relativos a la propiedad inmobiliaria e industrial",
          "_links": {
            "self": {
              "name": "Servicios relativos a la propiedad inmobiliaria e industrial",
              "href": "https://api.euskadi.eus/procurements/companies/economic-activities/1.834"
            }
          }
        },
        {
          "id": "1.843.1",
          "name": "Servicios técnicos de ingeniería",
          "_links": {
            "self": {
              "name": "Servicios técnicos de ingeniería",
              "href": "https://api.euskadi.eus/procurements/companies/economic-activities/1.843.1"
            }
          }
        },
        {
          "id": "1.843.2",
          "name": "Servicios técnicos de arquitectura y urbanismo",
          "_links": {
            "self": {
              "name": "Servicios técnicos de arquitectura y urbanismo",
              "href": "https://api.euskadi.eus/procurements/companies/economic-activities/1.843.2"
            }
          }
        }
      ],
      "certificateStartDate": "2019-07-01",
      "certificateEndDate": "2019-11-07",
      "object": " LOS SERVICIOS TÉCNICOS DE ARQUITECTURA. SERVICIOS TÉCNICOS DE INGENIERÍA Y OTRAS ACTIVIDADES RELACIONADAS CON EL ASESORAMIENTO TÉCNICO.  LAS OFICINAS TÉCNICAS DE INGENIERÍA Y ARQUITECTURA. SERVICIOS TÉCNICOS DE INGENIERÍA Y ARQUITECTURA; SERVICIOS DE CONSULTORÍA; INTERMEDIARIO DE COMERCIO; PRESTACIÓN DE SERVICIOS DE ESTUDIO Y ANÁLISIS DE PROCESOS PRA SU TRATAMIENTO MECÁNICO, DE PROGRAMACIÓN PARA EQUIPOS ELECTRÓNICOS Y VENTA DE PROGRAMAS; INTERMEDIACIÓN Y COORDINACIÓN DE SERVICIOS; CONSTRUCCIÓN, REPARACIÓN Y CONSERVACIÓN DE EDIFICIOS, INSTALACIONES Y MAQUINARIA; COMERCIO AL POR MAYOR Y MENOR; ALQUILER DE ARTÍCULOS DE CONSUMO",
      "mainEntityOfPage": "https://www.contratacion.euskadi.eus/webkpe00-kperoc/es/ac71aBusquedaRegistrosWar/empresa/06341",
      "_links": {
        "self": {
          "name": "ZIMMERLAN INGENIERIA Y ARQUITECTURA SL",
          "href": "https://api.euskadi.eus/procurements/companies/06341"
        }
      }
    },
    {
      "name": "MNEMO EVOLUTION & INTEGRATION SERVICES, S.A.",
      "registrationNumber": "06342",
      "identificationNumber": "A82958075",
      "address": "Paseo de la Castellana nº 135, Planta 16",
      "location": {
        "postalCode": "28046",
        "municipality": "Madrid",
        "county": "Madrid",
        "municipalityId": "079",
        "countyId": "28"
      },
      "economicActivities": [
        {
          "id": "1.845",
          "name": "Explotación electrónica por cuenta de terceros",
          "_links": {
            "self": {
              "name": "Explotación electrónica por cuenta de terceros",
              "href": "https://api.euskadi.eus/procurements/companies/economic-activities/1.845"
            }
          }
        }
      ],
      "certificateStartDate": "2019-07-01",
      "certificateEndDate": "2019-10-23",
      "object": "LA COMERCIALIZACIÓN Y DISTRIBUCIÓN DE PRODUCTOS Y SERVICIOS DERIVADOS DE LA ACTIVIDAD INFORMÁTICA Y DEL TRATAMIENTO DE LA INFORMACIÓN",
      "mainEntityOfPage": "https://www.contratacion.euskadi.eus/webkpe00-kperoc/es/ac71aBusquedaRegistrosWar/empresa/06342",
      "_links": {
        "self": {
          "name": "MNEMO EVOLUTION & INTEGRATION SERVICES, S.A.",
          "href": "https://api.euskadi.eus/procurements/companies/06342"
        }
      }
    },
    {
      "name": "GIM GEOMATICS S.L.",
      "registrationNumber": "06345",
      "identificationNumber": "B39612957",
      "address": "C/ CONDE TORREANAZ 8, ENTLO-IZQDA",
      "location": {
        "postalCode": "39300",
        "municipality": "Torrelavega",
        "county": "Cantabria",
        "municipalityId": "087",
        "countyId": "39"
      },
      "economicActivities": [
        {
          "id": "1.843.9",
          "name": "Otros servicios técnicos n.c.o.p",
          "_links": {
            "self": {
              "name": "Otros servicios técnicos n.c.o.p",
              "href": "https://api.euskadi.eus/procurements/companies/economic-activities/1.843.9"
            }
          }
        }
      ],
      "certificateStartDate": "2019-07-01",
      "certificateEndDate": "2019-12-04",
      "object": "A) LA CONSULTORÍA CARTOGRÁFICA; INTEGRACIÓN DE DATOS CARTOGRÁFICOS Y CONVERSIÓN DE DIFERENTES SISTEMAS DE COORDENADAS. B) LA REALIZACIÓN DE TRABAJOS FOTOGRAMÉTRICOS MEDIANTE TRABAJOS DE LÁSER ESCÁNER Y FOTOGRAMETRÍA. C) LA REALIZACIÓN DE ESTUDIOS DEL PATRIMONIO NATURAL E HISTÓRICO; ESTUDIOS MEDIOAMBIENTALES DE ZONAS DE ESPECIAL PROTECCIÓN, URBANÍSTICOS Y DE EDIFICIOS SINGULARES. D) LA DISTRIBUCIÓN DE PRODUCTOS ASOCIADOS CON LAS ACTIVIDADES DE LA SOCIEDAD. E) LA FORMACIÓN DE PRODUCTOS ASOCIADOS CON LAS ACTIVIDADES DE LA SOCIEDAD. E) LA FORMACIÓN EN LOS ÁMBITOS QUE ESTÉN EN RELACIÓN CON EL OBJETO SOCIAL DE LA ENTIDAD. F) LA ADQUISICIÓN, TENENCIA, DISFRUTE, ENAJENACIÓN Y ADMINISTRACIÓN DE INMUEBLES Y VALORES MOBILIARIOS SIN EJERCER LA INTERMEDIACIÓN; EN EL CASO DE LOS VALORES, TANTO CON EL OBJETO DE INTERVENIR EN LA TOMA DE DECISIONES DE LAS SOCIEDADES, DIRIGIENDO Y GESTIONANDO LAS MISMAS, COMO CON EL OBJETO DE INVERTIR DE FORMA PURAMENTE FINANCIERA",
      "mainEntityOfPage": "https://www.contratacion.euskadi.eus/webkpe00-kperoc/es/ac71aBusquedaRegistrosWar/empresa/06345",
      "_links": {
        "self": {
          "name": "GIM GEOMATICS S.L.",
          "href": "https://api.euskadi.eus/procurements/companies/06345"
        }
      }
    },
    {
      "name": "INSTITUTO AUDITIVO ESPAÑOL, S.A.",
      "registrationNumber": "01216",
      "identificationNumber": "A08414005",
      "address": "C/ GRAN VÍA DE LES CORTS CATALANES, Nº 623.",
      "location": {
        "postalCode": "08010",
        "municipality": "Barcelona",
        "county": "Barcelona",
        "municipalityId": "019",
        "countyId": "08"
      },
      "economicActivities": [
        {
          "id": "1.619.2",
          "name": "Venta al por mayor de aparatos e instrumentos médicos, ortopédicos, ópticos",
          "_links": {
            "self": {
              "name": "Venta al por mayor de aparatos e instrumentos médicos, ortopédicos, ópticos",
              "href": "https://api.euskadi.eus/procurements/companies/economic-activities/1.619.2"
            }
          }
        }
      ],
      "certificateStartDate": "2019-06-29",
      "certificateEndDate": "2019-12-29",
      "object": "LA COMPRA-VENTA DE BIENES INMUEBLES Y EXPLOTACIÓN DE LOS MISMOS BAJO CUALQUIER RÉGIMEN JURÍDICO. LA FABRICACIÓN Y COMERCIALIZACIÓN DE APARATOS E INSTRUMENTOS MÉDICOS SANITARIOS DE AUDICIÓN Y DE PROTECCIÓN SANITARIA LABORAL",
      "mainEntityOfPage": "https://www.contratacion.euskadi.eus/webkpe00-kperoc/es/ac71aBusquedaRegistrosWar/empresa/01216",
      "_links": {
        "self": {
          "name": "INSTITUTO AUDITIVO ESPAÑOL, S.A.",
          "href": "https://api.euskadi.eus/procurements/companies/01216"
        }
      }
    },
    {
      "name": "GRUPO DELTA EDICIONES DIGITALES, S.L.",
      "registrationNumber": "04350",
      "identificationNumber": "B20208468",
      "address": "P. Empresarial Zuatzu, Edificio Bidasoa locales 2 y 3",
      "location": {
        "postalCode": "20018",
        "municipality": "Donostia / San Sebastián",
        "county": "Gipuzkoa",
        "municipalityId": "069",
        "countyId": "20"
      },
      "economicActivities": [
        {
          "id": "1.474.1",
          "name": "Impresión de textos o imágenes por cualquier procedimiento",
          "_links": {
            "self": {
              "name": "Impresión de textos o imágenes por cualquier procedimiento",
              "href": "https://api.euskadi.eus/procurements/companies/economic-activities/1.474.1"
            }
          }
        },
        {
          "id": "1.476.1",
          "name": "Edición de libros",
          "_links": {
            "self": {
              "name": "Edición de libros",
              "href": "https://api.euskadi.eus/procurements/companies/economic-activities/1.476.1"
            }
          }
        },
        {
          "id": "1.659.4",
          "name": "Venta al por menor de libros, periódicos y artículos de papelería y escritorio",
          "_links": {
            "self": {
              "name": "Venta al por menor de libros, periódicos y artículos de papelería y escritorio",
              "href": "https://api.euskadi.eus/procurements/companies/economic-activities/1.659.4"
            }
          }
        },
        {
          "id": "1.861.2",
          "name": "Alquiler de locales industriales y otros alquileres n.c.o.p",
          "_links": {
            "self": {
              "name": "Alquiler de locales industriales y otros alquileres n.c.o.p",
              "href": "https://api.euskadi.eus/procurements/companies/economic-activities/1.861.2"
            }
          }
        }
      ],
      "certificateStartDate": "2019-06-29",
      "certificateEndDate": "2019-12-29",
      "object": "LA RESPODUCCIÓN, AMPLIACIÓN Y REDUCCIÓN DE TODO TIPO DE DOCUMENTOS Y PLANOS POR MEDIO DE MÁQUINAS FOTOCOPIADORES OFFSET Y CUANTAS ACTIVIDADES ESTÉN RELACIONADAS O SEAN COMPLEMENTARIAS DE LAS ANTERIORES.",
      "mainEntityOfPage": "https://www.contratacion.euskadi.eus/webkpe00-kperoc/es/ac71aBusquedaRegistrosWar/empresa/04350",
      "_links": {
        "self": {
          "name": "GRUPO DELTA EDICIONES DIGITALES, S.L.",
          "href": "https://api.euskadi.eus/procurements/companies/04350"
        }
      }
    },
    {
      "name": "ANTONIO MIGUEL FIDALGO GALLEGO",
      "registrationNumber": "06338",
      "identificationNumber": "16273729X",
      "address": "ZAPATERIA 16 - 4º",
      "location": {
        "postalCode": "01001",
        "municipality": "Vitoria-Gasteiz",
        "county": "Araba/Álava",
        "municipalityId": "059",
        "countyId": "01"
      },
      "economicActivities": [
        {
          "id": "1.474",
          "name": "Artes gráficas (impresión gráfica)",
          "_links": {
            "self": {
              "name": "Artes gráficas (impresión gráfica)",
              "href": "https://api.euskadi.eus/procurements/companies/economic-activities/1.474"
            }
          }
        }
      ],
      "certificateStartDate": "2019-06-28",
      "certificateEndDate": "2019-11-29",
      "object": "EL DISEÑO GRÁFICO Y MAQUETACIÓN",
      "mainEntityOfPage": "https://www.contratacion.euskadi.eus/webkpe00-kperoc/es/ac71aBusquedaRegistrosWar/empresa/06338",
      "_links": {
        "self": {
          "name": "ANTONIO MIGUEL FIDALGO GALLEGO",
          "href": "https://api.euskadi.eus/procurements/companies/06338"
        }
      }
    },
    {
      "name": "VISCOBASIC S.L",
      "registrationNumber": "05503",
      "identificationNumber": "B65496408",
      "address": "C/ CONCILI EGARENC 15",
      "location": {
        "postalCode": "08224",
        "municipality": "Terrassa",
        "county": "Barcelona",
        "municipalityId": "279",
        "countyId": "08"
      },
      "economicActivities": [
        {
          "id": "1.619.9",
          "name": "Venta al por mayor de otros productos n.c.o.p",
          "_links": {
            "self": {
              "name": "Venta al por mayor de otros productos n.c.o.p",
              "href": "https://api.euskadi.eus/procurements/companies/economic-activities/1.619.9"
            }
          }
        },
        {
          "id": "1.659.9",
          "name": "Venta al por menor de otros productos no especificados en esta agrupación",
          "_links": {
            "self": {
              "name": "Venta al por menor de otros productos no especificados en esta agrupación",
              "href": "https://api.euskadi.eus/procurements/companies/economic-activities/1.659.9"
            }
          }
        }
      ],
      "certificateStartDate": "2019-06-26",
      "certificateEndDate": "2019-12-05",
      "object": "LA COMPRA, VENTA, IMPORTACIÓN, EXPORTACIÓN Y DISTRIBUCIÓN, TANTO AL MAYOR COMO AL MENOR, DE APARATOS, PRODUCTOS, MATERIALES, PRÓTESIS, IMPLANTES, MOBILIARIO E INSTRUMENTAL MÉDICO, QUIRÚRGICO Y ORTOPÉDICO",
      "mainEntityOfPage": "https://www.contratacion.euskadi.eus/webkpe00-kperoc/es/ac71aBusquedaRegistrosWar/empresa/05503",
      "_links": {
        "self": {
          "name": "VISCOBASIC S.L",
          "href": "https://api.euskadi.eus/procurements/companies/05503"
        }
      }
    },
    {
      "name": "BIOK ZERBITZUAK S.L.",
      "registrationNumber": "06331",
      "identificationNumber": "B20649299",
      "address": "URDANETA 7, BAJO",
      "location": {
        "postalCode": "20240",
        "municipality": "Ordizia",
        "county": "Gipuzkoa",
        "municipalityId": "076",
        "countyId": "20"
      },
      "economicActivities": [
        {
          "id": "1.842",
          "name": "Servicios financieros y contables",
          "_links": {
            "self": {
              "name": "Servicios financieros y contables",
              "href": "https://api.euskadi.eus/procurements/companies/economic-activities/1.842"
            }
          }
        }
      ],
      "certificateStartDate": "2019-06-25",
      "certificateEndDate": "2019-11-15",
      "object": "LA GESTIÓN FISCAL, LABORAL Y DEMÁS ASESORAMIENTO EN GENERAL, A EMPRESAS Y PERSONAS FÍSICAS",
      "mainEntityOfPage": "https://www.contratacion.euskadi.eus/webkpe00-kperoc/es/ac71aBusquedaRegistrosWar/empresa/06331",
      "_links": {
        "self": {
          "name": "BIOK ZERBITZUAK S.L.",
          "href": "https://api.euskadi.eus/procurements/companies/06331"
        }
      }
    },
    {
      "name": "PUENTE GARAY FORESTAL, S.L.",
      "registrationNumber": "06334",
      "identificationNumber": "B39401021",
      "address": "Bº RIOSECO Nº 42",
      "location": {
        "postalCode": "39788",
        "municipality": "Guriezo",
        "county": "Cantabria",
        "municipalityId": "030",
        "countyId": "39"
      },
      "economicActivities": [
        {
          "id": "1.617.3",
          "name": "Venta al por mayor de madera y corcho",
          "_links": {
            "self": {
              "name": "Venta al por mayor de madera y corcho",
              "href": "https://api.euskadi.eus/procurements/companies/economic-activities/1.617.3"
            }
          }
        },
        {
          "id": "1.912",
          "name": "Servicios forestales",
          "_links": {
            "self": {
              "name": "Servicios forestales",
              "href": "https://api.euskadi.eus/procurements/companies/economic-activities/1.912"
            }
          }
        }
      ],
      "certificateStartDate": "2019-06-25",
      "certificateEndDate": "2019-09-08",
      "object": "EL COMERCIO, IMPORTACIÓN Y EXPORTACIÓN DE MADERAS, LA LIMPIEZA, PLANTACIÓN Y REPOBLACIÓN DE MONTES; LA COMPRAVENTA DE MONTES, TERRENOS FORESTALES, LA TALA DE MONTES, REFORESTACIÓN  Y TRANSPORTE DE MADERA, TRABAJOS AGRÍCOLAS Y FORESTALES Y EL ARREGLO Y CONSTRUCCIÓN DE PISTAS FORESTALES Y DE ACCESO",
      "mainEntityOfPage": "https://www.contratacion.euskadi.eus/webkpe00-kperoc/es/ac71aBusquedaRegistrosWar/empresa/06334",
      "_links": {
        "self": {
          "name": "PUENTE GARAY FORESTAL, S.L.",
          "href": "https://api.euskadi.eus/procurements/companies/06334"
        }
      }
    },
    {
      "name": "METROECONOMICA, S..L.",
      "registrationNumber": "06326",
      "identificationNumber": "B95888400",
      "address": "CALLE COLON DE LARREATEGUI 26-1º",
      "location": {
        "postalCode": "48009",
        "municipality": "Bilbao",
        "county": "Bizkaia",
        "municipalityId": "020",
        "countyId": "48"
      },
      "economicActivities": [
        {
          "id": "1.849.9",
          "name": "Otros servicios independientes n.c.o.p",
          "_links": {
            "self": {
              "name": "Otros servicios independientes n.c.o.p",
              "href": "https://api.euskadi.eus/procurements/companies/economic-activities/1.849.9"
            }
          }
        }
      ],
      "certificateStartDate": "2019-06-24",
      "certificateEndDate": "2019-09-05",
      "object": "LA PRESTACIÓN DE SERVICIOS DE CONSULTORÍA Y ANÁLISIS EN MATERIA DE ECONOMÍA Y POLÍTICAS PÚBLICAS",
      "mainEntityOfPage": "https://www.contratacion.euskadi.eus/webkpe00-kperoc/es/ac71aBusquedaRegistrosWar/empresa/06326",
      "_links": {
        "self": {
          "name": "METROECONOMICA, S..L.",
          "href": "https://api.euskadi.eus/procurements/companies/06326"
        }
      }
    }
  ]
}