{
  "totalItems": 9042,
  "totalPages": 905,
  "currentPage": 519,
  "itemsOfPage": 10,
  "items": [
    {
      "name": "SOFTWARE QUALITY SYSTEMS, S.A.",
      "registrationNumber": "04540",
      "identificationNumber": "A48984918",
      "address": "AVDA. ZUGAZARTE, 8 DPTO. 6",
      "location": {
        "postalCode": "48930",
        "municipality": "Getxo",
        "county": "Bizkaia",
        "municipalityId": "044",
        "countyId": "48"
      },
      "economicActivities": [
        {
          "id": "1.845",
          "name": "Explotación electrónica por cuenta de terceros",
          "_links": {
            "self": {
              "name": "Explotación electrónica por cuenta de terceros",
              "href": "https://api.euskadi.eus/procurements/companies/economic-activities/1.845"
            }
          }
        }
      ],
      "certificateStartDate": "2021-08-12",
      "certificateEndDate": "2022-02-11",
      "object": "LA EJECUCIÓN DE TAREAS DE CONSULTORÍA, FORMACIÓN Y DESARROLLO PARA ASEGURAR Y MEJORAR LA CALIDAD DE LOS SISTEMAS DE INFORMACIÓN Y COMUNICACIÓN INCLUYENDO LOS SISTEMAS DE CONTROL INDUSTRIAL. LA PRESTACIÓN MULTIDISCIPLINAR DE SERVICIOS TÉCNICOS, DE INVESTIGACIÓN, ASESORÍA Y GESTIÓN, EN ESPECIAL LOS RELACIONADOS CON LOS SISTEMAS DE INFORMACIÓN Y COMUNICACIÓN. LA ADQUISICIÓN, TENENCIA, TRANSMISIÓN  ENAJENACIÓN DE ACCIONES, OBLIGACIONES, PARTICIPACIONES Y DERECHOS, TODO ELLO SIN INCIDIR, EN NINGÚN CASO, EN AQUELLAS ACTIVIDADES OBJETO DE LA LEGISLACIÓN DE INSTITUCIONES DE INVERSIÓN COLECTIVA Y DE MERCADO DE VALORES O EN AQUELLAS OPERACIONES QUE SE RIJAN POR LEYES ESPECIALES. Y LA ADQUISICIÓN, TENENCIA, EXPLOTAICÓN Y ENAJENACIÓN DE TODA CLASE DE INMUEBLES",
      "mainEntityOfPage": "https://www.contratacion.euskadi.eus/webkpe00-kperoc/es/ac71aBusquedaRegistrosWar/empresa/04540",
      "_links": {
        "self": {
          "name": "SOFTWARE QUALITY SYSTEMS, S.A.",
          "href": "https://api.euskadi.eus/procurements/companies/04540"
        }
      }
    },
    {
      "name": "ARETÉ-ACTIVA, S.L.",
      "registrationNumber": "07001",
      "identificationNumber": "B31917503",
      "address": "AVENIDA PIO XII 5, ENTREPLANTA DCHA",
      "location": {
        "postalCode": "31008",
        "municipality": "Pamplona/Iruña",
        "county": "Navarra",
        "municipalityId": "201",
        "countyId": "31"
      },
      "economicActivities": [
        {
          "id": "1.849.9",
          "name": "Otros servicios independientes n.c.o.p",
          "_links": {
            "self": {
              "name": "Otros servicios independientes n.c.o.p",
              "href": "https://api.euskadi.eus/procurements/companies/economic-activities/1.849.9"
            }
          }
        }
      ],
      "certificateStartDate": "2021-08-11",
      "certificateEndDate": "2022-01-26",
      "object": "LA PRESTACIÓN DE SERVICIOS DE CONSULTORÍA, FORMACIÓN Y DIRECCIÓN ESTRATÉGICA A ORGANIZACIONES Y ENTIDADES QUE ACTÚAN EN EL ÁMBITO DE LA ACCIÓN SOCIAL",
      "mainEntityOfPage": "https://www.contratacion.euskadi.eus/webkpe00-kperoc/es/ac71aBusquedaRegistrosWar/empresa/07001",
      "_links": {
        "self": {
          "name": "ARETÉ-ACTIVA, S.L.",
          "href": "https://api.euskadi.eus/procurements/companies/07001"
        }
      }
    },
    {
      "name": "ENVIANDE GASTEIZ, S.L.",
      "registrationNumber": "02974",
      "identificationNumber": "B01284611",
      "address": "C/ JUNDIZ, 4 - PAB. 12 F",
      "location": {
        "postalCode": "01015",
        "municipality": "Vitoria-Gasteiz",
        "county": "Araba/Álava",
        "municipalityId": "059",
        "countyId": "01"
      },
      "economicActivities": [
        {
          "id": "1.507",
          "name": "Construcción, reparación y conservación de toda clase obras",
          "_links": {
            "self": {
              "name": "Construcción, reparación y conservación de toda clase obras",
              "href": "https://api.euskadi.eus/procurements/companies/economic-activities/1.507"
            }
          }
        }
      ],
      "certificateStartDate": "2021-08-11",
      "certificateEndDate": "2022-02-10",
      "object": "LA PROMOCIÓN INMOBILIARIA, CONSTRUCCIÓN Y REHABILITACIÓN DE TODO TIPO DE EDIFICIOS Y MONUMENTOS HISTÓRICOS Y EJECUCIÓN DE OBRA PÚBLICA EN GENERAL CON APORTACIÓN O SIN APORTACIÓN DE MATERIALES.\r\nLAS ACTIVIDADES ENUMERADAS PODRÁN TAMBIÉN SER DESARROLLADAS POR LA SOCIEDAD, TOTAL O PARCIALMENTE, DE MODO INDIRECTO, MEDIANTE LA PARTICIPACIÓN EN OTRAS SOCIEDADES DE IDÉNTICO O ANÁLOGO OBJETO",
      "mainEntityOfPage": "https://www.contratacion.euskadi.eus/webkpe00-kperoc/es/ac71aBusquedaRegistrosWar/empresa/02974",
      "_links": {
        "self": {
          "name": "ENVIANDE GASTEIZ, S.L.",
          "href": "https://api.euskadi.eus/procurements/companies/02974"
        }
      }
    },
    {
      "name": "IBAIZABAL TÉCNICOS Y OBRAS, S.L.",
      "registrationNumber": "07531",
      "identificationNumber": "B95958864",
      "address": "Calle Guridi 4",
      "location": {
        "postalCode": "48903",
        "municipality": "Barakaldo",
        "county": "Bizkaia",
        "municipalityId": "013",
        "countyId": "48"
      },
      "economicActivities": [
        {
          "id": "1.507",
          "name": "Construcción, reparación y conservación de toda clase obras",
          "_links": {
            "self": {
              "name": "Construcción, reparación y conservación de toda clase obras",
              "href": "https://api.euskadi.eus/procurements/companies/economic-activities/1.507"
            }
          }
        }
      ],
      "certificateStartDate": "2021-08-09",
      "certificateEndDate": "2022-02-08",
      "object": " A) LA CONTRATACIÓN, GESTIÓN, COORDINACIÓN, CONSTRUCCIÓN, EJECUCIÓN, REPARACIÓN, REHABILITACIÓN Y MANTENIMIENTO CON INDEPENDENCIA DE SU USO, DE TODA CLASE DE TERRENOS, SOLARES, URBANIZACIONES O BIENES INMUEBLES. B) LA REALIZACIÓN DE TODA CLASE DE ACTIVIDADES INMOBILIARIAS. ENTRE OTRAS POSIBLES, LA GESTIÓN, ADMINISTRACIÓN, COMPRA, VENTA, ARRENDAMIENTO, PROMOCIÓN, ENAJENACIÓN, CON INDEPENDENCIA DE SU USO, DE TODA CLASE DE TERRENOS, SOLARES, URBANIZACIONES O BIENES INMUEBLES, POR CUENTA PROPIA O AJENA, DE PROPIEDAD PÚBLICA O PRIVADA. C) LA PRESTACIÓN DE SERVICIOS DE TODAS CLASES Y, EN ESPECIAL, LOS DE ESTUDIO, PROYECTOS DE INGENIERÍA, PROYECTOS DE ARQUITECTURA, ASESORAMIENTOS, DIRECCIONES DE OBRA, DIRECCIONES DE EJECUCIÓN Y ASISTENCIA TÉCNICA, RELACIONADOS CON LAS ACTIVIDADES DEL APARTADO ANTERIOR; POR CUENTA PROPIA O AJENA; A CUALQUIER CLASE DE SOCIEDAD, EMPRESA O PARTICULAR. D) PARTICIPAR, EN LOS TÉRMINOS QUE EL CONSEJO DE ADMINISTRACIÓN DETERMINE, EN EL CAPITAL DE OTRAS SOCIEDADES CUYO OBJETO SOCIAL SEA ANÁLOGO AL DESCRITO EN LOS NÚMEROS PRECEDENTES. E) LA REALIZACIÓN DE TODA CLASE DE ACTIVIDADES INDUSTRIALES, COMERCIALES, FINANCIERAS, DE SERVICIOS, MOBILIARIAS, INMOBILIARIAS, AGRÍCOLAS, GANADERAS Y FORESTALES, QUE TENGAN RELACIÓN DIRECTA O INDIRECTA CON LAS ACTIVIDADES SEÑALADAS EN LOS APARTADOS ANTERIORES. F) EN TODO LO QUE NO SUPONGA COLISIÓN CON LAS ACTIVIDADES LEGALMENTE RESERVADAS POR LEGISLACIÓN ESPECIAL, Y EN PARTICULAR, POR LA LEGISLACIÓN DE LAS INSTITUCIONES DE INVERSIÓN COLECTIVA Y DEL MERCADO DE VALORES, CONCERTAR Y REALIZAR POR CUENTA PROPIA TODA CLASE DE OPERACIONES RESPECTO A VALORES EN CUALQUIER TIPO DE MERCADO, NACIONAL O INTERNACIONAL, COMPRAR, VENDER O DE OTRO MODO, ADQUIRIR, TRANSMITIR, SUSTITUIR, ENAJENAR, PIGNORAR Y SUSCRIBIR TODA CLASE DE ACCIONES, VALORES CONVERTIBLES EN ELLAS O QUE OTORGUEN DERECHO A SU ADQUISICIÓN O SUSCRIPCIÓN, OBLIGACIONES, DERECHOS, BONOS, PAGARÉS, EFECTOS PÚBLICOS O VALORES MOBILIARIOS, Y PARTICIPAR EN OTRAS SOCIEDADES",
      "mainEntityOfPage": "https://www.contratacion.euskadi.eus/webkpe00-kperoc/es/ac71aBusquedaRegistrosWar/empresa/07531",
      "_links": {
        "self": {
          "name": "IBAIZABAL TÉCNICOS Y OBRAS, S.L.",
          "href": "https://api.euskadi.eus/procurements/companies/07531"
        }
      }
    },
    {
      "name": "TRILOGIC TELECOM, S.L.",
      "registrationNumber": "04662",
      "identificationNumber": "B95070389",
      "address": "EDIFICIO IZARRA CENTRE. ZEHARKALE 36, PLANTA 8 OFICINA 6",
      "location": {
        "postalCode": "48260",
        "municipality": "Ermua",
        "county": "Bizkaia",
        "municipalityId": "034",
        "countyId": "48"
      },
      "economicActivities": [
        {
          "id": "1.653.2",
          "name": "Venta al por menor de material y aparatos eléctricos, electrodomésticos y cocina",
          "_links": {
            "self": {
              "name": "Venta al por menor de material y aparatos eléctricos, electrodomésticos y cocina",
              "href": "https://api.euskadi.eus/procurements/companies/economic-activities/1.653.2"
            }
          }
        },
        {
          "id": "1.662.2",
          "name": "Venta al por menor de toda clase de artículos, pequeños establecimientos",
          "_links": {
            "self": {
              "name": "Venta al por menor de toda clase de artículos, pequeños establecimientos",
              "href": "https://api.euskadi.eus/procurements/companies/economic-activities/1.662.2"
            }
          }
        },
        {
          "id": "1.845",
          "name": "Explotación electrónica por cuenta de terceros",
          "_links": {
            "self": {
              "name": "Explotación electrónica por cuenta de terceros",
              "href": "https://api.euskadi.eus/procurements/companies/economic-activities/1.845"
            }
          }
        }
      ],
      "certificateStartDate": "2021-08-04",
      "certificateEndDate": "2022-02-03",
      "object": "LA PRODUCCIÓN, INFORMACIÓN, REPRESENTACIÓN, COMERCIALIZACIÓN Y DISTRIBUCIÓN DE PRODUCTOS MATERIALES E INMATERIALES DENTRO DEL SECTOR DE NUEVAS TECNOLOGÍAS, INCLUYENDO LAS TELECOMUNICACIONES, AUDIOVISUALES E INFORMÁTICA.",
      "mainEntityOfPage": "https://www.contratacion.euskadi.eus/webkpe00-kperoc/es/ac71aBusquedaRegistrosWar/empresa/04662",
      "_links": {
        "self": {
          "name": "TRILOGIC TELECOM, S.L.",
          "href": "https://api.euskadi.eus/procurements/companies/04662"
        }
      }
    },
    {
      "name": "SOCADE INFORMATICA, S.L.",
      "registrationNumber": "07829",
      "identificationNumber": "B61930673",
      "address": "Calle Concepción 20",
      "location": {
        "postalCode": "08202",
        "municipality": "Sabadell",
        "county": "Barcelona",
        "municipalityId": "187",
        "countyId": "08"
      },
      "economicActivities": [
        {
          "id": "1.845",
          "name": "Explotación electrónica por cuenta de terceros",
          "_links": {
            "self": {
              "name": "Explotación electrónica por cuenta de terceros",
              "href": "https://api.euskadi.eus/procurements/companies/economic-activities/1.845"
            }
          }
        }
      ],
      "certificateStartDate": "2021-08-03",
      "certificateEndDate": "2021-10-26",
      "object": "A) LA ELABORACIÓN, REALIZACIÓN Y EJECUCIÓN DE TODA CLASE DE PROYECTOS DE INGENIERÍA, LA DIRECCIÓN DE OBRAS, ASISTENCIA TÉCNICA, LA EJECUCIÓN DE LAS MISMAS, LA CONSTRUCCIÓN, MANTENIMIENTO Y CONSERVACIÓN EN RELACIÓN CON OBRAS E INSTALACIONES DE CUALQUIER TIPO. B) EL DISEÑO, INVESTIGACIÓN, DESARROLLO, REALIZACIÓN, EXPLOTACIÓN, MANTENIMIENTO Y COMERCIALIZACIÓN DE TODO TIPO DE INSTALACIONES ELECTROMECÁNICAS INCLUYENDO LAS INSTALACIONES DE ELECTRICIDAD, MECÁNICAS, DE CLIMATIZACIÓN, ELECTRÓNICAS, DE TELECOMUNICACIONES, EQUIPOS DE MEDIDA Y TELECONTROL Y DE FLUIDOS, ASOCIADAS A LA EDIFICACIÓN Y OBRAS CIVILES TANTO PARA ORGANISMOS PÚBLICOS COMO PRIVADOS, ASÍ COMO LA EJECUCIÓN DE LAS MISMAS. C) LA REALIZACIÓN DE TRABAJOS GEOGRÁFICOS Y CARTOGRÁFICOS EN EL SENTIDO MÁS AMPLIO, INCLUYENDO EL ESTUDIO, DESCRIPCIÓN Y REPRESENTACIÓN, RESTITUCIÓN Y MODELOS DIGITALES DEL TERRENO, LEVANTAMIENTOS TOPOGRÁFICOS, EDICIÓN CARTOGRÁFICA DIGITAL, MODELOS DE DATOS, TRABAJOS Y REVISIONES DE CAMPO Y TOPONIMIA, GENERALIZACIÓN CARTOGRÁFICA Y CUALQUIER MODELO DE PUBLICACIÓN QUE SE ORIGINE. D) LA PRESENTACIÓN DE TODO TIPO DE SERVICIOS DE MANTENIMIENTO INTEGRAL, CONSERVACIÓN Y EXPLOTACIÓN DE BIENES INMUEBLES, EN PARTICULAR EDIFICIOS, URBANIZACIONES, ZONAS INDUSTRIALES Y DE LOGÍSTICA, INCLUYENDO LAS VÍAS PÚBLICAS, REDES DE ABASTECIMIENTO, SANEAMIENTO Y REUTILIZACIÓN, ALUMBRADO, COMUNICACIONES ELECTRÓNICAS, MOBILIARIO URBANO, JARDINES Y VIGILANCIA. E) LA PRESTACIÓN DE SERVICIOS PRIVADOS DE GESTIÓN MEDIOAMBIENTAL, LA EJECUCIÓN, COORDINACIÓN Y DESARROLLO DE PLANES DE GESTIÓN MEDIOAMBIENTAL, PROYECTOS DE GESTIÓN DE RESIDUOS DE TODO TIPO, GESTIÓN DE CALIDAD, PREVENCIÓN DE RIESGOS LABORALES, INCLUYENDO LA CONSULTORÍA, FORMACIÓN, ASESORAMIENTO Y COMERCIALIZACIÓN DE BIENES, EQUIPOS Y SERVICIOS COMPLEMENTARIOS DE LOS MISMOS RELACIONADOS DIRECTA O INDIRECTAMENTE EN SU MÁS AMPLIA ACEPCIÓN. F) EL ANÁLISIS, PROGRAMACIÓN, REALIZACIÓN, INTEGRACIÓN, SEGUIMIENTO Y COMERCIALIZACIÓN DE APLICACIONES INFORMÁTICAS, SERVICIOS DE CONSULTORÍA, FORMACIÓN Y ASESORAMIENTO",
      "mainEntityOfPage": "https://www.contratacion.euskadi.eus/webkpe00-kperoc/es/ac71aBusquedaRegistrosWar/empresa/07829",
      "_links": {
        "self": {
          "name": "SOCADE INFORMATICA, S.L.",
          "href": "https://api.euskadi.eus/procurements/companies/07829"
        }
      }
    },
    {
      "name": "FIT ACTIV GYM, S.L.",
      "registrationNumber": "07828",
      "identificationNumber": "B48624894",
      "address": "CL MAESTRO GARCIA RIVERO 10, 4º DCH",
      "location": {
        "postalCode": "48011",
        "municipality": "Bilbao",
        "county": "Bizkaia",
        "municipalityId": "020",
        "countyId": "48"
      },
      "economicActivities": [
        {
          "id": "1.659.9",
          "name": "Venta al por menor de otros productos no especificados en esta agrupación",
          "_links": {
            "self": {
              "name": "Venta al por menor de otros productos no especificados en esta agrupación",
              "href": "https://api.euskadi.eus/procurements/companies/economic-activities/1.659.9"
            }
          }
        },
        {
          "id": "1.967.2",
          "name": "Escuelas y servicios de perfeccionamiento del deporte",
          "_links": {
            "self": {
              "name": "Escuelas y servicios de perfeccionamiento del deporte",
              "href": "https://api.euskadi.eus/procurements/companies/economic-activities/1.967.2"
            }
          }
        }
      ],
      "certificateStartDate": "2021-08-03",
      "certificateEndDate": "2021-12-28",
      "object": "A).- LA PROMOCIÓN Y GESTIÓN DE ACTIVIDADES DEPORTIVAS DE TODO TIPO, POR CUENTA PROPIA O POR CUENTA AJENA, TANTO EN LOCALES CERRADOS O GIMNASIOS COMO AL AIRE LIBRE; Y LA COMERCIALIZACIÓN DE PRODUCTOS ALIMENTICIOS DE CARÁCTER DIETÉTICO PARA DEPORTISTAS. B).- LA ADQUISICIÓN POR CUALQUIER TÍTULO DE FINCAS RÚSTICAS O URBANAS, LA PROMOCIÓN Y CONSTRUCCIÓN DE ÉSTAS Y LA ADMINISTRACIÓN, TENENCIA, EXPLOTACIÓN Y ARRENDAMIENTO DE TALES BIENES Y SU VENTA TOTAL O PARCIAL, SEGÚN CONVENGA, PARA SU APROVECHAMIENTO FORESTAL, AGRÍCOLA, URBANO, INDUSTRIAL O CUALQUIER OTRO. C).- LA ADQUISICIÓN, CESIÓN, TENENCIA Y DISFRUTE EN GENERAL DE TODA CLASE DE TÍTULOS Y VALORES MOBILIARIOS, CON EXCLUSIÓN DE LAS ACTIVIDADES DE LA LEY DEL MERCADO DE VALORES Y DE INVERSIONES COLECTIVAS",
      "mainEntityOfPage": "https://www.contratacion.euskadi.eus/webkpe00-kperoc/es/ac71aBusquedaRegistrosWar/empresa/07828",
      "_links": {
        "self": {
          "name": "FIT ACTIV GYM, S.L.",
          "href": "https://api.euskadi.eus/procurements/companies/07828"
        }
      }
    },
    {
      "name": "CINOX CALDERERIA Y SOLDADURA S.L.",
      "registrationNumber": "07826",
      "identificationNumber": "B95837746",
      "address": "MOLINAGA BIDEA 5 ",
      "location": {
        "postalCode": "48180",
        "municipality": "Loiu",
        "county": "Bizkaia",
        "municipalityId": "903",
        "countyId": "48"
      },
      "economicActivities": [
        {
          "id": "1.314.2",
          "name": "Fabricación de estructuras metálicas",
          "_links": {
            "self": {
              "name": "Fabricación de estructuras metálicas",
              "href": "https://api.euskadi.eus/procurements/companies/economic-activities/1.314.2"
            }
          }
        }
      ],
      "certificateStartDate": "2021-08-02",
      "certificateEndDate": "2022-01-18",
      "object": "LA COMERCIALIZACIÓN, FABRICACIÓN, ELABORACIÓN, PLANIFICACIÓN, DISTRIBUCIÓN, MONTAJE, REPARACIÓN, EXPORTACIÓN E IMPORTACIÓN DE TODO LO RELACIONADO CON LA RAMA DE LA CALDERERÍA, LAS ESTRUCTURAS METÁLICAS, RECIPIENTES CON Y SIN PRESIÓN, SILOS, TOLVAS, CISTERNAS, TANQUES Y EN GENERAL TODO TIPO DE PIEZAS BAJO PLANO",
      "mainEntityOfPage": "https://www.contratacion.euskadi.eus/webkpe00-kperoc/es/ac71aBusquedaRegistrosWar/empresa/07826",
      "_links": {
        "self": {
          "name": "CINOX CALDERERIA Y SOLDADURA S.L.",
          "href": "https://api.euskadi.eus/procurements/companies/07826"
        }
      }
    },
    {
      "name": "SASOI-SPORT, S.L.",
      "registrationNumber": "07825",
      "identificationNumber": "B20828794",
      "address": "paseo Heriz 46 1-a",
      "location": {
        "postalCode": "20009",
        "municipality": "Donostia / San Sebastián",
        "county": "Gipuzkoa",
        "municipalityId": "069",
        "countyId": "20"
      },
      "economicActivities": [
        {
          "id": "1.849.9",
          "name": "Otros servicios independientes n.c.o.p",
          "_links": {
            "self": {
              "name": "Otros servicios independientes n.c.o.p",
              "href": "https://api.euskadi.eus/procurements/companies/economic-activities/1.849.9"
            }
          }
        },
        {
          "id": "1.933.9",
          "name": "Otras actividades de enseñanza tales como idiomas, mecanografía",
          "_links": {
            "self": {
              "name": "Otras actividades de enseñanza tales como idiomas, mecanografía",
              "href": "https://api.euskadi.eus/procurements/companies/economic-activities/1.933.9"
            }
          }
        }
      ],
      "certificateStartDate": "2021-08-02",
      "certificateEndDate": "2021-10-24",
      "object": "GESTIONAR ÍNTEGRAMENTE POLIDEPORTIVOS, CENTROS DEPORTIVOS, ALBERGUES, ASILOS Y TODO TIPO DE INSTALACIONES DE OCIO, LO QUE COMPRENDE TODOS LOS SERVICIOS QUE SE DESARROLLAN EN DICHA INSTALACIÓN. IMPARTICIÓN, COORDINACIÓN Y ASESORAMIENTO DE ACTIVIDADES DEPORTIVAS, SERVICIO DE RECEPCIÓN, EL MANTENIMIENTO, REPARACIÓN Y LIMPIEZA DE SUS INSTALACIONES. SERVICIO DE GUARDERÍA DE NIÑOS. EXPLOTACIÓN DE HOTELES, BARES, CAFETERÍAS, RESTAURANTES Y TODO TIPO DE ACTIVIDADES PROPIAS DE LA HOSTELERÍA, EN GENERAL, ASÍ COMO EL MANTENIMIENTO, REPARACIÓN Y LIMPIEZA DE LOS MISMOS",
      "mainEntityOfPage": "https://www.contratacion.euskadi.eus/webkpe00-kperoc/es/ac71aBusquedaRegistrosWar/empresa/07825",
      "_links": {
        "self": {
          "name": "SASOI-SPORT, S.L.",
          "href": "https://api.euskadi.eus/procurements/companies/07825"
        }
      }
    },
    {
      "name": "Jose Antonio Alcibar Aspuru",
      "registrationNumber": "07824",
      "identificationNumber": "14931316S",
      "address": "Doctor Areilza, 33-4ºb",
      "location": {
        "postalCode": "48010",
        "municipality": "Bilbao",
        "county": "Bizkaia",
        "municipalityId": "020",
        "countyId": "48"
      },
      "economicActivities": [
        {
          "id": "2.311",
          "name": "Ingenieros industriales y textiles",
          "_links": {
            "self": {
              "name": "Ingenieros industriales y textiles",
              "href": "https://api.euskadi.eus/procurements/companies/economic-activities/2.311"
            }
          }
        }
      ],
      "certificateStartDate": "2021-07-28",
      "certificateEndDate": "2022-01-23",
      "object": "INGENIEROS INDUSTRIALES Y TEXTILES",
      "mainEntityOfPage": "https://www.contratacion.euskadi.eus/webkpe00-kperoc/es/ac71aBusquedaRegistrosWar/empresa/07824",
      "_links": {
        "self": {
          "name": "Jose Antonio Alcibar Aspuru",
          "href": "https://api.euskadi.eus/procurements/companies/07824"
        }
      }
    }
  ]
}