{
  "totalItems": 9042,
  "totalPages": 905,
  "currentPage": 547,
  "itemsOfPage": 10,
  "items": [
    {
      "name": "GLOBALIA URBANISMO INTEGRAL, S.L.",
      "registrationNumber": "07457",
      "identificationNumber": "B24572554",
      "address": "C/ SINALOA, 1",
      "location": {
        "postalCode": "24008",
        "municipality": "León",
        "county": "León",
        "municipalityId": "089",
        "countyId": "24"
      },
      "economicActivities": [
        {
          "id": "1.501.3",
          "name": "Albañilería y pequeños trabajos de construcción en general",
          "_links": {
            "self": {
              "name": "Albañilería y pequeños trabajos de construcción en general",
              "href": "https://api.euskadi.eus/procurements/companies/economic-activities/1.501.3"
            }
          }
        },
        {
          "id": "1.615.2",
          "name": "Venta al por mayor de muebles",
          "_links": {
            "self": {
              "name": "Venta al por mayor de muebles",
              "href": "https://api.euskadi.eus/procurements/companies/economic-activities/1.615.2"
            }
          }
        }
      ],
      "certificateStartDate": "2021-01-18",
      "certificateEndDate": "2021-06-30",
      "object": "-LA COMPRAVENTA DE MOBILIARIO URBANO E INSTALACIONES Y OBRAS DE MOBILIARIO URBANO Y PISTAS DE JUEGO. -PROMOCIÓN Y CONSTRUCCIÓN EN GENERAL, OBRA CIVIL, EXCAVACIONES Y MOVIMIENTOS DE TIERRAS",
      "mainEntityOfPage": "https://www.contratacion.euskadi.eus/webkpe00-kperoc/es/ac71aBusquedaRegistrosWar/empresa/07457",
      "_links": {
        "self": {
          "name": "GLOBALIA URBANISMO INTEGRAL, S.L.",
          "href": "https://api.euskadi.eus/procurements/companies/07457"
        }
      }
    },
    {
      "name": "GEMMA CULTUM, S.L.",
      "registrationNumber": "07458",
      "identificationNumber": "B02622553",
      "address": "CALLE SAN PABLO 32, BJ IZQ",
      "location": {
        "postalCode": "02005",
        "municipality": "Albacete",
        "county": "Albacete",
        "municipalityId": "003",
        "countyId": "02"
      },
      "economicActivities": [
        {
          "id": "1.462.1",
          "name": "Chapas de madera",
          "_links": {
            "self": {
              "name": "Chapas de madera",
              "href": "https://api.euskadi.eus/procurements/companies/economic-activities/1.462.1"
            }
          }
        },
        {
          "id": "1.615.2",
          "name": "Venta al por mayor de muebles",
          "_links": {
            "self": {
              "name": "Venta al por mayor de muebles",
              "href": "https://api.euskadi.eus/procurements/companies/economic-activities/1.615.2"
            }
          }
        },
        {
          "id": "1.665",
          "name": "Venta al por menor por correo o catálogo de productos diversos",
          "_links": {
            "self": {
              "name": "Venta al por menor por correo o catálogo de productos diversos",
              "href": "https://api.euskadi.eus/procurements/companies/economic-activities/1.665"
            }
          }
        }
      ],
      "certificateStartDate": "2021-01-18",
      "certificateEndDate": "2021-04-13",
      "object": "LA FABRICACIÓN Y LA VENTA AL POR MAYOR Y MENOR DE PRODUCTOS SEMIELABORADOS DE MADERA",
      "mainEntityOfPage": "https://www.contratacion.euskadi.eus/webkpe00-kperoc/es/ac71aBusquedaRegistrosWar/empresa/07458",
      "_links": {
        "self": {
          "name": "GEMMA CULTUM, S.L.",
          "href": "https://api.euskadi.eus/procurements/companies/07458"
        }
      }
    },
    {
      "name": "IKER DOMINGUEZ GALLEGO",
      "registrationNumber": "07028",
      "identificationNumber": "44174713Q",
      "address": "ESKUSARTE KALEA 13-1-B",
      "location": {
        "postalCode": "20570",
        "municipality": "Bergara",
        "county": "Gipuzkoa",
        "municipalityId": "074",
        "countyId": "20"
      },
      "economicActivities": [
        {
          "id": "1.659.2",
          "name": "Venta al por menor de muebles de oficina y máquinas y equipos de oficina",
          "_links": {
            "self": {
              "name": "Venta al por menor de muebles de oficina y máquinas y equipos de oficina",
              "href": "https://api.euskadi.eus/procurements/companies/economic-activities/1.659.2"
            }
          }
        },
        {
          "id": "1.853",
          "name": "Alquiler de maquinaria y equipo contable de oficina y cálculo",
          "_links": {
            "self": {
              "name": "Alquiler de maquinaria y equipo contable de oficina y cálculo",
              "href": "https://api.euskadi.eus/procurements/companies/economic-activities/1.853"
            }
          }
        }
      ],
      "certificateStartDate": "2021-01-14",
      "certificateEndDate": "2021-07-11",
      "object": "ALQUILER DE MAQUINARIA Y EQUIPO CONTABLE DE OFICINA Y CÁLCULO. VENTA AL POR MENOR DE MUEBLES DE OFICINA Y MÁQUINAS Y EQUIPOS DE OFICINA",
      "mainEntityOfPage": "https://www.contratacion.euskadi.eus/webkpe00-kperoc/es/ac71aBusquedaRegistrosWar/empresa/07028",
      "_links": {
        "self": {
          "name": "IKER DOMINGUEZ GALLEGO",
          "href": "https://api.euskadi.eus/procurements/companies/07028"
        }
      }
    },
    {
      "name": "DISA ENERGY, S.L.",
      "registrationNumber": "07454",
      "identificationNumber": "B59979807",
      "address": "c/ ALVARO RODRIGUEZ LOPEZ 1",
      "location": {
        "postalCode": "38003",
        "municipality": "Santa Cruz de Tenerife",
        "county": "Santa Cruz de Tenerife",
        "municipalityId": "038",
        "countyId": "38"
      },
      "economicActivities": [
        {
          "id": "1.616.5",
          "name": "Venta al por mayor de petróleo y lubricantes",
          "_links": {
            "self": {
              "name": "Venta al por mayor de petróleo y lubricantes",
              "href": "https://api.euskadi.eus/procurements/companies/economic-activities/1.616.5"
            }
          }
        },
        {
          "id": "1.659.9",
          "name": "Venta al por menor de otros productos no especificados en esta agrupación",
          "_links": {
            "self": {
              "name": "Venta al por menor de otros productos no especificados en esta agrupación",
              "href": "https://api.euskadi.eus/procurements/companies/economic-activities/1.659.9"
            }
          }
        }
      ],
      "certificateStartDate": "2021-01-14",
      "certificateEndDate": "2021-07-04",
      "object": "A) LA DISTRIBUCIÓN, VENTA, SUMINISTRO Y COMERCIALIZACIÓN AL POR MAYOR Y AL POR MENOR DE TODA CLASE DE PRODUCTOS PETROLÍFEROS Y SUSTANCIAS CONEXAS, RELACIONADAS Y DERIVADAS. B) LA EXPLOTACIÓN DIRECTA O INDIRECTA, POR CUENTA PROPIA O DE TERCEROS, PROPIOS O EN ARRENDAMIENTO, DE TIENDAS, BARES, RESTAURANTES, TALLERES, INSTALACIONES DE LAVADO Y DE LUBRICACIÓN, GARAJES Y ALMACENAMIENTOS. C) LA COMERCIALIZACIÓN DE TODO TIPO DE PRODUCTOS ENERGÉTICOS Y CUALQUIER CLASE DE ENERGÍA, Y EN PARTICULAR: I. LA COMERCIALIZACIÓN DE GAS NATURAL. II. LA COMERCIALIZACIÓN DE ELECTRICIDAD. III. LA COMERCIALIZACIÓN DE GASES LICUADOS DEL PETRÓLEO. IV. LA VENTA Y DISTRIBUCIÓN DE GAS NATURAL VEHICULAR, ACTUANDO EN CALIDAD DE COMERCIALIZADOR U OPERADOR A TRAVÉS DE ESTACIONES DE SERVICIO DEDICADAS AL GNV O MIXTAS. V. PRESTAR SERVICIOS DE GESTORES DE CARGAS DEL SISTEMA ELÉCTRICO, Y EN PARTICULAR DE RECARGA ENERGÉTICA DE LOS VEHÍCULOS ELÉCTRICOS. FACTURAR Y COBRAR LA ENERGÍA ENTREGADA EN LA REVENTA PARA SERVICIOS DE RECARGA ENERGÉTICA PARA VEHÍCULOS ELÉCTRICOS, ASÍ COMO PARA EL ALMACENAMIENTO DE ENERGÍA ELÉCTRICA PARA UNA MEJOR GESTIÓN DEL SISTEMA ELÉCTRICO. VI. LA VENTA Y DISTRIBUCIÓN DE GAS LICUADO DEL PETRÓLEO DESTINADO AL SUMINISTRO DE VEHÍCULOS. VII. LA PRESTACIÓN DE SERVICIOS DE REPRESENTACIÓN EN EL MERCADO ELÉCTRICO Y GASISTA, Y EN PARTICULAR A LOS COGENERADORES Y OTROS PRODUCTORES DE ENERGÍA ELÉCTRICA. VIII. LA PRESTACIÓN DE SERVICIOS DE ASESORAMIENTO ENERGÉTICO Y DE MEJORA DE LA EFICIENCIA ENERGÉTICA: REALIZACIÓN DE DIAGNÓSTICOS Y AUDITORÍAS ENERGÉTICAS. IX. REALIZAR, MANTENER, OPERAR Y VENDER INSTALACIONES DE GAS, CALEFACCIÓN, CLIMATIZACIÓN, FONTANERÍA, ELECTRICIDAD Y TODO TIPO DE INSTALACIONES INDUSTRIALES, DOMÉSTICAS Y COLECTIVAS, PLANTAS DE GAS LICUADO DEL PETRÓLEO, DE GAS NATURAL, DE BIOGÁS, Y DE AIRE PROPANADO. D) LA REALIZACIÓN DE TODA CLASE DE ESTUDIOS Y PROYECTOS TÉCNICOS, LA DIRECCIÓN DE OBRAS, OBRAS Y SERVICIOS PROPIOS O RELACIONADOS CON LOS NEGOCIOS DE PRODUCCIÓN, TRANSPORTE, TRANSFORMACIÓN Y COMERCIALIZACIÓN DE GAS NATURAL, BIOGÁS, GAS LICUADO DEL PETRÓLEO, PRODUCTOS PETROLÍFEROS Y SUSTANCIAS CONEXAS, GAS NATURAL VEHICULAR, GAS LICUADO DEL PETRÓLEO DESTINADO AL SUMINISTRO DE VEHÍCULOS, ENERGÍA ELÉCTRICA O DERIVADOS DEL GAS Y LA ELECTRICIDAD. E) EL COMERCIO DE DERECHOS DE EMISIÓN DE GASES DE EFECTO INVERNADERO. F) LA PRESTACIÓN DE TODA CLASE DE SERVICIOS DE ASESORAMIENTO, SERVICIO DE MARKETING, TRATAMIENTO DE INFORMACIÓN, PROMOCIÓN DE VENTA O ALQUILER DE BIENES Y COMERCIALIZACIÓN DE PRODUCTOS, Y PRESTACIÓN DE SERVICIOS DE ASISTENCIA AL CLIENTE, INCLUIDA LA VENTA ELECTRÓNICA O POR CORRESPONDENCIA, DIRECTAMENTE O MEDIANTE MANDATO, COMISIÓN, ARRENDAMIENTO U OTRA FORMA ADMITIDA EN DERECHO, A TODA CLASE DE PERSONAS FÍSICAS O JURÍDICAS O ENTES CARENTES DE PERSONALIDAD",
      "mainEntityOfPage": "https://www.contratacion.euskadi.eus/webkpe00-kperoc/es/ac71aBusquedaRegistrosWar/empresa/07454",
      "_links": {
        "self": {
          "name": "DISA ENERGY, S.L.",
          "href": "https://api.euskadi.eus/procurements/companies/07454"
        }
      }
    },
    {
      "name": "REHAB EUROPA, S.L.",
      "registrationNumber": "07455",
      "identificationNumber": "B63090393",
      "address": "SANT GERVASI DE CASSOLES, 96 ",
      "location": {
        "postalCode": "08022",
        "municipality": "Barcelona",
        "county": "Barcelona",
        "municipalityId": "019",
        "countyId": "08"
      },
      "economicActivities": [
        {
          "id": "1.619.2",
          "name": "Venta al por mayor de aparatos e instrumentos médicos, ortopédicos, ópticos",
          "_links": {
            "self": {
              "name": "Venta al por mayor de aparatos e instrumentos médicos, ortopédicos, ópticos",
              "href": "https://api.euskadi.eus/procurements/companies/economic-activities/1.619.2"
            }
          }
        }
      ],
      "certificateStartDate": "2021-01-14",
      "certificateEndDate": "2021-07-11",
      "object": "LA COMPRAVENTA, IMPORTACIÓN Y EXPORTACIÓN DE TODA CLASE DE PRODUCTOS ORTOPÉDICOS Y DEPORTIVOS",
      "mainEntityOfPage": "https://www.contratacion.euskadi.eus/webkpe00-kperoc/es/ac71aBusquedaRegistrosWar/empresa/07455",
      "_links": {
        "self": {
          "name": "REHAB EUROPA, S.L.",
          "href": "https://api.euskadi.eus/procurements/companies/07455"
        }
      }
    },
    {
      "name": "PLASCIES, S.L.",
      "registrationNumber": "07451",
      "identificationNumber": "B36244374",
      "address": "Rua Beillesa 5",
      "location": {
        "postalCode": "36215",
        "municipality": "Vigo",
        "county": "Pontevedra",
        "municipalityId": "057",
        "countyId": "36"
      },
      "economicActivities": [
        {
          "id": "1.482.2",
          "name": "Fabricación de artículos acabados de materias plásticas",
          "_links": {
            "self": {
              "name": "Fabricación de artículos acabados de materias plásticas",
              "href": "https://api.euskadi.eus/procurements/companies/economic-activities/1.482.2"
            }
          }
        }
      ],
      "certificateStartDate": "2021-01-13",
      "certificateEndDate": "2021-07-08",
      "object": "LA TRANSFORMACIÓN Y COMERCIALIZACIÓN DE PLÁSTICOS",
      "mainEntityOfPage": "https://www.contratacion.euskadi.eus/webkpe00-kperoc/es/ac71aBusquedaRegistrosWar/empresa/07451",
      "_links": {
        "self": {
          "name": "PLASCIES, S.L.",
          "href": "https://api.euskadi.eus/procurements/companies/07451"
        }
      }
    },
    {
      "name": "CRUZA SUCESORES, S.L.",
      "registrationNumber": "01192",
      "identificationNumber": "B48135198",
      "address": "CRUZA SUCESORES, S.L., BRUNO MAURICIO ZABALA 16 BAJO",
      "location": {
        "postalCode": "48003",
        "municipality": "Bilbao",
        "county": "Bizkaia",
        "municipalityId": "020",
        "countyId": "48"
      },
      "economicActivities": [
        {
          "id": "1.504.3",
          "name": "Instalaciones de frío, calor y acondicionamiento de aire",
          "_links": {
            "self": {
              "name": "Instalaciones de frío, calor y acondicionamiento de aire",
              "href": "https://api.euskadi.eus/procurements/companies/economic-activities/1.504.3"
            }
          }
        }
      ],
      "certificateStartDate": "2021-01-12",
      "certificateEndDate": "2021-06-17",
      "object": "LA COMPRA, VENTA, MANTENIMIENTO, INSTALACIÓN, CONSERVACIÓN Y REPARACIÓN DE TODO TIPO DE APARATOS Y SISTEMAS DE CALEFACCIÓN, VENTILACIÓN, AIRE ACONDICIONADO, Y FONTANERÍA Y GAS",
      "mainEntityOfPage": "https://www.contratacion.euskadi.eus/webkpe00-kperoc/es/ac71aBusquedaRegistrosWar/empresa/01192",
      "_links": {
        "self": {
          "name": "CRUZA SUCESORES, S.L.",
          "href": "https://api.euskadi.eus/procurements/companies/01192"
        }
      }
    },
    {
      "name": "LUYANDO SYSTEM, S.L.",
      "registrationNumber": "07448",
      "identificationNumber": "B01292531",
      "address": "SAN LORENZO 9",
      "location": {
        "postalCode": "01408",
        "municipality": "Ayala/Aiara",
        "county": "Araba/Álava",
        "municipalityId": "010",
        "countyId": "01"
      },
      "economicActivities": [
        {
          "id": "1.316.6",
          "name": "Fabricación de mobiliario metálico",
          "_links": {
            "self": {
              "name": "Fabricación de mobiliario metálico",
              "href": "https://api.euskadi.eus/procurements/companies/economic-activities/1.316.6"
            }
          }
        }
      ],
      "certificateStartDate": "2021-01-12",
      "certificateEndDate": "2021-07-04",
      "object": "LA FABRICACIÓN, COMPRA, COMERCIALIZACIÓN, DISTRIBUCIÓN, VENTA, IMPORTACIÓN Y EXPORTACIÓN DE MOBILIARIO Y/O BIENES DE EQUIPO, ASÍ COMO ELEMENTOS, ACCESORIOS Y OTROS COMPLEMENTOS RELACIONADOS CON BIENES MUEBLES",
      "mainEntityOfPage": "https://www.contratacion.euskadi.eus/webkpe00-kperoc/es/ac71aBusquedaRegistrosWar/empresa/07448",
      "_links": {
        "self": {
          "name": "LUYANDO SYSTEM, S.L.",
          "href": "https://api.euskadi.eus/procurements/companies/07448"
        }
      }
    },
    {
      "name": "TECNOLOGIAS Y EQUIPOS PARA EL MEDIO AMBIENTE S.L.",
      "registrationNumber": "07449",
      "identificationNumber": "B62334628",
      "address": "Ronda Europa 60 3º ·3ª",
      "location": {
        "postalCode": "08800",
        "municipality": "Vilanova i la Geltrú",
        "county": "Barcelona",
        "municipalityId": "307",
        "countyId": "08"
      },
      "economicActivities": [
        {
          "id": "1.654.5",
          "name": "Venta al por menor de toda clase de maquinaría",
          "_links": {
            "self": {
              "name": "Venta al por menor de toda clase de maquinaría",
              "href": "https://api.euskadi.eus/procurements/companies/economic-activities/1.654.5"
            }
          }
        },
        {
          "id": "1.843.9",
          "name": "Otros servicios técnicos n.c.o.p",
          "_links": {
            "self": {
              "name": "Otros servicios técnicos n.c.o.p",
              "href": "https://api.euskadi.eus/procurements/companies/economic-activities/1.843.9"
            }
          }
        }
      ],
      "certificateStartDate": "2021-01-12",
      "certificateEndDate": "2021-05-04",
      "object": "1. LA VENTA DE EQUIPOS E INSTALACIONES EN EL SECTOR DEL MEDIO AMBIENTE. 2. LA CONSTRUCCIÓN DE INSTALACIONES EN EL SECTOR DEL MEDIO AMBIENTE. 3. EL ASESORAMIENTO Y CONSULTORÍA EN MATERIA DE MEDIO AMBIENTE 4. EL COMERCIO EN MATERIAS PRIMAS PRIMARIAS Y SECUNDARIAS RELACIONADAS CON LAS ACTIVIDADES DE MEDIO AMBIENTE. 5. SERVICIOS DE MEDIO AMBIENTE. 6. REPRESENTACIÓN DE COMPAÑÍAS Y PRODUCTOS RELACIONADOS CON LA VENTA DE EQUIPOS, TECNOLOGÍAS INSTALACIONES Y SERVICIOS DE MEDIO AMBIENTE",
      "mainEntityOfPage": "https://www.contratacion.euskadi.eus/webkpe00-kperoc/es/ac71aBusquedaRegistrosWar/empresa/07449",
      "_links": {
        "self": {
          "name": "TECNOLOGIAS Y EQUIPOS PARA EL MEDIO AMBIENTE S.L.",
          "href": "https://api.euskadi.eus/procurements/companies/07449"
        }
      }
    },
    {
      "name": "INNOVACION CIVIL ESPAÑOLA SL",
      "registrationNumber": "07450",
      "identificationNumber": "B82323478",
      "address": "C/ DUQUE DE SESTO 17",
      "location": {
        "postalCode": "28009",
        "municipality": "Madrid",
        "county": "Madrid",
        "municipalityId": "079",
        "countyId": "28"
      },
      "economicActivities": [
        {
          "id": "1.843.1",
          "name": "Servicios técnicos de ingeniería",
          "_links": {
            "self": {
              "name": "Servicios técnicos de ingeniería",
              "href": "https://api.euskadi.eus/procurements/companies/economic-activities/1.843.1"
            }
          }
        }
      ],
      "certificateStartDate": "2021-01-12",
      "certificateEndDate": "2021-07-06",
      "object": "A) LA INVESTIGACIÓN Y DESARROLLO DE TECNOLOGÍAS APLICADAS A LA INDUSTRIA; B) EL DESARROLLO, VENTA, DISTRIBUCIÓN Y MANTENIMIENTO DE APLICACIONES INFORMÁTICAS; C) LABORES DE CONSULTORÍA EN MATERIA INFORMÁTICA, INGENIERÍA CIVIL Y TELECOMUNICACIONES. D)LA COMERCIALIZACIÓN DE PRODUCTOS DESARROLLADOS O IMPORTADOS POR LA SOCIEDAD. E) LA REALIZACIÓN DE PLANES DIRECTORES, PROYECTOS, ASISTENCIAS TÉCNICAS, DIRECCIONES DE OBRA, INFORMES TÉCNICOS, ACTIVIDADES FORMATIVAS, RECONOCIMIENTOS Y EXÁMENES, PERITACIONES Y ARBITRAJES EN LAS SIGUIENTES ÁREAS: * EN EL ÁREA DE INGENIERÍA: -EN MATERIA DE GESTIÓN INTEGRAL DE AGUAS (ABASTEICMIENTO, SANEAMIENTO, TRATAMIENTO, DEPURACIÓN Y REUTILIZACIÓN) Y DEL TRATAMIENTO DE FANGOS (TRATAMIENTO, SECADO, COMPOSTAJE Y APROVEHCAMIENTO ENERGÉTICO DE BIOGÁS). -EN MAERIA DE GESTIÓN INTEGRAL DE RESIDUOS SÓLIDOS URBANOS (SELECCIÓN AREUTILIZACIÓN, RECICLADO Y VALORIZACIÓN), DE RESIDUOS TÓXICOS Y PELIGROSOS Y DE RESIDUOS INERTES Y DE CONSTRUCCIÓN. -EN MATERIA DE REGADÍOS, ESTUDIOS EDAFOLÓGICOS, CONCENTRACIONES PARCELARIAS, CONDUCCIONES HIDRÁULICAS Y ESTUDIOS HIDROLÓGICOS. -EN MATERIA DE URBANIZACIÓN. -EN MATERIA DE CALIDAD DE AGUAS Y SUELOS. * EN EL ÁREA DE ARQUITECTURA: -EN MATERIA DE EDIFICACIÓN, URBANISMO, DESLINDES, REPLANTEOS, MEDICIONES, VALORACIONES Y TASACIONES. F) LA REALIZACIÓN DE ESTUDIOS DE IMPACTO AMBIENTAL. G) LA REALIZACIÓN DE ESTUDIOS Y COORDINACIONES EN MATERIA DE SEGURIDAD Y SALUD",
      "mainEntityOfPage": "https://www.contratacion.euskadi.eus/webkpe00-kperoc/es/ac71aBusquedaRegistrosWar/empresa/07450",
      "_links": {
        "self": {
          "name": "INNOVACION CIVIL ESPAÑOLA SL",
          "href": "https://api.euskadi.eus/procurements/companies/07450"
        }
      }
    }
  ]
}