{
  "totalItems": 9042,
  "totalPages": 905,
  "currentPage": 768,
  "itemsOfPage": 10,
  "items": [
    {
      "name": "ELKAR HIRU ERAINKUNTZAK, S.L.",
      "registrationNumber": "03442",
      "identificationNumber": "B20941308",
      "address": "FERMIN CALBETON 45, 2 D",
      "location": {
        "postalCode": "20003",
        "municipality": "Donostia / San Sebastián",
        "county": "Gipuzkoa",
        "municipalityId": "069",
        "countyId": "20"
      },
      "economicActivities": [
        {
          "id": "1.501.1",
          "name": "Construcción completa, reparación y conservación de edificaciones",
          "_links": {
            "self": {
              "name": "Construcción completa, reparación y conservación de edificaciones",
              "href": "https://api.euskadi.eus/procurements/companies/economic-activities/1.501.1"
            }
          }
        }
      ],
      "certificateStartDate": "2007-09-28",
      "certificateEndDate": "2007-12-15",
      "object": "A) LA ADQUISICIÓN, TENENCIA, ADMINISTRACIÓN, DISFRUTE Y ENAJENACIÓN DE VALORES MOBILIARIOS, CRÉDITOS Y DERECHOS, ACCIONES Y PARTICIPACIONES SOCIALES, BONOS Y OBLIGACIONES, SEAN DEL ESTADO, CORPORACIONES LOCALES, ORGANISMOS AUTONÓMICOS O EMPRESAS PRIVADAS, ESTÉN O NO COTIZADAS EN BOLSA, POR CUENTA PROPIA  O CON EXCEPCIÓN DE LA INTERMEDIACIÓN Y DEJANDO SIEMPRE FUERA LAS ACTIVIDADES OBJETO DE LA LEGISLACIÓN DE INSTITUCIONES DE INVERSIÓN COLECTIVA Y DE MERCADO DE VALORES; B) LA ADQUISICIÓN, TENECIA, ADMINISTRACIÓN Y EXPLOTACIÓN EN FORMA DE ARRIENDO, SUBARRIENDO, TRASPASO O CESIÓN, DE TODA CLASE DE VIVIENDAS, LOCALES INDUSTRIALES Y DE NEGOCIO, GARAJES Y, EN GENERAL, DE TODA CLASE E INMUEBLES, TANTO URBANOS COMO RÚSTICOS, ASÍ COMO DE BIENES MUEBLES, MAQUINARIA Y VEHÍCULOS, INDUSTRIAS O NEGOCIOS, EMPRESAS O ESTABLECIMIENTOS MERCANTILES, Y TODA CLASE DE CESIÓN POR PRECIO DEL USO O DISFRUTE DE TODA CLASE DE BIENES Y DERECHOS, INCLUSO DE PROPIEDAD INTELECTUAL O INDUSTRIA; C) LA REALIZACIÓN DE SERVICIOS DE GESTIÓN DE BIENES INMOBILIARIOS , TALES COMO VALORACIÓN, TASACIÓN, INVENTARIOS ASÍ COMO INTERMEDIACIÓN EN TRANSACCIONES, COMPRAS, VENTAS, ARRENDAMIENTOS Y OTRAS GESTIONES INMOBILIARIAS POR CUENTA DE TERCEROS; D) LA REALIZACIÓN DE OBRAS Y CONSTRUCCIONES DE TODO TIPO, PÚBLICAS Y PRIVADAS, BIEN POR EJECUCIÓN DIRECTA O POR CONTRATA, TANTO PARA SU APROVECHAMIENTO PROPIO COMO PARA SU COMERCIALIZACIÓN",
      "mainEntityOfPage": "https://www.contratacion.euskadi.eus/webkpe00-kperoc/es/ac71aBusquedaRegistrosWar/empresa/03442",
      "_links": {
        "self": {
          "name": "ELKAR HIRU ERAINKUNTZAK, S.L.",
          "href": "https://api.euskadi.eus/procurements/companies/03442"
        }
      }
    },
    {
      "name": "URAZCA CONSTRUCCIONES, S.A.",
      "registrationNumber": "01750",
      "identificationNumber": "A48763148",
      "address": "URIBITARTE, 10",
      "location": {
        "postalCode": "48001",
        "municipality": "Bilbao",
        "county": "Bizkaia",
        "municipalityId": "020",
        "countyId": "48"
      },
      "economicActivities": [
        {
          "id": "1.507",
          "name": "Construcción, reparación y conservación de toda clase obras",
          "_links": {
            "self": {
              "name": "Construcción, reparación y conservación de toda clase obras",
              "href": "https://api.euskadi.eus/procurements/companies/economic-activities/1.507"
            }
          }
        }
      ],
      "certificateStartDate": "2007-09-26",
      "certificateEndDate": "2008-03-04",
      "object": "LAS ACTIVIDADES PROPIAS DE CONSTRUCCIÓN, REPARACIÓN Y CONSERVACIÓN DE TODA CLASE DE OBRAS E INMUEBLES, ASÍ COMO LA EJECUCIÓN DE OBRAS  Y ACTUACIONES DE CORRECCIÓN MEDIAMBIENTAL Y PREVENCIÓN DE RIESGOS, EN ACTIVIDADES RELACIONADAS CON INFRAESTRUCTURAS DE DEPORTE, OCIO, TRANSPORTE, CIVILES, MINERAS E INDUSTRIALES EN GENERAL:\r\n\r\n-EJECUCIÓN DE INFRAESTRUCTURAS DE ESPACIOS DEPORTIVOS Y DE OCIO (CAMPOS DE FUTBOL, GOLF, EQUITACIÓN, CAMPINGS, ETC.)\r\n\r\n-REPOBLACIONES SERVÍCOLAS Y FORESTALES PARA LA PREVENCIÓN DE LA EROSIÓN Y CORRECCIÓN DE IMPACTOS.\r\n\r\n-ACONDICIONAMIENTO Y MANTENIMIENTO DE ZONAS VERDES, EN ÁMBITOS URBANOS, RURALES E INDUSTRIALES.\r\n\r\n-RESTAURACIÓN ECOLÓGICA Y PAISAJÍSTICA DE OBRAS VARIAS (CARRETERAS, FERROCARRILES) MEDIANTE REVEGETACIÓN DE TALUDES, PLANTACIÓN DE ARBOLADO, ETC., INCLUIDA SU CONSERVACIÓN Y MANTENIMIENTO.\r\n\r\n-PREVENCIÓN DE RIESGOS EN OBRAS VARIAS, MEDIANTE ESTABILIZACIÓN DE TALUDES CON BULONADOS, UROS DE CONTENCIÓN, ESCOLLERAS, ETC., ASÍ COMO ACONDICIONAMIENTO DE CUNETAS Y ELEMENTOS DE DRENAJE.\r\n\r\n-RESTAURACIÓN DE CANTERAS U OTRAS EXPLOTACIONES MINERAS A CIELO ABIERTO, EN ACTIVO O ABANDONADAS.\r\n\r\n-RESTAURACIÓN Y REHABILITACIÓN DE ESCOMBRERAS.\r\n\r\n- RECUPERACIÓN DE ESPACIOS DEGRADADOS (SUELOS CONTAMINADOS, INDUSTRIALES, ETC.), INCLUÍDA LA DEMOLICIÓN DE RUINAS.\r\n\r\n- RESTAURACIÓN DE CURSOS FLUVIALES (LIMPIEZAS Y DRAGADOS, ESCOLLERAS, PLANTACIÓN DE ARBOLADO, ETC.)",
      "mainEntityOfPage": "https://www.contratacion.euskadi.eus/webkpe00-kperoc/es/ac71aBusquedaRegistrosWar/empresa/01750",
      "_links": {
        "self": {
          "name": "URAZCA CONSTRUCCIONES, S.A.",
          "href": "https://api.euskadi.eus/procurements/companies/01750"
        }
      }
    },
    {
      "name": "SUCONTESA TEXTIL, S.A.",
      "registrationNumber": "03435",
      "identificationNumber": "A78076585",
      "address": "PROGRESO 164",
      "location": {
        "postalCode": "08000",
        "municipality": "Badalona",
        "county": "Barcelona",
        "municipalityId": "015",
        "countyId": "08"
      },
      "economicActivities": [
        {
          "id": "1.613.2",
          "name": "Venta al por mayor de tejidos por metros textiles para el hogar, alfombras",
          "_links": {
            "self": {
              "name": "Venta al por mayor de tejidos por metros textiles para el hogar, alfombras",
              "href": "https://api.euskadi.eus/procurements/companies/economic-activities/1.613.2"
            }
          }
        }
      ],
      "certificateStartDate": "2007-09-25",
      "certificateEndDate": "2007-12-07",
      "object": "LA FABRICACIÓN, CONFECCIÓN, COMERCIALIZACIÓN, DISTRIBUCIÓN Y SUMINISTROS DE TODA CLASE  DE ARTÍCULOS TEXTILES Y SUS COMPLEMENTOS, PUDIENDO EFECTUAR AL PARTICULAR TODA CLASE DE OPERACIONES TANTO DE COMERCIO INTERIOR COMO DE COMERCIO EXTERIOR",
      "mainEntityOfPage": "https://www.contratacion.euskadi.eus/webkpe00-kperoc/es/ac71aBusquedaRegistrosWar/empresa/03435",
      "_links": {
        "self": {
          "name": "SUCONTESA TEXTIL, S.A.",
          "href": "https://api.euskadi.eus/procurements/companies/03435"
        }
      }
    },
    {
      "name": "IBAI SOLUTIONS SL",
      "registrationNumber": "03433",
      "identificationNumber": "B95240651",
      "address": "AV. RIBERA DE AXP,E 6",
      "location": {
        "postalCode": "48950",
        "municipality": "Erandio",
        "county": "Bizkaia",
        "municipalityId": "902",
        "countyId": "48"
      },
      "economicActivities": [
        {
          "id": "1.842",
          "name": "Servicios financieros y contables",
          "_links": {
            "self": {
              "name": "Servicios financieros y contables",
              "href": "https://api.euskadi.eus/procurements/companies/economic-activities/1.842"
            }
          }
        }
      ],
      "certificateStartDate": "2007-09-20",
      "certificateEndDate": "2008-02-01",
      "object": "1.- LA ACTIVIDAD INMOBILIARIA Y LA ADQUISICIÓN POR CUALQUIER TÍTULO, SU EXPLOTACIÓN, TENENCIA, ARRENDAMIENTO, ADMINISTRACIÓN Y ENAJENACIÓN DE TODA CLASE DE BIENES INMUEBLES. 2.- LA EJECUCIÓN, POR CUALQUIER TÍTULO, DE TODA CLASE DE CONSTRUCCIONES Y OBRAS, POR CUENTA PROPIA O AJENA. 3.- LA CONTRATA DE OBRAS Y SERVICIOS PÚBLICOS. 4.- LA REALIZACIÓN DE ESTUDIOS TÉCNICOS, ECONÓMICOS O JURÍDICOS Y LA PRESTACIÓN DE TODO TIPO DE SERVICIOS, POR CUENTA PROPIA O AJENA. 5.- LA PROMOCIÓN DE NEGOCIOS Y EMPRESAS INDUSTRIALES, COMERCIALES E INMOBILIARIAS O AGRÍCOLAS. 6.- LA ADQUISICIÓN, CESIÓN, TENENCIA, DISFRUTE, ADMINISTRACIÓN, GESTIÓN Y NEGOCIACIÓN DE VALORES MOBILIARIOS, TÍTULOS, ACTIVOS FINANCIEROS, PARTICIPACIONES SOCIALES O CUOTAS EN COPROPIEDAD DE EMPRESAS INDIVIDUALES O SOCIALES, SIN INCIDIR EN ACTIVIDADES REGULADAS POR LA LEY DE MERCADO DE VALORES Y DE INVERSIONES COLECTIVAS. 7.-LA REALIZACIÓN Y DESARROLLO DE PONENCIAS, IMPARTICIÓN DE ESTUDIOS, SEMINARIOS Y CURSOS DE ENSEÑANZA EN CUALQUIER DISCIPLINA. 8.- LA ADMINISTRACIÓN DE BIENES, DERECHOS Y EMPRESAS Y EL ASESORAMIENTO EN MATERIA DE INVERSIONES Y FINANZAS Y LA COLOCACIÓN Y GESTIÓN DE CAPITALES AJENOS. 9.- LA REALIZACIÓN DE ESTUDIOS DE CARÁCTER ECONÓMICO, COMERCIAL, FINANCIERO, ADMINISTRATIVO O DE OTRA ÍNDOLE, CONDUCENTES A MEJORAR LA GESTIÓN Y PRODUCTIVIDAD DE LAS EMPRESAS. 10.- LA REALIZACIÓN DE SERVICIOS DE AGENCIA, COMISIÓN, DISTRIBUCIÓN, REPRESENTACIÓN Y MEDIACIÓN EN GENERAL, DE TODA CLASE DE BIENES DE LÍCITO COMERCIO DE EMPRESAS NACIONALES O EXTRANJERAS",
      "mainEntityOfPage": "https://www.contratacion.euskadi.eus/webkpe00-kperoc/es/ac71aBusquedaRegistrosWar/empresa/03433",
      "_links": {
        "self": {
          "name": "IBAI SOLUTIONS SL",
          "href": "https://api.euskadi.eus/procurements/companies/03433"
        }
      }
    },
    {
      "name": "IMPRENTA R.G.M., S.A.",
      "registrationNumber": "01725",
      "identificationNumber": "A48100002",
      "address": "C/ PADRE LARRAMENDI, Nº 4 - BAJO.",
      "location": {
        "postalCode": "48012",
        "municipality": "Bilbao",
        "county": "Bizkaia",
        "municipalityId": "020",
        "countyId": "48"
      },
      "economicActivities": [
        {
          "id": "1.474",
          "name": "Artes gráficas (impresión gráfica)",
          "_links": {
            "self": {
              "name": "Artes gráficas (impresión gráfica)",
              "href": "https://api.euskadi.eus/procurements/companies/economic-activities/1.474"
            }
          }
        },
        {
          "id": "1.475",
          "name": "Actividades anexas a las artes gráficas",
          "_links": {
            "self": {
              "name": "Actividades anexas a las artes gráficas",
              "href": "https://api.euskadi.eus/procurements/companies/economic-activities/1.475"
            }
          }
        }
      ],
      "certificateStartDate": "2007-09-17",
      "certificateEndDate": "2008-03-03",
      "object": "LA EXPLOTACIÓN DE UN TALLER DE LITOGRAFÍA Y TIPOGRAFÍA, PUDIENDO REALIZAR CUANTO SEA ACCESORIO Y COMPLEMENTARIO DE LO EXPUESTO, SIN LIMITACIONES DE NINGÚN GENERAL Y CUALQUIERA OTRA OPERACIÓN DE CARÁCTER COMERCIAL QUE ACUERDE EL CONSEJO DE ADMINISTRACIÓN, Y TENGA RELACIÓN CON EL OBJETO PRINCIPAL EN QUE LA SOCIEDAD QUEDA ENCUADRADA",
      "mainEntityOfPage": "https://www.contratacion.euskadi.eus/webkpe00-kperoc/es/ac71aBusquedaRegistrosWar/empresa/01725",
      "_links": {
        "self": {
          "name": "IMPRENTA R.G.M., S.A.",
          "href": "https://api.euskadi.eus/procurements/companies/01725"
        }
      }
    },
    {
      "name": "ETORKIZUN-BIDE, S.L.",
      "registrationNumber": "01746",
      "identificationNumber": "B01146554",
      "address": "C/ SAN PRUDENCIO, Nº 27 - 3º - OFIC. 1",
      "location": {
        "postalCode": "01005",
        "municipality": "Vitoria-Gasteiz",
        "county": "Araba/Álava",
        "municipalityId": "059",
        "countyId": "01"
      },
      "economicActivities": [
        {
          "id": "1.952",
          "name": "Asistencia y servicios sociales en centros no residenciales",
          "_links": {
            "self": {
              "name": "Asistencia y servicios sociales en centros no residenciales",
              "href": "https://api.euskadi.eus/procurements/companies/economic-activities/1.952"
            }
          }
        }
      ],
      "certificateStartDate": "2007-09-17",
      "certificateEndDate": "2008-03-10",
      "object": "LA EXPLOTACIÓN DE UNA EMPRESA DE SERVICIOS DE ASISTENCIA TÉCNICA Y SOCIAL, AYUDA A DOMICILIO, CENTRO DE DÍA, OCIO Y TIEMPO LIBRE, ESPECIALIZADA EN TERCERA EDAD, MENORES EN SITUACIÓN DE RIESGO Y COLECTIVOS DISCAPACITADOS E INADAPTADOS",
      "mainEntityOfPage": "https://www.contratacion.euskadi.eus/webkpe00-kperoc/es/ac71aBusquedaRegistrosWar/empresa/01746",
      "_links": {
        "self": {
          "name": "ETORKIZUN-BIDE, S.L.",
          "href": "https://api.euskadi.eus/procurements/companies/01746"
        }
      }
    },
    {
      "name": "CONSTRUCCIONES LOIZATE, S.A.",
      "registrationNumber": "00464",
      "identificationNumber": "A48196745",
      "address": "C/ TÍBOLI, 31  ",
      "location": {
        "postalCode": "48007",
        "municipality": "Bilbao",
        "county": "Bizkaia",
        "municipalityId": "020",
        "countyId": "48"
      },
      "economicActivities": [
        {
          "id": "1.507",
          "name": "Construcción, reparación y conservación de toda clase obras",
          "_links": {
            "self": {
              "name": "Construcción, reparación y conservación de toda clase obras",
              "href": "https://api.euskadi.eus/procurements/companies/economic-activities/1.507"
            }
          }
        }
      ],
      "certificateStartDate": "2007-09-12",
      "certificateEndDate": "2008-02-28",
      "object": "OBRAS NUEVAS DE EDIFICACIÓN URBANA, INDUSTRIAL, URBANIZACIÓN, SANEAMIENTO, ABASTECIMIENTO DE AGUAS Y MOVIMIENTO DE TIERRAS. OBRAS NUEVAS DE CARRETERAS, FERROCARRILES, HIDRÁULICAS, RIEGOS, PUERTOS, AEROPUERTOS Y DRAGADOS. OBRAS DE ALBAÑILERÍA Y PEQUEÑOS TRABAJOS DE CONSTRUCCIÓN EN GENERAL. DECORACIÓN DE EDIFICIOS Y LOCALES. TRABAJOS DE REPARACIÓN Y CONSERVACIÓN DE LAS OBRAS, COMPRENDIDAS EN LOS APARTADOS ANTERIORES",
      "mainEntityOfPage": "https://www.contratacion.euskadi.eus/webkpe00-kperoc/es/ac71aBusquedaRegistrosWar/empresa/00464",
      "_links": {
        "self": {
          "name": "CONSTRUCCIONES LOIZATE, S.A.",
          "href": "https://api.euskadi.eus/procurements/companies/00464"
        }
      }
    },
    {
      "name": "CHOYMO, S.A.",
      "registrationNumber": "01829",
      "identificationNumber": "A48100275",
      "address": "C/ CASTILLA LA VIEJA, Nº 2 - LONJA.",
      "location": {
        "postalCode": "48901",
        "municipality": "Barakaldo",
        "county": "Bizkaia",
        "municipalityId": "013",
        "countyId": "48"
      },
      "economicActivities": [
        {
          "id": "1.661.2",
          "name": "Comercio en hipermercados",
          "_links": {
            "self": {
              "name": "Comercio en hipermercados",
              "href": "https://api.euskadi.eus/procurements/companies/economic-activities/1.661.2"
            }
          }
        }
      ],
      "certificateStartDate": "2007-09-11",
      "certificateEndDate": "2008-01-03",
      "object": "LA INSTALACIÓN Y EXPLOTACIÓN, YA SEA EN LOCALES DE SU PROPIEDAD O EN RÉGIMEN DE ARRENDAMIENTO, DE TODA CLASE DE NEGOCIOS RELACIONADOS CON LA COMPRAVENTA AL POR MAYOR O AL DETALL, AL CONTADO Y A PLAZOS, DE CUALESQUIERA APARATOS ELÉCTRICOS, ELECTRÓNICOS, ELECTRODOMÉSTI- COS, DE RADIO, TELEVISIÓN Y DE SONIDO EN GENERAL, APARATOS SANITARIOS, MOBILIARIO, AJUAR Y ENSERES DE COCINA, MOBILIARIO DE CASA, LÁMPARAS, ARTÍCULOS DE REGALO, DE TODO AQUELLO QUE SE RELACIONE CON LA ELECTRICIDAD, LA COMPRAVENTA DE PAPELES PINTADOS, MOQUETAS Y DEMÁS REVESTIMIENTOS DE SUELOS Y PAREDES, ASÍ COMO LA INSTALACIÓN Y MANTENIMIENTO DE TODO ELLO, Y EN GENERAL LA COMPRAVENTA EN LAS FORMAS MENCIONADAS, DE TODA CLASE DE APARATOS, ENSERES, AJUAR Y MOBILIARIO RELACIONADO CON LA CASA Y LA INDUSTRIA DE HOSTELERÍA",
      "mainEntityOfPage": "https://www.contratacion.euskadi.eus/webkpe00-kperoc/es/ac71aBusquedaRegistrosWar/empresa/01829",
      "_links": {
        "self": {
          "name": "CHOYMO, S.A.",
          "href": "https://api.euskadi.eus/procurements/companies/01829"
        }
      }
    },
    {
      "name": "BARDERA OBRAS CIVILES Y MARÍTIMAS, S.L.",
      "registrationNumber": "03014",
      "identificationNumber": "B82451956",
      "address": "C/ BREOGÁN, 59 BAJO",
      "location": {
        "postalCode": "15401",
        "municipality": "Ferrol",
        "county": "Coruña, A",
        "municipalityId": "036",
        "countyId": "15"
      },
      "economicActivities": [
        {
          "id": "1.507",
          "name": "Construcción, reparación y conservación de toda clase obras",
          "_links": {
            "self": {
              "name": "Construcción, reparación y conservación de toda clase obras",
              "href": "https://api.euskadi.eus/procurements/companies/economic-activities/1.507"
            }
          }
        }
      ],
      "certificateStartDate": "2007-09-11",
      "certificateEndDate": "2008-02-06",
      "object": "COMERCIO AL MAYOR, MENOR, IMPORTACIÓN, EXPORTACIÓN, FABRICACIÓN DE TODO TIPO DE ARTÍCULOS DE REGALO, ARTÍCULOS ELECTRÓNICOS, CINTAS DE VÍDEO Y AUDIO, CALZADO, PRENDAS DE VESTIR, PIELES, ARTÍCULOS DE CUERO, ARTÍCULOS DE VIAJE, PELETERÍA, MARROQUINERÍA, PORCELANA, CERÁMICA, CUALQUIER PRODUCTO TEXTIL, O COMPLEMENTO DEL VESTIR, SOFTWARE, HARDWARE, BISUTERÍA, ALIMENTACIÓN.\r\nTRABAJOS RELACIONADOS CON LA CONSTRUCCIÓN, REPARACIÓN Y CONSERVACIÓN DE MAQUINARIA, APARATOS ELÉCTRICOS Y ELECTRÓNICOS.\r\nCOMERCIO MAYOR, MENOR, IMPORTACIÓN, EXPORTACIÓN DE PRODUCTOS DE PERFUMERÍA, DROGUERÍA, HIGIENE Y BELLEZA.\r\nNEGOCIOS DE HOSTELERÍA, TALES COMO RESTAURANTES, CAFETERÍAS, SALAS DE FIESTA, DISCOTECAS, PUBS.\r\nCOMPRA-VENTA Y ALQUILER DE INMUEBLES.\r\nTRANSPORTE DE MERCANCÍAS A NIVEL NACIONAL E INTERNACIONAL. SERVICIOS DE MENSAJERÍA.\r\nSERVICIOS DE LIMPIEZA DE EDIFICIOS Y LOCALES.\r\nSERVICIOS DE CONSERJERÍAS Y MANTENIMIENTO.\r\nPROYECTAR, DIRIGIR, PROMOVER Y REALIZAR TODA CLASE DE OBRAS PRIVADAS Y PÚBLICAS, DEL ESTADO, COMUNIDADES AUTÓNOMAS, PROVINCIAS Y MUNICIPIOS, PROMOCIÓN Y CONSTRUCCIÓN DE INMUEBLES PARA VIVIENDAS, COMERCIO E INDUSTRIA, ASÍ COMO CUALQUIER OTRA ACTIVIDAD RELACIONADA CON LA CONSTRUCCIÓN Y PROMOCIÓN URBANÍSTICA, HIDRÁULICAS Y MARÍTIMAS; REALIZACIÓN DE ESTUDIOS E INFORMES DE OBRAS, ECONÓMICOS Y SOCIALES, PROYECTOS Y DIRECCIONES DE OBRAS Y PRESTACIONES DE SERVICIOS DE MANTENIMIENTO Y CONSERVACIÓN DE BIENES INMUEBLES, EQUIPOS E INSTALACIONES",
      "mainEntityOfPage": "https://www.contratacion.euskadi.eus/webkpe00-kperoc/es/ac71aBusquedaRegistrosWar/empresa/03014",
      "_links": {
        "self": {
          "name": "BARDERA OBRAS CIVILES Y MARÍTIMAS, S.L.",
          "href": "https://api.euskadi.eus/procurements/companies/03014"
        }
      }
    },
    {
      "name": "NOVARTIS CONSUMER HEALTH, S.A.",
      "registrationNumber": "01605",
      "identificationNumber": "A08060048",
      "address": "C/ GRAN VÍA DE LES CORTS CATALANES, Nº 764.",
      "location": {
        "postalCode": "08013",
        "municipality": "Barcelona",
        "county": "Barcelona",
        "municipalityId": "019",
        "countyId": "08"
      },
      "economicActivities": [
        {
          "id": "1.612.9",
          "name": "Venta al por mayor de otros productos alimenticios, helados de todas clases",
          "_links": {
            "self": {
              "name": "Venta al por mayor de otros productos alimenticios, helados de todas clases",
              "href": "https://api.euskadi.eus/procurements/companies/economic-activities/1.612.9"
            }
          }
        }
      ],
      "certificateStartDate": "2007-09-07",
      "certificateEndDate": "2008-01-24",
      "object": "EL DESARROLLO, ELABORACIÓN, FABRICACIÓN, COMPRAVENTA, DISTRIBUCIÓN, EXPORTACIÓN E IMPORTACIÓN DE TODA CLASE DE MEDICAMENTOS, ESPECIALIDADES FARMACÉUTICAS, PREPARADOS ALIMENTICIOS ESPECIALES Y/O DIETÉTICOS, PRODUCTOS SANITARIOS, PRODUCTOS COSMÉTICOS Y PRODUCTOS DE HIGIENE PERSONAL, ASÍ COMO CUANTAS ACTIVIDADES ESTÉN DIRECTA O INDIRECTAMENTE RELACIONADAS CON LAS ANTERIORES",
      "mainEntityOfPage": "https://www.contratacion.euskadi.eus/webkpe00-kperoc/es/ac71aBusquedaRegistrosWar/empresa/01605",
      "_links": {
        "self": {
          "name": "NOVARTIS CONSUMER HEALTH, S.A.",
          "href": "https://api.euskadi.eus/procurements/companies/01605"
        }
      }
    }
  ]
}