{
  "totalItems": 9042,
  "totalPages": 905,
  "currentPage": 873,
  "itemsOfPage": 10,
  "items": [
    {
      "name": "ORDIZIA GARBIKETAK LANTZEN, S.L.",
      "registrationNumber": "04805",
      "identificationNumber": "B75061267",
      "address": "C/ GOIERRI, 6",
      "location": {
        "postalCode": "20240",
        "municipality": "Ordizia",
        "county": "Gipuzkoa",
        "municipalityId": "076",
        "countyId": "20"
      },
      "classification": [
        {
          "id": "S",
          "name": "Servicios",
          "groups": [
            {
              "id": "U",
              "subgroups": [
                {
                  "id": "01",
                  "name": "Servicios de limpieza ",
                  "categories": [
                    {
                      "id": "2",
                      "name": "Desde 150.001 Hasta 300.000",
                      "_links": {
                        "self": {
                          "name": "Desde 150.001 Hasta 300.000",
                          "href": "https://api.euskadi.eus/procurements/companies/types/S/categories/2"
                        }
                      }
                    }
                  ],
                  "_links": {
                    "self": {
                      "name": "Servicios de limpieza ",
                      "href": "https://api.euskadi.eus/procurements/companies/types/S/groups/U/subgroups/01"
                    }
                  }
                }
              ],
              "_links": {
                "self": {
                  "href": "https://api.euskadi.eus/procurements/companies/types/S/groups/U"
                }
              }
            }
          ],
          "_links": {
            "self": {
              "name": "Servicios",
              "href": "https://api.euskadi.eus/procurements/companies/types/S"
            }
          }
        }
      ],
      "object": ".",
      "mainEntityOfPage": "https://www.contratacion.euskadi.eus/webkpe00-kperoc/es/ac71aBusquedaRegistrosWar/empresa/04805",
      "_links": {
        "self": {
          "name": "ORDIZIA GARBIKETAK LANTZEN, S.L.",
          "href": "https://api.euskadi.eus/procurements/companies/04805"
        }
      }
    },
    {
      "name": "ROMO TURISMO RECEPTIVO, S.L.",
      "registrationNumber": "04822",
      "identificationNumber": "B95031951",
      "address": "Gordoniz, 22, 1º",
      "location": {
        "postalCode": "48012",
        "municipality": "Bilbao",
        "county": "Bizkaia",
        "municipalityId": "020",
        "countyId": "48"
      },
      "classification": [
        {
          "id": "S",
          "name": "Servicios",
          "groups": [
            {
              "id": "U",
              "subgroups": [
                {
                  "id": "04",
                  "name": "Agencias de viajes",
                  "categories": [
                    {
                      "id": "4",
                      "name": "Desde 600.001 Hasta 1.1200.000",
                      "_links": {
                        "self": {
                          "name": "Desde 600.001 Hasta 1.1200.000",
                          "href": "https://api.euskadi.eus/procurements/companies/types/S/categories/4"
                        }
                      }
                    }
                  ],
                  "_links": {
                    "self": {
                      "name": "Agencias de viajes",
                      "href": "https://api.euskadi.eus/procurements/companies/types/S/groups/U/subgroups/04"
                    }
                  }
                }
              ],
              "_links": {
                "self": {
                  "href": "https://api.euskadi.eus/procurements/companies/types/S/groups/U"
                }
              }
            }
          ],
          "_links": {
            "self": {
              "name": "Servicios",
              "href": "https://api.euskadi.eus/procurements/companies/types/S"
            }
          }
        }
      ],
      "object": ".",
      "mainEntityOfPage": "https://www.contratacion.euskadi.eus/webkpe00-kperoc/es/ac71aBusquedaRegistrosWar/empresa/04822",
      "_links": {
        "self": {
          "name": "ROMO TURISMO RECEPTIVO, S.L.",
          "href": "https://api.euskadi.eus/procurements/companies/04822"
        }
      }
    },
    {
      "name": "VILMONT PROYECTOS OBRAS Y SERVICIOS, S.L.",
      "registrationNumber": "04837",
      "identificationNumber": "B95685681",
      "address": "ZIZERUENE, 22 2º DCHA.",
      "location": {
        "postalCode": "48004",
        "municipality": "Bilbao",
        "county": "Bizkaia",
        "municipalityId": "020",
        "countyId": "48"
      },
      "object": ".",
      "mainEntityOfPage": "https://www.contratacion.euskadi.eus/webkpe00-kperoc/es/ac71aBusquedaRegistrosWar/empresa/04837",
      "_links": {
        "self": {
          "name": "VILMONT PROYECTOS OBRAS Y SERVICIOS, S.L.",
          "href": "https://api.euskadi.eus/procurements/companies/04837"
        }
      }
    },
    {
      "name": "CEGA MULTIDISTRIBUCION, S.A.",
      "registrationNumber": "04858",
      "identificationNumber": "A01129311",
      "address": "C/ARTAPADURA, 11",
      "location": {
        "postalCode": "01013",
        "municipality": "Vitoria-Gasteiz",
        "county": "Araba/Álava",
        "municipalityId": "059",
        "countyId": "01"
      },
      "object": ".",
      "mainEntityOfPage": "https://www.contratacion.euskadi.eus/webkpe00-kperoc/es/ac71aBusquedaRegistrosWar/empresa/04858",
      "_links": {
        "self": {
          "name": "CEGA MULTIDISTRIBUCION, S.A.",
          "href": "https://api.euskadi.eus/procurements/companies/04858"
        }
      }
    },
    {
      "name": "GESTION INTEGRAL DE OBRAS Y JARDINES, S.L.",
      "registrationNumber": "04860",
      "identificationNumber": "B39517933",
      "address": "AVDA. EL MINERO, 36 BAJO",
      "location": {
        "postalCode": "48530",
        "municipality": "Ortuella",
        "county": "Bizkaia",
        "municipalityId": "083",
        "countyId": "48"
      },
      "object": ".",
      "mainEntityOfPage": "https://www.contratacion.euskadi.eus/webkpe00-kperoc/es/ac71aBusquedaRegistrosWar/empresa/04860",
      "_links": {
        "self": {
          "name": "GESTION INTEGRAL DE OBRAS Y JARDINES, S.L.",
          "href": "https://api.euskadi.eus/procurements/companies/04860"
        }
      }
    },
    {
      "name": "CONCESIONARIA LAGUNAK, S.L.",
      "registrationNumber": "04878",
      "identificationNumber": "B95591293",
      "address": "ESTARTETXE, 5 5ª Plta. 504",
      "location": {
        "postalCode": "48940",
        "municipality": "Leioa",
        "county": "Bizkaia",
        "municipalityId": "054",
        "countyId": "48"
      },
      "object": ".",
      "mainEntityOfPage": "https://www.contratacion.euskadi.eus/webkpe00-kperoc/es/ac71aBusquedaRegistrosWar/empresa/04878",
      "_links": {
        "self": {
          "name": "CONCESIONARIA LAGUNAK, S.L.",
          "href": "https://api.euskadi.eus/procurements/companies/04878"
        }
      }
    },
    {
      "name": "DEDICACION Y ATENCION, S.L.U.",
      "registrationNumber": "04890",
      "identificationNumber": "B01459700",
      "address": "C/ BRASIL, 9",
      "location": {
        "postalCode": "01012",
        "municipality": "Vitoria-Gasteiz",
        "county": "Araba/Álava",
        "municipalityId": "059",
        "countyId": "01"
      },
      "object": ".",
      "mainEntityOfPage": "https://www.contratacion.euskadi.eus/webkpe00-kperoc/es/ac71aBusquedaRegistrosWar/empresa/04890",
      "_links": {
        "self": {
          "name": "DEDICACION Y ATENCION, S.L.U.",
          "href": "https://api.euskadi.eus/procurements/companies/04890"
        }
      }
    },
    {
      "name": "SEKOOP SEGURTASUNA KOOP ELK TXIKIA",
      "registrationNumber": "04910",
      "identificationNumber": "F95615258",
      "address": "C/ETXEGORRI, 15",
      "location": {
        "postalCode": "48950",
        "municipality": "Erandio",
        "county": "Bizkaia",
        "municipalityId": "902",
        "countyId": "48"
      },
      "object": ".",
      "mainEntityOfPage": "https://www.contratacion.euskadi.eus/webkpe00-kperoc/es/ac71aBusquedaRegistrosWar/empresa/04910",
      "_links": {
        "self": {
          "name": "SEKOOP SEGURTASUNA KOOP ELK TXIKIA",
          "href": "https://api.euskadi.eus/procurements/companies/04910"
        }
      }
    },
    {
      "name": "LTK INDUSTRIAL AND AERONAUTIC LOGISTIC SERVICES, SL.",
      "registrationNumber": "04911",
      "identificationNumber": "B01364199",
      "address": "C/JUNDIZ, 16 BIS",
      "location": {
        "postalCode": "01015",
        "municipality": "Vitoria-Gasteiz",
        "county": "Araba/Álava",
        "municipalityId": "059",
        "countyId": "01"
      },
      "object": "Compra, almacen, distribucion, planificacion y gestion de recursos logisticos.\r\nLogistica, almacenamiento y manipulacion hasta entrega de mercancias propias y de terceros.\r\nServicios en comision en nombre propio y ajeno.\r\n",
      "mainEntityOfPage": "https://www.contratacion.euskadi.eus/webkpe00-kperoc/es/ac71aBusquedaRegistrosWar/empresa/04911",
      "_links": {
        "self": {
          "name": "LTK INDUSTRIAL AND AERONAUTIC LOGISTIC SERVICES, SL.",
          "href": "https://api.euskadi.eus/procurements/companies/04911"
        }
      }
    },
    {
      "name": "ELEKTRIZITATEA ONYI, S.L.",
      "registrationNumber": "04921",
      "identificationNumber": "B20994752",
      "address": "LATXUMBE BERRI, 23 3ºA",
      "location": {
        "postalCode": "20120",
        "municipality": "Hernani",
        "county": "Gipuzkoa",
        "municipalityId": "040",
        "countyId": "20"
      },
      "object": ".",
      "mainEntityOfPage": "https://www.contratacion.euskadi.eus/webkpe00-kperoc/es/ac71aBusquedaRegistrosWar/empresa/04921",
      "_links": {
        "self": {
          "name": "ELEKTRIZITATEA ONYI, S.L.",
          "href": "https://api.euskadi.eus/procurements/companies/04921"
        }
      }
    }
  ]
}