{
  "totalItems": 9042,
  "totalPages": 905,
  "currentPage": 23,
  "itemsOfPage": 10,
  "items": [
    {
      "name": "GEYSER HPC, S.A.",
      "registrationNumber": "00722",
      "identificationNumber": "A48264758",
      "address": "C/ AVENIDA IPARRAGUIRRE, Nº 80 - 1º DCHA.",
      "location": {
        "postalCode": "48940",
        "municipality": "Leioa",
        "county": "Bizkaia",
        "municipalityId": "054",
        "countyId": "48"
      },
      "economicActivities": [
        {
          "id": "1.619.7",
          "name": "Venta al por mayor de instrumentos de precisión, medida y similares",
          "_links": {
            "self": {
              "name": "Venta al por mayor de instrumentos de precisión, medida y similares",
              "href": "https://api.euskadi.eus/procurements/companies/economic-activities/1.619.7"
            }
          }
        },
        {
          "id": "1.843.3",
          "name": "Servicios técnicos de prospecciones y estudios geológicos",
          "_links": {
            "self": {
              "name": "Servicios técnicos de prospecciones y estudios geológicos",
              "href": "https://api.euskadi.eus/procurements/companies/economic-activities/1.843.3"
            }
          }
        }
      ],
      "certificateStartDate": "2026-02-03",
      "certificateEndDate": "2026-07-29",
      "object": "EL ESTUDIO, EJECUCIÓN Y REALIZACIÓN DE TRABAJOS DE GEOFÍSICA, GEODESIA, GEOLOGÍA, GEOQUÍMICA, OCEANOGRAFÍA, TOPOGRAFÍA, ELECTRÓNICA, MEDIO AMBIENTE, CONTAMINACIÓN Y SONDEOS EN TODAS SUS MODALIDADES Y TÉCNICAS, ASÍ COMO TODOS LOS TRABAJOS DE INGENIERÍA CIVIL, YA SEAN POR ENCARGO Y CUENTA DE ENTIDADES PÚBLICAS, DEL ESTADO, ORGANISMOS AUTÓNOMOS, PROVINCIA, MUNICIPIO, O DIPUTACIONES, YA LO SEAN POR ENCARGO Y CUENTA DE PERSONAS FÍSICAS O JURÍDICAS DE CARÁCTER PARTICULAR, ASÍ COMO LA LABOR DE EVACUACIÓN DE CONSULTAS E INFORMES AL RESPECTO. LA FABRICACIÓN, IMPORTACIÓN, EXPORTACIÓN, REPRESENTACIÓN, DISTRIBUCIÓN, COMPRA, VENTA Y ALQUILER DE TODA CLASE DE MERCANCÍAS, MAQUINARIA, PIEZAS, ÚTILES Y ARTÍCULOS, HERRAMIENTAS Y PRODUCTOS, MOBILIARIO EN GENERAL, EQUIPOS Y REPUESTOS NECESARIOS PARA LAS ACTIVIDADES ANTES INDICADAS. LA BÚSQUEDA, DESARROLLO, ASESORAMIENTO Y COMERCIALIZACIÓN DE CUALQUIER TIPO DE RECURSOS NATURALES, FUENTES ENERGÉTICAS, GASES, LÍQUIDOS, MINERALES Y ROCAS INDUSTRIALES, TANTO EN TIERRA COMO EN MAR; Y, EN CONSECUENCIA, LA CONTRATACIÓN DE SUS SERVICIOS CON EMPRESAS TITULARES DE PERMISOS DE INVESTIGACIÓN O EXPLOTACIÓN DE TODO TIPO DE RECURSOS NATURALES, TANTO EN TERRITORIO NACIONAL Y EN SUS AGUAS JURISDICCIONALES COMO EN EL EXTRANJERO. LA PARTICIPACIÓN EN CONCURSOS Y SUBASTAS QUE SE CONVOQUEN Y RESUELVAN POR PARTE DE CUALESQUIERA PERSONAS FÍSICAS O JURÍDICAS, PÚBLICAS O PRIVADAS, U ORGANISMOS, CUYA FINALIDAD SEA LA ADJUDICACIÓN DE OBRAS O CONTRATOS CUYO CONTENIDO ESTÉ INCLUÍDO O SE RELACIONE CON EL OBJETO SOCIAL PREVISTO EN ESTE ARTÍCULO. LA PROMOCIÓN Y CONSTRUCCIÓN POR CUENTA PROPIA O AJENA DE TODO TIPO DE OBRAS RELACIONADAS CON LA GEOLOGÍA",
      "mainEntityOfPage": "https://www.contratacion.euskadi.eus/webkpe00-kperoc/es/ac71aBusquedaRegistrosWar/empresa/00722",
      "_links": {
        "self": {
          "name": "GEYSER HPC, S.A.",
          "href": "https://api.euskadi.eus/procurements/companies/00722"
        }
      }
    },
    {
      "name": "EL ABRA COMERCIAL VIZCAÍNA, S.L.",
      "registrationNumber": "01833",
      "identificationNumber": "B48860068",
      "address": "POL. IND. ERLETXE, PLATAF. F, NAVE 3",
      "location": {
        "postalCode": "48960",
        "municipality": "Galdakao",
        "county": "Bizkaia",
        "municipalityId": "036",
        "countyId": "48"
      },
      "economicActivities": [
        {
          "id": "1.614.2",
          "name": "Venta al por mayor de productos de perfumería, droguería, higiene y belleza",
          "_links": {
            "self": {
              "name": "Venta al por mayor de productos de perfumería, droguería, higiene y belleza",
              "href": "https://api.euskadi.eus/procurements/companies/economic-activities/1.614.2"
            }
          }
        }
      ],
      "certificateStartDate": "2026-02-03",
      "certificateEndDate": "2026-07-29",
      "object": "LA VENTA Y DISTRIBUCIÓN, INCLUYENDO AL EFECTO EL TRANSPORTE PROPIO DE MERCANCÍAS, DE TODA CLASE DE: JABONES, DETERGENTES PARA LA LIMPIEZA, ASEO, HIGIENE Y DESINFECCIÓN DE TODO TIPO, INCLUSO INDUSTRIAL, ARTÍCULOS DERIVADOS DE LA CELULOSA Y EL PLÁSTICO, ARTÍCULOS FABRICADOS CON MATERIAL DESECHABLE, ENVASES O EMBALAJES FABRICADOS CON CUALQUIER MATERIAL, PRODUCTOS COMPLEMENTARIOS O ACCESORIOS (INCLUSO LOS RELACIONADOS CON LA ALIMENTACIÓN) DE LAS ACTIVIDADES DE HOSTELERÍA, MÁQUINAS EXPENDEDORAS DE LOS ANTERIORES PRODUCTOS, TODO TIPO DE MAQUINARIA RELACIONADAS CON LA LIMPIEZA, ASEO, HIGIENE Y DESINFECCIÓN DE TODO TIPO, PERSONAL E INDUSTRIAL",
      "mainEntityOfPage": "https://www.contratacion.euskadi.eus/webkpe00-kperoc/es/ac71aBusquedaRegistrosWar/empresa/01833",
      "_links": {
        "self": {
          "name": "EL ABRA COMERCIAL VIZCAÍNA, S.L.",
          "href": "https://api.euskadi.eus/procurements/companies/01833"
        }
      }
    },
    {
      "name": "GEHILAN 2000 S.L.",
      "registrationNumber": "06021",
      "identificationNumber": "B48986871",
      "address": "SAN JUAN, 14",
      "location": {
        "postalCode": "48550",
        "municipality": "Muskiz",
        "county": "Bizkaia",
        "municipalityId": "071",
        "countyId": "48"
      },
      "economicActivities": [
        {
          "id": "1.845",
          "name": "Explotación electrónica por cuenta de terceros",
          "_links": {
            "self": {
              "name": "Explotación electrónica por cuenta de terceros",
              "href": "https://api.euskadi.eus/procurements/companies/economic-activities/1.845"
            }
          }
        },
        {
          "id": "1.847",
          "name": "Servicios de consultoría",
          "_links": {
            "self": {
              "name": "Servicios de consultoría",
              "href": "https://api.euskadi.eus/procurements/companies/economic-activities/1.847"
            }
          }
        },
        {
          "id": "1.932.1",
          "name": "Enseñanza de formación y perfeccionamiento profesional no superior",
          "_links": {
            "self": {
              "name": "Enseñanza de formación y perfeccionamiento profesional no superior",
              "href": "https://api.euskadi.eus/procurements/companies/economic-activities/1.932.1"
            }
          }
        },
        {
          "id": "1.932.2",
          "name": "Enseñanza de formación y perfeccionamiento profesional superior",
          "_links": {
            "self": {
              "name": "Enseñanza de formación y perfeccionamiento profesional superior",
              "href": "https://api.euskadi.eus/procurements/companies/economic-activities/1.932.2"
            }
          }
        },
        {
          "id": "1.952",
          "name": "Asistencia y servicios sociales en centros no residenciales",
          "_links": {
            "self": {
              "name": "Asistencia y servicios sociales en centros no residenciales",
              "href": "https://api.euskadi.eus/procurements/companies/economic-activities/1.952"
            }
          }
        }
      ],
      "certificateStartDate": "2026-02-03",
      "certificateEndDate": "2026-07-29",
      "object": "DESARROLLO DE ACCIONES Y SERVICIOS DE ORIENTACIÓN PARA EL EMPLEO QUE SE DEFINEN COMO MEDIDAS DE INFORMACIÓN, ACOMPAÑAMIENTO, MOTIVACIÓN Y ASESORAMIENTO QUE, TENIENDO EN CUENTA LAS CIRCUNSTANCIAS PROFESIONALES DE LA PERSONA, LE PERMITAN DETERMINAR SUS CAPACIDADES E INTERESES Y GESTIONAR SU TRAYECTORIA INDIVIDUAL DE APRENDIZAJE, LA BÚSQUEDA DE EMPLEO O LA PUESTA EN PRÁCTICA DE INICIATIVAS EMPRESARIALES. ATENCIÓN ESPECIALIZADA E INDIVIDUALIZADA A PERSONAS USUARIOS DE SERVICIOS DE EMPLEO QUE SE CONSTITUYE COMO LA MEJOR GARANTÍA PARA LA CONSECUCIÓN DE LOS OBJETIVOS DE MEJORA DE LA EMPLEABILIDAD DE LAS PERSONAS EN SITUACIÓN DE DESEMPLEO Y DE CALIDAD Y MANTENIMIENTO DEL EMPLEO DE LAS PERSONAS OCUPADAS. EN COORDINACIÓN Y, EN SU CASO, COLABORACIÓN CON LOS SERVICIOS PÚBLICOS DE EMPLEO CORRESPONDIENTE, REALIZAR ACTIVIDADES DE INTERMEDIACIÓN LABORAL QUE TENGAN COMO FINALIDAD PROPORCIONAR A LAS PERSONAS TRABAJADORAS UN EMPLEO ADECUADO A SUS CARACTERÍSTICAS Y FACILITAR A LOS EMPLEADORES LAS PERSONAS TRABAJADORAS MÁS APROPIADAS A SUS REQUERIMIENTO Y NECESIDADES. A ESTE FIN, GEHILAN 2000 S.L. VALORARÁ LOS PERFILES, APTITUDES, CONOCIMIENTOS Y CUALIFICACIÓN PROFESIONALES DE LAS PERSONAS TRABAJADORAS QUE REQUIERAN SUS SERVICIOS PARA LA BÚSQUEDA DE EMPLEO Y LOS REQUERIMIENTOS Y CARACTERÍSTICAS DE LOS PUESTOS DE TRABAJO OFERTADOS. DESARROLLA TAMBIÉN ACTUACIONES RELACIONADAS CON LA BÚSQUEDA DE EMPLEO, TALES COMO ORIENTACIÓN E INFORMACIÓN PROFESIONAL, Y CON LA SELECCIÓN DE PERSONAL.\r\nELABORACIÓN DE PLANES DE IGUALDAD Y REALIZACIÓN DE OTRA CLASE DE ACTIVIDADES Y MEDIDAS ADOPTADAS DESPUÉS DE REALIZAR UN DIAGNÓSTICO DE SITUACIÓN, TENDENTES A ALCANZAR EN LA EMPRESA O EN CUALQUIER OTRO ÁMBITO IGUALDAD DE TRATO Y DE OPORTUNIDADES ENTRE HOMBRES Y MUIJERES Y ELIMINAR LA DISCRIMINACIÓN POR RAZÓN DE SEXO\r\n",
      "mainEntityOfPage": "https://www.contratacion.euskadi.eus/webkpe00-kperoc/es/ac71aBusquedaRegistrosWar/empresa/06021",
      "_links": {
        "self": {
          "name": "GEHILAN 2000 S.L.",
          "href": "https://api.euskadi.eus/procurements/companies/06021"
        }
      }
    },
    {
      "name": "JOSE MARÍA GONZÁLEZ DÍAZ-MEDINO",
      "registrationNumber": "06270",
      "identificationNumber": "14562509J",
      "address": "Gregorio Mendibil, 5 bajo",
      "location": {
        "postalCode": "48340",
        "municipality": "Amorebieta-Etxano",
        "county": "Bizkaia",
        "municipalityId": "003",
        "countyId": "48"
      },
      "economicActivities": [
        {
          "id": "1.653.3",
          "name": "Venta al por menor de artículos de menaje, ferretería, adorno, regalo",
          "_links": {
            "self": {
              "name": "Venta al por menor de artículos de menaje, ferretería, adorno, regalo",
              "href": "https://api.euskadi.eus/procurements/companies/economic-activities/1.653.3"
            }
          }
        },
        {
          "id": "2.511",
          "name": "Agentes comerciales",
          "_links": {
            "self": {
              "name": "Agentes comerciales",
              "href": "https://api.euskadi.eus/procurements/companies/economic-activities/2.511"
            }
          }
        }
      ],
      "certificateStartDate": "2026-02-03",
      "certificateEndDate": "2026-07-28",
      "object": "VENTA AL POR MENOR DE ARTÍCULOS DE MENAJE, FERRETERÍA, ADORNO, REGALO",
      "mainEntityOfPage": "https://www.contratacion.euskadi.eus/webkpe00-kperoc/es/ac71aBusquedaRegistrosWar/empresa/06270",
      "_links": {
        "self": {
          "name": "JOSE MARÍA GONZÁLEZ DÍAZ-MEDINO",
          "href": "https://api.euskadi.eus/procurements/companies/06270"
        }
      }
    },
    {
      "name": "SUMINISTROS MÉDICOS EASO, S.L.",
      "registrationNumber": "01634",
      "identificationNumber": "B20534418",
      "address": "C/ PASEO DE ZUBIAURRE, Nº 51 - BAJO.",
      "location": {
        "postalCode": "20015",
        "municipality": "Donostia / San Sebastián",
        "county": "Gipuzkoa",
        "municipalityId": "069",
        "countyId": "20"
      },
      "economicActivities": [
        {
          "id": "1.619.2",
          "name": "Venta al por mayor de aparatos e instrumentos médicos, ortopédicos, ópticos",
          "_links": {
            "self": {
              "name": "Venta al por mayor de aparatos e instrumentos médicos, ortopédicos, ópticos",
              "href": "https://api.euskadi.eus/procurements/companies/economic-activities/1.619.2"
            }
          }
        }
      ],
      "certificateStartDate": "2026-02-03",
      "certificateEndDate": "2026-07-29",
      "object": "LA COMERCIALIZACIÓN E INTERMEDIACIÓN EN LA COMPRA-VENTA DE MATERIAL Y EQUIPAMIENTO QUIRÚRGICO, SANITARIO, FARMACÉUTICO Y ORTOPÉDICO",
      "mainEntityOfPage": "https://www.contratacion.euskadi.eus/webkpe00-kperoc/es/ac71aBusquedaRegistrosWar/empresa/01634",
      "_links": {
        "self": {
          "name": "SUMINISTROS MÉDICOS EASO, S.L.",
          "href": "https://api.euskadi.eus/procurements/companies/01634"
        }
      }
    },
    {
      "name": "MARATEK PROYECTOS, S. COOP. PEQUEÑA P.",
      "registrationNumber": "08260",
      "identificationNumber": "F95844791",
      "address": "LAGA BIDEA EDIF. 804 LOCAL 125",
      "location": {
        "postalCode": "48160",
        "municipality": "Derio",
        "county": "Bizkaia",
        "municipalityId": "901",
        "countyId": "48"
      },
      "economicActivities": [
        {
          "id": "1.843.1",
          "name": "Servicios técnicos de ingeniería",
          "_links": {
            "self": {
              "name": "Servicios técnicos de ingeniería",
              "href": "https://api.euskadi.eus/procurements/companies/economic-activities/1.843.1"
            }
          }
        }
      ],
      "certificateStartDate": "2026-02-03",
      "certificateEndDate": "2026-08-03",
      "object": "PROPORCIONAR SERVICIOS DE INGENIERÍA, ARQUITECTURA TÉCNICA Y DELINEACIÓN.",
      "mainEntityOfPage": "https://www.contratacion.euskadi.eus/webkpe00-kperoc/es/ac71aBusquedaRegistrosWar/empresa/08260",
      "_links": {
        "self": {
          "name": "MARATEK PROYECTOS, S. COOP. PEQUEÑA P.",
          "href": "https://api.euskadi.eus/procurements/companies/08260"
        }
      }
    },
    {
      "name": "ANTIO KIROL JARDUERAK. S.L.",
      "registrationNumber": "08976",
      "identificationNumber": "B75212910",
      "address": "SECUNDINO ESNAOLA 16A 4A",
      "location": {
        "postalCode": "20700",
        "municipality": "Zumarraga",
        "county": "Gipuzkoa",
        "municipalityId": "080",
        "countyId": "20"
      },
      "economicActivities": [
        {
          "id": "1.967.2",
          "name": "Escuelas y servicios de perfeccionamiento del deporte",
          "_links": {
            "self": {
              "name": "Escuelas y servicios de perfeccionamiento del deporte",
              "href": "https://api.euskadi.eus/procurements/companies/economic-activities/1.967.2"
            }
          }
        },
        {
          "id": "1.999",
          "name": "Otros servicios n.c.o.p",
          "_links": {
            "self": {
              "name": "Otros servicios n.c.o.p",
              "href": "https://api.euskadi.eus/procurements/companies/economic-activities/1.999"
            }
          }
        }
      ],
      "certificateStartDate": "2026-02-03",
      "certificateEndDate": "2026-08-03",
      "object": "SERVICIOS Y CURSOS DEPORTIVOS Y ACUÁTICOS. C.N.A.E. 8551. SERVICIOS DE SOCORRISTA Y SALVAMENTO EN PISCINAS. C.N.A.E. 9329. SIENDO LA ACTIVIDAD PRINCIPAL LOS SERVICIOS Y CURSOS DEPORTIVOS Y ACUÁTICOS.",
      "mainEntityOfPage": "https://www.contratacion.euskadi.eus/webkpe00-kperoc/es/ac71aBusquedaRegistrosWar/empresa/08976",
      "_links": {
        "self": {
          "name": "ANTIO KIROL JARDUERAK. S.L.",
          "href": "https://api.euskadi.eus/procurements/companies/08976"
        }
      }
    },
    {
      "name": "CHEMIPOL, SA",
      "registrationNumber": "07304",
      "identificationNumber": "A08631020",
      "address": "JOAN MONPEÓ. 149",
      "location": {
        "postalCode": "08223",
        "municipality": "Terrassa",
        "county": "Barcelona",
        "municipalityId": "279",
        "countyId": "08"
      },
      "economicActivities": [
        {
          "id": "1.255.2",
          "name": "Fabricación de jabones de tocador y otros productos de perfumería",
          "_links": {
            "self": {
              "name": "Fabricación de jabones de tocador y otros productos de perfumería",
              "href": "https://api.euskadi.eus/procurements/companies/economic-activities/1.255.2"
            }
          }
        },
        {
          "id": "1.616.6",
          "name": "Venta al por mayor de productos químicos industriales",
          "_links": {
            "self": {
              "name": "Venta al por mayor de productos químicos industriales",
              "href": "https://api.euskadi.eus/procurements/companies/economic-activities/1.616.6"
            }
          }
        }
      ],
      "certificateStartDate": "2026-02-03",
      "certificateEndDate": "2026-08-03",
      "object": "LA COMPRA, VENTA, FABRICACIÓN Y COMERCIALIZACIÓN DE PRODUCTOS QUÍMICOS Y APLICACIONES DE LOS MISMOS",
      "mainEntityOfPage": "https://www.contratacion.euskadi.eus/webkpe00-kperoc/es/ac71aBusquedaRegistrosWar/empresa/07304",
      "_links": {
        "self": {
          "name": "CHEMIPOL, SA",
          "href": "https://api.euskadi.eus/procurements/companies/07304"
        }
      }
    },
    {
      "name": "GURENERGIAS, S.L.",
      "registrationNumber": "08619",
      "identificationNumber": "B10871275",
      "address": "Calle Ugartebeitia (48903) 7, piso 3, oficina 23",
      "location": {
        "postalCode": "48903",
        "municipality": "Barakaldo",
        "county": "Bizkaia",
        "municipalityId": "013",
        "countyId": "48"
      },
      "economicActivities": [
        {
          "id": "1.504.11",
          "name": "Instalaciones eléctricas en general, redes telegráficas, telefonía, tv, etc",
          "_links": {
            "self": {
              "name": "Instalaciones eléctricas en general, redes telegráficas, telefonía, tv, etc",
              "href": "https://api.euskadi.eus/procurements/companies/economic-activities/1.504.11"
            }
          }
        },
        {
          "id": "1.504.12",
          "name": "Instalaciones eléctricas en toda clase de edificios",
          "_links": {
            "self": {
              "name": "Instalaciones eléctricas en toda clase de edificios",
              "href": "https://api.euskadi.eus/procurements/companies/economic-activities/1.504.12"
            }
          }
        }
      ],
      "certificateStartDate": "2026-02-03",
      "certificateEndDate": "2026-08-03",
      "object": "EL DESARROLLO DE LAS ACTIVIDADES CORRESPONDIENTES A LOS SIGUIENTES CÓDIGOS Y DESCRIPCIONES DE CLASIFICACIÓN NACIONAL DE ACTIVIDADES ECONÓMICAS: ACTIVIDAD PRINCIPAL: 43.21 / INSTALACIONES ELÉCTRICAS.",
      "mainEntityOfPage": "https://www.contratacion.euskadi.eus/webkpe00-kperoc/es/ac71aBusquedaRegistrosWar/empresa/08619",
      "_links": {
        "self": {
          "name": "GURENERGIAS, S.L.",
          "href": "https://api.euskadi.eus/procurements/companies/08619"
        }
      }
    },
    {
      "name": "VASILE REFORMAS-BERRIKUNTZAK, S.L.",
      "registrationNumber": "08961",
      "identificationNumber": "B75204404",
      "address": "C/ DIEGO RIVERO Nº 1, BAJO",
      "location": {
        "postalCode": "20240",
        "municipality": "Ordizia",
        "county": "Gipuzkoa",
        "municipalityId": "076",
        "countyId": "20"
      },
      "economicActivities": [
        {
          "id": "1.501.1",
          "name": "Construcción completa, reparación y conservación de edificaciones",
          "_links": {
            "self": {
              "name": "Construcción completa, reparación y conservación de edificaciones",
              "href": "https://api.euskadi.eus/procurements/companies/economic-activities/1.501.1"
            }
          }
        }
      ],
      "certificateStartDate": "2026-02-03",
      "certificateEndDate": "2026-08-03",
      "object": "CONSTRUCCIÓN COMPLETA, REPARACIÓN Y CONSERVACIÓN DE EDIFICACIONES, CONSTRUCCIÓN COMPLETA, REPARACIÓN Y CONSERVACIÓN DE OBRAS CIVILES, ALBAÑILERÍA Y PEQUEÑOS TRABAJOS DE CONSTRUCCIÓN EN GENERAL; INSTALACIONES ELÉCTRICAS EN GENERAL, INSTALACIÓN DE REDES TELEGRÁFICAS, TELEFÓNICAS, TELEFONÍA SIN HILOS Y TELEVISIÓN, INSTALACIONES DE SISTEMAS DE BALIZACIÓN DE PUERTOS Y AEROPUERTOS, INSTALACIONES DE FONTANERÍA, INSTALACIONES DE FRÍO, CALOR Y ACONDICIONAMIENTO DE AIRE, INSTALACIÓN DE PARARRAYOS Y SIMILARES, MONTAJE E INSTALACIÓN DE COCINAS DE TODO TIPO Y CLASE, CON TODOS SUS ACCESORIOS, PARA TODO USO, MENOS EL INDUSTRIAL, MONTAJE E INSTALACIÓN DE APARATOS ELEVADORES DE CUALQUIER CLASE Y TIPO, INSTALACIONES TELEFÓNICAS, TELEGRÁFICAS SIN HILOS Y DE TELEVISIÓN, EN EDIFICIOS Y CONSTRUCCIONES DE CUALQUIER CLASE, MONTAJES METÁLICOS E INSTALACIONES INDUSTRIALES COMPLETAS, SIN VENDER NI APORTAR LA MAQUINARIA NI LOS ELEMENTOS OBJETO DE LA INSTALACIÓN O MONTAJE; REVESTIMIENTOS EXTERIORES E INTERIORES DE TODAS CLASES Y EN TODO TIPO DE OBRAS, SOLADOS Y PAVIMENTOS DE TODAS CLASES Y EN CUALQUIER TIPO DE OBRAS, PREPARACIÓN Y COLOCACIÓN DE SOLADOS Y PAVIMENTOS DE MADERA DE CUALQUIER CLASE, COLOCACIÓN DE AISLAMIENTOS FÓNICOS, TÉRMICOS Y ACÚSTICOS DE CUALQUIER CLASE Y PARA CUALQUIER TIPO DE OBRAS, IMPERMEABILIZACIÓN EN TODO TIPO DE EDIFICIOS Y CONSTRUCCIONES POR CUALQUIER PROCEDIMIENTO, CARPINTERÍA Y CERRAJERÍA, PINTURA DE CUALQUIER TIPO Y CLASE Y REVESTIMIENTOS CON PAPEL, TEJIDOS O PLÁSTICOS Y TERMINACIÓN Y DECORACIÓN DE EDIFICIOS Y LOCALES, TRABAJOS EN YESO Y ESCAYOLA Y DECORACIÓN DE EDIFICIOS Y LOCALES; INSTALACIÓN DE ANDAMIOS, CIMBRAS, ENCOFRADOS, ETC., INCLUSO PARA USOS DISTINTOS DE LA CONSTRUCCIÓN; CONSTRUCCIÓN, REPARACIÓN Y CONSERVACIÓN DE TODO TIPO DE OBRAS.",
      "mainEntityOfPage": "https://www.contratacion.euskadi.eus/webkpe00-kperoc/es/ac71aBusquedaRegistrosWar/empresa/08961",
      "_links": {
        "self": {
          "name": "VASILE REFORMAS-BERRIKUNTZAK, S.L.",
          "href": "https://api.euskadi.eus/procurements/companies/08961"
        }
      }
    }
  ]
}