{
  "totalItems": 9042,
  "totalPages": 905,
  "currentPage": 559,
  "itemsOfPage": 10,
  "items": [
    {
      "name": "CRISTIAN VASILE VIDA",
      "registrationNumber": "07277",
      "identificationNumber": "X5203103C",
      "address": "Carretera Segocvia, Nº9, 1ºD",
      "location": {
        "postalCode": "40400",
        "municipality": "Espinar, El",
        "county": "Segovia",
        "municipalityId": "076",
        "countyId": "40"
      },
      "economicActivities": [
        {
          "id": "1.721.2",
          "name": "Transporte por autotaxis",
          "_links": {
            "self": {
              "name": "Transporte por autotaxis",
              "href": "https://api.euskadi.eus/procurements/companies/economic-activities/1.721.2"
            }
          }
        },
        {
          "id": "1.722",
          "name": "Transporte de mercancías por carretera",
          "_links": {
            "self": {
              "name": "Transporte de mercancías por carretera",
              "href": "https://api.euskadi.eus/procurements/companies/economic-activities/1.722"
            }
          }
        },
        {
          "id": "1.911",
          "name": "Servicios agrícolas y ganaderos",
          "_links": {
            "self": {
              "name": "Servicios agrícolas y ganaderos",
              "href": "https://api.euskadi.eus/procurements/companies/economic-activities/1.911"
            }
          }
        },
        {
          "id": "2.811",
          "name": "Profesionales que prestan servicios de limpieza",
          "_links": {
            "self": {
              "name": "Profesionales que prestan servicios de limpieza",
              "href": "https://api.euskadi.eus/procurements/companies/economic-activities/2.811"
            }
          }
        }
      ],
      "certificateStartDate": "2020-10-05",
      "certificateEndDate": "2021-02-28",
      "object": "EL TRANSPORTE DE MERCANCÍAS POR CARRETERA, EL TRANSPORTE POR AUTOTAXI, LOS SERVICIOS DE LIMPIEZA Y LOS SERVICIOS AGRÍCOLAS Y GANADEROS",
      "mainEntityOfPage": "https://www.contratacion.euskadi.eus/webkpe00-kperoc/es/ac71aBusquedaRegistrosWar/empresa/07277",
      "_links": {
        "self": {
          "name": "CRISTIAN VASILE VIDA",
          "href": "https://api.euskadi.eus/procurements/companies/07277"
        }
      }
    },
    {
      "name": "SERVISOLUTIONS, S.L.",
      "registrationNumber": "07274",
      "identificationNumber": "B50935683",
      "address": "C/ RUBEN DARIO 3, 2º - 2ª",
      "location": {
        "postalCode": "50012",
        "municipality": "Zaragoza",
        "county": "Zaragoza",
        "municipalityId": "297",
        "countyId": "50"
      },
      "economicActivities": [
        {
          "id": "1.619.9",
          "name": "Venta al por mayor de otros productos n.c.o.p",
          "_links": {
            "self": {
              "name": "Venta al por mayor de otros productos n.c.o.p",
              "href": "https://api.euskadi.eus/procurements/companies/economic-activities/1.619.9"
            }
          }
        },
        {
          "id": "1.691.9",
          "name": "Reparación de otros bienes de consumo n.c.o.p",
          "_links": {
            "self": {
              "name": "Reparación de otros bienes de consumo n.c.o.p",
              "href": "https://api.euskadi.eus/procurements/companies/economic-activities/1.691.9"
            }
          }
        }
      ],
      "certificateStartDate": "2020-10-02",
      "certificateEndDate": "2021-03-02",
      "object": "-LA CONSTRUCCIÓN, INSTALACIÓN Y REPARACIÓN DE MÁQUINAS DE OFICINA Y ORDENADORES. ASÍ COMO LA FABRICACIÓN DE EQUIPO, PIEZAS Y ACCESORIOS PARA ESTAS MÁQUINAS. -EL COMERCIO AL POR MENOR DE MUEBLES, MÁQUINAS Y EQUIPOS DE OFICINA Y ORDENADORES. -EL COMERCIO AL POR MENOR DE SOFTWARE, TANTO REALIZADO A LA MEDIDA, COMO ESTÁNDAR",
      "mainEntityOfPage": "https://www.contratacion.euskadi.eus/webkpe00-kperoc/es/ac71aBusquedaRegistrosWar/empresa/07274",
      "_links": {
        "self": {
          "name": "SERVISOLUTIONS, S.L.",
          "href": "https://api.euskadi.eus/procurements/companies/07274"
        }
      }
    },
    {
      "name": "ITZAMNA AKADEMIA, S.L.",
      "registrationNumber": "07266",
      "identificationNumber": "B75229385",
      "address": "Urkizu pasealekua 19, 5.ezk",
      "location": {
        "postalCode": "20600",
        "municipality": "Eibar",
        "county": "Gipuzkoa",
        "municipalityId": "030",
        "countyId": "20"
      },
      "economicActivities": [
        {
          "id": "1.933.9",
          "name": "Otras actividades de enseñanza tales como idiomas, mecanografía",
          "_links": {
            "self": {
              "name": "Otras actividades de enseñanza tales como idiomas, mecanografía",
              "href": "https://api.euskadi.eus/procurements/companies/economic-activities/1.933.9"
            }
          }
        }
      ],
      "certificateStartDate": "2020-09-30",
      "certificateEndDate": "2020-11-25",
      "object": "LA PRESTACIÓN DE SERVICIOS DE CLASES PARTICULARES DE EDUCACIÓN GENERAL BÁSICA, BACHILLERATO, FORMACIÓN PROFESIONAL Y ORIENTACIÓN UNIVERSITARIA",
      "mainEntityOfPage": "https://www.contratacion.euskadi.eus/webkpe00-kperoc/es/ac71aBusquedaRegistrosWar/empresa/07266",
      "_links": {
        "self": {
          "name": "ITZAMNA AKADEMIA, S.L.",
          "href": "https://api.euskadi.eus/procurements/companies/07266"
        }
      }
    },
    {
      "name": "JASCO ANALÍTICA SPAIN, S.L.",
      "registrationNumber": "07269",
      "identificationNumber": "B82043795",
      "address": "C/ Rafael Bergamín 16 B",
      "location": {
        "postalCode": "28043",
        "municipality": "Madrid",
        "county": "Madrid",
        "municipalityId": "079",
        "countyId": "28"
      },
      "economicActivities": [
        {
          "id": "1.659.3",
          "name": "Venta al por menor de aparatos médicos, ortopédicos, ópticos y fotográficos",
          "_links": {
            "self": {
              "name": "Venta al por menor de aparatos médicos, ortopédicos, ópticos y fotográficos",
              "href": "https://api.euskadi.eus/procurements/companies/economic-activities/1.659.3"
            }
          }
        }
      ],
      "certificateStartDate": "2020-09-30",
      "certificateEndDate": "2020-11-04",
      "object": "LA FABRICACIÓN, IMPORTACIÓN, EXPORTACIÓN Y COMERCIALIZACIÓN DE APARATOS, INSTRUMENTAL, MATERIAL Y PRODUCTOS DE LABORATORIO PARA CUALQUIER APLICACIÓN CIENTÍFICA",
      "mainEntityOfPage": "https://www.contratacion.euskadi.eus/webkpe00-kperoc/es/ac71aBusquedaRegistrosWar/empresa/07269",
      "_links": {
        "self": {
          "name": "JASCO ANALÍTICA SPAIN, S.L.",
          "href": "https://api.euskadi.eus/procurements/companies/07269"
        }
      }
    },
    {
      "name": "ALSERMAN NORTE, SOCIEDAD LIMITADA",
      "registrationNumber": "06963",
      "identificationNumber": "B01521459",
      "address": "C/ MENDARO, 14",
      "location": {
        "postalCode": "01013",
        "municipality": "Vitoria-Gasteiz",
        "county": "Araba/Álava",
        "municipalityId": "059",
        "countyId": "01"
      },
      "economicActivities": [
        {
          "id": "1.504.2",
          "name": "Instalaciones de fontanería",
          "_links": {
            "self": {
              "name": "Instalaciones de fontanería",
              "href": "https://api.euskadi.eus/procurements/companies/economic-activities/1.504.2"
            }
          }
        },
        {
          "id": "1.504.3",
          "name": "Instalaciones de frío, calor y acondicionamiento de aire",
          "_links": {
            "self": {
              "name": "Instalaciones de frío, calor y acondicionamiento de aire",
              "href": "https://api.euskadi.eus/procurements/companies/economic-activities/1.504.3"
            }
          }
        },
        {
          "id": "1.505.4",
          "name": "Colocación y aislamiento fónicos, térmicos y acústicos",
          "_links": {
            "self": {
              "name": "Colocación y aislamiento fónicos, térmicos y acústicos",
              "href": "https://api.euskadi.eus/procurements/companies/economic-activities/1.505.4"
            }
          }
        }
      ],
      "certificateStartDate": "2020-09-29",
      "certificateEndDate": "2021-03-29",
      "object": "- LA INSTALACIÓN, MANTENIMIENTO Y CONSERVACIÓN DE CANALIZACIONES Y CONDUCCIONES DE GAS, AGUA Y CALEFACCIÓN, TANTO PARA USO DOMESTICO COMO INDUSTRIAL, ASÍ COMO LA COMPRAVENTA DE TODA CLASE DE ARTÍCULOS Y ACCESORIOS NECESARIOS PARA EL EJERCICIO DE LA ACTIVIDAD. - LA REFORMA Y REHABILITACIÓN DE TODA CLASE DE FINCAS URBANAS, INCLUYENDO EL AISLAMIENTO TÉRMICO Y ACÚSTICO DE LAS MISMAS. - EL ESTUDIO, CONSTRUCCIÓN, COMPRAVENTA, INSTALACIÓN Y MANTENIMIENTO DE TODA CLASE DE MECANISMOS DE EFICIENCIA ENERGÉTICA Y DE INSTALACIONES TÉRMICAS PARA OBRAS Y EDIFICIOS.",
      "mainEntityOfPage": "https://www.contratacion.euskadi.eus/webkpe00-kperoc/es/ac71aBusquedaRegistrosWar/empresa/06963",
      "_links": {
        "self": {
          "name": "ALSERMAN NORTE, SOCIEDAD LIMITADA",
          "href": "https://api.euskadi.eus/procurements/companies/06963"
        }
      }
    },
    {
      "name": "IPARVENDING CENTRO ESPECIAL DE EMPLEO, S.L.",
      "registrationNumber": "06964",
      "identificationNumber": "B87650842",
      "address": "Calle Eduardo Torroja, 35",
      "location": {
        "postalCode": "28914",
        "municipality": "Leganés",
        "county": "Madrid",
        "municipalityId": "074",
        "countyId": "28"
      },
      "economicActivities": [
        {
          "id": "1.647.52",
          "name": "Venta de productos alimenticios en máquina, propietario máquina",
          "_links": {
            "self": {
              "name": "Venta de productos alimenticios en máquina, propietario máquina",
              "href": "https://api.euskadi.eus/procurements/companies/economic-activities/1.647.52"
            }
          }
        },
        {
          "id": "1.699",
          "name": "Otras reparaciones n.c.o.p",
          "_links": {
            "self": {
              "name": "Otras reparaciones n.c.o.p",
              "href": "https://api.euskadi.eus/procurements/companies/economic-activities/1.699"
            }
          }
        },
        {
          "id": "1.754.1",
          "name": "Depósitos y almacenes generales",
          "_links": {
            "self": {
              "name": "Depósitos y almacenes generales",
              "href": "https://api.euskadi.eus/procurements/companies/economic-activities/1.754.1"
            }
          }
        }
      ],
      "certificateStartDate": "2020-09-29",
      "certificateEndDate": "2021-03-29",
      "object": "1º. LA GESTIÓN Y EJECUCIÓN DE CENTROS ESPECIALIZADOS DE EMPLEO U OTRAS ENTIDADES QUE PUDIERAN CREARSE EN UN FUTURO COMO FORMA IDÓNEA PARA REALIZAR UNA ACTIVIDAD PRODUCTIVA DE BIENES O DE SERVICIOS, TENIENDO COMO FINALIDAD ASEGURAR UN EMPLEO REMUNERADO PARA LAS PERSONAS CON DISCAPACIDAD Y COMO MEDIO DE INCLUSIÓN DE ESTAS PERSONAS EN EL RÉGIMEN DE EMPLEO ORDINARIO. 2º PRESTAR LOS SERVICIOS DE AJUSTE PERSONAL Y SOCIAL QUE REQUIERAN LAS PERSONAS TRABAJADORAS CON DISCAPACIDAD Y FACILITAR SU PLENA INTEGRACIÓN EN SU PUESTO DE TRABAJO, FOMENTANDO SU AUTONOMÍA PERSONAL Y SOOCIAL. 3º. ASESORAMIENTO, ORIENTACIÓN, INFORMACIÓN Y ACOMPAÑAMIENTO A LAS PERSONAS CON DISCAPACIDAD PARA MEJORAR SU BIENESTAR SOCIAL Y PROFESIONAL, MEJORANDO SU CALIDAD DE VIDA. 4º. LA EXPLOTACIÓN DE MÁQUINAS AUTOMÁTICAS DE BEBIDAS Y PRODUCTOS DE ALIMENTACIÓN, Y LA COMPRA Y VENTA DE LOS PRODUCTOS DE ALIMENTACIÓN, Y LA COMPRA Y VENTA DE LOS PRODUCTOS DISPENSADOS POR LAS CITADAS MÁQUINAS. COMPRA Y VENTA DE MÁQUINAS AUTOMÁTICAS DE BEBIDAS Y PRODUCTOS DE ALIMENTACIÓN. 5º. LA DISTRIBUCIÓN, SUMINISTRO Y REPOSICIÓN DE TODO TIPO DE PRODUCTOS ALIMENTICIOS Y BEBIDAS A TRAVÉS DE MÁQUINAS EXPENDEDORAS TIPO VENDING EN ESTABLECIMIENTOS Y LOCALES, ASÍ COMO LA ACTIVIDAD DE LOGÍSTICA Y TRANSPORTE DE LOS MISMOS. 6º. LIMPIEZA, RECAUDACIÓN Y REPOSICIÓN DE LAS MÁQUINAS VENDING REVISANDO LA FUNCIONALIDAD DE LAS MÁQUINAS. RESOLUCIÓN DE INCIDENCIAS TÉCNICAS RELATIVAS A LA REPOSICIÓN Y LIMPIEZA Y EMISIÓN DE LOS CORRESPONDIENTES INFORMES DE INCIDENCIAS. 7º. SERVICIOS ADMINISTRATIVOS, DE CARÁCTER GENERAL, SERVICIOS ADMINISTRATIVOS DE CONTEO DE MONEDA PARA LAS MÁQUINAS EXPENDEDORAS TIPO VENDING EN ESTABLECIMIENTOS Y LOCALES. 8º. REPARACIÓN, RESTAURACIÓN, CONSERVACIÓN Y MANTENIMIENTO DE APARATOS ELÉCTRICOS, MECÁNICOS Y BIENES DE CONSUMO CUALQUIERA QUE SEA SU NATURALEZA, ASÍ COMO DE TODO TIPO DE MAQUINARIA INDUSTRIAL, Y MÁQUINAS VENDING. 9º. SERVICIOS DE COMERCIALIZACIÓN, DISTRIBUCIÓN Y SUMINISTRO DE AGUA, EN PERFECTAS CONDICIONES DE SALUBRIDAD Y PUREZA, A EMPRESAS, INDUSTRIAS, OFICINAS Y VIVIENDAS, ASÍ COMO SU TRATAMIENTO Y CONSERVACIÓN. LA COMERCIALIZACIÓN, INSTALACIÓN Y MANTENIMIENTO DE LOS EQUIPOS Y ACCESORIOS NECESARIOS PARA TAL FIN. 10º. DESARROLLO DE ACTIVIDADES DE TELEMARKETING, MARKETING TELEFÓNICO, SOPORTE TÉCNICO Y COMERCIAL, CAPTACIÓN DE CLIENTES, ADMINISTRACIÓN EN REMOTO Y GESTIÓN DOCUMENTAL. LABORES DE CAPTACIÓN DE CLIENTES, SERVICIOS PRE-VENTA Y ATENCIÓN TELEFÓNICA PARA AVERÍAS. 11º. SERVICIO DE MARKETING, TELEMARKETING, TELEVENTA Y OTRAS FORMAS DE VENTA DE ARTÍCULOS O SERVICIOS Y REALIZACIÓN DE ESTUDIOS DE MERCADO. 12º. RECEPCIÓN, ALMACENAMIENTO Y MOVIMIENTO DENTRO DE UN MISMO ALMACÉN DE MATERIAS PRIMAS, ASÍ COMO EL TRATAMIENTO E INFORMACIÓN DE LOS DATOS GENERADOS. SUMINISTRO CONTINUO DE LOS MATERIALES DENTRO DEL PROPIO ALMACÉN. 13º. CONTROL Y VERIFICACIÓN PERIÓDICA DEL INVENTARIO, ASÍ COMO LA VALIDACIÓN DE LAS ÓRDENES DE COMPRA. SUPERVISIÓN, CONTEO DE LA MERCANCÍA Y EMISIÓN DE INFORMES PERIÓDICOS. 14º. MANIPULACIÓN Y ALMACENAMIENTO DE MERCANCÍAS POR MEDIO DE TRANSPALETAS, APILADORES Y CARRETILLAS, Y CARGA EN LOS MEDIOS DE TRNSPORTE DE LA SOCIEDAD PARA SU DISTRIBUCIÓN. 15º. LA ACTIVIDAD DE LOGÍSTICA, ALMACENAMIENTO, DISTRIBUCIÓN DE PRODUCTOS ALIMENTICIOS DENTRO DEL ALMACÉN. 16º. LA RECOGIDA, MANIPULACIÓN, TRNSPORTE, REPARTO, DISTRIBUCIÓN, CUSTODIA Y ENTREGA DE TODA CLASE DE PAQUETES, DOCUMENTOS, CATÁLOGOS, PROPAGANDA Y MERCANCÍAS, YA SEA POR CUENTA PROPIA O AJENA. 17º. LA PRESTACIÓN DE SERVICIOS DE FORMACIÓN PROFESIONAL Y CONTINUA DE LAS PERSONAS QUE PRESTEN CUALQUIERA DE LOS SERVICIOS DESCRITOS ANTERIORMENTE; DESARROLLO DE PLANES DE SELECCIÓN Y FORMACIÓN PARA OTRAS ENTIDADES. EL CÓDIGO CNAE DE LA ACTIVIDAD PRINCIPAL ES:4799",
      "mainEntityOfPage": "https://www.contratacion.euskadi.eus/webkpe00-kperoc/es/ac71aBusquedaRegistrosWar/empresa/06964",
      "_links": {
        "self": {
          "name": "IPARVENDING CENTRO ESPECIAL DE EMPLEO, S.L.",
          "href": "https://api.euskadi.eus/procurements/companies/06964"
        }
      }
    },
    {
      "name": "URBINA GARDEN, S.L.",
      "registrationNumber": "07263",
      "identificationNumber": "B01301696",
      "address": "URBINA 46",
      "location": {
        "postalCode": "01510",
        "municipality": "Legutio",
        "county": "Araba/Álava",
        "municipalityId": "058",
        "countyId": "01"
      },
      "economicActivities": [
        {
          "id": "1.911",
          "name": "Servicios agrícolas y ganaderos",
          "_links": {
            "self": {
              "name": "Servicios agrícolas y ganaderos",
              "href": "https://api.euskadi.eus/procurements/companies/economic-activities/1.911"
            }
          }
        }
      ],
      "certificateStartDate": "2020-09-28",
      "certificateEndDate": "2020-12-24",
      "object": "LA PRODUCCIÓN, DISTRIBUCIÓN Y VENTA DE PLANTAS ORNAMENTALES, JARDINERÍA Y COMPLEMENTOS Y ACTIVIDADES RELATIVAS O SIMILARES",
      "mainEntityOfPage": "https://www.contratacion.euskadi.eus/webkpe00-kperoc/es/ac71aBusquedaRegistrosWar/empresa/07263",
      "_links": {
        "self": {
          "name": "URBINA GARDEN, S.L.",
          "href": "https://api.euskadi.eus/procurements/companies/07263"
        }
      }
    },
    {
      "name": "ONKIDE AUTOMATISMOS, S.L.",
      "registrationNumber": "02244",
      "identificationNumber": "B48422646",
      "address": "P.A. E UDONDO Edificio C. Pabellón 7 AUTONOMÍA Etorbidea, 2",
      "location": {
        "postalCode": "48940",
        "municipality": "Leioa",
        "county": "Bizkaia",
        "municipalityId": "054",
        "countyId": "48"
      },
      "economicActivities": [
        {
          "id": "1.504.1",
          "name": "Instalaciones eléctricas en general",
          "_links": {
            "self": {
              "name": "Instalaciones eléctricas en general",
              "href": "https://api.euskadi.eus/procurements/companies/economic-activities/1.504.1"
            }
          }
        },
        {
          "id": "1.504.12",
          "name": "Instalaciones eléctricas en toda clase de edificios",
          "_links": {
            "self": {
              "name": "Instalaciones eléctricas en toda clase de edificios",
              "href": "https://api.euskadi.eus/procurements/companies/economic-activities/1.504.12"
            }
          }
        }
      ],
      "certificateStartDate": "2020-09-27",
      "certificateEndDate": "2021-03-26",
      "object": "INSTALACIONES ELECTRICAS EN GENERAL, EXCEPTO EN EL RAMO DE LA CONSTRUCCIÓN ",
      "mainEntityOfPage": "https://www.contratacion.euskadi.eus/webkpe00-kperoc/es/ac71aBusquedaRegistrosWar/empresa/02244",
      "_links": {
        "self": {
          "name": "ONKIDE AUTOMATISMOS, S.L.",
          "href": "https://api.euskadi.eus/procurements/companies/02244"
        }
      }
    },
    {
      "name": "BERRIZARKITEKTOAK ARKITEKTURA ETA HIRIGINTZA, S.L.PROFESIONAL",
      "registrationNumber": "06250",
      "identificationNumber": "B95748638",
      "address": "learreta markina kalea 24, behea",
      "location": {
        "postalCode": "48240",
        "municipality": "Berriz",
        "county": "Bizkaia",
        "municipalityId": "019",
        "countyId": "48"
      },
      "economicActivities": [
        {
          "id": "1.843.2",
          "name": "Servicios técnicos de arquitectura y urbanismo",
          "_links": {
            "self": {
              "name": "Servicios técnicos de arquitectura y urbanismo",
              "href": "https://api.euskadi.eus/procurements/companies/economic-activities/1.843.2"
            }
          }
        }
      ],
      "certificateStartDate": "2020-09-24",
      "certificateEndDate": "2021-03-23",
      "object": "LA ACTIVIDAD PROPIA DE LOS PROFESIONALES DE LA ARQUITECTURA",
      "mainEntityOfPage": "https://www.contratacion.euskadi.eus/webkpe00-kperoc/es/ac71aBusquedaRegistrosWar/empresa/06250",
      "_links": {
        "self": {
          "name": "BERRIZARKITEKTOAK ARKITEKTURA ETA HIRIGINTZA, S.L.PROFESIONAL",
          "href": "https://api.euskadi.eus/procurements/companies/06250"
        }
      }
    },
    {
      "name": "CONSTRUCCIONES ILLUNZAR, S.L.",
      "registrationNumber": "05449",
      "identificationNumber": "B95621421",
      "address": "ANDRA MARI, 4-BAJO",
      "location": {
        "postalCode": "48300",
        "municipality": "Gernika-Lumo",
        "county": "Bizkaia",
        "municipalityId": "046",
        "countyId": "48"
      },
      "economicActivities": [
        {
          "id": "1.501.1",
          "name": "Construcción completa, reparación y conservación de edificaciones",
          "_links": {
            "self": {
              "name": "Construcción completa, reparación y conservación de edificaciones",
              "href": "https://api.euskadi.eus/procurements/companies/economic-activities/1.501.1"
            }
          }
        },
        {
          "id": "1.507",
          "name": "Construcción, reparación y conservación de toda clase obras",
          "_links": {
            "self": {
              "name": "Construcción, reparación y conservación de toda clase obras",
              "href": "https://api.euskadi.eus/procurements/companies/economic-activities/1.507"
            }
          }
        }
      ],
      "certificateStartDate": "2020-09-23",
      "certificateEndDate": "2021-03-20",
      "object": "a) LA PROMOCIÓN, CONSTRUCCIÓN, COMPRAVENTA, ALQUILER, REALQUILER, PARCELACIÓN Y URBANIZACIÓN DE SOLARES, TERRENOS Y FINCAS, DE CUALQUIER NATURALEZA, PUDIENDO PROCEDER A LA EDIFICACIÓN DE LAS MISMAS Y A SU ENAJENACIÓN ÍNTEGRA O PARCIALMENTE O EN RÉGIMEN DE PROPIEDAD HORIZONTAL. b) LA ADQUISICIÓN POR CUALQUIER TÍTULO DE FINCAS RÚSTICAS O URBANAS, LA CONSTRUCCIÓN DE ÉSTAS  Y LA ADMINISTRACIÓN, TENENCIA, EXPLOTACIÓN Y ARRENDAMIENTO DE TALES BIENES Y  SU VENTA  TOTAL O PARCIAL, SEGÚN CONVENGA PARA SU APROVECHAMIENTO AGRÍCOLA, FORESTAL, URBANO INDUSTRIAL O CUALQUIER OTRO",
      "mainEntityOfPage": "https://www.contratacion.euskadi.eus/webkpe00-kperoc/es/ac71aBusquedaRegistrosWar/empresa/05449",
      "_links": {
        "self": {
          "name": "CONSTRUCCIONES ILLUNZAR, S.L.",
          "href": "https://api.euskadi.eus/procurements/companies/05449"
        }
      }
    }
  ]
}