{
  "totalItems": 9042,
  "totalPages": 905,
  "currentPage": 502,
  "itemsOfPage": 10,
  "items": [
    {
      "name": "ADSMURAI, S.L.",
      "registrationNumber": "08368",
      "identificationNumber": "B66216482",
      "address": "PASSEIG DE GRACIA 60, 4PLANTA",
      "location": {
        "postalCode": "08007",
        "municipality": "Barcelona",
        "county": "Barcelona",
        "municipalityId": "019",
        "countyId": "08"
      },
      "economicActivities": [
        {
          "id": "1.999",
          "name": "Otros servicios n.c.o.p",
          "_links": {
            "self": {
              "name": "Otros servicios n.c.o.p",
              "href": "https://api.euskadi.eus/procurements/companies/economic-activities/1.999"
            }
          }
        }
      ],
      "certificateStartDate": "2022-05-16",
      "certificateEndDate": "2022-11-16",
      "object": "1. COMERCIO AL POR MAYOR Y AL POR MENOR. DISTRIBUCIÓN COMERCIAL. IMPORTACIÓN Y EXPORTACIÓN. 2. PRESTACIÓN DE SERVICIOS. ACTIVIDADES DE GESTIÓN Y ADMINISTRACIÓN. SERVICIOS EDUCATIVOS, SANITARIOS, DE OCIO Y ENTRETENIMIENTO. 3. INFORMACIÓN Y COMUNICACIONES. 4. INVESTIGACIÓN, DESARROLLO E INNOVACIÓN.",
      "mainEntityOfPage": "https://www.contratacion.euskadi.eus/webkpe00-kperoc/es/ac71aBusquedaRegistrosWar/empresa/08368",
      "_links": {
        "self": {
          "name": "ADSMURAI, S.L.",
          "href": "https://api.euskadi.eus/procurements/companies/08368"
        }
      }
    },
    {
      "name": "IRANTZU  PERELLO LAFUENTE",
      "registrationNumber": "07893",
      "identificationNumber": "16066359P",
      "address": "Calle Akilino Arriola, 59 Loc.Izq.",
      "location": {
        "postalCode": "48600",
        "municipality": "Sopela",
        "county": "Bizkaia",
        "municipalityId": "085",
        "countyId": "48"
      },
      "economicActivities": [
        {
          "id": "1.861.2",
          "name": "Alquiler de locales industriales y otros alquileres n.c.o.p",
          "_links": {
            "self": {
              "name": "Alquiler de locales industriales y otros alquileres n.c.o.p",
              "href": "https://api.euskadi.eus/procurements/companies/economic-activities/1.861.2"
            }
          }
        },
        {
          "id": "2.731",
          "name": "Abogados",
          "_links": {
            "self": {
              "name": "Abogados",
              "href": "https://api.euskadi.eus/procurements/companies/economic-activities/2.731"
            }
          }
        }
      ],
      "certificateStartDate": "2022-05-11",
      "certificateEndDate": "2022-06-14",
      "object": "ABOGADOS. ALQUILER DE LOCALES INDUSTRIALES Y OTROS ALQUILERES N.C.O.P.",
      "mainEntityOfPage": "https://www.contratacion.euskadi.eus/webkpe00-kperoc/es/ac71aBusquedaRegistrosWar/empresa/07893",
      "_links": {
        "self": {
          "name": "IRANTZU  PERELLO LAFUENTE",
          "href": "https://api.euskadi.eus/procurements/companies/07893"
        }
      }
    },
    {
      "name": "RICARDO JAVIER GUTIERREZ GARRAMIOLA",
      "registrationNumber": "04363",
      "identificationNumber": "30637791C",
      "address": "calle Prim nº 43, 9º izquierda. ",
      "location": {
        "postalCode": "48006",
        "municipality": "Bilbao",
        "county": "Bizkaia",
        "municipalityId": "020",
        "countyId": "48"
      },
      "economicActivities": [
        {
          "id": "1.912",
          "name": "Servicios forestales",
          "_links": {
            "self": {
              "name": "Servicios forestales",
              "href": "https://api.euskadi.eus/procurements/companies/economic-activities/1.912"
            }
          }
        },
        {
          "id": "1.921.1",
          "name": "Servicios de limpieza en calles, vías públicas y jardines",
          "_links": {
            "self": {
              "name": "Servicios de limpieza en calles, vías públicas y jardines",
              "href": "https://api.euskadi.eus/procurements/companies/economic-activities/1.921.1"
            }
          }
        },
        {
          "id": "1.922.1",
          "name": "Servicios de limpieza de interiores",
          "_links": {
            "self": {
              "name": "Servicios de limpieza de interiores",
              "href": "https://api.euskadi.eus/procurements/companies/economic-activities/1.922.1"
            }
          }
        }
      ],
      "certificateStartDate": "2022-05-10",
      "certificateEndDate": "2022-11-10",
      "object": "SERVICIOS GENERALES DE LIMPIEZA",
      "mainEntityOfPage": "https://www.contratacion.euskadi.eus/webkpe00-kperoc/es/ac71aBusquedaRegistrosWar/empresa/04363",
      "_links": {
        "self": {
          "name": "RICARDO JAVIER GUTIERREZ GARRAMIOLA",
          "href": "https://api.euskadi.eus/procurements/companies/04363"
        }
      }
    },
    {
      "name": "BE-SURFER, S.L.",
      "registrationNumber": "08350",
      "identificationNumber": "B67994673",
      "address": "Calle Solondota 7 A primero izquierda",
      "location": {
        "postalCode": "48600",
        "municipality": "Sopela",
        "county": "Bizkaia",
        "municipalityId": "085",
        "countyId": "48"
      },
      "economicActivities": [
        {
          "id": "1.967.2",
          "name": "Escuelas y servicios de perfeccionamiento del deporte",
          "_links": {
            "self": {
              "name": "Escuelas y servicios de perfeccionamiento del deporte",
              "href": "https://api.euskadi.eus/procurements/companies/economic-activities/1.967.2"
            }
          }
        }
      ],
      "certificateStartDate": "2022-05-10",
      "certificateEndDate": "2022-11-10",
      "object": "LA PRESTACIÓN DE SERVICIOS RELACIONADOS CON EL DEPORTE EN ESPECIAL EL SURF, TALES COMO CLASES DE FORMACIÓN, ENTRENAMIENTO Y PERFECCIONAMIENTO, ASÍ COMO EL ALQUILER, COMPRA Y VENTA DE MATERIAL DEPORTIVO. LA FORMACIÓN ESPECIALIZADA DE MONITORES DE SURF. ORGANIZACIÓN DE ACTIVIDADES, VIAJES Y EVENTOS RELACIONADOS CON EL SURF. ORGANIZACIÓN DE HOSPEDAJE: HOTEL, SURF CAMP Y HOSTAL.",
      "mainEntityOfPage": "https://www.contratacion.euskadi.eus/webkpe00-kperoc/es/ac71aBusquedaRegistrosWar/empresa/08350",
      "_links": {
        "self": {
          "name": "BE-SURFER, S.L.",
          "href": "https://api.euskadi.eus/procurements/companies/08350"
        }
      }
    },
    {
      "name": "DEKER BUSINESS CONSULTING, S.L.",
      "registrationNumber": "06957",
      "identificationNumber": "B01483338",
      "address": "C/ BARCELONA 18 4º Izda",
      "location": {
        "postalCode": "01010",
        "municipality": "Vitoria-Gasteiz",
        "county": "Araba/Álava",
        "municipalityId": "059",
        "countyId": "01"
      },
      "economicActivities": [
        {
          "id": "1.847",
          "name": "Servicios de consultoría",
          "_links": {
            "self": {
              "name": "Servicios de consultoría",
              "href": "https://api.euskadi.eus/procurements/companies/economic-activities/1.847"
            }
          }
        }
      ],
      "certificateStartDate": "2022-05-10",
      "certificateEndDate": "2022-11-09",
      "object": "REALIZAR LA PRESTACIÓN DE SERVICIOS DE CONSULTORÍA Y ASESORAMIENTO PARA LA DIRECCIÓN DE EMPRESAS INCLUYENDO: INVESTIGACIÓN DE MERCADOS, GESTIÓN DE INFORMACIÓN A TRAVÉS DE BASES DE DATOS, ESTRATEGIA DE NEGOCIO, ASESORAMIENTO COMERCIAL, PUBLICIDAD Y APOYO EN PROYECTOS DE INTERNACIONALIZACIÓN",
      "mainEntityOfPage": "https://www.contratacion.euskadi.eus/webkpe00-kperoc/es/ac71aBusquedaRegistrosWar/empresa/06957",
      "_links": {
        "self": {
          "name": "DEKER BUSINESS CONSULTING, S.L.",
          "href": "https://api.euskadi.eus/procurements/companies/06957"
        }
      }
    },
    {
      "name": "LARA NORTE, S.A.",
      "registrationNumber": "08348",
      "identificationNumber": "A48790448",
      "address": "POLIGONO INDUSTRIAL UGALDEGUREN I, AVDA RIO ASUA P4V Nº3",
      "location": {
        "postalCode": "48170",
        "municipality": "Zamudio",
        "county": "Bizkaia",
        "municipalityId": "905",
        "countyId": "48"
      },
      "economicActivities": [
        {
          "id": "1.619.4",
          "name": "Venta al por mayor de productos de papel y cartón",
          "_links": {
            "self": {
              "name": "Venta al por mayor de productos de papel y cartón",
              "href": "https://api.euskadi.eus/procurements/companies/economic-activities/1.619.4"
            }
          }
        }
      ],
      "certificateStartDate": "2022-05-10",
      "certificateEndDate": "2022-11-10",
      "object": "LA VENTA DE TODA CLASE DE PAPELES, IMPRESOS, ETIQUETAS Y CINTAS AUTO-ADHESIVAS O NO, Y DEMÁS COMPLEMENTOS DE OBJETOS Y ARTÍCULOS DE PAPELERÍA Y ESCRITORIO, DE ENVASE, EMBALAJE Y PUBLICIDAD, SEAN DE MATERIAL SINTÉTICO O MAQUINARIA ADECUADA A TALES FINES, PUDIENDO A DICHO OBJETO, REALIZAR TODA CLASE DE OPERACIONES PATRIMONIALES, FINANCIERAS, INDUSTRIALES Y COMERCIALES, CON IMPORTACIONES Y EXPORTACIONES.",
      "mainEntityOfPage": "https://www.contratacion.euskadi.eus/webkpe00-kperoc/es/ac71aBusquedaRegistrosWar/empresa/08348",
      "_links": {
        "self": {
          "name": "LARA NORTE, S.A.",
          "href": "https://api.euskadi.eus/procurements/companies/08348"
        }
      }
    },
    {
      "name": "BORJA DIEZ URTEAGA",
      "registrationNumber": "06818",
      "identificationNumber": "78909046W",
      "address": "MARIA VICTORIA URIBE LASO BAJO 4",
      "location": {
        "postalCode": "48012",
        "municipality": "Bilbao",
        "county": "Bizkaia",
        "municipalityId": "020",
        "countyId": "48"
      },
      "economicActivities": [
        {
          "id": "1.504.12",
          "name": "Instalaciones eléctricas en toda clase de edificios",
          "_links": {
            "self": {
              "name": "Instalaciones eléctricas en toda clase de edificios",
              "href": "https://api.euskadi.eus/procurements/companies/economic-activities/1.504.12"
            }
          }
        },
        {
          "id": "2.321",
          "name": "Ingenieros técnicos industriales y textiles, ayudantes",
          "_links": {
            "self": {
              "name": "Ingenieros técnicos industriales y textiles, ayudantes",
              "href": "https://api.euskadi.eus/procurements/companies/economic-activities/2.321"
            }
          }
        }
      ],
      "certificateStartDate": "2022-05-09",
      "certificateEndDate": "2022-11-09",
      "object": "INSTALACIONES ELÉCTRICAS EN TODA CLASE DE EDIFICIOS",
      "mainEntityOfPage": "https://www.contratacion.euskadi.eus/webkpe00-kperoc/es/ac71aBusquedaRegistrosWar/empresa/06818",
      "_links": {
        "self": {
          "name": "BORJA DIEZ URTEAGA",
          "href": "https://api.euskadi.eus/procurements/companies/06818"
        }
      }
    },
    {
      "name": "ACTIVIDADES Y EXPLOTACION DEL NORTE, S.L.",
      "registrationNumber": "07312",
      "identificationNumber": "B95536801",
      "address": "general eraso, nº 1-3ºPlanta pabellon 10",
      "location": {
        "postalCode": "48014",
        "municipality": "Bilbao",
        "county": "Bizkaia",
        "municipalityId": "020",
        "countyId": "48"
      },
      "economicActivities": [
        {
          "id": "1.505.1",
          "name": "Revestimientos exteriores e interiores de todas clases",
          "_links": {
            "self": {
              "name": "Revestimientos exteriores e interiores de todas clases",
              "href": "https://api.euskadi.eus/procurements/companies/economic-activities/1.505.1"
            }
          }
        }
      ],
      "certificateStartDate": "2022-05-09",
      "certificateEndDate": "2022-11-02",
      "object": "TODO TIPO DE LIMPIEZA DE VIVIENDAS, EDIFICIOS Y LOCALES DE OFICINA O INDUSTRIALES, TANTO PÚBLICOS COMO PRIVADOS, ASÍ COMO EN COMUNIDADES DE PROPIETARIOS. LA DESINFECCIÓN, DESPARASITACIÓN Y  PRESTACIÓN DE CUALQUIER TIPO DE SERVICIOS DE LIMPIEZA, EN TODO TIPO DE BIENES, YA SEAN MUEBLES E INMUEBLES, EMPLEANDO AL EFECTO LOS MEDIOS NECESARIOS PARA ELLO. LA PROMOCIÓN Y EJECUCIÓN, COMPLETA O POR RAMOS, DE TODA CLASE DE OBRAS DE CONSTRUCCIÓN, URBANIZACIÓN Y SERVICIOS, REPARACIÓN Y CONSERVACIÓN, POR CUENTA PROPIA O AJENA, DE VIVIENDAS Y LOCALES COMERCIALES O INDUSTRIALES E INCLUSO DE VIVIENDAS DE PROTECCIÓN OFICIAL. LA COMPRAVENTA Y ALQUILER DE EDIFICIOS, EN SU TOTALIDAD, POR PARTES O PISOS, BIEN DE VIVIENDAS, LOCALES INDUSTRIALES, DE OFICINAS, APARCAMIENTOS, GARAJES, CONSTRUÍDAS O NO PARA TAL FIN; PROCEDER A LA CONSTRUCCIÓN DE EDIFICACIONES EN GENERAL, BIEN DIRECTAMENTE O POR MEDIO DE SUBCONTRATISTAS O DESTAJISTAS. LA ADQUISICIÓN Y ENAJENACIÓN, POR CUALQUIER TÍTULO, DE FINCAS URBANAS Y RÚSTICAS, YA SEAN TIERRAS, SOLARES Y EDIFICIOS, Y LA ADMINISTRACIÓN, TENENCIA, EXPLOTACIÓN Y ARRENDAMIENTO, YA SEA ACTIVO O PASIVO, DE TALES BIENES Y SU VENTA TOTAL O PARCIAL, Y PROCEDER A SU APROVECHAMIENTO, URBANO, INDUSTRIAL O CUALQUIER OTRO. LA URBANIZACIÓN Y PARCELACIÓN DE TERRENOS, CONFORME A LOS PLANES DE ORDENACIÓN URBANÍSTICA, APROBADOS POR LAS AUTORIDADES COMPETENTES EN LOS POLÍGONOS Y ZONAS DE ACTUACIÓN QUE, AL EFECTO, SEAN DESIGNADOS, Y LA REPARCELACIÓN DE DICHOS TERRENOS URBANÍSTICOS Y, EN SU CASO, LA EDIFICACIÓN Y VENTA DE LOS MISMOS O DE LAS EDIFICACIONES Y OBRAS DE URBANIZACIÓN Y SERVICIOS, A CUYO EFECTO PODRÁ FORMAR PARTE DE ASOCIACIONES DE PROPIETARIOS, EMPRESAS MIXTAS Y ENTIDADES URBANÍSTICAS COLABORADORAS, QUE PUEDAN REGLAMENTARSE, A LOS EXPRESADOS FINES. TOMAR PARTE EN LOS NEGOCIOS DE OTRAS SOCIEDADES CUYO OBJETO ESTÉ RELACIONADO CON LAS ACTIVIDADES DESCRITAS EN LOS APARTADOS ANTERIORES; Y TODO ELLO MEDIANTE LA COMPRA DE ACCIONES O PARTICIPACIONES, SUSCRIPCIÓN DE OBLIGACIONES Y AMPLIACIÓN DE CAPITAL. ADQUISICIÓN, TENENCIA Y EXPLOTACIÓN DE ACCIONES Y PARTICIPACIONES SOCIALES Y DEMÁS INVERSIONES SIN INCIDIR EN ACTIVIDAD ESPECIALMENTE REGULADA",
      "mainEntityOfPage": "https://www.contratacion.euskadi.eus/webkpe00-kperoc/es/ac71aBusquedaRegistrosWar/empresa/07312",
      "_links": {
        "self": {
          "name": "ACTIVIDADES Y EXPLOTACION DEL NORTE, S.L.",
          "href": "https://api.euskadi.eus/procurements/companies/07312"
        }
      }
    },
    {
      "name": "PUNTOCOM AUDIOVISUAL, S.L.",
      "registrationNumber": "07710",
      "identificationNumber": "B95023974",
      "address": "c/ Jon Arrospide nº 11, 2º dpto 9",
      "location": {
        "postalCode": "48014",
        "municipality": "Bilbao",
        "county": "Bizkaia",
        "municipalityId": "020",
        "countyId": "48"
      },
      "economicActivities": [
        {
          "id": "1.653.2",
          "name": "Venta al por menor de material y aparatos eléctricos, electrodomésticos y cocina",
          "_links": {
            "self": {
              "name": "Venta al por menor de material y aparatos eléctricos, electrodomésticos y cocina",
              "href": "https://api.euskadi.eus/procurements/companies/economic-activities/1.653.2"
            }
          }
        },
        {
          "id": "1.859",
          "name": "Alquiler de otros bienes muebles n.c.o.p. (sin personal permanente)",
          "_links": {
            "self": {
              "name": "Alquiler de otros bienes muebles n.c.o.p. (sin personal permanente)",
              "href": "https://api.euskadi.eus/procurements/companies/economic-activities/1.859"
            }
          }
        },
        {
          "id": "1.961.1",
          "name": "Producción de películas cinematográficas (incluso vídeos)",
          "_links": {
            "self": {
              "name": "Producción de películas cinematográficas (incluso vídeos)",
              "href": "https://api.euskadi.eus/procurements/companies/economic-activities/1.961.1"
            }
          }
        },
        {
          "id": "1.989.2",
          "name": "Servicios de organización de congresos, asambleas y similares",
          "_links": {
            "self": {
              "name": "Servicios de organización de congresos, asambleas y similares",
              "href": "https://api.euskadi.eus/procurements/companies/economic-activities/1.989.2"
            }
          }
        }
      ],
      "certificateStartDate": "2022-05-08",
      "certificateEndDate": "2022-11-08",
      "object": "A) SERVICIOS AUDIOVISUALES EN GENERAL: LAS INSTALACIONES AUDIOVISUALES, PRODUCCIÓN DE EVENTOS ESPECIALES, MONTAJES ESCÉNICOS. VIDEO INDUSTRIAL, SPOTS DE PUBLICIDAD, SERVICIOS ENG. ALQUILER DE EQUIPOS AUDIOVISUALES. MULTIMEDIA. B) ADQUIRIR, ENAJENAR Y ARRENDAR BIENES INMUEBLES (CONCRETAMENTE LOS DETERMINADOS EN EL ARTÍCULO 334.1 DEL CÓDIGO CIVIL), ACCIONES PARTICIPACIONES SOCIALES, OBLIGACIONES, BONOS DE CAJA, CERTIFICADOS DE DEPÓSITO Y PAGARÉS DE TODA CLASE DE EMPRESAS O NEGOCIOS",
      "mainEntityOfPage": "https://www.contratacion.euskadi.eus/webkpe00-kperoc/es/ac71aBusquedaRegistrosWar/empresa/07710",
      "_links": {
        "self": {
          "name": "PUNTOCOM AUDIOVISUAL, S.L.",
          "href": "https://api.euskadi.eus/procurements/companies/07710"
        }
      }
    },
    {
      "name": "ALAITRANS MENSAJEROS SL",
      "registrationNumber": "04529",
      "identificationNumber": "B01343441",
      "address": "C/ AKARREGUI (PABELLONES 6 Y 7)",
      "location": {
        "postalCode": "20120",
        "municipality": "Hernani",
        "county": "Gipuzkoa",
        "municipalityId": "040",
        "countyId": "20"
      },
      "economicActivities": [
        {
          "id": "1.722",
          "name": "Transporte de mercancías por carretera",
          "_links": {
            "self": {
              "name": "Transporte de mercancías por carretera",
              "href": "https://api.euskadi.eus/procurements/companies/economic-activities/1.722"
            }
          }
        },
        {
          "id": "1.754.1",
          "name": "Depósitos y almacenes generales",
          "_links": {
            "self": {
              "name": "Depósitos y almacenes generales",
              "href": "https://api.euskadi.eus/procurements/companies/economic-activities/1.754.1"
            }
          }
        },
        {
          "id": "1.756",
          "name": "Intermediarios del transporte",
          "_links": {
            "self": {
              "name": "Intermediarios del transporte",
              "href": "https://api.euskadi.eus/procurements/companies/economic-activities/1.756"
            }
          }
        },
        {
          "id": "1.849.5",
          "name": "Servicios de recadería y reparto y manipulación de correspondencia",
          "_links": {
            "self": {
              "name": "Servicios de recadería y reparto y manipulación de correspondencia",
              "href": "https://api.euskadi.eus/procurements/companies/economic-activities/1.849.5"
            }
          }
        },
        {
          "id": "1.861.2",
          "name": "Alquiler de locales industriales y otros alquileres n.c.o.p",
          "_links": {
            "self": {
              "name": "Alquiler de locales industriales y otros alquileres n.c.o.p",
              "href": "https://api.euskadi.eus/procurements/companies/economic-activities/1.861.2"
            }
          }
        }
      ],
      "certificateStartDate": "2022-05-06",
      "certificateEndDate": "2022-10-26",
      "object": "EL DESARROLLO  DE LAS ACTIVIDADES CARACTERÍSTICAS DEL TRANSPORTE DE MERCANCÍAS, POR CUENTA PROPIA O AJENA, DE CONTRATACIÓN PÚBLICA O PRIVADA, SERVICIOS DE DISTRIBUCIÓN Y MENSAJERÍA, Y SU CONTRATACIÓN COMO ORGANIZACIÓN AUXILIAR INTERPUESTA ENTRE QUIENES UTILICEN DICHO TRANSPORTE POR CARRETERA, Y LOS CONCESIONARIOS DE SERVICIOS REGULARES PROPIETARIOS DE VEHÍCULOS AUTORIZADOS PARA LA PRESTACIÓN DE LOS DISCRECIONALES, Y AQUELLAS QUE LAS FACILITEN O COMPLEMENTEN",
      "mainEntityOfPage": "https://www.contratacion.euskadi.eus/webkpe00-kperoc/es/ac71aBusquedaRegistrosWar/empresa/04529",
      "_links": {
        "self": {
          "name": "ALAITRANS MENSAJEROS SL",
          "href": "https://api.euskadi.eus/procurements/companies/04529"
        }
      }
    }
  ]
}