{
  "totalItems": 9042,
  "totalPages": 905,
  "currentPage": 36,
  "itemsOfPage": 10,
  "items": [
    {
      "name": "CONSULTORES DE SERVICIOS VITORIA, S.L.",
      "registrationNumber": "08713",
      "identificationNumber": "B01357193",
      "address": "C/PORTAL DE FORONDA 27 BAJO",
      "location": {
        "postalCode": "01010",
        "municipality": "Vitoria-Gasteiz",
        "county": "Araba/Álava",
        "municipalityId": "059",
        "countyId": "01"
      },
      "economicActivities": [
        {
          "id": "1.842",
          "name": "Servicios financieros y contables",
          "_links": {
            "self": {
              "name": "Servicios financieros y contables",
              "href": "https://api.euskadi.eus/procurements/companies/economic-activities/1.842"
            }
          }
        }
      ],
      "certificateStartDate": "2026-01-29",
      "certificateEndDate": "2026-07-21",
      "object": "LA INTERMEDIACIÓN Y GESTIÓN DE TODO TIPO DE OPERACIONES INMOBILIARIAS. LA MEDIACIÓN DE SEGUROS PRIVADOS COMO SOCIEDAD DE AGENCIA, Y CON SOMETIMIENTO A LA LEGISLACIÓN ESPECÍFICA DE MEDIACIÓN DE SEGUROS PRIVADOS. LA PRESTACIÓN DE SERVICIOS DE ASESORÍA JURÍDICA, LABORAL, FISCAL Y CONTABLE.",
      "mainEntityOfPage": "https://www.contratacion.euskadi.eus/webkpe00-kperoc/es/ac71aBusquedaRegistrosWar/empresa/08713",
      "_links": {
        "self": {
          "name": "CONSULTORES DE SERVICIOS VITORIA, S.L.",
          "href": "https://api.euskadi.eus/procurements/companies/08713"
        }
      }
    },
    {
      "name": "HEGOAK ZABALDU, S.L.",
      "registrationNumber": "08417",
      "identificationNumber": "B95940813",
      "address": "Calle Barrenkalea (48200) 16-4",
      "location": {
        "postalCode": "48200",
        "municipality": "Durango",
        "county": "Bizkaia",
        "municipalityId": "027",
        "countyId": "48"
      },
      "economicActivities": [
        {
          "id": "1.934",
          "name": "Enseñanza fuera de establecimiento permanente",
          "_links": {
            "self": {
              "name": "Enseñanza fuera de establecimiento permanente",
              "href": "https://api.euskadi.eus/procurements/companies/economic-activities/1.934"
            }
          }
        }
      ],
      "certificateStartDate": "2026-01-29",
      "certificateEndDate": "2026-07-20",
      "object": "LA ENSEÑANZA, DOCENCIA, PROMOCIÓN EDUCATIVA, PREPARACIÓN Y FORMACIÓN EN TODAS SUS MODALIDADES , ASÍ COMO ORGANIZACIÓN E IMPARTICIÓN DE TODA CLASE DE CURSOS DE ENSEÑANZA Y FORMACIÓN EN GENERAL.",
      "mainEntityOfPage": "https://www.contratacion.euskadi.eus/webkpe00-kperoc/es/ac71aBusquedaRegistrosWar/empresa/08417",
      "_links": {
        "self": {
          "name": "HEGOAK ZABALDU, S.L.",
          "href": "https://api.euskadi.eus/procurements/companies/08417"
        }
      }
    },
    {
      "name": "CALDERERIA PASAJES, S.L.",
      "registrationNumber": "09416",
      "identificationNumber": "B20635827",
      "address": "CALLEL URUNE Nº44. PAB.3-4-5 POL. IND.103 SAGASTI",
      "location": {
        "postalCode": "20100",
        "municipality": "Lezo",
        "county": "Gipuzkoa",
        "municipalityId": "053",
        "countyId": "20"
      },
      "economicActivities": [
        {
          "id": "1.314.2",
          "name": "Fabricación de estructuras metálicas",
          "_links": {
            "self": {
              "name": "Fabricación de estructuras metálicas",
              "href": "https://api.euskadi.eus/procurements/companies/economic-activities/1.314.2"
            }
          }
        }
      ],
      "certificateStartDate": "2026-01-29",
      "certificateEndDate": "2026-07-22",
      "object": "LA EXPLOTACIÓN DE UN NEGOCIO DEDICADO A TALLER MECÁNICO Y REPARACIÓN DE BUQUES, TRABAJOS DE CALDERERÍA Y CONSTRUCCIONES MECÁNICAS.",
      "mainEntityOfPage": "https://www.contratacion.euskadi.eus/webkpe00-kperoc/es/ac71aBusquedaRegistrosWar/empresa/09416",
      "_links": {
        "self": {
          "name": "CALDERERIA PASAJES, S.L.",
          "href": "https://api.euskadi.eus/procurements/companies/09416"
        }
      }
    },
    {
      "name": "MIKEL GOTZON LARRAÑAGA ARRANZ",
      "registrationNumber": "08983",
      "identificationNumber": "15973645F",
      "address": "Txomin Agirre, 9 -2ºA",
      "location": {
        "postalCode": "20018",
        "municipality": "Donostia / San Sebastián",
        "county": "Gipuzkoa",
        "municipalityId": "069",
        "countyId": "20"
      },
      "economicActivities": [
        {
          "id": "2.023",
          "name": "Ingenieros técnicos topógrafos",
          "_links": {
            "self": {
              "name": "Ingenieros técnicos topógrafos",
              "href": "https://api.euskadi.eus/procurements/companies/economic-activities/2.023"
            }
          }
        },
        {
          "id": "2.762",
          "name": "Doctores y licenciados en informática",
          "_links": {
            "self": {
              "name": "Doctores y licenciados en informática",
              "href": "https://api.euskadi.eus/procurements/companies/economic-activities/2.762"
            }
          }
        }
      ],
      "certificateStartDate": "2026-01-29",
      "certificateEndDate": "2026-07-21",
      "object": "INGENIEROS TÉCNICOS TOPÓGRAFOS.",
      "mainEntityOfPage": "https://www.contratacion.euskadi.eus/webkpe00-kperoc/es/ac71aBusquedaRegistrosWar/empresa/08983",
      "_links": {
        "self": {
          "name": "MIKEL GOTZON LARRAÑAGA ARRANZ",
          "href": "https://api.euskadi.eus/procurements/companies/08983"
        }
      }
    },
    {
      "name": "ASOCIACION CLARETIANA PARA EL DESARROLLO HUMANO SORTARAZI",
      "registrationNumber": "08804",
      "identificationNumber": "G48852578",
      "address": "SAN FRANCISCO 12A",
      "location": {
        "postalCode": "48003",
        "municipality": "Bilbao",
        "county": "Bizkaia",
        "municipalityId": "020",
        "countyId": "48"
      },
      "economicActivities": [
        {
          "id": "1.932.1",
          "name": "Enseñanza de formación y perfeccionamiento profesional no superior",
          "_links": {
            "self": {
              "name": "Enseñanza de formación y perfeccionamiento profesional no superior",
              "href": "https://api.euskadi.eus/procurements/companies/economic-activities/1.932.1"
            }
          }
        },
        {
          "id": "1.951",
          "name": "Asistencia y servicios sociales en centros residenciales",
          "_links": {
            "self": {
              "name": "Asistencia y servicios sociales en centros residenciales",
              "href": "https://api.euskadi.eus/procurements/companies/economic-activities/1.951"
            }
          }
        },
        {
          "id": "1.952",
          "name": "Asistencia y servicios sociales en centros no residenciales",
          "_links": {
            "self": {
              "name": "Asistencia y servicios sociales en centros no residenciales",
              "href": "https://api.euskadi.eus/procurements/companies/economic-activities/1.952"
            }
          }
        }
      ],
      "certificateStartDate": "2026-01-29",
      "certificateEndDate": "2026-05-25",
      "object": "- PROMOCIÓN HUMANA DE COLECTIVOS EN SITUACIÓN DE EXCLUSIÓN. - INSERCIÓN SOCIAL Y LABORAL DE COLECTIVOS DESFAVORECIDOS. - FOMENTO Y CREACIÓN DE EMPLEO. - DESARROLLO COMUNITARIO DE ZONAS SOCIALMENTE DETERIORADAS. - POTENCIAR LA INVESTIGACIÓN, PUBLICACIÓN, DEBATES Y JORNADAS SOBRE EXCLUSIÓN SOCIAL. - LA PROMOCIÓN DE LA PAZ Y LA JUSTICIA. PARA EL CUMPLIMIENTO DE DICHOS FINES SE LLEVARÁN A CABO, PREVIO CUMPLIMIENTO DE LOS REQUISITOS LEGALES ESTABLECIDOS, LAS SIGUIENTES ACTIVIDADES: - INFORMAR Y ASESORAR SOBRE LA EXISTENCIA DE CURSILLOS, BECAS, SUBVENCIONES, PAPELEO BUROCRÁTICO, ANUNCIOS DE EMPLEO Y SERVICIOS OFERTADOS POR NUESTRO TRABAJO. - ASESORAMIENTO Y SEGUIMIENTO EN LA ELABORACIÓN Y PUESTA EN MARCHA DE PROYECTOS DE EMPLEO Y FORMACIÓN. - IMPARTICIÓN DE CURSOS DE FORMACIÓN TEÓRICO-PRÁCTICOS QUE DESEMBOQUEN EN LA CREACIÓN DE PROYECTOS DE AUTOEMPLEO Y CURSOS SOBRE ASPECTOS ESPECÍFICOS (CONTABILIDAD, MARKETING, FISCAL, …). - TALLER DE IDEAS PARA LA BÚSQUEDA Y DISEÑO DE PROYECTOS EMPRESARIALES. - ELABORACIÓN DE PROGRAMAS ESPECÍFICOS PARA LA INSERCIÓN SOCIAL Y LABORAL DE COLECTIVOS DESFAVORECIDOS. - INVESTIGACIONES SOBRE LA SITUACIÓN DE DESEMPLEO Y MERCADO LABORAL TANTO EN LA COMUNIDAD AUTÓNOMA VASCA COMO ANÁLISIS COMPARATIVOS CON OTRAS ZONAS DE LA UNIÓN EUROPEA Y AQUELLAS REFLEXIONES NECESARIAS PARA AMPLIAR LA CONCIENCIA SOCIAL EN TORNO A LA EXCLUSIÓN SOCIAL. - IMPULSAR TODAS LAS ÁREAS NECESARIAS PARA LA SUPERACIÓN DE LAS SITUACIONES DE MARGINACIÓN (DESARROLLO HUMANO, CUALIFICACIÓN PROFESIONAL, TIEMPO LIBRE, SALUD, PROBLEMÁTICAS ESPECIALES, VIVIENDA…) - GENERAR UNA RED DE TEJIDO ASOCIATIVO IMPLICADA EN EL DESARROLLO DE LOS OBJETIVOS QUE CONSTITUYEN LA FINALIDAD DE LA ASOCIACIÓN.",
      "mainEntityOfPage": "https://www.contratacion.euskadi.eus/webkpe00-kperoc/es/ac71aBusquedaRegistrosWar/empresa/08804",
      "_links": {
        "self": {
          "name": "ASOCIACION CLARETIANA PARA EL DESARROLLO HUMANO SORTARAZI",
          "href": "https://api.euskadi.eus/procurements/companies/08804"
        }
      }
    },
    {
      "name": "ETXERAINO, S.L.",
      "registrationNumber": "07370",
      "identificationNumber": "B20810388",
      "address": "MARTIN UGALDE KULTUR PARKEA. GUDARIEN ETORBIDEA, Z/G",
      "location": {
        "postalCode": "20140",
        "municipality": "Andoain",
        "county": "Gipuzkoa",
        "municipalityId": "009",
        "countyId": "20"
      },
      "economicActivities": [
        {
          "id": "1.849.5",
          "name": "Servicios de recadería y reparto y manipulación de correspondencia",
          "_links": {
            "self": {
              "name": "Servicios de recadería y reparto y manipulación de correspondencia",
              "href": "https://api.euskadi.eus/procurements/companies/economic-activities/1.849.5"
            }
          }
        }
      ],
      "certificateStartDate": "2026-01-29",
      "certificateEndDate": "2026-07-29",
      "object": "A. REPARTO DE PAQUETERÍA INDUSTRIAL, COMERCIAL Y LOGÍSTICA. B. SERVICIOS DE MENSAJERÍA Y DISTRIBUCIÓN. C. TRANSPORTE (REGULAR O NO, URBANO O INTERURBANO) DE MERCANCÍAS POR CAMIÓN O VEHÍCULOS SIMILARES, ASÍ COMO SERVICIOS DE MUDANZAS. D. ESTABLECIMIENTOS DEDICADOS AL COMERCIO AL POR MENOR DE PRENSA Y PUBLICACIONES PERIÓDICAS. E. LA VENTA AL POR MENOR DE PUBLICACIONES Y COLECCIONES EN SOPORTES TALES COMO \"CD-ROM\", CINTAS MAGNETOSCÓPICAS, MAGNETOFÓNICAS Y \"COMPACT-DISC\". F. LA EDICIÓN Y PUBLICACIÓN POR CUENTA PROPIA Y AJENA DE IMPRESOS UNITARIOS, LIBROS, DISCOS, REVISTAS Y PERIÓDICOS, ASÍ COMO LA IMPRESIÓN, DISTRIBUCIÓN, VENTA Y EXPLOTACIÓN PUBLICITARIA DE LOS MISMOS. G. LA EXPLOTACIÓN DE SERVICIOS DE TELECOMUNICACIONES, INCLUIDOS LOS DE TELEFONÍA, RADIO, TELEVISIÓN, TRANSMISIÓN DE DATOS Y CUALESQUIERA OTROS MEDIOS ELECTRÓNICOS, TODOS ELLOS EN CUALQUIERA DE SUS MODALIDADES",
      "mainEntityOfPage": "https://www.contratacion.euskadi.eus/webkpe00-kperoc/es/ac71aBusquedaRegistrosWar/empresa/07370",
      "_links": {
        "self": {
          "name": "ETXERAINO, S.L.",
          "href": "https://api.euskadi.eus/procurements/companies/07370"
        }
      }
    },
    {
      "name": "BIOGEARIUM, S.C.",
      "registrationNumber": "07123",
      "identificationNumber": "J01441369",
      "address": "Honduras 1, 3º F",
      "location": {
        "postalCode": "01009",
        "municipality": "Vitoria-Gasteiz",
        "county": "Araba/Álava",
        "municipalityId": "059",
        "countyId": "01"
      },
      "economicActivities": [
        {
          "id": "1.966.1",
          "name": "Bibliotecas y museos",
          "_links": {
            "self": {
              "name": "Bibliotecas y museos",
              "href": "https://api.euskadi.eus/procurements/companies/economic-activities/1.966.1"
            }
          }
        }
      ],
      "certificateStartDate": "2026-01-29",
      "certificateEndDate": "2026-07-27",
      "object": "LA INSTALACIÓN Y SUBSIGUIENTE EXPLOTACIÓN EN COMÚN DE UN NEGOCIO CUYO OBJETO CONSISTIRÁ EN LA GESTIÓN, CONSERVACIÓN, DIFUSIÓN E INVESTIGACIÓN EN EL ÁMBITO DE LA MUSEOLOGÍA DE CIENCIAS NATURALES",
      "mainEntityOfPage": "https://www.contratacion.euskadi.eus/webkpe00-kperoc/es/ac71aBusquedaRegistrosWar/empresa/07123",
      "_links": {
        "self": {
          "name": "BIOGEARIUM, S.C.",
          "href": "https://api.euskadi.eus/procurements/companies/07123"
        }
      }
    },
    {
      "name": "EMMANUEL ODIASE ODIASE",
      "registrationNumber": "09723",
      "identificationNumber": "60394496S",
      "address": "SENDA VALENTIN DE FORONDA NO6,1B",
      "location": {
        "postalCode": "01010",
        "municipality": "Vitoria-Gasteiz",
        "county": "Araba/Álava",
        "municipalityId": "059",
        "countyId": "01"
      },
      "economicActivities": [
        {
          "id": "1.501.3",
          "name": "Albañilería y pequeños trabajos de construcción en general",
          "_links": {
            "self": {
              "name": "Albañilería y pequeños trabajos de construcción en general",
              "href": "https://api.euskadi.eus/procurements/companies/economic-activities/1.501.3"
            }
          }
        },
        {
          "id": "1.505.6",
          "name": "Pintura, revestimientos y terminación y decoración de locales",
          "_links": {
            "self": {
              "name": "Pintura, revestimientos y terminación y decoración de locales",
              "href": "https://api.euskadi.eus/procurements/companies/economic-activities/1.505.6"
            }
          }
        },
        {
          "id": "2.811",
          "name": "Profesionales que prestan servicios de limpieza",
          "_links": {
            "self": {
              "name": "Profesionales que prestan servicios de limpieza",
              "href": "https://api.euskadi.eus/procurements/companies/economic-activities/2.811"
            }
          }
        }
      ],
      "certificateStartDate": "2026-01-29",
      "certificateEndDate": "2026-07-29",
      "object": "ALBAÑILERÍA Y PEQUEÑOS TRABAJOS DE CONSTRUCCIÓN EN GENERAL. PINTURA, REVESTIMIENTOS Y TERMINACIÓN Y DECORACIÓN DE LOCALES. PROFESIONALES QUE PRESTAN SERVICIOS DE LIMPIEZA.",
      "mainEntityOfPage": "https://www.contratacion.euskadi.eus/webkpe00-kperoc/es/ac71aBusquedaRegistrosWar/empresa/09723",
      "_links": {
        "self": {
          "name": "EMMANUEL ODIASE ODIASE",
          "href": "https://api.euskadi.eus/procurements/companies/09723"
        }
      }
    },
    {
      "name": "SOTKON SP, S.L.",
      "registrationNumber": "06543",
      "identificationNumber": "B95516233",
      "address": "ORIA ETORBIDEA, 8-10",
      "location": {
        "postalCode": "20160",
        "municipality": "Lasarte-Oria",
        "county": "Gipuzkoa",
        "municipalityId": "902",
        "countyId": "20"
      },
      "economicActivities": [
        {
          "id": "1.482.2",
          "name": "Fabricación de artículos acabados de materias plásticas",
          "_links": {
            "self": {
              "name": "Fabricación de artículos acabados de materias plásticas",
              "href": "https://api.euskadi.eus/procurements/companies/economic-activities/1.482.2"
            }
          }
        }
      ],
      "certificateStartDate": "2026-01-29",
      "certificateEndDate": "2026-07-20",
      "object": " LA FABRICACIÓN, INSTALACIÓN Y COMERCIALIZACIÓN DE SISTEMAS DE DEPÓSITOS SOTERRADOS PARA DESPERDICIOS Y BASURAS, Y EN GENERAL, LA FABRICACIÓN, INSTALACIÓN Y COMERCIALIZACIÓN DE CONTENEDORES DE DESPERDICIOS",
      "mainEntityOfPage": "https://www.contratacion.euskadi.eus/webkpe00-kperoc/es/ac71aBusquedaRegistrosWar/empresa/06543",
      "_links": {
        "self": {
          "name": "SOTKON SP, S.L.",
          "href": "https://api.euskadi.eus/procurements/companies/06543"
        }
      }
    },
    {
      "name": "ZYLK.NET,  S. L.",
      "registrationNumber": "04562",
      "identificationNumber": "B95326013",
      "address": "Ribera de Axpe 11 Edif A L215",
      "location": {
        "postalCode": "48950",
        "municipality": "Erandio",
        "county": "Bizkaia",
        "municipalityId": "902",
        "countyId": "48"
      },
      "economicActivities": [
        {
          "id": "1.353",
          "name": "Fabricación de aparatos y equipo electrónico de señalización, control",
          "_links": {
            "self": {
              "name": "Fabricación de aparatos y equipo electrónico de señalización, control",
              "href": "https://api.euskadi.eus/procurements/companies/economic-activities/1.353"
            }
          }
        },
        {
          "id": "1.845",
          "name": "Explotación electrónica por cuenta de terceros",
          "_links": {
            "self": {
              "name": "Explotación electrónica por cuenta de terceros",
              "href": "https://api.euskadi.eus/procurements/companies/economic-activities/1.845"
            }
          }
        }
      ],
      "certificateStartDate": "2026-01-29",
      "certificateEndDate": "2026-07-29",
      "object": "EXPLOTACIÓN ELECTRÓNICA POR CUENTA DE TERCEROS. COMERCIO Y DISTRIBUCIÓN DE PRODUCTOS INFORMÁTICOS Y TECNOLÓGICOS. FABRICACIÓN DE COMPONENTES ELECTRÓNICOS. PRESTACIÓN Y COMERCIALIZACIÓN DE SERVICIOS DE TELECOMUNICACIÓN Y DE SERVICIOS INFORMÁTICOS. FORMACIÓN EN EL ÁMBITO INFORMÁTICO, CONTABLE, FISCAL, NÓMINAS Y SEGUROS SOCIALES Y EN GESTIÓN EMPRESARIAL. LA ADQUISICIÓN POR CUALQUIER TÍTULO DE FINCAS RÚSTICAS O URBANAS, LA PROMOCIÓN Y CONSTRUCCIÓN DE ÉSTAS Y LA ADMINISTRACIÓN, TENENCIA, EXPLOTACIÓN Y ARRENDAMIENTO DE TALES BIENES, Y SU VENTA TOTAL O PARCIAL, SEGÚN CONVENGA, PARA SU APROVECHAMIENTO FORESTAL, AGRÍCOLA, URBANO, INDUSTRIAL O CUALQUIER OTRO. LA ADQUISICIÓN, CESIÓN, TENENCIA, Y DISFRUTE EN GENERAL DE TODA CLASE DE TÍTULOS Y VALORES MOBILIARIOS, CON EXCLUSIÓN DE LAS ACTIVIDADES DE LA LEY DE MERCADO DE VALORES Y DE INVERSIONES COLECTIVAS. OTROS SERVICIOS PRIVADOS DE TELECOMUNICACIÓN. CONSULTORÍA DE DESARROLLO DE TODO TIPO DE APLICACIONES INFORMÁTICAS, PROGRAMACIÓN Y ACTIVIDADES DE DESARROLLO Y GESTIÓN DE RECURSOS INFORMÁTICOS O CUALQUIER OTRO SERVICIO RELACIONADO CON LAS TECNOLOGÍAS DE LA INFORMACIÓN, LA INFORMÁTICA. CNAE 620. CONSULTORÍA Y DESARROLLO DE SOLUCIONES DE INTELIGENCIA ARTIFICIAL Y DESARROLLO DE TÉCNICAS APLICADAS A LA INDUSTRIA 4.0 Y SUCESIVAS QUE SE DESARROLLAN ENTRE OTRAS EN ACTIVIDADES LIGADAS A LA INDUSTRIA DE AUTOMOCIÓN, AERONÁUTICA, AEROESPACIAL, INDUSTRIA DEL METAL, INDUSTRIA FARMACÉUTICA, INCLUIDA DENTRO DE LOS CNAES 2932.",
      "mainEntityOfPage": "https://www.contratacion.euskadi.eus/webkpe00-kperoc/es/ac71aBusquedaRegistrosWar/empresa/04562",
      "_links": {
        "self": {
          "name": "ZYLK.NET,  S. L.",
          "href": "https://api.euskadi.eus/procurements/companies/04562"
        }
      }
    }
  ]
}