{
  "totalItems": 9042,
  "totalPages": 905,
  "currentPage": 118,
  "itemsOfPage": 10,
  "items": [
    {
      "name": "EKIN CONSULTORIA, S.C.",
      "registrationNumber": "08897",
      "identificationNumber": "J01518034",
      "address": "ARMURUBENTA 3 ENTREPLANTA",
      "location": {
        "postalCode": "01470",
        "municipality": "Amurrio",
        "county": "Araba/Álava",
        "municipalityId": "002",
        "countyId": "01"
      },
      "economicActivities": [
        {
          "id": "1.847",
          "name": "Servicios de consultoría",
          "_links": {
            "self": {
              "name": "Servicios de consultoría",
              "href": "https://api.euskadi.eus/procurements/companies/economic-activities/1.847"
            }
          }
        },
        {
          "id": "1.932.1",
          "name": "Enseñanza de formación y perfeccionamiento profesional no superior",
          "_links": {
            "self": {
              "name": "Enseñanza de formación y perfeccionamiento profesional no superior",
              "href": "https://api.euskadi.eus/procurements/companies/economic-activities/1.932.1"
            }
          }
        }
      ],
      "certificateStartDate": "2025-12-12",
      "certificateEndDate": "2026-06-05",
      "object": "LA REALIZACIÓN DE TRABAJOS DE CONSULTORÍA Y FORMACIÓN.",
      "mainEntityOfPage": "https://www.contratacion.euskadi.eus/webkpe00-kperoc/es/ac71aBusquedaRegistrosWar/empresa/08897",
      "_links": {
        "self": {
          "name": "EKIN CONSULTORIA, S.C.",
          "href": "https://api.euskadi.eus/procurements/companies/08897"
        }
      }
    },
    {
      "name": "ASOCIACION PARA LA GESTION DE LA INTEGRACION SOCIAL",
      "registrationNumber": "08585",
      "identificationNumber": "G83034793",
      "address": "Calle Joaquín María López, 41 - Local",
      "location": {
        "postalCode": "28015",
        "municipality": "Madrid",
        "county": "Madrid",
        "municipalityId": "079",
        "countyId": "28"
      },
      "economicActivities": [
        {
          "id": "1.951",
          "name": "Asistencia y servicios sociales en centros residenciales",
          "_links": {
            "self": {
              "name": "Asistencia y servicios sociales en centros residenciales",
              "href": "https://api.euskadi.eus/procurements/companies/economic-activities/1.951"
            }
          }
        }
      ],
      "certificateStartDate": "2025-12-12",
      "certificateEndDate": "2026-06-09",
      "object": "LA EXPLOTACIÓN, GESTIÓN Y EQUIPAMIENTO DE TODA CLASE DE CENTROS EDUCATIVOS DE ADAPTACIÓN SOCIAL MEDIANTE LA CONTRATACIÓN DIRECTA O A TRAVÉS DE TERCEROS. LA REALIZACIÓN DE TODA CLASE DE PROGRAMAS FORMATIVOS LABORALES, ASÍ COMO PROGRAMAS DE AYUDA A LOS DROGO-DEPENDIENTES, RECLUSOS Y EX RECLUSOS PARA SU REHABILITACIÓN. LA FORMACIÓN, REEDUCACIÓN SOCIAL Y FORMACIÓN DE MENORES ACOGIDOS A INTERNAMIENTO POR MEDIDAS JUDICIALES. LA EDUCACIÓN E INTEGRACIÓN SOCIAL DE NIÑOS Y MENORES DEPENDIENTES DE INSTITUCIONES ESTATALES EN RÉGIMEN DE ACOGIDA O PROTECCIÓN. LA ADMINISTRACIÓN Y EXPLOTACIÓN DE CENTROS DE LA TERCERA EDAD. Y EN GENERAL, LAS LABORES DE ESTUDIO, INVESTIGACIÓN, TRATAMIENTO Y GESTIÓN DE LA DENOMINADA MARGINALIDAD, CUALQUIERA QUE FUERA SU ORIGEN O CAUSA, ASÍ COMO LA PREPARACIÓN Y ORGANIZACIÓN DE FOROS DE DISCUSIÓN PROFESIONAL Y LA DIVULGACIÓN DE LOS ESTUDIOS O CONCLUSIONES SOBRE EL MUNDO DE LA MARGINALIDAD, LA DELINCUENCIA O SIMPLEMENTE SOBRE CUALQUIER COLECTIVO O PERSONAL PRECISADA DE ASISTENCIA.",
      "mainEntityOfPage": "https://www.contratacion.euskadi.eus/webkpe00-kperoc/es/ac71aBusquedaRegistrosWar/empresa/08585",
      "_links": {
        "self": {
          "name": "ASOCIACION PARA LA GESTION DE LA INTEGRACION SOCIAL",
          "href": "https://api.euskadi.eus/procurements/companies/08585"
        }
      }
    },
    {
      "name": "TEST AUDITORES CONSULTORES S.L.",
      "registrationNumber": "07133",
      "identificationNumber": "B01412022",
      "address": "General Alava nº 10, 3º planta, oficina 9",
      "location": {
        "postalCode": "01005",
        "municipality": "Vitoria-Gasteiz",
        "county": "Araba/Álava",
        "municipalityId": "059",
        "countyId": "01"
      },
      "economicActivities": [
        {
          "id": "1.842",
          "name": "Servicios financieros y contables",
          "_links": {
            "self": {
              "name": "Servicios financieros y contables",
              "href": "https://api.euskadi.eus/procurements/companies/economic-activities/1.842"
            }
          }
        }
      ],
      "certificateStartDate": "2025-12-12",
      "certificateEndDate": "2026-06-06",
      "object": "A) LA REALIZACIÓN DE LA AUDITORÍA DE CUENTAS DE ACUERDO CON LA LEY DE AUDITORÍA DE CUENTAS, ENTENDIDA ESTA EN SU MÁS AMPLIO SENTIDO. B) LA REALIZACIÓN DE INFORMES ECONÓMICOS DE TODAS LAS CLASES ACERCA DE EMPRESAS, VALORACIONES, ESTUDIOS DE VIABILIDAD, CONSULTORÍA ECONÓMICO FINANCIERA Y FISCAL. SE INCLUYEN INFORMES PERICIALES Y DE CUALQUIER OTRA NATURALEZA, PARA LOS JUZGADOS Y TRIBUNALES. C) DISEÑO DE SISTEMAS Y PROCEDIMIENTOS ADMINISTRATIVOS DE GESTIÓN Y PRODUCCIÓN, CONSULTORÍA GERENCIAL Y DE ORGANIZACIÓN",
      "mainEntityOfPage": "https://www.contratacion.euskadi.eus/webkpe00-kperoc/es/ac71aBusquedaRegistrosWar/empresa/07133",
      "_links": {
        "self": {
          "name": "TEST AUDITORES CONSULTORES S.L.",
          "href": "https://api.euskadi.eus/procurements/companies/07133"
        }
      }
    },
    {
      "name": "LA COMPAÑIA DE COMUNICACION DE BILBAO 2002, S.L.",
      "registrationNumber": "02882",
      "identificationNumber": "B95197208",
      "address": "ARENAL 5, 5º DPTO 502",
      "location": {
        "postalCode": "48005",
        "municipality": "Bilbao",
        "county": "Bizkaia",
        "municipalityId": "020",
        "countyId": "48"
      },
      "economicActivities": [
        {
          "id": "1.844",
          "name": "Servicios de publicidad, relaciones públicas y similares",
          "_links": {
            "self": {
              "name": "Servicios de publicidad, relaciones públicas y similares",
              "href": "https://api.euskadi.eus/procurements/companies/economic-activities/1.844"
            }
          }
        }
      ],
      "certificateStartDate": "2025-12-12",
      "certificateEndDate": "2026-06-03",
      "object": "LA PRESTACIÓN, A LA EMPRESA TANTO PRIVADA COMO PÚBLICA, DE SERVICIOS COMPLETOS DE COMUNICACIÓN Y PUBLICIDAD DE NEGOCIOS, PRODUCTOS Y SERVICIOS: - ACTIVIDAD TRADICIONAL DE AGENCIA DE PUBLICIDAD DE SERVICIOS PLENOS: TRABAJOS DE DISEÑO Y EJECUCIÓN DE ACCIONES DE PUBLICIDAD Y COMUNICACIÓN; PUBLICIDAD BASADA EN APLICAR CONCEPTOS CREATIVOS SOBRE UNA SÓLIDA BASE ESTRATÉGICA; DISEÑO DE ACCIONES, ABARCANDO LA PARTE GRÁFICA, AUDIOVISUAL (PRENSA, RADIO, TV, INTERNET), BELOW THE LINE (PROMOCIONES, MARKETING DIRECTO), IMAGEN CORPORATIVA, CREACIÓN Y DESARROLLO DE MARCA, REALIZACIÓN E IMPLANTACIÓN DE ESTRATEGIAS DE COMUNICACIÓN, DESARROLLO DE ACCIONES ESPECIALES, EJECUCIÓN DE CONGRESOS, PRESENTACIONES, JORNADAS Y ACTOS PÚBLICOS. - CONSULTORÍA ESTRATÉGICA DE COMUNICACIÓN: ANÁLISIS E INVESTIGACIÓN DE PRODUCTOS, SERVICIOS Y/O EMPRESAS PARA POSTERIORMENTE EJECUTAR EL DISEÑO DE PLANES ESTRATÉGICOS DE COMUNICACIÓN; PUESTA EN MARCHA DE PLANES ESTRATÉGICOS DE COMUNICACIÓN; EMISIÓN DE DICTÁMENES Y RECOMENDACIONES DE ACCIONES A EJECUTAR PARA ALCANZAR OBJETIVOS PREESTABLECIDOS. - COMUNICACIÓN VINCULADA CON INTERNET: TÉCNICAS DE WEBMARKETING Y COMUNICACIONES ON-LINE; PRESTACIÓN DE CREACIÓN Y DESARROLLO DE ACCIONES EN SOPORTES DIGITALES. - COMPRA, VENTA, ALQUILER Y/O CESIÓN DE BIENES Y SERVICIOS EN BENEFICIO PROPIO O DE TERCEROS, NECESARIOS PARA EL DESEMPEÑO DE LA ACTIVIDAD PUBLICITARIA Y DE COMUNICACIÓN.",
      "mainEntityOfPage": "https://www.contratacion.euskadi.eus/webkpe00-kperoc/es/ac71aBusquedaRegistrosWar/empresa/02882",
      "_links": {
        "self": {
          "name": "LA COMPAÑIA DE COMUNICACION DE BILBAO 2002, S.L.",
          "href": "https://api.euskadi.eus/procurements/companies/02882"
        }
      }
    },
    {
      "name": "BRAHI, S.L.",
      "registrationNumber": "09369",
      "identificationNumber": "B48162358",
      "address": "Avenida cervantes 49-1º planta - modulo 24",
      "location": {
        "postalCode": "48970",
        "municipality": "Basauri",
        "county": "Bizkaia",
        "municipalityId": "015",
        "countyId": "48"
      },
      "economicActivities": [
        {
          "id": "1.474",
          "name": "Artes gráficas (impresión gráfica)",
          "_links": {
            "self": {
              "name": "Artes gráficas (impresión gráfica)",
              "href": "https://api.euskadi.eus/procurements/companies/economic-activities/1.474"
            }
          }
        },
        {
          "id": "1.651.2",
          "name": "Venta al por menor de prendas de ropa para el vestido y tocado",
          "_links": {
            "self": {
              "name": "Venta al por menor de prendas de ropa para el vestido y tocado",
              "href": "https://api.euskadi.eus/procurements/companies/economic-activities/1.651.2"
            }
          }
        }
      ],
      "certificateStartDate": "2025-12-12",
      "certificateEndDate": "2026-06-05",
      "object": "LA IMPRESIÓN Y SERIGRAFIADO INDUSTRIAL Y EN TODO TIPO DE MATERIALES, INCLUIDO EL TEXTIL Y EL METÁLICO.",
      "mainEntityOfPage": "https://www.contratacion.euskadi.eus/webkpe00-kperoc/es/ac71aBusquedaRegistrosWar/empresa/09369",
      "_links": {
        "self": {
          "name": "BRAHI, S.L.",
          "href": "https://api.euskadi.eus/procurements/companies/09369"
        }
      }
    },
    {
      "name": "GESTIKER, ESTUDIOS DE MERCADO Y OPINIÓN, S.L.",
      "registrationNumber": "02924",
      "identificationNumber": "B95193462",
      "address": "C/ Lutxana, 4-4º Dcha. Dpto. 5",
      "location": {
        "postalCode": "48008",
        "municipality": "Bilbao",
        "county": "Bizkaia",
        "municipalityId": "020",
        "countyId": "48"
      },
      "economicActivities": [
        {
          "id": "1.846",
          "name": "Empresas de estudios de mercado",
          "_links": {
            "self": {
              "name": "Empresas de estudios de mercado",
              "href": "https://api.euskadi.eus/procurements/companies/economic-activities/1.846"
            }
          }
        }
      ],
      "certificateStartDate": "2025-12-12",
      "certificateEndDate": "2026-05-30",
      "object": "EL ESTUDIO DE MERCADOS Y OPINIÓN, Y LA REALIZACIÓN E IMPARTICIÓN DE CURSOS DE DIVULGACIÓN Y FORMACIÓN EN LAS MISMAS ÁREAS.\r\nDICHO OBJETO PODRÁ DESARROLLARSE TOTAL O PARCIALMENTE MEDIANTE LA PARTICIPACIÓN EN OTRAS SOCIEDADES DE OBJETO IGUAL O ANÁLOGO.\r\nQUEDAN EXCLUÍDAS TODAS AQUELLAS ACTIVIDADES PARA CUYO EJERCICIO LA LEY  EXIJA REQUISITOS ESPECIALES QUE NO QUEDEN CUMPLIDOS POR ESTA SOCIEDAD",
      "mainEntityOfPage": "https://www.contratacion.euskadi.eus/webkpe00-kperoc/es/ac71aBusquedaRegistrosWar/empresa/02924",
      "_links": {
        "self": {
          "name": "GESTIKER, ESTUDIOS DE MERCADO Y OPINIÓN, S.L.",
          "href": "https://api.euskadi.eus/procurements/companies/02924"
        }
      }
    },
    {
      "name": "KLINER PROFESIONAL, S.A.",
      "registrationNumber": "07431",
      "identificationNumber": "A01203413",
      "address": "bidegana, 8",
      "location": {
        "postalCode": "01015",
        "municipality": "Vitoria-Gasteiz",
        "county": "Araba/Álava",
        "municipalityId": "059",
        "countyId": "01"
      },
      "economicActivities": [
        {
          "id": "1.253.9",
          "name": "Fabricación de otros productos químicos de uso industrial n.c.o.p",
          "_links": {
            "self": {
              "name": "Fabricación de otros productos químicos de uso industrial n.c.o.p",
              "href": "https://api.euskadi.eus/procurements/companies/economic-activities/1.253.9"
            }
          }
        },
        {
          "id": "1.616.9",
          "name": "Otro comercio al por mayor interindustria de la minería n.c.o.p",
          "_links": {
            "self": {
              "name": "Otro comercio al por mayor interindustria de la minería n.c.o.p",
              "href": "https://api.euskadi.eus/procurements/companies/economic-activities/1.616.9"
            }
          }
        }
      ],
      "certificateStartDate": "2025-12-12",
      "certificateEndDate": "2026-06-08",
      "object": "LA FABRICACIÓN, DISTRIBUCIÓN Y VENTA DE PRODUCTOS QUÍMICOS. LA ADQUISICIÓN, VENTA Y EXPLOTACIÓN, MEDIANTE ARRENDAMIENTO O CUALQUIER OTRA FORMA JURÍDICA, DE BIENES IN MUEBLES, PROPIOS O AJENOS A LA SOCIEDAD",
      "mainEntityOfPage": "https://www.contratacion.euskadi.eus/webkpe00-kperoc/es/ac71aBusquedaRegistrosWar/empresa/07431",
      "_links": {
        "self": {
          "name": "KLINER PROFESIONAL, S.A.",
          "href": "https://api.euskadi.eus/procurements/companies/07431"
        }
      }
    },
    {
      "name": "ADICLIMA INSTALACIONES MECANICAS, S.L.",
      "registrationNumber": "09707",
      "identificationNumber": "B95931424",
      "address": "C/ León de Uruñuela 7",
      "location": {
        "postalCode": "48002",
        "municipality": "Bilbao",
        "county": "Bizkaia",
        "municipalityId": "020",
        "countyId": "48"
      },
      "economicActivities": [
        {
          "id": "1.504.11",
          "name": "Instalaciones eléctricas en general, redes telegráficas, telefonía, tv, etc",
          "_links": {
            "self": {
              "name": "Instalaciones eléctricas en general, redes telegráficas, telefonía, tv, etc",
              "href": "https://api.euskadi.eus/procurements/companies/economic-activities/1.504.11"
            }
          }
        },
        {
          "id": "1.504.2",
          "name": "Instalaciones de fontanería",
          "_links": {
            "self": {
              "name": "Instalaciones de fontanería",
              "href": "https://api.euskadi.eus/procurements/companies/economic-activities/1.504.2"
            }
          }
        }
      ],
      "certificateStartDate": "2025-12-12",
      "certificateEndDate": "2026-05-26",
      "classification": [
        {
          "id": "O",
          "name": "Obras",
          "groups": [
            {
              "id": "J",
              "name": "INSTALACIONES MECANICAS",
              "subgroups": [
                {
                  "id": "02",
                  "name": "De ventilación, calefacción y climatización",
                  "categories": [
                    {
                      "id": "4",
                      "name": "Desde 840.001 Hasta 2.400.000",
                      "_links": {
                        "self": {
                          "name": "Desde 840.001 Hasta 2.400.000",
                          "href": "https://api.euskadi.eus/procurements/companies/types/O/categories/4"
                        }
                      }
                    }
                  ],
                  "_links": {
                    "self": {
                      "name": "De ventilación, calefacción y climatización",
                      "href": "https://api.euskadi.eus/procurements/companies/types/O/groups/J/subgroups/02"
                    }
                  }
                },
                {
                  "id": "04",
                  "name": "De fontanería y sanitarias",
                  "categories": [
                    {
                      "id": "3",
                      "name": "Desde 360.001 Hasta 840.000",
                      "_links": {
                        "self": {
                          "name": "Desde 360.001 Hasta 840.000",
                          "href": "https://api.euskadi.eus/procurements/companies/types/O/categories/3"
                        }
                      }
                    }
                  ],
                  "_links": {
                    "self": {
                      "name": "De fontanería y sanitarias",
                      "href": "https://api.euskadi.eus/procurements/companies/types/O/groups/J/subgroups/04"
                    }
                  }
                }
              ],
              "_links": {
                "self": {
                  "name": "INSTALACIONES MECANICAS",
                  "href": "https://api.euskadi.eus/procurements/companies/types/O/groups/J"
                }
              }
            }
          ],
          "_links": {
            "self": {
              "name": "Obras",
              "href": "https://api.euskadi.eus/procurements/companies/types/O"
            }
          }
        }
      ],
      "object": "A) LA EXPLOTACIÓN COMERCIAL E INDUSTRIAL DEL NEGOCIO DE MONTAJE Y COLOCACIÓN DE TODO TIPO DE SISTEMAS DE CALEFACCIÓN CON TODOS SUS ELEMENTOS, INSTALACIONES COMPLETAS DE FONTANERÍA, AIRE ACONDICIONADO, EN TODA CLASE DE EDIFICIOS PÚBLICOS O PRIVADOS, CON DESTINO A VIVIENDAS, OFICINAS O USOS COMERCIALES E INDUSTRIALES. EN CUANTO AL OBJETO PRINCIPAL SE CORRESPONDE CON EL CNAE 4322. B) LA COMPRA Y VENTA Y LA IMPORTACIÓN Y EXPORTACIÓN, AL POR MAYOR O MENOR, DE TODA CLASE DE APARATOS Y ELEMENTOS NECESARIOS PARA PODER DESARROLLAR LAS ACTIVIDADES DETERMINADAS EN EL PUNTO ANTERIOR, ASÍ COMO TODO TIPO DE HERRAMIENTAS Y UTILLAJE INDUSTRIAL PRECISOS PARA LA EJECUCIÓN DE LOS TRABAJAOS NECESARIOS EN LA REALIZACIÓN DE DICHAS ACTIVIDADES.",
      "mainEntityOfPage": "https://www.contratacion.euskadi.eus/webkpe00-kperoc/es/ac71aBusquedaRegistrosWar/empresa/09707",
      "_links": {
        "self": {
          "name": "ADICLIMA INSTALACIONES MECANICAS, S.L.",
          "href": "https://api.euskadi.eus/procurements/companies/09707"
        }
      }
    },
    {
      "name": "EDENIKA  EVENT TEKNIKA SOCIEDAD LIMITADA",
      "registrationNumber": "09741",
      "identificationNumber": "B42907923",
      "address": "CM BARRIKAKO BIDEA 2 PB D-15",
      "location": {
        "postalCode": "48610",
        "municipality": "Urduliz",
        "county": "Bizkaia",
        "municipalityId": "089",
        "countyId": "48"
      },
      "economicActivities": [
        {
          "id": "1.844",
          "name": "Servicios de publicidad, relaciones públicas y similares",
          "_links": {
            "self": {
              "name": "Servicios de publicidad, relaciones públicas y similares",
              "href": "https://api.euskadi.eus/procurements/companies/economic-activities/1.844"
            }
          }
        },
        {
          "id": "1.859",
          "name": "Alquiler de otros bienes muebles n.c.o.p. (sin personal permanente)",
          "_links": {
            "self": {
              "name": "Alquiler de otros bienes muebles n.c.o.p. (sin personal permanente)",
              "href": "https://api.euskadi.eus/procurements/companies/economic-activities/1.859"
            }
          }
        },
        {
          "id": "1.965.1",
          "name": "Espectáculos en salas y locales (excepto los taurinos)",
          "_links": {
            "self": {
              "name": "Espectáculos en salas y locales (excepto los taurinos)",
              "href": "https://api.euskadi.eus/procurements/companies/economic-activities/1.965.1"
            }
          }
        },
        {
          "id": "1.965.2",
          "name": "Espectáculos al aire libre (excepto los taurinos)",
          "_links": {
            "self": {
              "name": "Espectáculos al aire libre (excepto los taurinos)",
              "href": "https://api.euskadi.eus/procurements/companies/economic-activities/1.965.2"
            }
          }
        },
        {
          "id": "1.966.9",
          "name": "Otros servicios culturales n.c.o.p",
          "_links": {
            "self": {
              "name": "Otros servicios culturales n.c.o.p",
              "href": "https://api.euskadi.eus/procurements/companies/economic-activities/1.966.9"
            }
          }
        },
        {
          "id": "1.989.2",
          "name": "Servicios de organización de congresos, asambleas y similares",
          "_links": {
            "self": {
              "name": "Servicios de organización de congresos, asambleas y similares",
              "href": "https://api.euskadi.eus/procurements/companies/economic-activities/1.989.2"
            }
          }
        }
      ],
      "certificateStartDate": "2025-12-12",
      "certificateEndDate": "2026-05-26",
      "object": "ORGANIZACIÓN Y PRODUCCIÓN DE EVENTOS, ACTIVIDADES MUSICALES Y CULTURALES, CONGRESOS, FERIAS, ASAMBLEAS, FESTIVALES. REPRESENTACIÓN DE ESPECTÁCULOS Y ARTISTAS. SERVICIOS DE PROMOCIÓN CULTURAL. LA PROMOCIÓN, PRODUCCIÓN Y EJECUCIÓN DE TODO TIPO DE EVENTOS Y ESPECTÁCULOS. SERVICIOS DE ALQUILER E INSTALACIÓN FIJA Y TEMPORAL DE EQUIPAMIENTO TÉCNICO AUDIOVISUAL E INFRAESTRUCTURAS Y LOGÍSTICA PARA EL ESPECTÁCULO. SERVICIOS DE VENTA DE EQUIPAMIENTO AUDIOVISUAL E INFORMÁTICO. EL ALQUILER, COMPRA, VENTA, MONTAJE, INSTALACIÓN, TRANSPORTE, REPARACIÓN, IMPORTACIÓN, EXPORTACIÓN, DISEÑO, FABRICACIÓN, COMERCIALIZACIÓN Y DISTRIBUCIÓN DE TODO TIPO DE EQUIPOS DE ILUMINACIÓN, SONIDO, INFORMÁTICA, INSTRUMENTOS MUSICALES Y APARATOS AUDIOVISUALES. SERVICIOS DE DISEÑO GRÁFICO, WEB, EDITORIAL, PUBLICIDAD Y MARKETING. SERVICIOS DE VENTA DE ROPA, IMPRENTA Y MERCHANDISING. ESTUDIOS DE CONSULTORÍA Y MERCADOTÉCNICA. SERVICIOS DE PERSONAL PARA LA INDUSTRIA DEL ESPECTÁCULO (PERSONAL PRODUCCIÓN, AZAFATAS, TÉCNICOS, SEGURIDAD...). ESTUDIOS E INVESTIGACIONES EN GENERAL Y PARTICULAR, SOCIOLÓGICOS, SOCIOECONOMICOS Y MACROECONÓMICOS, DE OPINIÓN Y CUALQUIER ACTIVIDAD DIRIGIDA A FACILITAR INFORMACIÓN Y AYUDA PARA LA GESTIÓN PÚBLICA Y PRIVADA. PRESTACIÓN DE SERVICIOS DE EXHIBICIÓN, FILMACIÓN, PRODUCCIÓN Y POST-PRODUCCIÓN AUDIOVISUAL, PRODUCCIÓNN DE LARGOMETRAJES Y CORTOMETRAJES PARA CINE, TELEVISIÓN, PLATAFORMAS DE DISTRIBUCIÓN AUIOVISUAL POR CUALQUIERA DE LOS MEDIOS DE CABLE, SATÉLITE, TELEFONÍA MÓVIL, TELEFONÍA FIJA, RADIODIFUSIÓN E INTERNET. PROMOCIONAR, GRABAR, DISTRIBUIR Y VENDER MATERIAL DISCOGRÁFICO Y AUDIOVISUAL. EL DISEÑO, GESTIÓN, MEDIACIÓN, REPRESENTACIÓN, CONTROL DE ACCESOS E INFORMACIÓN AL PÚBLICO EN TODO TIPO DE EQUIPAMIENTOS ACTIVIDADES Y PROYECTOS SOCIALES, CULTURALES, EDUCATIVOS Y DE MEDIO AMBIENTE…. LA ORGANIZACIÓN Y PROMOCIÓN DE CONGRESOS, FERIAS Y EXPOSICIONES Y LOS SERVICIOS DE BIBLIOTECAS. DISEÑO, GESTIÓN, MEDIACIÓN, REPRESENTACIÓN, CONTROL DE ACCESOS E INFORMACIÓN AL PÚBLICO EN TODO TIPO DE PROGRAMAS, EQUIPAMIENTOS Y ACTIVIDADES DE ANIMACIÓN SOCIOCULTURAL, SERVICIOS SOCIALES, PROYECTOS SOCIO COMUNITARIOS Y DE MEDIO AMBIENTE. GESTIÓN DE CASAS DE CULTURA, CENTROS CÍVICOS, CINES, TEATROS, BIBLIOTECAS, ARCHIVOS, LUDOTECAS, ETC… LA PRESTACIÓN DE SERVICIOS DE ASESORAMIENTO, INVESTIGACIÓN, COMPRA DE MEDIOS Y ESPACIOS PUBLICITARIOS, DESARROLLO DE ESTRATEGIAS DE COMUNICACIÓN INTEGRAL, SERVICIOS DE MARKETING, DESARROLLO DE SERVICIOS EN INTERNET, COMERCIO E IMPLANTACIÓN DE SOFTWARE, CREACIÓN Y DISTRIBUCIÓN DE PROGRARMAS INFORMÁTICOS. LA IMPORTACIÓN EXPORTACIÓN, DISTRIBUCION Y COMERCIALIZACIÓN EN GENERAL DE MATERIAL Y DE COMPLEMENTOS DEPORTIVOS, CULTURALES, AUDIOVISUALES, MUSICALES Y TURÍSTICOS. GESTIÓN INTEGRAL, EQUIPAMIENTO Y CONSTRUCCIÓN DE INSTALACIONES DEPORTIVAS Y CULTURALES, ORGANIZACIÓN, FINANCIACIÓN Y GESTIÓN DE ESCUELAS Y DE EVENTOS DEPORTIVOS Y CULTURALES. LA PROMOCIÓN, ORGANIZACIÓN Y GESTIÓN DE EVENTOS, PÚBLICOS O PRIVADOS, YA SEA DIRECTAMENTE O MEDIANTE LA CESIÓN DE ESPACIOS A TERCEROS, LA PROMOCIÓN DE ARTISTAS EN CUALQUIER ÁMBITO Y GESTIÓN DE SU ACTIVIDAD PROFESIONAL Y LA COMPRAVENTA Y DISTRIBUCIÓN DE PRODUCTOS DE MERCHANDISING. ACTIVIDADES AUXILIARES A LAS ARTES ESCÉNICAS. ACTIVIDADES AUXILIARES DE CUALQUIER ACTIVIDAD ARTÍSTICA O CULTURAL. PRODUCCIÓNAUDIOVISUAL Y TEATRAL. ORGANIZACIÓN DE EVENTOS DE TODO TIPO. REPRESENTACIÓN, MANAGEMENT Y ASESORAMIENTO DE ARTISTAS. INTERMEDIACIÓN EN LAS ACTIVIDADES ARTÍSTICAS Y CULTURALES. LA GESTIÓN DE SALAS DE ESPECTÁCULOS. LA PROMOCIÓN, ORGANIZACIÓN, DESARROLLO Y REALIZACIÓN DE TODA CLASE DE EVENTOS, FIESTAS, ACTIVIDADES LÚDICAS Y TOURS TURÍSTICOS, TALES COMO PASEOS EN BARCO, VISITAS GUIADAS Y LA ORGANIZACIÓN DE COMIDAS EN GRUPO. SERVICIOS DE CATERING.",
      "mainEntityOfPage": "https://www.contratacion.euskadi.eus/webkpe00-kperoc/es/ac71aBusquedaRegistrosWar/empresa/09741",
      "_links": {
        "self": {
          "name": "EDENIKA  EVENT TEKNIKA SOCIEDAD LIMITADA",
          "href": "https://api.euskadi.eus/procurements/companies/09741"
        }
      }
    },
    {
      "name": "AIDAZU AUDIOVISUALES, S.L.",
      "registrationNumber": "04275",
      "identificationNumber": "B01403260",
      "address": "C/GETARIA, Nº 5-BAJO",
      "location": {
        "postalCode": "01010",
        "municipality": "Vitoria-Gasteiz",
        "county": "Araba/Álava",
        "municipalityId": "059",
        "countyId": "01"
      },
      "economicActivities": [
        {
          "id": "1.504.7",
          "name": "Instalaciones telefónicas, telegráficas, televisión, etc",
          "_links": {
            "self": {
              "name": "Instalaciones telefónicas, telegráficas, televisión, etc",
              "href": "https://api.euskadi.eus/procurements/companies/economic-activities/1.504.7"
            }
          }
        },
        {
          "id": "1.653.2",
          "name": "Venta al por menor de material y aparatos eléctricos, electrodomésticos y cocina",
          "_links": {
            "self": {
              "name": "Venta al por menor de material y aparatos eléctricos, electrodomésticos y cocina",
              "href": "https://api.euskadi.eus/procurements/companies/economic-activities/1.653.2"
            }
          }
        }
      ],
      "certificateStartDate": "2025-12-12",
      "certificateEndDate": "2026-05-30",
      "object": "INSTALACIÓN DE REDES TELEFÓNICAS, COMPRAVENTA DE MATERIAL AUDIOVISUAL, INSTALACIÓN DE CENTRALITAS TELEFÓNICAS, Y TODO LO QUE CONLLEVE ESTA ACTIVIDAD",
      "mainEntityOfPage": "https://www.contratacion.euskadi.eus/webkpe00-kperoc/es/ac71aBusquedaRegistrosWar/empresa/04275",
      "_links": {
        "self": {
          "name": "AIDAZU AUDIOVISUALES, S.L.",
          "href": "https://api.euskadi.eus/procurements/companies/04275"
        }
      }
    }
  ]
}