{
  "totalItems": 9042,
  "totalPages": 905,
  "currentPage": 117,
  "itemsOfPage": 10,
  "items": [
    {
      "name": "ARCO DESARROLLO SOCIAL, S.L.",
      "registrationNumber": "07867",
      "identificationNumber": "B95607727",
      "address": "Pabellon El Nocedal.",
      "location": {
        "postalCode": "48800",
        "municipality": "Balmaseda",
        "county": "Bizkaia",
        "municipalityId": "090",
        "countyId": "48"
      },
      "economicActivities": [
        {
          "id": "1.849.9",
          "name": "Otros servicios independientes n.c.o.p",
          "_links": {
            "self": {
              "name": "Otros servicios independientes n.c.o.p",
              "href": "https://api.euskadi.eus/procurements/companies/economic-activities/1.849.9"
            }
          }
        },
        {
          "id": "1.932.2",
          "name": "Enseñanza de formación y perfeccionamiento profesional superior",
          "_links": {
            "self": {
              "name": "Enseñanza de formación y perfeccionamiento profesional superior",
              "href": "https://api.euskadi.eus/procurements/companies/economic-activities/1.932.2"
            }
          }
        }
      ],
      "certificateStartDate": "2025-12-12",
      "certificateEndDate": "2026-06-09",
      "object": "PRESTAR SERVICIOS DE CONSULTORÍA, ASISTENCIA TÉCNICA, FORMACIÓN, PUBLICACIONES Y OTROS SERVICIOS DE INTERVENCIÓN SOCIAL Y DE COOPERACIÓN INTERNACIONAL",
      "mainEntityOfPage": "https://www.contratacion.euskadi.eus/webkpe00-kperoc/es/ac71aBusquedaRegistrosWar/empresa/07867",
      "_links": {
        "self": {
          "name": "ARCO DESARROLLO SOCIAL, S.L.",
          "href": "https://api.euskadi.eus/procurements/companies/07867"
        }
      }
    },
    {
      "name": "ANIMAZIO ZERBITZUA ASTIXA S.L",
      "registrationNumber": "05794",
      "identificationNumber": "B20643169",
      "address": "Zezenbide kalea, 7- behea",
      "location": {
        "postalCode": "20600",
        "municipality": "Eibar",
        "county": "Gipuzkoa",
        "municipalityId": "030",
        "countyId": "20"
      },
      "economicActivities": [
        {
          "id": "1.966.9",
          "name": "Otros servicios culturales n.c.o.p",
          "_links": {
            "self": {
              "name": "Otros servicios culturales n.c.o.p",
              "href": "https://api.euskadi.eus/procurements/companies/economic-activities/1.966.9"
            }
          }
        }
      ],
      "certificateStartDate": "2025-12-12",
      "certificateEndDate": "2026-06-08",
      "object": "REALIZAR SERVICIOS DE CARÁCTER SOCIO CULTURAL, COMO EL DISEÑAR, ORGANIZAR Y DESARROLLAR ACTIVIDADES DE TIEMPO LIBRE DIRIGIDOS A NIÑOS, JÓVENES Y ADULTOS. GESTIONAR CENTROS SOCIO CULTURALES, ALBERGUES, LUDOTECAS Y GUARDERÍAS. ASÍ COMO REALIZAR, ORGANIZAR Y DESARROLLAR CURSOS, CONFERENCIAS, EXPOSICIONES DE CARÁCTER CULTURAL, SOCIO CULTURAL Y EDUCATIVO",
      "mainEntityOfPage": "https://www.contratacion.euskadi.eus/webkpe00-kperoc/es/ac71aBusquedaRegistrosWar/empresa/05794",
      "_links": {
        "self": {
          "name": "ANIMAZIO ZERBITZUA ASTIXA S.L",
          "href": "https://api.euskadi.eus/procurements/companies/05794"
        }
      }
    },
    {
      "name": "CONSTRUCCIONES UGALDE-VALERA S.L.",
      "registrationNumber": "07393",
      "identificationNumber": "B01380070",
      "address": "PORTAL DE CASTILLA, Nº 4 BAJO",
      "location": {
        "postalCode": "01008",
        "municipality": "Vitoria-Gasteiz",
        "county": "Araba/Álava",
        "municipalityId": "059",
        "countyId": "01"
      },
      "economicActivities": [
        {
          "id": "1.501.1",
          "name": "Construcción completa, reparación y conservación de edificaciones",
          "_links": {
            "self": {
              "name": "Construcción completa, reparación y conservación de edificaciones",
              "href": "https://api.euskadi.eus/procurements/companies/economic-activities/1.501.1"
            }
          }
        },
        {
          "id": "1.849.7",
          "name": "Servicios de gestión administrativa",
          "_links": {
            "self": {
              "name": "Servicios de gestión administrativa",
              "href": "https://api.euskadi.eus/procurements/companies/economic-activities/1.849.7"
            }
          }
        }
      ],
      "certificateStartDate": "2025-12-12",
      "certificateEndDate": "2026-06-08",
      "object": "LA SOCIEDAD TENDRÁ POR OBJETO SOCIAL, LA PROMOCIÓN, EJECUCIÓN Y VENTA COMPLETA O POR RAMOS DE TODA CLASE DE OBRAS DE CONSTRUCCIÓN, URBANIZACIÓN Y SERVICIOS, LA REPARACIÓN Y CONSERVACIÓN, POR CUENTA PROPIA Y/O AJENA, DE VIVIENDAS Y LOCALES COMERCIALES Y/O INDUSTRIALES, E INCLUSO VIVIENDAS DE LAS DENOMINADAS DE PROTECCIÓN OFICIAL, ASÍ COMO LA REALIZACIÓN DE TODO TIPO DE TRABAJOS DE ALBAÑILERÍA, LA COMPRAVENTA YA AL POR MAYOR, YA AL POR MENOR DE TODO TIPO DE ELEMENTOS Y MATERIALES RELACIONADOS CON EL SECTOR DE LA CONSTRUCCIÓN, LA REALIZACIÓN DE TODO TIPO DE TRABAJOS DE CARPINTERÍA, FONTANERÍA, EBANISTERÍA, CALEFACCIÓN, PINTURA Y COLOCACIÓN DE PARQUETS. LA COMPRAVENTA Y ALQUILER DE EDIFICIOS, POR PARTE O POR PISOS, BIEN DE VIVIENDAS, LOCALES INDUSTRIALES, DE OFICINAS, DE APARCAMIENTOS, GARAJES, CONSTRUIDOS O NO PARA TAL FIN; PROCEDER A LA CONSTRUCCIÓN DE OBRAS EN GENERAL, BIEN DIRECTAMENTE O POR MEDIO DE SUBCONTRATISTAS O DETALLISTAS, ASÍ COMO LA COORDINACIÓN DE TODO TIPO DE GREMIOS RELACIONADOS CON EL SECTOR DE LA CONSTRUCCIÓN. LA ADQUISICIÓN Y ENAJENACIÓN, POR CUALQUIER TÍTULO, DE FINCAS URBANAS Y RÚSTICAS, YA SEAN DE TIERRAS, SOLARES Y EDIFICIOS, Y LA ADMINISTRACIÓN, TENENCIA, EXPLOTACIÓN Y ARRENDAMIENTO, YA SEA ACTIVO O PASIVO, DE TALES BIENES Y SU VENTA TOTAL O PARCIAL, Y PROCEDER A SU APROVECHAMIENTO, URBANO, INDUSTRIAL O CUALQUIER OTRO. LA URBANIZACIÓN Y PARCELACIÓN DE TERRENOS, CONFORME A PLANES DE ORDENACIÓN URBANÍSTICA, APROBADOS POR LAS AUTORIDADES COMPETENTES EN LOS POLÍGONOS Y ZONAS DE ACTUACIÓN QUE AL EFECTO SEAN DESIGNADOS, Y LA REPARCELACIÓN DE DICHOS TERRENOS URBANÍSTICOS Y, EN SU CASO, LA EDIFICACIÓN Y VENTA DE LOS MISMOS, DE LAS EDIFICACIONES Y OBRAS DE URBANIZACIÓN Y SERVICIOS. LA ADQUISICIÓN DE TODO TIPO DE ELEMENTOS EMPLEADOS EN CONSTRUCCIÓN Y EL TRANSPORTE, NACIONALES O EXTRANJEROS, NUEVOS USADOS, TALES COMO VEHÍCULOS Y MAQUINARIA DE USO INDUSTRIAL COMERCIAL, DE TRACCIÓN MECÁNICA O MANUAL, DE ANDAMIOS, GRÚA, ASCENSORES Y ELEVADORES, GENERADORES Y DE CUALQUIER OTRO TIPO DE MAQUINARIA Y HERRAMIENTA RELACIONADA ESPECIALMENTE CON CONSTRUCCIÓN Y EL TRANSPORTE, PARA SU POSTERIOR ALQUILER Y/O VENTA",
      "mainEntityOfPage": "https://www.contratacion.euskadi.eus/webkpe00-kperoc/es/ac71aBusquedaRegistrosWar/empresa/07393",
      "_links": {
        "self": {
          "name": "CONSTRUCCIONES UGALDE-VALERA S.L.",
          "href": "https://api.euskadi.eus/procurements/companies/07393"
        }
      }
    },
    {
      "name": "COOPER CARS BARAKALDO, S.L",
      "registrationNumber": "05192",
      "identificationNumber": "B48196679",
      "address": "Calle bagaza ,11 Entplta",
      "location": {
        "postalCode": "48902",
        "municipality": "Barakaldo",
        "county": "Bizkaia",
        "municipalityId": "013",
        "countyId": "48"
      },
      "economicActivities": [
        {
          "id": "1.721.3",
          "name": "Transporte de viajeros por carretera",
          "_links": {
            "self": {
              "name": "Transporte de viajeros por carretera",
              "href": "https://api.euskadi.eus/procurements/companies/economic-activities/1.721.3"
            }
          }
        }
      ],
      "certificateStartDate": "2025-12-12",
      "certificateEndDate": "2026-05-30",
      "classification": [
        {
          "id": "S",
          "name": "Servicios",
          "groups": [
            {
              "id": "R",
              "subgroups": [
                {
                  "id": "01",
                  "name": "Transporte de viajeros por carretera",
                  "categories": [
                    {
                      "id": "4",
                      "name": "Desde 600.001 Hasta 1.1200.000",
                      "_links": {
                        "self": {
                          "name": "Desde 600.001 Hasta 1.1200.000",
                          "href": "https://api.euskadi.eus/procurements/companies/types/S/categories/4"
                        }
                      }
                    }
                  ],
                  "_links": {
                    "self": {
                      "name": "Transporte de viajeros por carretera",
                      "href": "https://api.euskadi.eus/procurements/companies/types/S/groups/R/subgroups/01"
                    }
                  }
                }
              ],
              "_links": {
                "self": {
                  "href": "https://api.euskadi.eus/procurements/companies/types/S/groups/R"
                }
              }
            }
          ],
          "_links": {
            "self": {
              "name": "Servicios",
              "href": "https://api.euskadi.eus/procurements/companies/types/S"
            }
          }
        }
      ],
      "object": "EL TRANSPORTE DE VIAJEROS Y/O MERCANCÍAS POR CARRETERA",
      "mainEntityOfPage": "https://www.contratacion.euskadi.eus/webkpe00-kperoc/es/ac71aBusquedaRegistrosWar/empresa/05192",
      "_links": {
        "self": {
          "name": "COOPER CARS BARAKALDO, S.L",
          "href": "https://api.euskadi.eus/procurements/companies/05192"
        }
      }
    },
    {
      "name": "AITOR ETXANDI PATIÑO",
      "registrationNumber": "08174",
      "identificationNumber": "34082162A",
      "address": "BUZTINTXULO 55- 3 DR",
      "location": {
        "postalCode": "20015",
        "municipality": "Donostia / San Sebastián",
        "county": "Gipuzkoa",
        "municipalityId": "069",
        "countyId": "20"
      },
      "economicActivities": [
        {
          "id": "1.244",
          "name": "Industrias de la piedra natural",
          "_links": {
            "self": {
              "name": "Industrias de la piedra natural",
              "href": "https://api.euskadi.eus/procurements/companies/economic-activities/1.244"
            }
          }
        }
      ],
      "certificateStartDate": "2025-12-12",
      "certificateEndDate": "2026-06-08",
      "object": "INDUSTRIAS DE LA PIEDRA NATURAL.",
      "mainEntityOfPage": "https://www.contratacion.euskadi.eus/webkpe00-kperoc/es/ac71aBusquedaRegistrosWar/empresa/08174",
      "_links": {
        "self": {
          "name": "AITOR ETXANDI PATIÑO",
          "href": "https://api.euskadi.eus/procurements/companies/08174"
        }
      }
    },
    {
      "name": "JUPER BAT, S.A.",
      "registrationNumber": "00389",
      "identificationNumber": "A20079166",
      "address": "POLÍGONO AKARREGI, PARCELA 8",
      "location": {
        "postalCode": "20120",
        "municipality": "Hernani",
        "county": "Gipuzkoa",
        "municipalityId": "040",
        "countyId": "20"
      },
      "economicActivities": [
        {
          "id": "1.614.2",
          "name": "Venta al por mayor de productos de perfumería, droguería, higiene y belleza",
          "_links": {
            "self": {
              "name": "Venta al por mayor de productos de perfumería, droguería, higiene y belleza",
              "href": "https://api.euskadi.eus/procurements/companies/economic-activities/1.614.2"
            }
          }
        },
        {
          "id": "1.617.9",
          "name": "Venta al por mayor interindustrial de otros productos n.c.o.p",
          "_links": {
            "self": {
              "name": "Venta al por mayor interindustrial de otros productos n.c.o.p",
              "href": "https://api.euskadi.eus/procurements/companies/economic-activities/1.617.9"
            }
          }
        },
        {
          "id": "1.651.5",
          "name": "Venta al por menor de prendas especiales",
          "_links": {
            "self": {
              "name": "Venta al por menor de prendas especiales",
              "href": "https://api.euskadi.eus/procurements/companies/economic-activities/1.651.5"
            }
          }
        },
        {
          "id": "1.861.2",
          "name": "Alquiler de locales industriales y otros alquileres n.c.o.p",
          "_links": {
            "self": {
              "name": "Alquiler de locales industriales y otros alquileres n.c.o.p",
              "href": "https://api.euskadi.eus/procurements/companies/economic-activities/1.861.2"
            }
          }
        }
      ],
      "certificateStartDate": "2025-12-12",
      "certificateEndDate": "2026-05-30",
      "object": "a) LA COMERCIALIZACIÓN Y VENTA DE PRODUCTOS QUÍMICOS, DE DROGUERÍA, LIMPIEZA Y DERIVADOS. b) LA IMPORTACIÓN, EXPORTACIÓN, ALMACENAMIENTO, DISTRIBUCIÓN, REPRESENTACIÓN, COMPRA Y VENTA AL POR MAYOR Y AL DETAL, PROMOCIÓN Y COMERCIALIZACIÓN DE ARTÍCULOS DE FERRETERÍA, VESTUARIO LABORAL, LIMPIEZA INDUSTRIAL Y PRODUCTOS PARA LA PROTECCIÓN, SEGURIDAD E HIGIENE EN EL TRABAJO, ASÍ COMO A LA IMPORTACIÓN, EXPORTACIÓN, ALMACENAMIENTO, DISTRIBUCIÓN, REPRESENTACIÓN Y COMERCIALIZACIÓN A TRAVÉS DE LA VENTA O ALQUILER DE LAS DIVERSAS MÁQUINA Y SISTEMAS DE GESTIÓN Y CONTROL DE ESTOS ARTÍCULOS. c) LA AQUISICIÓN ENAJENACIÓN, TENENCIA Y EXPLOTACIÓN DE TODA CLASE DE BIENES INMUEBLES.",
      "mainEntityOfPage": "https://www.contratacion.euskadi.eus/webkpe00-kperoc/es/ac71aBusquedaRegistrosWar/empresa/00389",
      "_links": {
        "self": {
          "name": "JUPER BAT, S.A.",
          "href": "https://api.euskadi.eus/procurements/companies/00389"
        }
      }
    },
    {
      "name": "EXCASOBA, S.L.",
      "registrationNumber": "07919",
      "identificationNumber": "B39595871",
      "address": "C/CORREO 5, B ",
      "location": {
        "postalCode": "48895",
        "municipality": "Lanestosa",
        "county": "Bizkaia",
        "municipalityId": "051",
        "countyId": "48"
      },
      "economicActivities": [
        {
          "id": "1.501.2",
          "name": "Construcción completa, reparación y conservación obras civiles",
          "_links": {
            "self": {
              "name": "Construcción completa, reparación y conservación obras civiles",
              "href": "https://api.euskadi.eus/procurements/companies/economic-activities/1.501.2"
            }
          }
        },
        {
          "id": "1.912",
          "name": "Servicios forestales",
          "_links": {
            "self": {
              "name": "Servicios forestales",
              "href": "https://api.euskadi.eus/procurements/companies/economic-activities/1.912"
            }
          }
        }
      ],
      "certificateStartDate": "2025-12-12",
      "certificateEndDate": "2026-06-09",
      "object": "1.- DEMOLICIÓN CNAE 43.11. 2.- PREPARACIÓN DE TERRENOS CNAE 43.12. 3.- PERFORACIONES Y SONDEOS CNAE 43.13. 4.- VENTA DE AUTOMÓVILES Y VEHÍCULOS DE MOTOR LIGEROS CNAE 45.11. 5.- VENTA DE OTROS VEHÍCULOS DE MOTOR CNAE 45.19. 6.- COMERCIO AL POR MAYOR DE OTRA MAQUINARIA Y EQUIPO CNAE 46.69. 7.- COMERCIO AL POR MAYOR DE MADERA, MATERIALES DE CONSTRUCCIÓN Y APARATOS SANITARIOS CNAE 46.73. 8.- TRANSPORTE DE MERCANCÍAS POR CARRETERA. CNAE 49.41. 9.- SILVICULTURA Y OTRAS ACTIVIDADES FORESTALES CNAE 02.10",
      "mainEntityOfPage": "https://www.contratacion.euskadi.eus/webkpe00-kperoc/es/ac71aBusquedaRegistrosWar/empresa/07919",
      "_links": {
        "self": {
          "name": "EXCASOBA, S.L.",
          "href": "https://api.euskadi.eus/procurements/companies/07919"
        }
      }
    },
    {
      "name": "ASESORES DE ORGANIZACION Y SISTEMAS DE INFORMATICA, S.L.L.",
      "registrationNumber": "06861",
      "identificationNumber": "B95792784",
      "address": "Idorsolo 13 dpto. 5 (Edificio San Isidro I)",
      "location": {
        "postalCode": "48160",
        "municipality": "Derio",
        "county": "Bizkaia",
        "municipalityId": "901",
        "countyId": "48"
      },
      "economicActivities": [
        {
          "id": "1.845",
          "name": "Explotación electrónica por cuenta de terceros",
          "_links": {
            "self": {
              "name": "Explotación electrónica por cuenta de terceros",
              "href": "https://api.euskadi.eus/procurements/companies/economic-activities/1.845"
            }
          }
        }
      ],
      "certificateStartDate": "2025-12-12",
      "certificateEndDate": "2026-06-09",
      "object": "LA CREACIÓN DE SOFTWARE INFORMÁTICO, DISEÑO, DESARROLLO, GESTIÓN, EXPLOTACIÓN DE SISTEMAS DE INFORMACIÓN  BASADOS EN LA TECNOLOGÍA DE LA INFORMACIÓN, ASÍ COMO LA COMERCIALIZACIÓN DE PRODUCTOS Y SERVICIOS INFORMÁTICOS TANTO DE SOFTWARE COMO HARDWARE. TAMBIÉN EL SUMINISTRO, INSTALACIÓN, MANTENIMIENTO, Y EN GENERAL EL COMERCIO DE TODO TIPO DE EQUIPAMIENTO INFORMÁTICO, PROGRAMAS DE ORDENADOR, PLATAFORMAS Y SISTEMAS INFORMÁTICOS, ASÍ COMO EL DESARROLLO DE APLICACIONES ESPECÍFICAS Y TODO TIPO DE ASISTENCIA TÉCNICA",
      "mainEntityOfPage": "https://www.contratacion.euskadi.eus/webkpe00-kperoc/es/ac71aBusquedaRegistrosWar/empresa/06861",
      "_links": {
        "self": {
          "name": "ASESORES DE ORGANIZACION Y SISTEMAS DE INFORMATICA, S.L.L.",
          "href": "https://api.euskadi.eus/procurements/companies/06861"
        }
      }
    },
    {
      "name": "HERAS & GAVIRIA ASESORES S.L.",
      "registrationNumber": "02959",
      "identificationNumber": "B95272498",
      "address": "ALAMEDA RECALDE, Nº 27-3º DPTO.3 ",
      "location": {
        "postalCode": "48009",
        "municipality": "Bilbao",
        "county": "Bizkaia",
        "municipalityId": "020",
        "countyId": "48"
      },
      "economicActivities": [
        {
          "id": "1.841",
          "name": "Servicios jurídicos",
          "_links": {
            "self": {
              "name": "Servicios jurídicos",
              "href": "https://api.euskadi.eus/procurements/companies/economic-activities/1.841"
            }
          }
        },
        {
          "id": "1.842",
          "name": "Servicios financieros y contables",
          "_links": {
            "self": {
              "name": "Servicios financieros y contables",
              "href": "https://api.euskadi.eus/procurements/companies/economic-activities/1.842"
            }
          }
        }
      ],
      "certificateStartDate": "2025-12-12",
      "certificateEndDate": "2026-05-27",
      "object": "A) EL ASESORAMIENTO DE EMPRESAS TANTO FISCAL COMO JURÍDICO FINANCIERO LABORAL O DE CUALQUIER OTRO TIPO; EL ESTUDIO, INVESTIGACIÓN, PROMOCIÓN Y PRESTACIÓN DE CUALQUIER CLASE DE SERVICIOS DE ASISTENCIA Y GESTIÓN TÉCNICA ADMINISTRATIVA, COMERCIAL Y CONTABLE. B) LA REALIZACIÓN DE ACTIVIDADES DE CONSULTING EMPRESARIAL, ASÍ COMO DE SERVICIOS PARA ENTIDADES INSTITUCIONALES, PÚBLICAS O PRIVADAS, ESTUDIOS SOBRE ESTRUCTURA Y ORGANIZACIÓN EMPRESARIAL, ESTUDIOS SOCIO ECONÓMICOS, ESTUDIOS DE VIABILIDAD Y PREINVERSIÓN, ESTUDIOS SOBRE ASPECTOS TÉCNICOS, COMERCIALES Y ECONÓMICO-FINANCIEROS, SERVICIOS DIRIGIDOS AL AREA DE RECURSOS HUMANOS, INCLUYENDO LA SELECCIÓN DE PERSONAL, SERVICIOS DE AUDITORÍA, DE INFORMÁTICA Y COMERCIO EXTERIOR",
      "mainEntityOfPage": "https://www.contratacion.euskadi.eus/webkpe00-kperoc/es/ac71aBusquedaRegistrosWar/empresa/02959",
      "_links": {
        "self": {
          "name": "HERAS & GAVIRIA ASESORES S.L.",
          "href": "https://api.euskadi.eus/procurements/companies/02959"
        }
      }
    },
    {
      "name": "FEDERACIÓN PORTUGALETEKO AISIALDI SAREA",
      "registrationNumber": "06622",
      "identificationNumber": "V95494936",
      "address": "Coscojales, 15 bajo",
      "location": {
        "postalCode": "48920",
        "municipality": "Portugalete",
        "county": "Bizkaia",
        "municipalityId": "078",
        "countyId": "48"
      },
      "economicActivities": [
        {
          "id": "1.849.9",
          "name": "Otros servicios independientes n.c.o.p",
          "_links": {
            "self": {
              "name": "Otros servicios independientes n.c.o.p",
              "href": "https://api.euskadi.eus/procurements/companies/economic-activities/1.849.9"
            }
          }
        }
      ],
      "certificateStartDate": "2025-12-12",
      "certificateEndDate": "2026-06-08",
      "object": "A)COORDINAR LAS ACTIVIDADES DE LAS ASOCIACIONES MIEMBROS, VELANDO POR LA OBSERVACIÓN DE LAS OBLIGACIONES IMPUESTAS POR LA  LEGISLACIÓN VIGENTE Y SUS RESPECTIVOS ESTATUTOS. B) POTENCIAR LA PARTICIPACIÓN DE LAS PERSONAS EN EL DESARROLLO EDUCATIVO, CULTURAL Y SOCIAL DE LA COMUNIDAD A LA QUE PERTENECEN. C) POTENCIAR EL TRABAJO EN RED Y EL ENTRAMADO COMUNITARIO A TRAVÉS DE LA COORDINACIÓN CON OTRAS ORGANIZACIONES SIMILARES. D) POTENCIAR LOS VÍNCULOS DE UNIÓN ENTRE LAS DISTINTAS ASOCIACIONES CON EL FIN DE MANTENER CONTACTOS E INTERCAMBIAR INFORMACIÓN SOBRE LAS RESPECTIVAS ACTIVIDADES. E) FACILITAR EL DESARROLLO DE LAS ACTIVIDADES DE LOS MIEMBROS ASOCIADOS. F) GENERAR COLECTIVAMENTE ACTIVIDADES MUNICIPALES Y PARTICIPAR EN LAS GENERADAS POR LA RED. G) RECOPILAR, ACTUALIZAR Y DIVULGAR LA INFORMACIÓN SOBRE ACTIVIDADES PROGRAMAS Y RECURSOS SOBRE OCIO Y TIEMPO LIBRE DESARROLLADAS POR LAS ASOCIACIONES MIEMBROS Y OTROS COLECTIVOS. H) COLABORAR CON LAS ADMINISTRACIÓN DEL MUNICIPIO DE PORTUGALETE EN EL ÁMBITO DE LA EDUCACIÓN EN EL TIEMPO LIBRE PARA: - TRANSMITIR LAS NECESIDADES Y DEMANDAS DETECTADAS. - APORTAR IDEAS Y PROPUESTAS PARA EL DISEÑO DE POLÍTICAS CONCRETAS QUE SE BASEN EN PARÁMETROS DE RACIONALIDAD, CALIDAD, EFICACIA, OPTIMIZACIÓN DE RECURSOS Y EVALUACIÓN DE IMPACTO DE LOS PROGRAMAS. - FORTALECER EL TEJIDO ASOCIATIVO DE ORGANIZACIONES QUE TRABAJAN A FAVOR DE LOS COLECTIVOS DE INFANCIA, ADOLESCENCIA Y JUVENTUD, ADEMÁS DE PROMOVER EL TRABAJO COOPERATIVO Y EN RED EN EL QUE SE PUEDAN OPTIMIZAR LOS RECURSOS EXISTENTES Y CREAR NUEVOS RECURSOS. I) SER UN CAUCE RECONOCIDO PARA LA CAPTACIÓN, ACOGIDA Y FORMACIÓN DE NUEVO VOLUNTARIADO Y DE RECICLAJE PARA EL VOLUNTARIADO VETERANO. J) PROMOVER, OFERTAR Y GESTIONAR PROYECTOS Y SERVICIOS DENTRO DEL CAMPO DE LOS SERVICIOS SOCIALES, CULTURALES Y EDUCATIVOS, PRESTANDO ESPECIAL ATENCIÓN A LOS SIGUIENTES ÁMBITOS DE INTERVENCIÓN: TIEMPO LIBRE, INFORMACIÓN JUVENIL, ESPACIO EXTRAESCOLAR, VOLUNTARIADO Y ASOCIACIONISMO, DEFENSA DEL MEDIO AMBIENTE, EDUCACIÓN EN VALORES, COOPERACIÓN AL DESARROLLO, ETC. (ESTE LO DEJARÍA PERO LO PASARÍA AL FINAL, DE CARA A FUTURO Y NO CERRARNOS PUERTAS).  K) ENCAUZAR, A TRAVÉS DE LA FEDERACIÓN, AQUELLOS OTROS FINES QUE, CON EL TRANSCURSO DEL TIEMPO Y CON LA EXPERIENCIA ADQUIRIDA PAREZCA CONVENIENTE ASUMIR, DENTRO DEL ESPÍRITU Y EL CARÁCTER QUE SE CONTIENEN EN ESTOS ESTATUTOS. L) PROMOVER LA INTEGRACIÓN Y LA AUTONOMÍA DE LAS PERSONAS Y COLECTIVOS EN SITUACIÓN DE EXCLUSIÓN. TRABAJANDO JUNTO A TODAS LAS PERSONAS, GRUPOS, ENTIDADES E INSTITUCIONES QUE COMPONEN LAS REDES NATURALES EN QUE VIVEN ESTOS COLECTIVOS EN SITUACIÓN DE EXCLUSIÓN. M) PROMOVER LA INTEGRACIÓN Y LA AUTONOMÍA PRINCIPALMENTE DE LOS COLECTIVOS DE INFANCIA, ADOLESCENCIA Y JUVENTUD DEL MUNICIPIO DE PORTUGALETE TRABAJANDO JUNTO A TODAS LAS PERSONAS, GRUPOS, ENTIDADES E INSTITUCIONES QUE COMPONEN LAS REDES NATURALES EN QUE VIVEN ESTOS COLECTIVOS.  N) FOMENTAR LA IGUALDAD DE OPORTUNIDADES Y TRABAJAR EN Y PARA LA PROMOCIÓN DE LA MUJER. O) FOMENTAR EL DESARROLLO SOLIDARIO ENTRE LOS HABITANTES DEL MUNICIPIO DE PORTUGALETE. P) TRATAR DE QUE CADA UNA DE LAS ASOCIACIONES MIEMBROS DESARROLLEN AL MÁXIMO LOS FINES PREVISTOS EN SUS ESTATUTOS. Q) PROMOCIONAR LA CULTURA EUSKALDUN CON ESPECIAL ATENCIÓN AL EUSKERA\r\n",
      "mainEntityOfPage": "https://www.contratacion.euskadi.eus/webkpe00-kperoc/es/ac71aBusquedaRegistrosWar/empresa/06622",
      "_links": {
        "self": {
          "name": "FEDERACIÓN PORTUGALETEKO AISIALDI SAREA",
          "href": "https://api.euskadi.eus/procurements/companies/06622"
        }
      }
    }
  ]
}