{
  "totalItems": 9042,
  "totalPages": 905,
  "currentPage": 88,
  "itemsOfPage": 10,
  "items": [
    {
      "name": "INNEVENTO COMUNICACIONES EN VIVO, S.A.",
      "registrationNumber": "03154",
      "identificationNumber": "A95315222",
      "address": "GRAN VÍA, 45 - 1º pl, Edificio Sota",
      "location": {
        "postalCode": "48011",
        "municipality": "Bilbao",
        "county": "Bizkaia",
        "municipalityId": "020",
        "countyId": "48"
      },
      "economicActivities": [
        {
          "id": "1.844",
          "name": "Servicios de publicidad, relaciones públicas y similares",
          "_links": {
            "self": {
              "name": "Servicios de publicidad, relaciones públicas y similares",
              "href": "https://api.euskadi.eus/procurements/companies/economic-activities/1.844"
            }
          }
        },
        {
          "id": "1.965.4",
          "name": "Empresas de espectáculos",
          "_links": {
            "self": {
              "name": "Empresas de espectáculos",
              "href": "https://api.euskadi.eus/procurements/companies/economic-activities/1.965.4"
            }
          }
        },
        {
          "id": "1.989.2",
          "name": "Servicios de organización de congresos, asambleas y similares",
          "_links": {
            "self": {
              "name": "Servicios de organización de congresos, asambleas y similares",
              "href": "https://api.euskadi.eus/procurements/companies/economic-activities/1.989.2"
            }
          }
        }
      ],
      "certificateStartDate": "2026-01-12",
      "certificateEndDate": "2026-06-20",
      "classification": [
        {
          "id": "S",
          "name": "Servicios",
          "groups": [
            {
              "id": "L",
              "subgroups": [
                {
                  "id": "05",
                  "name": "Organización y promoción de congresos, ferias y exposiciones",
                  "categories": [
                    {
                      "id": "2",
                      "name": "Desde 150.001 Hasta 300.000",
                      "_links": {
                        "self": {
                          "name": "Desde 150.001 Hasta 300.000",
                          "href": "https://api.euskadi.eus/procurements/companies/types/S/categories/2"
                        }
                      }
                    }
                  ],
                  "_links": {
                    "self": {
                      "name": "Organización y promoción de congresos, ferias y exposiciones",
                      "href": "https://api.euskadi.eus/procurements/companies/types/S/groups/L/subgroups/05"
                    }
                  }
                }
              ],
              "_links": {
                "self": {
                  "href": "https://api.euskadi.eus/procurements/companies/types/S/groups/L"
                }
              }
            }
          ],
          "_links": {
            "self": {
              "name": "Servicios",
              "href": "https://api.euskadi.eus/procurements/companies/types/S"
            }
          }
        }
      ],
      "object": "A) LA REALIZACIÓN Y PRESTACIÓN DE ACTIVIDADES PROPIAS DE AGENCIA DE PUBLICIDAD DE SERVICIOS PLENOS, MARKETING DIRECTO, DISEÑO E IMPRESIÓN DE SOPORTES COMERCIALES Y PUBLICITARIOS; DISTRIBUCIÓN Y COMERCIALIZACIÓN DE SOBRES Y PRENSA Y PUBLICACIONE; B) EL DISEÑO, PRODUCCIÓN Y COMERCIALIZACIÓN DE ANAGRAMAS, LOGOTIPOS DE IMAGEN; LA REALIZACIÓN Y PRESTACIÓN DE SERVICIOS INFORMATIVOS, PUBLICITARIOS, NOTICIAS ESCRITAS O POR IMAGEN, POR CUALESQUIERA MEDIOS Y SISTEMAS A ENTIDADES PÚBLICAS, PRIVADAS, PERSONAS NATURALES Y JURÍDICAS; C) LA REALIZACIÓN Y PRESTACIÓN DE SERVICIOS DE INFORMÁTICA; GESTIÓN Y DESARROLLO DE PROGRAMAS INFORMÁTICOS, DE SISTEMAS DE INFORMACIÓN Y SERVICIOS CONEXOS; DISTRIBUCIÓN Y COMERCIALIZACIÓN DE TRATAMIENTOS INFORMÁTICOS. D) LA PRODUCCIÓN, ORGANIZACIÓN, MONTAJE E INSTALACIÓN DE CONCIERTOS, CONGRESOS, CONVENCIONES, ASAMBLEAS, GABINETES DE PRENSA, VERBENAS, REPRESENTACIONES Y ACTOS PÚBLICOS; ASÍ COMO LA PROMOCIÓN, REPRESENTACIÓN, ORGANIZACIÓN Y PUESTA EN MARCHA DE ESPECTÁCULOS DE TODO TIPO (CULTURALES, MUSICALES, DEPORTIVOS, DE VARIEDADES O CUALESQUIERA OTROS), ASÍ COMO FERIAS, EXPOSICIONES, FOROS Y FESTIVALES DE CARÁCTER CULTURAL, LÚDICO O DE CUALQUIER OTRO TIPO. E) LA ELABORACIÓN DE CAMPAÑAS DE IMAGEN DE PERSONAS, OBJETOS, BIENES Y DISEÑOS, PARA SU PROMOCIÓN PÚBLICA Y PRIVADA. F) LA CONTRATACIÓN DE ARTISTAS Y LA PRESTACIÓN DE SERVICIOS A TODA CLASE DE PERSONAS Y EMPRESAS RELACIONADAS CON EL OCIO, LA CULTURA Y EL TIEMPO LIBRE. G) LA COMPRA, VENTA, DISTRIBUCIÓN, REPARACIÓN, COMERCIALIZACIÓN Y ALQUILER DE APARATOS Y ELEMENTOS INDIVIDUALIZADOS Y EN EQUIPO, POR CUENTA PROPIA O DE TERCEROS, AL POR MAYOR Y MENOR, DE APARATOS Y MATERIALES DESTINADOS A LA INDUSTRIA ELÉCTRICA, MECÁNICA, HIDRÁULICA, TELECOMUNICACIÓN Y ELECTRÓNICA; Y LA IMPORTACIÓN Y EXPORTACIÓN DE DICHOS APARATOS Y ELEMENTOS\n",
      "mainEntityOfPage": "https://www.contratacion.euskadi.eus/webkpe00-kperoc/es/ac71aBusquedaRegistrosWar/empresa/03154",
      "_links": {
        "self": {
          "name": "INNEVENTO COMUNICACIONES EN VIVO, S.A.",
          "href": "https://api.euskadi.eus/procurements/companies/03154"
        }
      }
    },
    {
      "name": "STEP, LANGUAGE SERVICES, S.L.",
      "registrationNumber": "02116",
      "identificationNumber": "B48549174",
      "address": "C/ RODRÍGUEZ ARIAS, 23 - 5º - DPTO. 5 ",
      "location": {
        "postalCode": "48011",
        "municipality": "Bilbao",
        "county": "Bizkaia",
        "municipalityId": "020",
        "countyId": "48"
      },
      "economicActivities": [
        {
          "id": "1.755.2",
          "name": "Servicios prestados al público por las agencias de viajes",
          "_links": {
            "self": {
              "name": "Servicios prestados al público por las agencias de viajes",
              "href": "https://api.euskadi.eus/procurements/companies/economic-activities/1.755.2"
            }
          }
        }
      ],
      "certificateStartDate": "2026-01-12",
      "certificateEndDate": "2026-06-20",
      "object": "LA ORGANIZACIÓN DE CURSOS DE IDIOMAS EN EL EXTRANJERO Y EN ESPAÑA Y DE LOS VIAJES NECESARIOS PARA SU REALIZACIÓN, ORGANIZACIÓN DE CURSOS EN FORMACIÓN Y ENSEÑANZA DE TODO TIPO Y NIVEL, TANTO EN ESPAÑA COMO EN EL EXTRANJERO; CONSULTORÍA LINGÜISTICA Y DE FORMACIÓN, GESTIÓN DE INTERCAMBIOS Y PRÁCTICAS DE FORMACIÓN; ELABORACIÓN DE MATERIAL DE ENSEÑANZA Y FORMACIÓN EN CUALQUIER SOPORTE E INTERPRETACIÓN PRESENCIAL O A DISTANCIA, TRADUCCIONES Y ORGANIZACIÓN DE CONGRESOS",
      "mainEntityOfPage": "https://www.contratacion.euskadi.eus/webkpe00-kperoc/es/ac71aBusquedaRegistrosWar/empresa/02116",
      "_links": {
        "self": {
          "name": "STEP, LANGUAGE SERVICES, S.L.",
          "href": "https://api.euskadi.eus/procurements/companies/02116"
        }
      }
    },
    {
      "name": "DISTRIBUCIÓN DE MÉDICA GUIPUZCOANA, S.L.",
      "registrationNumber": "00383",
      "identificationNumber": "B20173654",
      "address": "C/ PLAZA DEL CEDRO, Nº 7 - 1º IZDA.",
      "location": {
        "postalCode": "20016",
        "municipality": "Donostia / San Sebastián",
        "county": "Gipuzkoa",
        "municipalityId": "069",
        "countyId": "20"
      },
      "economicActivities": [
        {
          "id": "1.619.2",
          "name": "Venta al por mayor de aparatos e instrumentos médicos, ortopédicos, ópticos",
          "_links": {
            "self": {
              "name": "Venta al por mayor de aparatos e instrumentos médicos, ortopédicos, ópticos",
              "href": "https://api.euskadi.eus/procurements/companies/economic-activities/1.619.2"
            }
          }
        }
      ],
      "certificateStartDate": "2026-01-12",
      "certificateEndDate": "2026-06-09",
      "object": "LA COMPRA Y VENTA DE MATERIAL QUIRÚRGICO, INCLUYENDO MATERIALES DE LABORATORIO Y MATERIALES DESECHABLES",
      "mainEntityOfPage": "https://www.contratacion.euskadi.eus/webkpe00-kperoc/es/ac71aBusquedaRegistrosWar/empresa/00383",
      "_links": {
        "self": {
          "name": "DISTRIBUCIÓN DE MÉDICA GUIPUZCOANA, S.L.",
          "href": "https://api.euskadi.eus/procurements/companies/00383"
        }
      }
    },
    {
      "name": "AREETA ALAVA, S.L.",
      "registrationNumber": "02992",
      "identificationNumber": "B01112663",
      "address": "C/ZUMETA, 3 BAJO",
      "location": {
        "postalCode": "01200",
        "municipality": "Agurain/Salvatierra",
        "county": "Araba/Álava",
        "municipalityId": "051",
        "countyId": "01"
      },
      "economicActivities": [
        {
          "id": "1.849.9",
          "name": "Otros servicios independientes n.c.o.p",
          "_links": {
            "self": {
              "name": "Otros servicios independientes n.c.o.p",
              "href": "https://api.euskadi.eus/procurements/companies/economic-activities/1.849.9"
            }
          }
        },
        {
          "id": "1.922",
          "name": "Servicios de limpieza",
          "_links": {
            "self": {
              "name": "Servicios de limpieza",
              "href": "https://api.euskadi.eus/procurements/companies/economic-activities/1.922"
            }
          }
        }
      ],
      "certificateStartDate": "2026-01-12",
      "certificateEndDate": "2026-06-22",
      "object": "EL MANTENIMIENTO GENERAL Y ESPECIALMENTE LA LIMPIEZA, DE TODO TIPO DE EDIFICIOS Y ESTABLECIMIENTOS PÚBLICOS O PRIVADOS, ASÍ COMO REALIZAR TRABAJOS DE JARDINERIA Y TRABAJOS FORESTALES EN GENERAL, REALIZAR TRABAJOS DE SALVAMENTO Y SOCORRISMO, CURSOS Y ENSEÑANZAS DEPORTIVAS ASÍ COMO FORMACIÓN Y CAPACITACIÓN DE PERSONAL, LIMPIEZA VIARIA Y REPOSICIÓN DE MOBILIARIO URBANO, DESAGÜES Y CANALIZACIONES, RECOGIDA DE RESIDUOS Y VENTA DE PRODUCTOS, RELACIONADOS CON EL OBJETO SOCIAL. SERVICIOS SOCIALES PARA LA TERCERA EDAD, MENORES Y COLECTIVOS VULNERABLES. SERVICIOS DE GESTIÓN Y ASESORÍA PARA EMPRESAS, PARTICULARES Y DE ADMINISTRACIÓN",
      "mainEntityOfPage": "https://www.contratacion.euskadi.eus/webkpe00-kperoc/es/ac71aBusquedaRegistrosWar/empresa/02992",
      "_links": {
        "self": {
          "name": "AREETA ALAVA, S.L.",
          "href": "https://api.euskadi.eus/procurements/companies/02992"
        }
      }
    },
    {
      "name": "LANKEI-BULEGOAK, S.L.",
      "registrationNumber": "09167",
      "identificationNumber": "B48982862",
      "address": "Gardotza Industrialdea 32",
      "location": {
        "postalCode": "48710",
        "municipality": "Berriatua",
        "county": "Bizkaia",
        "municipalityId": "018",
        "countyId": "48"
      },
      "economicActivities": [
        {
          "id": "1.659.2",
          "name": "Venta al por menor de muebles de oficina y máquinas y equipos de oficina",
          "_links": {
            "self": {
              "name": "Venta al por menor de muebles de oficina y máquinas y equipos de oficina",
              "href": "https://api.euskadi.eus/procurements/companies/economic-activities/1.659.2"
            }
          }
        }
      ],
      "certificateStartDate": "2026-01-12",
      "certificateEndDate": "2026-06-22",
      "object": "VENTA E INSTALACIÓN DE EQUIPOS OFIMÁTICOS.",
      "mainEntityOfPage": "https://www.contratacion.euskadi.eus/webkpe00-kperoc/es/ac71aBusquedaRegistrosWar/empresa/09167",
      "_links": {
        "self": {
          "name": "LANKEI-BULEGOAK, S.L.",
          "href": "https://api.euskadi.eus/procurements/companies/09167"
        }
      }
    },
    {
      "name": "PIXEL IKUS-ENTZUNEZKO EKOIZPENAK, S.L.",
      "registrationNumber": "06027",
      "identificationNumber": "B20883831",
      "address": "Ama Kandida, 21 Pab. 410 Polígono Denac",
      "location": {
        "postalCode": "20140",
        "municipality": "Andoain",
        "county": "Gipuzkoa",
        "municipalityId": "009",
        "countyId": "20"
      },
      "economicActivities": [
        {
          "id": "1.355.2",
          "name": "Edición de soportes grabados de sonido, vídeo y de informática",
          "_links": {
            "self": {
              "name": "Edición de soportes grabados de sonido, vídeo y de informática",
              "href": "https://api.euskadi.eus/procurements/companies/economic-activities/1.355.2"
            }
          }
        },
        {
          "id": "1.961.1",
          "name": "Producción de películas cinematográficas (incluso vídeos)",
          "_links": {
            "self": {
              "name": "Producción de películas cinematográficas (incluso vídeos)",
              "href": "https://api.euskadi.eus/procurements/companies/economic-activities/1.961.1"
            }
          }
        },
        {
          "id": "1.962.1",
          "name": "Distribución y venta de películas",
          "_links": {
            "self": {
              "name": "Distribución y venta de películas",
              "href": "https://api.euskadi.eus/procurements/companies/economic-activities/1.962.1"
            }
          }
        }
      ],
      "certificateStartDate": "2026-01-12",
      "certificateEndDate": "2026-06-22",
      "object": "REALIZACIÓN DE TRABAJOS DE GRABACIÓN DE VÍDEO. PRODUCCIÓN CINEMATOGRÁFICA O AUDIOVISUAL",
      "mainEntityOfPage": "https://www.contratacion.euskadi.eus/webkpe00-kperoc/es/ac71aBusquedaRegistrosWar/empresa/06027",
      "_links": {
        "self": {
          "name": "PIXEL IKUS-ENTZUNEZKO EKOIZPENAK, S.L.",
          "href": "https://api.euskadi.eus/procurements/companies/06027"
        }
      }
    },
    {
      "name": "SUMINISTROS MEDICOS DEL NORTE, S.A.",
      "registrationNumber": "03765",
      "identificationNumber": "A74201534",
      "address": "POL. IND. LA BARREDA, C/ VEGA Nº 5 - 33180 - NOREÑA - ASTURIAS",
      "location": {
        "postalCode": "33180",
        "municipality": "Noreña",
        "county": "Asturias",
        "municipalityId": "042",
        "countyId": "33"
      },
      "economicActivities": [
        {
          "id": "1.619.2",
          "name": "Venta al por mayor de aparatos e instrumentos médicos, ortopédicos, ópticos",
          "_links": {
            "self": {
              "name": "Venta al por mayor de aparatos e instrumentos médicos, ortopédicos, ópticos",
              "href": "https://api.euskadi.eus/procurements/companies/economic-activities/1.619.2"
            }
          }
        }
      ],
      "certificateStartDate": "2026-01-12",
      "certificateEndDate": "2026-06-22",
      "object": "A) LA FABRICACIÓN, TRANSFORMACIÓN, DISTRIBUCIÓN Y COMERCIALIZACIÓN DE PRODUCTOS FARMACÉUTICOS E HIGIENICOS, SUSTANCIAS DIETÉTICAS PARA USO MÉDICO, ALIMENTOS PARA BEBÉS, EMPLASTOS, MATERIAL PARA CURAS (APÓSITOS), MATERIAL PARA EMPASTAR LOS DIENTES Y PARA MOLDES DENTALES, DESINFECTANTES, PRODUCTOS PARA LA DESTRUCCIÓN DE LOS ANIMALES DAÑINOS, FUNGICIDAS Y HERBICIDAS. B) LA FABRICACIÓN, TRANSFORMACIÓN, DISTRIBUCIÓN Y COMERCIALIZACIÓN DE APARATOS E INSTRUMENTOS QUIRÚRGICOS, MÉDICOS, DENTALES Y VETERINARIOS, MIEMBROS, OJOS Y DIENTES ARTIFICIALES, ARTÍCULOS ORTOPÉDICOS, MATERIAL DE SUTURA E IDÉNTICOS APARATOS A LOS ANTERIORES DESECHABLES; ASÍ COMO EL ALQUILER DE MAQUINARIA Y EQUIPOS RELACIONADOS CON TODO LO ANTERIOR. C) LA REALIZACIÓN DE SERVICIOS DE ALMACENAMIENTO, DISTRIBUCIÓN Y TRANSPORTE DE TODO TIPO DE MATERIAL PARA LABORATORIO Y HOSPITALES. D) LA REALIZACIÓN DE NEGOCIOS INMOBILIARIOS DE TODA ÍNDOLE Y, CONSIGUIENTEMENTE, LA ADQUISICIÓN, ENAJENACIÓN Y GRAVAMEN, POR CUALQUIER TÍTULO LEGITIMO, DE BIENES INMUEBLES, RUSTICOS O URBANOS; LA CONSTRUCCIÓN DE LOS MISMOS, YA LA REALICE EN FORMA DIRECTA O INDIRECTA; LA PROMOCIÓN Y GESTIÓN DE SU ORDENACIÓN URBANA Y SU DESARROLLO, EN TODAS SUS ETAPAS, TRÁMITES Y MODALIDADES; LA EXPLOTACIÓN Y ADMINISTRACIÓN DE LOS REFERIDOS BIENES DE CUALQUIER FORMA LÍCITA, INCLUSO MEDIANTE EL DESARROLLO DE ACTIVIDADES DEL RAMO TURÍSTICO Y DE LA HOSTELERÍA. E) LA REALIZACIÓN DE LA ACTIVIDAD DE MEDIACIÓN DE SEGUROS COMO CORREDOR DE SEGUROS, DE CONFORMIDAD CON LO DISPUESTOEN LA LEY SOBRE ORDENACIÓN DEL SEGURO PRIVADO, SU REGLAMENTO Y DISPOSICIONES COMPLEMENTARIAS, A LAS QUE LA SOCIEDAD SE ENCUENTRE SOMETIDA, PREVIOEL CUMPLIMIENTO DE LOS REQUISITOS EN ELLAS EXIGIDOS. F) LA REALIZACIÓN, DIRECTA O INDIRECTAMENTE, PARA SI O POR CUENTA DE TERCERSOS, DE TODA CLASE DE OPERACIONES MONETARIAS, BANCARIAS O FINANCIERAS, YA SEAN DE EMISIÓN, DE DEPÓSITO, DE DESCUENTO, DE CRÉDITO, DE SERVICIOS O DE MEDIACIÓN. G) LA REALIZACIÓN DE TODA CLASE DE ACTIVIDADES, OBRAS Y SERVICIOS PROPIOS O RELACIONADOS CON LOS NEGOCIOS DE PRODUCCIÓN, TRANSPORTE, TRANSFORMACIÓN Y DISTRIBUCIÓN O COMERCIALIZACIÓN DE ENERGÍA ELÉCTRICA O DERIVADOS DE LA ELECTRICIDAD, DE SUS APLICACIONES Y DE LAS MATERIAS O ENERGÍAS PRIMARIAS NECESARIAS PARA SU GENERACIÓN.",
      "mainEntityOfPage": "https://www.contratacion.euskadi.eus/webkpe00-kperoc/es/ac71aBusquedaRegistrosWar/empresa/03765",
      "_links": {
        "self": {
          "name": "SUMINISTROS MEDICOS DEL NORTE, S.A.",
          "href": "https://api.euskadi.eus/procurements/companies/03765"
        }
      }
    },
    {
      "name": "ATEKA INICIATIVAS Y PROYECTOS SOCIALES, S.L.",
      "registrationNumber": "07060",
      "identificationNumber": "B01293901",
      "address": "C/Canciller Ayala, 8-bajo",
      "location": {
        "postalCode": "01004",
        "municipality": "Vitoria-Gasteiz",
        "county": "Araba/Álava",
        "municipalityId": "059",
        "countyId": "01"
      },
      "economicActivities": [
        {
          "id": "1.952",
          "name": "Asistencia y servicios sociales en centros no residenciales",
          "_links": {
            "self": {
              "name": "Asistencia y servicios sociales en centros no residenciales",
              "href": "https://api.euskadi.eus/procurements/companies/economic-activities/1.952"
            }
          }
        }
      ],
      "certificateStartDate": "2026-01-12",
      "certificateEndDate": "2026-06-22",
      "object": "LA PRESTACIÓN DE SERVICIOS SOCIALES, ASISTENCIALES, EDUCATIVOS Y CULTURALES ASÍ COMO DE FORMACIÓN Y CURSOS RELACIONADOS CON LAS CIENCIAS HUMANAS",
      "mainEntityOfPage": "https://www.contratacion.euskadi.eus/webkpe00-kperoc/es/ac71aBusquedaRegistrosWar/empresa/07060",
      "_links": {
        "self": {
          "name": "ATEKA INICIATIVAS Y PROYECTOS SOCIALES, S.L.",
          "href": "https://api.euskadi.eus/procurements/companies/07060"
        }
      }
    },
    {
      "name": "Walt HR Evolus, S.L.",
      "registrationNumber": "05688",
      "identificationNumber": "B95781019",
      "address": "Elcano 14, 2º Izda.",
      "location": {
        "postalCode": "48008",
        "municipality": "Bilbao",
        "county": "Bizkaia",
        "municipalityId": "020",
        "countyId": "48"
      },
      "economicActivities": [
        {
          "id": "1.849.6",
          "name": "Servicios de colocación y suministro de personal",
          "_links": {
            "self": {
              "name": "Servicios de colocación y suministro de personal",
              "href": "https://api.euskadi.eus/procurements/companies/economic-activities/1.849.6"
            }
          }
        }
      ],
      "certificateStartDate": "2026-01-12",
      "certificateEndDate": "2026-06-08",
      "object": "LA SELECCIÓN DE PERSONAL, EL ASESORAMIENTO, CONSULTORÍA Y PROVISIÓN DE RECURSOS HUMANOS, LA FORMACIÓN Y ACTIVIDADES EDUCATIVAS, Y LA SUBCONTRATACIÓN DE SERVICIOS",
      "mainEntityOfPage": "https://www.contratacion.euskadi.eus/webkpe00-kperoc/es/ac71aBusquedaRegistrosWar/empresa/05688",
      "_links": {
        "self": {
          "name": "Walt HR Evolus, S.L.",
          "href": "https://api.euskadi.eus/procurements/companies/05688"
        }
      }
    },
    {
      "name": "LEYCOLAN, S.A.L.",
      "registrationNumber": "05763",
      "identificationNumber": "A75141275",
      "address": "Zumartegi Industrialdea- Erribera kalea, 4",
      "location": {
        "postalCode": "20170",
        "municipality": "Usurbil",
        "county": "Gipuzkoa",
        "municipalityId": "073",
        "countyId": "20"
      },
      "economicActivities": [
        {
          "id": "1.504.1",
          "name": "Instalaciones eléctricas en general",
          "_links": {
            "self": {
              "name": "Instalaciones eléctricas en general",
              "href": "https://api.euskadi.eus/procurements/companies/economic-activities/1.504.1"
            }
          }
        }
      ],
      "certificateStartDate": "2026-01-12",
      "certificateEndDate": "2026-06-29",
      "object": "EL DISEÑO, DESARROLLO, PRODUCCIÓN Y COMERCIALIZACIÓN DE SISTEMAS DE ILUMINACIÓN, EL CONTROL Y TELE-GESTIÓN DE LOS MISMOS, SU INSTALACIÓN Y MANTENIMIENTO, EL ASESORAMIENTO, LA  CONSULTORÍA Y LA FORMACIÓN EN LAS CITADAS MATERIAS, Y LA PRESTACIÓN DE SERVICIOS TECNOLÓGICOS, TANTO PARA USOS PÚBLICOS COMO PRIVADOS Y DE ALUMBRADO EXTERIOR E INTERIOR",
      "mainEntityOfPage": "https://www.contratacion.euskadi.eus/webkpe00-kperoc/es/ac71aBusquedaRegistrosWar/empresa/05763",
      "_links": {
        "self": {
          "name": "LEYCOLAN, S.A.L.",
          "href": "https://api.euskadi.eus/procurements/companies/05763"
        }
      }
    }
  ]
}