{
  "totalItems": 9042,
  "totalPages": 905,
  "currentPage": 545,
  "itemsOfPage": 10,
  "items": [
    {
      "name": "LABORATORIOS MACRIMASA HEALTHCARE, S.L.",
      "registrationNumber": "07477",
      "identificationNumber": "B93493567",
      "address": "calle Marie Curie,3",
      "location": {
        "postalCode": "29590",
        "municipality": "Málaga",
        "county": "Málaga",
        "municipalityId": "067",
        "countyId": "29"
      },
      "economicActivities": [
        {
          "id": "1.991",
          "name": "Prestación de servicios por sociedades de desarrollo industrial",
          "_links": {
            "self": {
              "name": "Prestación de servicios por sociedades de desarrollo industrial",
              "href": "https://api.euskadi.eus/procurements/companies/economic-activities/1.991"
            }
          }
        }
      ],
      "certificateStartDate": "2021-02-02",
      "certificateEndDate": "2021-07-22",
      "object": "1. LA IMPORTACIÓN, EXPORTACIÓN, DISTRIBUCIÓN Y COMERCIALIZACIÓN, MONTAJE, INSTALACIÓN Y MANTENIMIENTO DE EQUIPOS, APARATOS E INSTRUMENTAL DE ELECTROMEDICINA, RADIODIAGNÓSTICO Y DIAGNÓSTICO POR IMAGEN, RESONANCIA MAGNÉTICA, RADIOTERAPIA, RADIOLOGÍA DIGITAL E INSTRUMENTAL. 2. L A IMPORTACIÓN, EXPORTACIÓN, DISTRIBUCIÓN Y COMERCIALIZACIÓN AL POR MAYOR Y AL POR MENOR DE PRODUCTOS DEL CUIDADO DE LA SALUD, PARAFARMACIA Y DE ESTÉTICA PARA HUMANOS. 3. EL SUMINISTRO DE LOS PRODUCTOS Y EQUIPAMIENTO DE SALUD IDENTIFICADOS EN EL PUNTO 1  Y 2 ANTERIOR A CENTROS DE SALUD, FARMACIAS, PARAFARMACIAS, CLÍNICAS, GERIÁTRICOS Y HOSPITALES, PROPORCIONANDO SERVICIOS DE INSTALACIÓN Y MANTENIMIENTO DEL EQUIPAMIENTO. 4. PRESTACIÓN DE SERVICIOS DESTINADOS A LA FORMACIÓN PROFESIONAL Y ACADÉMICA DE PROFESIONALES DEL SECTOR SANITARIO Y FARMACÉUTICO DE ESPECIALIDAD HUMANA, ORGANIZANDO CURSOS DE CAPACITACIÓN, ADIESTRAMIENTO, ESPECIALIZACIONES, MAESTRÍAS, CONFERENCIAS, MESAS REDONDAS, JORNADAS, CONGRESOS, TALLERES, SIMPOSIOS Y CONVENCIONES CIENTÍFICAS EN COLABORACIÓN CON INSTITUCIONES NACIONALES O EXTRANJERAS. EDITAR PERIÓDICOS, FOLLETOS, REVISTAS Y DEMÁS MEDIOS GRÁFICOS DE COMUNICACIÓN SOCIAL, CON EL OBJETO DE PROMOVER LA EDUCACIÓN Y CULTURA EN MATERIA SANITARIA Y FARMACÉUTICA DE HUMANOS; Y RELACIONES CON ASOCIACIONES, INSTITUCIONES Y OTRAS ENTIDADES, NACIONALES O EXTRANJERAS, VINCULADAS CON EL OBJETO DE ESTA SOCIEDAD. 5. OBTENER LOS RECURSOS NECESARIOS PARA CUMPLIR CON EL OBJETO SOCIAL, ASÍ COMO ADQUIRIR Y TRANSMITIR BIENES MUEBLES E INMUEBLES NECESARIOS PARA EL CUMPLIMIENTO DE SUS FINALIDADES SOCIALES. 6. EL DESARROLLO DE SOFTWARE DE CONSULTORÍA TECNOLÓGICA DEL SECTOR SALUD; SERVICIOS DE ASESORÍA Y CONSULTORÍA DE TECNOLOGÍAS Y PRODUCTOS TECNOLÓGICOS TRABAJOS DE IMPLANTACIÓN DE HERRAMIENTAS Y SOLUCIONES ERP DEL SECTOR SALUD Y DESARROLLO DE APLICACIONES WEB Y DISPOSITIVOS MÓVILES, Y LA PARTICIPACIÓN Y DIRECCIÓN DE PROYECTOS TECNOLÓGICOS PARA EL SECTOR SALUD",
      "mainEntityOfPage": "https://www.contratacion.euskadi.eus/webkpe00-kperoc/es/ac71aBusquedaRegistrosWar/empresa/07477",
      "_links": {
        "self": {
          "name": "LABORATORIOS MACRIMASA HEALTHCARE, S.L.",
          "href": "https://api.euskadi.eus/procurements/companies/07477"
        }
      }
    },
    {
      "name": "ARNAIZ ASC21, S.L.",
      "registrationNumber": "07478",
      "identificationNumber": "B38822631",
      "address": "Calle Vitoriabidea Nº8",
      "location": {
        "postalCode": "01010",
        "municipality": "Vitoria-Gasteiz",
        "county": "Araba/Álava",
        "municipalityId": "059",
        "countyId": "01"
      },
      "economicActivities": [
        {
          "id": "1.501.1",
          "name": "Construcción completa, reparación y conservación de edificaciones",
          "_links": {
            "self": {
              "name": "Construcción completa, reparación y conservación de edificaciones",
              "href": "https://api.euskadi.eus/procurements/companies/economic-activities/1.501.1"
            }
          }
        }
      ],
      "certificateStartDate": "2021-02-02",
      "certificateEndDate": "2021-07-07",
      "object": "A) LA COMPRAVENTA E INTERMEDIACIÓN DE TODA CLASE DE FINCAS RÚSTICAS Y URBANAS, LA PROMOCIÓN Y CONSTRUCCIÓN SOBRE LAS MISMAS DE TODA CLASE DE EDIFICACIONES, SU REHABILITACIÓN, VENTA O ARRENDAMIENTO   NO FINANCIERO, Y LA CONSTRUCCIÓN DE TODA CLASE DE OBRAS PÚBLICAS O PRIVADAS. INSTALACIONES DE CUALQUIER NATURALEZA, DECORACIÓN Y ACABADO DE TODO TIPO DE INMUEBLES, ASÍ COMO SUS REPARACIONES Y MANTENIMIENTOS POSTERIORES. COMPRAVENTA, COMERCIO AL POR MAYOR Y MENOR, IMPORTACIÓN Y EXPORTACIÓN DE TODO TIPO DE MATERIALES DE CONSTRUCCIÓN Y MAQUINARIA RELACIONADA. SERVICIOS DE CONTROL, CONSERJERÍA Y GUARDERÍA DE INMUEBLES. LA COMPRAVENTA Y COMERCIALIZACIÓN DE DERECHOS DE APROVECHAMIENTO POR TURNOS DE BIENES INMUEBLES. EL ESTUDIO, DESARROLLO, COMERCIALIZACIÓN, PLANIFICACIÓN PUBLICITARIA Y MARKETING DE APROVECHAMIENTO POR TURNOS DE BIENES INMUEBLES, OFERTAS Y ESTANCIAS VACACIONALES Y DE TIEMPO COMPARTIDO. GESTIÓN URBANÍSTICA DEL SUELO, REDACCIÓN DE PROYECTOS DE ARQUITECTURA, INGENIERÍA Y URBANISMO A TRAVÉS DE- LOS OPORTUNOS PROFESIONALES. B) LA IMPORTACIÓN Y EXPORTACIÓN DE PRODUCTOS ALIMENTICIOS, BEBIDAS Y TABACO, ASÍ COMO LA DISTRIBUCIÓN, INTERMEDIACIÓN, EL COMERCIO AL POR MAYOR Y AL POR MENOR, LA ELABORACIÓN Y MANIPULADO DE DICHOS PRODUCTOS, EL ENVASADO DE CONSERVAS, LA INSPECCIÓN, EL CONTROL, LA CERTIFICACIÓN Y LA CALIFICACIÓN DE CALIDAD Y DENOMINACIONES DE ORIGEN CORRESPONDIENTE A TODO TIPO DE PRODUCTOS. LA EXPLOTACIÓN AGRÍCOLA, GANADERA, AVÍCOLA, PECUARIA Y DE ANÁLOGA NATURALEZA. ACTIVIDADES VETERINARIAS.  C)LA FABRICACIÓN, IMPORTACIÓN, EXPORTACIÓN, LA INTERMEDIACIÓN Y EL COMERCIO AL POR MAYOR Y MENOR DE MÁQUINAS Y MATERIAL RELACIONADO CON ORDENADORES Y PROGRAMAS PARA LOS MISMOS, APARATOS ELÉCTRICOS Y ELECTRÓNICOS, TELEFONÍA MÓVIL Y FIJA, MÁQUINAS DE OFICINA, DESARROLLO DE PROGRAMAS, ASESORAMIENTO TÉCNICO E INFORMÁTICO, SERVICIOS DE TELEFONÍA MÓVIL Y FIJA Y SU ACTUACIÓN COMO OPERADOR DE REDES, REPARACIÓN DE MÁQUINAS DE OFICINA, PROGRAMACIÓN DE AUTÓMATAS Y CONTROL INDUSTRIAL. PROCESOS DE DATOS. D)EL ASESORAMIENTO DE EMPRESAS Y PERSONAS FÍSICAS EN SU MÁS AMPLIA ACEPCIÓN, EN SU CASO, A TRAVÉS DE LOS OPORTUNOS PROFESIONALES TITULADOS. TASACIONES Y PERITACIONES. SERVICIOS DE SECRETARIA Y TRADUCCIONES. CURSILLOS Y SERVICIOS DE ENSEÑANZA DE TODO TIPO. SERVICIOS DE TELEMARKETING Y ATENCIÓN TELEFÓNICA PARA CLIENTES.-  E ) LA EXPLOTACIÓN DE SERVICIOS HOTELEROS, DISCOTECAS Y OTROS RELACIONADOS CON LA RESTAURACIÓN GASTRONÓMICA Y LOS ESPECTÁCULOS PÚBLICOS. F) EL DISEÑO, LA FABRICACIÓN, COMERCIO, INTERMEDIACIÓN Y ALQUILER NO FINANCIERO DE MAQUINARIA, EMBARCACIONES, AERONAVES, BICICLETAS, VEHÍCULOS PARA MINUSVÁLIDOS Y VEHÍCULOS AUTOMÓVILES. SU RESTAURACIÓN, REPARACIÓN Y MANTENIMIENTO POSTERIORES, ASÍ COMO DE TODO TIPO DE ACCESORIOS PARA LOS MISMOS. SUMINISTROS INDUSTRIALES. RECONSTRUCCIÓN Y RECAUCHUTADO DE NEUMÁTICOS. G) RECOGIDA Y TRATAMIENTO DE MATERIALES USADOS, RESIDUOS Y ENSERES DE USO DOMÉSTICO E INDUSTRIAL PARA SU RECICLADO Y OBTENCIÓN, DISTRIBUCIÓN Y COMERCIALIZACIÓN DE ENERGÍAS. DEPURACIÓN Y DISTRIBUCIÓN DE AGUA. REFINO, COMERCIALIZACIÓN, INTERMEDIACIÓN, ALMACENAMIENTO, Y DISTRIBUCIÓN DE PETRÓLEOS Y DERIVADOS Y LA EXPLOTACIÓN DE ESTACIONES DE SERVICIO. H) LA REALIZACIÓN DE ACTIVIDADES DE INTERNET, ASÍ COMO EL SUMINISTRO DE SERVICIOS DE INFORMACIÓN Y FORMACIÓN. SERVICIOS DE TELEMARKETING. I) LA EXPLOTACIÓN DE GUARDERÍAS INFANTILES, CENTROS GERIÁTRICOS DE DÍA Y RESIDENCIAS DE ANCIANOS, CENTROS SANITARIOS Y DE ANÁLISIS Y RECONOCIMIENTOS MÉDICOS. POMPAS FÚNEBRES Y SERVICIOS RELACIONADOS, ASÍ COMO SERVICIOS SOCIALES DE TODO TIPO. J) COMERCIO DE ANIMALES DOMÉSTICOS Y EN SU CASO DE LOS EXÓTICOS DEBIDAMENTE AUTORIZADOS. SERVICIOS COMPLEMENTARIOS DE RESIDENCIA, PELUQUERÍA Y CUIDADOS SANITARIOS. VENTA DE PRODUCTOS DE   ALIMENTACIÓN ANIMAL Y COMPLEMENTOS. K) LA COMPRAVENTA, ELABORACIÓN Y TRANSFORMACIÓN DE PIELES Y CURTIDOS; DISEÑO, FABRICACIÓN, CORTADOS, APARADOS Y ACABADO DE TODO TIPO DE CALZADOS, ARTÍCULOS DE GUARNICIONERÍA, MARROQUINERÍA Y TALABARTERÍA. SU COMERCIO E INTERMEDIACIÓN AL POR MAYOR Y MENOR, ASÍ COMO SU IMPORTACIÓN Y EXPORTACIÓN. L)  LA FABRICACIÓN, COMPRAVENTA, INTERMEDIACIÓN Y EXPLOTACIÓN, POR CUENTA PROPIA O AJENA DE MÁQUINAS EXPENDEDORAS. LL) LA FABRICACIÓN, COMERCIO E INTERMEDIACIÓN DE PRODUCTOS QUÍMICOS Y SINTÉTICOS, PLÁSTICOS, PASTA PAPELERA, PAPEL, CARTÓN, ENVASES, BOLSAS, RÓTULOS, MATERIAL FOTOGRÁFICO Y SERVICIOS DE REVELADO. M)LA FABRICACIÓN, IMPORTACIÓN, EXPORTACIÓN, COMPRAVENTA, COMERCIO AL POR MENOR Y MAYOR, ASÍ COMO LA DISTRIBUCIÓN E INTERMEDIACIÓN DE TODO TIPO DE ARTÍCULOS SANITARIOS, HIGIÉNICOS, DE LIMPIEZA, DE BELLEZA, DE HOGAR, DE REGALO, JUGUETES, INSTRUMENTOS MUSICALES, DECORACIÓN, ELECTRODOMÉSTICOS. MOBILIARIO, PORCELANA, CRISTALERÍA, JOYERÍA, BISUTERÍA, ÓPTICA, EQUIPOS FOTOGRÁFICOS, FLORAS  PLANTAS Y ARTÍCULOS DE DEPORTE. RECLAMOS PUBLICITARIOS DE TODO TIPO, ASÍ COMO LOS SERVICIOS RELACIONADOS CON LA PUBLICIDAD Y PROMOCIÓN EMPRESARIAL. N) IMPORTACIÓN, EXPORTACIÓN, INTERMEDIACIÓN Y COMERCIO AL POR MENOR Y MAYOR DE MADERAS, CORCHO, CESTERÍA, ESPARTERÍA, METALES DE  FUNDICIÓN, ESTIRADO, LAMINACIÓN Y OTROS MANIPULADOS. LA INDUSTRIA DEL MÁRMOL Y PIEDRA NATURAL O ARTIFICIAL. INSTALACIONES Y MONTAJES DE CARPINTERÍA METÁLICA Y TRADICIONAL Y EL ARRIENDO NO FINANCIERO DE LOS MISMOS EN FORMA DE TARIMAS Y SIMILARES. EXPLOTACIÓN FORESTAL. Ñ) MANTENIMIENTO Y LIMPIEZA DE VIVIENDAS, JARDINES Y ANEXOS, LOCALES COMERCIALES Y OTROS BIENES INMUEBLES. LIMPIEZA DE BIENES MUEBLES. SERVICIOS DE GUARDAMUEBLES Y DEPÓSITO Y ALMACENAMIENTO DE MERCANCÍAS. O) IMPORTACIÓN, EXPORTACIÓN, DISEÑO, FABRICACIÓN, INTERMEDIACIÓN Y COMERCIALIZACIÓN AL POR MENOR Y MAYOR DE TODO TIPO DE ARTÍCULOS TEXTILES Y COMPLEMENTOS PARA LA MODA DE SEÑORA Y CABALLERO. P) LA IMPORTACIÓN, EXPORTACIÓN, COMPRAVENTA, FABRICACIÓN, DISEÑO, INTERMEDIACIÓN Y COMERCIALIZACIÓN DE TODO TIPO DE PRODUCTOS PARA LA INDUSTRIAL CERÁMICA, MOLDES, TROQUELES Y SUS DERIVADOS. Q) GESTIÓN Y ADMINISTRACIÓN DE VALORES REPRESENTATIVOS DE LOS FONDOS PROPIOS DE ENTIDADES NO RESIDENTES EN TERRITORIO ESPAÑOL, MEDIANTE LA CORRESPONDIENTE ORGANIZACIÓN DE MEDIOS MATERIALES Y PERSONALES. R)  EXHIBICIÓN, EDICIÓN, IMPORTACIÓN, EXPORTACIÓN, DISTRIBUCIÓN, COMPRAVENTA Y ALQUILER DE TODO TIPO DE PRODUCTOS CINEMATOGRÁFICOS, MUSICALES, AUDIOVISUALES Y LIBROS Y OTRAS PUBLICACIONES EN SOPORTE PAPEL, ELECTRÓNICO, AUDIO O VIDEO, ENCUADERNACIONES, COMPOSICIÓN Y FOTOGRABADO. PARTICIPACIÓN EN TODO TIPO DE MUESTRAS, FESTIVALES, FERIAS, CERTÁMENES Y OTROS RELACIONADOS CON CUALQUIER INDUSTRIA O ACTIVIDAD ARTÍSTICA Y DE COMUNICACIÓN. REPRESENTACIÓN DE PROFESIONALES Y ARTISTAS. AGENCIA DE PUBLICIDAD Y RELACIONES PÚBLICAS.  DISEÑO, CONSTRUCCIÓN, MANTENIMIENTO Y EXPLOTACIÓN DE INSTALACIONES DEPORTIVAS. FORMACIÓN EN LOS CAMPOS ARTÍSTICOS Y DEPORTIVOS. IMPORTACIÓN, EXPORTACIÓN, COMPRAVENTA E INTERMEDIACIÓN DE OBRAS DE ARTE ASÍ COMO LA EXPLOTACIÓN DE GALERÍAS DE ARTE DE TODO TIPO.  S) DISEÑO, CONSTRUCCIÓN Y EXPLOTACIÓN DE PARQUES PRODUCTORES DE ENERGÍA EN TODAS SUS VARIANTES CONTEMPLADAS POR LA LEGISLACIÓN",
      "mainEntityOfPage": "https://www.contratacion.euskadi.eus/webkpe00-kperoc/es/ac71aBusquedaRegistrosWar/empresa/07478",
      "_links": {
        "self": {
          "name": "ARNAIZ ASC21, S.L.",
          "href": "https://api.euskadi.eus/procurements/companies/07478"
        }
      }
    },
    {
      "name": "MOHAIR PRONTO MODA, S.L.",
      "registrationNumber": "07480",
      "identificationNumber": "B86792876",
      "address": "Colegiata 2",
      "location": {
        "postalCode": "28012",
        "municipality": "Madrid",
        "county": "Madrid",
        "municipalityId": "079",
        "countyId": "28"
      },
      "economicActivities": [
        {
          "id": "1.613.3",
          "name": "Venta al por mayor de prendas exteriores de vestir",
          "_links": {
            "self": {
              "name": "Venta al por mayor de prendas exteriores de vestir",
              "href": "https://api.euskadi.eus/procurements/companies/economic-activities/1.613.3"
            }
          }
        },
        {
          "id": "1.619.2",
          "name": "Venta al por mayor de aparatos e instrumentos médicos, ortopédicos, ópticos",
          "_links": {
            "self": {
              "name": "Venta al por mayor de aparatos e instrumentos médicos, ortopédicos, ópticos",
              "href": "https://api.euskadi.eus/procurements/companies/economic-activities/1.619.2"
            }
          }
        },
        {
          "id": "1.651.2",
          "name": "Venta al por menor de prendas de ropa para el vestido y tocado",
          "_links": {
            "self": {
              "name": "Venta al por menor de prendas de ropa para el vestido y tocado",
              "href": "https://api.euskadi.eus/procurements/companies/economic-activities/1.651.2"
            }
          }
        },
        {
          "id": "1.654.1",
          "name": "Venta al por menor de vehículos terrestres",
          "_links": {
            "self": {
              "name": "Venta al por menor de vehículos terrestres",
              "href": "https://api.euskadi.eus/procurements/companies/economic-activities/1.654.1"
            }
          }
        }
      ],
      "certificateStartDate": "2021-02-02",
      "certificateEndDate": "2021-06-23",
      "object": "1. CONSTITUCIÓN, INSTALACIÓN Y MANTENIMIENTO. 2. COMERCIO AL POR MAYOR Y AL POR MENOR. DISTRIBUCIÓN COMERCIA L. IMPORTACIÓN Y EXPORTACIÓN. 3. ACTIVIDADES INMOBILIARIAS. 4. INDUSTRIAL MANUFACTURERAS Y TEXTILES. 5. TURISMO, HOSTELERÍA Y RESTAURACIÓN. 6. PRESTACIÓN DE SERVICIOS. ACTIVIDADES DE GESTIÓN Y ADMINISTRACIÓN. SERVICIOS EDUCATIVOS, SANITARIOS, DE OCIO Y ENTRETENIMIENTO. 7. TRANSPORTE Y ALMACENAMIENTO. 8. INFORMACIÓN Y COMUNICACIONES. 9. AGRICULTURA, GANADERÍA Y PESCA. 10. INFORMÁTICA, TELECOMUNICACIONES Y OFIMÁTICA.  12. ENERGÍAS ALTERNATIVAS. 13. COMPRAVENTA Y REPARACIÓN DE VEHÍCULOS. REPARACIÓN Y MANTENIMIENTO DE INSTALACIONES Y MAQUINARIA. 14. INVESTIGACIÓN, DESARROLLO E INNOVACIÓN. 15.ACTIVIDADES CIENTÍFICAS Y TÉCNICAS\r\n",
      "mainEntityOfPage": "https://www.contratacion.euskadi.eus/webkpe00-kperoc/es/ac71aBusquedaRegistrosWar/empresa/07480",
      "_links": {
        "self": {
          "name": "MOHAIR PRONTO MODA, S.L.",
          "href": "https://api.euskadi.eus/procurements/companies/07480"
        }
      }
    },
    {
      "name": "EARKI ARKITEKTOAK S.COOP. PEQUEÑA. P.",
      "registrationNumber": "07475",
      "identificationNumber": "F75154286",
      "address": "POLIGONO AKARREGI 10- 2º PISO-OFICINA 211-212",
      "location": {
        "postalCode": "20120",
        "municipality": "Hernani",
        "county": "Gipuzkoa",
        "municipalityId": "040",
        "countyId": "20"
      },
      "economicActivities": [
        {
          "id": "1.843.2",
          "name": "Servicios técnicos de arquitectura y urbanismo",
          "_links": {
            "self": {
              "name": "Servicios técnicos de arquitectura y urbanismo",
              "href": "https://api.euskadi.eus/procurements/companies/economic-activities/1.843.2"
            }
          }
        }
      ],
      "certificateStartDate": "2021-02-01",
      "certificateEndDate": "2021-07-13",
      "object": "EJERCER EL CONJUNTO DE ACTIVIDADES PROFESIONALES DE ARQUITECTURA",
      "mainEntityOfPage": "https://www.contratacion.euskadi.eus/webkpe00-kperoc/es/ac71aBusquedaRegistrosWar/empresa/07475",
      "_links": {
        "self": {
          "name": "EARKI ARKITEKTOAK S.COOP. PEQUEÑA. P.",
          "href": "https://api.euskadi.eus/procurements/companies/07475"
        }
      }
    },
    {
      "name": "EFFICOLD, S.A.",
      "registrationNumber": "07476",
      "identificationNumber": "A14219836",
      "address": "CTRA CORDOBA MALAGA  KM 80.800  MARGEN INQUIERDA",
      "location": {
        "postalCode": "14900",
        "municipality": "Lucena",
        "county": "Córdoba",
        "municipalityId": "038",
        "countyId": "14"
      },
      "economicActivities": [
        {
          "id": "1.329.9",
          "name": "Construcción de otras máquinas y equipos mecánicos n.c.o.p",
          "_links": {
            "self": {
              "name": "Construcción de otras máquinas y equipos mecánicos n.c.o.p",
              "href": "https://api.euskadi.eus/procurements/companies/economic-activities/1.329.9"
            }
          }
        },
        {
          "id": "1.617.9",
          "name": "Venta al por mayor interindustrial de otros productos n.c.o.p",
          "_links": {
            "self": {
              "name": "Venta al por mayor interindustrial de otros productos n.c.o.p",
              "href": "https://api.euskadi.eus/procurements/companies/economic-activities/1.617.9"
            }
          }
        }
      ],
      "certificateStartDate": "2021-02-01",
      "certificateEndDate": "2021-07-04",
      "object": "EL DESARROLLO, FABRICACIÓN Y/O COMERCIALIZACIÓN DE MAQUINARIA DE REFRIGERACIÓN COMERCIAL E INDUSTRIAL, INCLUYENDO TODAS LAS ACTIVIDADES Y/O SERVICIOS RELACIONADOS CON SU ATENCIÓN POSTVENTA. LA FABRICACIÓN Y COMERCIALIZACIÓN DE PRODUCTOS SANITARIOS. REALIZAR OPERACIONES PATRIMONIALES DE ARRENDAMIENTO DE BIENES MUEBLES E INMUEBLES",
      "mainEntityOfPage": "https://www.contratacion.euskadi.eus/webkpe00-kperoc/es/ac71aBusquedaRegistrosWar/empresa/07476",
      "_links": {
        "self": {
          "name": "EFFICOLD, S.A.",
          "href": "https://api.euskadi.eus/procurements/companies/07476"
        }
      }
    },
    {
      "name": "LAN EDER ASESORES, S.L.",
      "registrationNumber": "07471",
      "identificationNumber": "B95745790",
      "address": "LERSUNDI 9 3º DPTO.5",
      "location": {
        "postalCode": "48009",
        "municipality": "Bilbao",
        "county": "Bizkaia",
        "municipalityId": "020",
        "countyId": "48"
      },
      "economicActivities": [
        {
          "id": "1.842",
          "name": "Servicios financieros y contables",
          "_links": {
            "self": {
              "name": "Servicios financieros y contables",
              "href": "https://api.euskadi.eus/procurements/companies/economic-activities/1.842"
            }
          }
        }
      ],
      "certificateStartDate": "2021-01-29",
      "certificateEndDate": "2021-05-16",
      "object": "-SERVICIOS DE ASESORAMIENTO INTEGRAL, GESTIÓN Y TRAMITACIÓN EN LOS ÁMBITOS LABORAL, FISCAL, CONTABLE, JURÍDICO, FINANCIERO E INFORMÁTICO TANTO A SOCIEDADES MERCANTILES, COMO PERSONAS FÍSICAS, FUNDACIONES, ASOCIACIONES U OTRO TIPO DE AGRUPACIONES, CON O SIN PERSONALIDAD JURÍDICA. -SERVICIOS DE CONSULTORÍA, ELABORACIÓN DE PLANES DE NEGOCIO Y VIABILIDAD, VALORACIÓN DE EMPRESAS, ESTUDIOS ECONÓMICO-FINANCIEROS, ASÍ COMO SERVICIOS DIRIGIDOS AL ÁREA DE RECURSOS HUMANOS, INCLUYENDO LA SELECCIÓN DE PERSONAL. -SERVICIOS DE ASESORAMIENTO Y ADMINISTRACIÓN DE FINCAS URBANAS, GESTIÓN DE COBROS Y PAGOS, ASÍ COMO GESTIÓN Y TRAMITACIÓN DE ARRENDAMIENTOS DE PROPIEDADES DE TERCEROS. -SERVICIOS DE INTERMEDIACIÓN INMOBILIARIA. -SERVICIOS OFICIALES DE GESTIÓN ADMINISTRATIVA ANTE LOS DIFERENTES ENTES PÚBLICOS. -PRESTACIÓN DE CURSOS DE FORMACIÓN RELACIONADOS CON LA ACTIVIDAD PRESTADA POR LA SOCIEDAD Y DIRIGIDOS TANTO A ENTIDADES PRIVADAS O MERCANTILES COMO ENTES U ORGANISMOS PÚBLICOS",
      "mainEntityOfPage": "https://www.contratacion.euskadi.eus/webkpe00-kperoc/es/ac71aBusquedaRegistrosWar/empresa/07471",
      "_links": {
        "self": {
          "name": "LAN EDER ASESORES, S.L.",
          "href": "https://api.euskadi.eus/procurements/companies/07471"
        }
      }
    },
    {
      "name": "YOLANDA DELGADO GARCIA",
      "registrationNumber": "07472",
      "identificationNumber": "11949960B",
      "address": "Tomas Alba kalea nº13 -2ºA",
      "location": {
        "postalCode": "20015",
        "municipality": "Astigarraga",
        "county": "Gipuzkoa",
        "municipalityId": "903",
        "countyId": "20"
      },
      "economicActivities": [
        {
          "id": "1.922.2",
          "name": "Servicios especializados de limpiezas (cristales, chimeneas)",
          "_links": {
            "self": {
              "name": "Servicios especializados de limpiezas (cristales, chimeneas)",
              "href": "https://api.euskadi.eus/procurements/companies/economic-activities/1.922.2"
            }
          }
        }
      ],
      "certificateStartDate": "2021-01-29",
      "certificateEndDate": "2021-06-01",
      "object": "SERVICIOS ESPECIALIZADOS DE LIMPIEZA (CRISTALES, CHIMENEAS)",
      "mainEntityOfPage": "https://www.contratacion.euskadi.eus/webkpe00-kperoc/es/ac71aBusquedaRegistrosWar/empresa/07472",
      "_links": {
        "self": {
          "name": "YOLANDA DELGADO GARCIA",
          "href": "https://api.euskadi.eus/procurements/companies/07472"
        }
      }
    },
    {
      "name": "CONSAUDI OBRA CIVIL SL",
      "registrationNumber": "05967",
      "identificationNumber": "B95704722",
      "address": "BARRIO EL CRUCERO 33",
      "location": {
        "postalCode": "48550",
        "municipality": "Muskiz",
        "county": "Bizkaia",
        "municipalityId": "071",
        "countyId": "48"
      },
      "economicActivities": [
        {
          "id": "1.501.1",
          "name": "Construcción completa, reparación y conservación de edificaciones",
          "_links": {
            "self": {
              "name": "Construcción completa, reparación y conservación de edificaciones",
              "href": "https://api.euskadi.eus/procurements/companies/economic-activities/1.501.1"
            }
          }
        },
        {
          "id": "1.501.2",
          "name": "Construcción completa, reparación y conservación obras civiles",
          "_links": {
            "self": {
              "name": "Construcción completa, reparación y conservación obras civiles",
              "href": "https://api.euskadi.eus/procurements/companies/economic-activities/1.501.2"
            }
          }
        }
      ],
      "certificateStartDate": "2021-01-28",
      "certificateEndDate": "2021-07-20",
      "object": "1.- LA ADQUISICIÓN, EXPLOTACIÓN, TENENCIA, ARRENDAMIENTO Y ENAJENACIÓN DE INMUEBLES INCLUIDA LA URBANIZACIÓN Y PARCELACIÓN DE TERRENOS; LA PROMOCIÓN, GESTIÓN Y EJECUCIÓN, POR CUALQUIER TÍTULO, DE CONSTRUCCIONES Y OBRAS, POR CUENTA PROPIA O AJENA; LA REALIZACIÓN DE SONDEOS, PERFORACIONES, ALLANAMIENTOS, DESMONTES Y CIMENTACIONES, Y DE AISLAMIENTOS E IMPERMEABILIZACIONES; LA SUPERVISIÓN, DIRECCIÓN Y ASESORAMIENTO EN LA EJECUCIÓN DE OBRAS Y CONSTRUCCIONES; LA REHABILITANCIÓN Y ACONDICIONAMIENTO DE EDIFICIOS Y LAS DEMÁS ACTIVIDADES INMOBILIARIAS; Y LA FABRICACIÓN Y COMERCIALIZACIÓN DE PRODUCTOS, MAQUINARIA Y MATERIALES DE CONSTRUCCIÓN. 2.- LA ADQUISICIÓN, TENENCIA, DISFRUTE, ADMINISTRACIÓN Y ENAJENACIÓN DE TODA CLASE DE VALORES MOBIIARIOS POR CUENTA PROPIA, QUEDANDO EXCLUIDAS LAS ACTIVIDADES QUE LA LEGISLACIÓN ESPECIAL Y BÁSICAMENTE LA LEY DE MERCADO DE VALORES ATRIBUYE CON CARÁCTER EXCLUSIVO A OTRAS ENTIDADES. 3.-LA ADQUISICIÓN, EXPLOTACIÓN, EN CUALQUIER FORMA, COMERCIALIZACIÓN, CESIÓN Y ENAJENACIÓN DE TODA CLASE DE DERECHOS Y PROPIEDAD INTELECTUAL Y DE MARCAS, PATENTES Y DEMÁS DERECHOS DE PROPIEDAD INDUSTRIAL. 4.- LA INTERMEDIACIÓN Y COORDINACIÓN DE ACTIVIDADES RELACIONADAS CON LA REDACCIÓN DE TODO TIPO DE PROYECTOS DE ARQUITECTURA, EJECUCIÓN DE OBRAS CIVILES, PÚBLICAD, HIDRÁULICAS, TODO TIPO DE EDIFICACIONES, ASÍ COMO LA PRESTACIÓN DE SERVICIOS TÉCNICOS DE ASESORAMIENTO Y DIRECCIÓN DE TODO TIPO DE OBRAS",
      "mainEntityOfPage": "https://www.contratacion.euskadi.eus/webkpe00-kperoc/es/ac71aBusquedaRegistrosWar/empresa/05967",
      "_links": {
        "self": {
          "name": "CONSAUDI OBRA CIVIL SL",
          "href": "https://api.euskadi.eus/procurements/companies/05967"
        }
      }
    },
    {
      "name": "AINHOA INSUNZA GARCIA",
      "registrationNumber": "07469",
      "identificationNumber": "16065709W",
      "address": "KUKULLU 37",
      "location": {
        "postalCode": "48600",
        "municipality": "Sopela",
        "county": "Bizkaia",
        "municipalityId": "085",
        "countyId": "48"
      },
      "economicActivities": [
        {
          "id": "2.832",
          "name": "Médicos especialistas (excluidos estomatólogos y odontólogos)",
          "_links": {
            "self": {
              "name": "Médicos especialistas (excluidos estomatólogos y odontólogos)",
              "href": "https://api.euskadi.eus/procurements/companies/economic-activities/2.832"
            }
          }
        }
      ],
      "certificateStartDate": "2021-01-27",
      "certificateEndDate": "2021-05-20",
      "object": "MÉDICOS ESPECIALISTAS (EXCLUIDOS ESTOMATÓLOGOS Y ODONTÓLOGOS)",
      "mainEntityOfPage": "https://www.contratacion.euskadi.eus/webkpe00-kperoc/es/ac71aBusquedaRegistrosWar/empresa/07469",
      "_links": {
        "self": {
          "name": "AINHOA INSUNZA GARCIA",
          "href": "https://api.euskadi.eus/procurements/companies/07469"
        }
      }
    },
    {
      "name": "GENUIX AUDIO, S.L.",
      "registrationNumber": "07470",
      "identificationNumber": "B92991496",
      "address": "Calle Almonte, 8",
      "location": {
        "postalCode": "29004",
        "municipality": "Málaga",
        "county": "Málaga",
        "municipalityId": "067",
        "countyId": "29"
      },
      "economicActivities": [
        {
          "id": "1.504.7",
          "name": "Instalaciones telefónicas, telegráficas, televisión, etc",
          "_links": {
            "self": {
              "name": "Instalaciones telefónicas, telegráficas, televisión, etc",
              "href": "https://api.euskadi.eus/procurements/companies/economic-activities/1.504.7"
            }
          }
        }
      ],
      "certificateStartDate": "2021-01-27",
      "certificateEndDate": "2021-07-21",
      "object": "LA MEDICIÓN Y CONSULTORÍA ACÚSTICA PARA EL DISEÑO DE ESPACIOS ARQUITECTÓNICOS, ASÍ COMO DE LOS SISTEMAS DE SONIDO A INSTALAR EN EDIFICIOS DE PÚBLICA CONCURRENCIA, INCLUYÉNDOSE ADEMÁS LA DISTRIBUCIÓN, VENTA E INSTALACIÓN DE EQUIPOS DE REFUERZO SONORO Y MEGAFONÍA. LA CONSULTORÍA E INGENIERÍA, PARA EL DISEÑO, IMPLEMENTACIÓN, INSTALACIÓN Y PUESTA EN MARCHA DE TODO TIPO DE EQUIPOS Y SISTEMAS DE TELECOMUNICACIONES, ELECTRO-ACÚSTICOS, DE VÍDEO, DE AUDIO E ILUMINACIÓN, MATERIAL COMPLEMENTARIO Y DEMÁS DISPOSITIVOS RELACIONADOS DE CENTRALIZACIÓN Y CONTROL, INCLUYENDO LA DISTRIBUCIÓN, VENTA Y SUMINISTRO DE DICHOS EQUIPOS. ASÍ COMO LA REALIZACIÓN DE DIFERENTES MEDICIONES ACÚSTICAS, DE TELECOMUNICACIONES, VISUALES O DE ILUMINACIÓN, INCLUYENDO ESTUDIOS TÉCNICOS RELACIONADOS, E INSTALACIÓN DE AISLAMIENTOS Y ACONDICIONAMIENTOS ACÚSTICO",
      "mainEntityOfPage": "https://www.contratacion.euskadi.eus/webkpe00-kperoc/es/ac71aBusquedaRegistrosWar/empresa/07470",
      "_links": {
        "self": {
          "name": "GENUIX AUDIO, S.L.",
          "href": "https://api.euskadi.eus/procurements/companies/07470"
        }
      }
    }
  ]
}