{
  "totalItems": 9042,
  "totalPages": 905,
  "currentPage": 569,
  "itemsOfPage": 10,
  "items": [
    {
      "name": "ASOCIACIÓN EMOKI PARA LA PROMOCIÓN DEL BIENESTAR INTEGRAL EN EL ENTORNO RELACIONAL FÍSICO Y DIGITAL",
      "registrationNumber": "07132",
      "identificationNumber": "G95796199",
      "address": "C/ Txomin Garat, 1 - 5º A",
      "location": {
        "postalCode": "48004",
        "municipality": "Bilbao",
        "county": "Bizkaia",
        "municipalityId": "020",
        "countyId": "48"
      },
      "economicActivities": [
        {
          "id": "1.934",
          "name": "Enseñanza fuera de establecimiento permanente",
          "_links": {
            "self": {
              "name": "Enseñanza fuera de establecimiento permanente",
              "href": "https://api.euskadi.eus/procurements/companies/economic-activities/1.934"
            }
          }
        }
      ],
      "certificateStartDate": "2020-06-30",
      "certificateEndDate": "2020-12-11",
      "object": "-ACTIVIDADES FORMATIVAS TANTO EN ENTORNOS FORMALES COMO NO FORMALES, CON ALUMNADO, PROFESORADO Y FAMILIAS. - CAMPAÑAS DE SENSIBILIZACIÓN. - FORMACIONES PRESENCIALES Y ONLINE. -DIVULGACIÓN DIGITAL DE NOTICIAS E INFORMACIÓN DE INTERÉS SOBRE LOS TEMAS RECOGIDOS EN NUESTROS FINES. -PROGRAMAS SOCIO-EDUCATIVOS.  SIN PERJUICIO DE LAS ACTIVIDADES DESCRITAS EN EL APARTADO ANTERIOR, LA ASOCIACIÓN, PARA EL CUMPLIMIENTO DE SUS FINES PODRÁ: -DESARROLLAR ACTIVIDADES ECONÓMICAS DE TODO TIPO, ENCAMINADAS A LA REALIZACIÓN DE SUS FINES O A ALLEGAR RECURSOS CON ESE OBJETIVO. - ADQUIRIR Y POSEER BIENES DE TODAS CLASES Y POR CUALQUIER TÍTULO, ASÍ COMO CELEBRAR ACTOS Y CONTRATOS DE TODO GÉNERO. - EJERCITAR TODA CLASE DE ACCIONES CONFORME A LAS LEYES O A SUS ESTATUTOS",
      "mainEntityOfPage": "https://www.contratacion.euskadi.eus/webkpe00-kperoc/es/ac71aBusquedaRegistrosWar/empresa/07132",
      "_links": {
        "self": {
          "name": "ASOCIACIÓN EMOKI PARA LA PROMOCIÓN DEL BIENESTAR INTEGRAL EN EL ENTORNO RELACIONAL FÍSICO Y DIGITAL",
          "href": "https://api.euskadi.eus/procurements/companies/07132"
        }
      }
    },
    {
      "name": "HEDA COMUNICACIÓN, S.L.",
      "registrationNumber": "07122",
      "identificationNumber": "B31575590",
      "address": "Concejo de Ustarroz, 9-11",
      "location": {
        "postalCode": "31016",
        "municipality": "Pamplona/Iruña",
        "county": "Navarra",
        "municipalityId": "201",
        "countyId": "31"
      },
      "economicActivities": [
        {
          "id": "1.151.4",
          "name": "Producción de energía no especificada en otros epígrafes",
          "_links": {
            "self": {
              "name": "Producción de energía no especificada en otros epígrafes",
              "href": "https://api.euskadi.eus/procurements/companies/economic-activities/1.151.4"
            }
          }
        },
        {
          "id": "1.476.2",
          "name": "Edición de periódicos y revistas",
          "_links": {
            "self": {
              "name": "Edición de periódicos y revistas",
              "href": "https://api.euskadi.eus/procurements/companies/economic-activities/1.476.2"
            }
          }
        }
      ],
      "certificateStartDate": "2020-06-29",
      "certificateEndDate": "2020-11-20",
      "object": "- PROMOVER, FACILITAR, PROYECTAR Y DIFUNDIR ACTIVIDADES SOCIOCULTURALES. - CREAR, DESARROLLAR, PROYECTAR, DIFUNDIR, REALIZAR Y COMERCIAR CON NUEVAS TÉCNICAS Y ESTUDIOS DE COMUNICACIÓN. - CREACIÓN Y PREPARACIÓN DE GRUPOS SOCIALES DE TRABAJO. - COORDINAR, PREPARAR Y DIFUNDIR INFORMACIÓN PERIODÍSTICA, Y GESTIÓN PUBLICITARIA. - DIRIGIR, PROMOCIONAR, ABRIR Y COORDINAR CENTROS DE DOCUMENTACIÓN Y ESTUDIO. - EDICIÓN DE CUALQUIER TIPO DE PUBLICACIÓN EN PAPEL IMPRESO O MEDIO INFORMÁTICO\r\n",
      "mainEntityOfPage": "https://www.contratacion.euskadi.eus/webkpe00-kperoc/es/ac71aBusquedaRegistrosWar/empresa/07122",
      "_links": {
        "self": {
          "name": "HEDA COMUNICACIÓN, S.L.",
          "href": "https://api.euskadi.eus/procurements/companies/07122"
        }
      }
    },
    {
      "name": "JON KEPA URLEZAGA URLEZAGA",
      "registrationNumber": "07126",
      "identificationNumber": "24407930P",
      "address": "Iturribide kalea, 16",
      "location": {
        "postalCode": "48314",
        "municipality": "Gautegiz Arteaga",
        "county": "Bizkaia",
        "municipalityId": "041",
        "countyId": "48"
      },
      "economicActivities": [
        {
          "id": "1.963.1",
          "name": "Exhibición de películas cinematográficas y vídeos en cines",
          "_links": {
            "self": {
              "name": "Exhibición de películas cinematográficas y vídeos en cines",
              "href": "https://api.euskadi.eus/procurements/companies/economic-activities/1.963.1"
            }
          }
        },
        {
          "id": "1.965.4",
          "name": "Empresas de espectáculos",
          "_links": {
            "self": {
              "name": "Empresas de espectáculos",
              "href": "https://api.euskadi.eus/procurements/companies/economic-activities/1.965.4"
            }
          }
        }
      ],
      "certificateStartDate": "2020-06-29",
      "certificateEndDate": "2020-11-12",
      "object": "ZINEMA-FILMAK ETA BIDEOAK ZINEMA-ARETOETAN ERAKUSTEA. IKUSKIZUN-ENPRESAK",
      "mainEntityOfPage": "https://www.contratacion.euskadi.eus/webkpe00-kperoc/es/ac71aBusquedaRegistrosWar/empresa/07126",
      "_links": {
        "self": {
          "name": "JON KEPA URLEZAGA URLEZAGA",
          "href": "https://api.euskadi.eus/procurements/companies/07126"
        }
      }
    },
    {
      "name": "VERNE SERVICIOS DE ARQUITECTURA, S.L.P.",
      "registrationNumber": "06685",
      "identificationNumber": "B71372049",
      "address": "Avda. Pío XII Nº1. Torre III. 3ºE",
      "location": {
        "postalCode": "31002",
        "municipality": "Pamplona/Iruña",
        "county": "Navarra",
        "municipalityId": "201",
        "countyId": "31"
      },
      "economicActivities": [
        {
          "id": "1.843.2",
          "name": "Servicios técnicos de arquitectura y urbanismo",
          "_links": {
            "self": {
              "name": "Servicios técnicos de arquitectura y urbanismo",
              "href": "https://api.euskadi.eus/procurements/companies/economic-activities/1.843.2"
            }
          }
        }
      ],
      "certificateStartDate": "2020-06-26",
      "certificateEndDate": "2020-12-24",
      "object": "LA ACTIVIDAD PROPIA DEL EJERCICIO DE LA ARQUITECTURA",
      "mainEntityOfPage": "https://www.contratacion.euskadi.eus/webkpe00-kperoc/es/ac71aBusquedaRegistrosWar/empresa/06685",
      "_links": {
        "self": {
          "name": "VERNE SERVICIOS DE ARQUITECTURA, S.L.P.",
          "href": "https://api.euskadi.eus/procurements/companies/06685"
        }
      }
    },
    {
      "name": "ZUTABE ETXEGINTZA, S.L.L.",
      "registrationNumber": "04661",
      "identificationNumber": "B20825394",
      "address": "Trenbidearen Zumardia, 27-bajo",
      "location": {
        "postalCode": "20720",
        "municipality": "Azkoitia",
        "county": "Gipuzkoa",
        "municipalityId": "017",
        "countyId": "20"
      },
      "economicActivities": [
        {
          "id": "1.501.3",
          "name": "Albañilería y pequeños trabajos de construcción en general",
          "_links": {
            "self": {
              "name": "Albañilería y pequeños trabajos de construcción en general",
              "href": "https://api.euskadi.eus/procurements/companies/economic-activities/1.501.3"
            }
          }
        }
      ],
      "certificateStartDate": "2020-06-25",
      "certificateEndDate": "2020-12-24",
      "object": "CONSTRUCCIÓN, REHABILITACIÓN Y CONSERVACIÓN DE EDIFICIOS  RESIDENCIALES, INDUSTRIALES Y COMERCIALES O DE CUALQUIER OTRA CLASE DE USO, ASÍ COMO LA REALIZACIÓN O EJECUCIÓN DE TODO TIPO DE TRABAJOS RELACIONADOS CON LA CONSTRUCCIÓN EN SU SENTIDO MÁS AMPLIO O GENÉRICO, LA COMERCIALIZACIÓN DE TODO TIPO DE MATERIALES DESTINADOS A LA CONSTRUCCIÓN, ASÍ  COMO LA COMPRAVENTA Y EL ARRENDAMIENTO (NO FINANCIERO) DE INMUEBLES.",
      "mainEntityOfPage": "https://www.contratacion.euskadi.eus/webkpe00-kperoc/es/ac71aBusquedaRegistrosWar/empresa/04661",
      "_links": {
        "self": {
          "name": "ZUTABE ETXEGINTZA, S.L.L.",
          "href": "https://api.euskadi.eus/procurements/companies/04661"
        }
      }
    },
    {
      "name": "JOSE PEÑA LASTRA, S.A.",
      "registrationNumber": "07119",
      "identificationNumber": "A39046750",
      "address": "SAN FERNANDO S/N",
      "location": {
        "postalCode": "39409",
        "municipality": "San Felices de Buelna",
        "county": "Cantabria",
        "municipalityId": "069",
        "countyId": "39"
      },
      "economicActivities": [
        {
          "id": "1.722",
          "name": "Transporte de mercancías por carretera",
          "_links": {
            "self": {
              "name": "Transporte de mercancías por carretera",
              "href": "https://api.euskadi.eus/procurements/companies/economic-activities/1.722"
            }
          }
        },
        {
          "id": "1.911",
          "name": "Servicios agrícolas y ganaderos",
          "_links": {
            "self": {
              "name": "Servicios agrícolas y ganaderos",
              "href": "https://api.euskadi.eus/procurements/companies/economic-activities/1.911"
            }
          }
        }
      ],
      "certificateStartDate": "2020-06-24",
      "certificateEndDate": "2020-11-26",
      "object": "A) LA ACTIVIDAD DE ASERRADERO Y CARPINTERÍA MECÁNICA DE MADERA. PARA LA REALIZACIÓN DE ESTE FIN, PODRÁ LA COMPAÑIA, ADQUIRIR, POSEER, EXPLOTAR Y ENAJENAR BIENES DE CUALQUIER NATURALEZA, CONSTITUIR OTRAS COMPAÑÍAS Y FORMALIZAR  CONTRATOS DE CUALQUIER ÍNDOLE, CIVIL, MERCANTIL O ADMINISTRATIVO, CON LAS LIMITACIONES LEGALES CORRESPONDIENTES. B) LA PRESTACIÓN DE SERVICIOS A LA AGRICULTURA Y GANADERÍA, CON O SIN MAQUINARÍA, POR PERSONAS O ENTIDADES DISTINTAS DE LOS TITULARES DE LAS EXPLOTACIONES, POR CUENTA DE ESTOS, Y QUE NORMALMENTE SE REALIZA EN LA MISMA EXPLOTACIÓN,  TALES COMO SERVICIOS DE PRODUCCIÓN DE CULTIVOS Y GANADO, COMO PREPARACIÓN DE LA TIERRA, MOVIMIENTO Y CONSTRUCCIÓN DE PISOS FORESTALES, PODA, RIEGO, TALA, APLICACIÓN DE PRODUCTOS SANITARIOS, INSEMINACIÓN, ETC.; SERVICIOS DE RECOLECCIÓN Y PREPARACIÓN DE COSECHAS; SERVICIOS DE PLANTACIÓN Y MANTENIMIENTO DE JARDINES Y PARQUES Y OTROS SERVICIOS AGRÍCOLAS Y GANADEROS ",
      "mainEntityOfPage": "https://www.contratacion.euskadi.eus/webkpe00-kperoc/es/ac71aBusquedaRegistrosWar/empresa/07119",
      "_links": {
        "self": {
          "name": "JOSE PEÑA LASTRA, S.A.",
          "href": "https://api.euskadi.eus/procurements/companies/07119"
        }
      }
    },
    {
      "name": "INSTALACIONES ELÉCTRICAS ULMEIN, S.L.",
      "registrationNumber": "07110",
      "identificationNumber": "B95724886",
      "address": "C\\PEDRO CORTES   Nº 4   3º C",
      "location": {
        "postalCode": "48006",
        "municipality": "Bilbao",
        "county": "Bizkaia",
        "municipalityId": "020",
        "countyId": "48"
      },
      "economicActivities": [
        {
          "id": "1.504.11",
          "name": "Instalaciones eléctricas en general, redes telegráficas, telefonía, tv, etc",
          "_links": {
            "self": {
              "name": "Instalaciones eléctricas en general, redes telegráficas, telefonía, tv, etc",
              "href": "https://api.euskadi.eus/procurements/companies/economic-activities/1.504.11"
            }
          }
        }
      ],
      "certificateStartDate": "2020-06-19",
      "certificateEndDate": "2020-11-04",
      "object": "1. CONSTRUCCIÓN, INSTALACIONES Y MANTENIMIENTO. 2. COMERCIO AL POR MAYOR Y AL POR MENOR, DISTRIBUCIÓN COMERCIAL, IMPORTACIÓN Y EXPORTACIÓN. 3. ACTIVIDADES PROFESIONALES. 4. PRESTACIÓN DE SERVICIOS. ACTIVIDADES DE GESTIÓN Y ADMINISTRACIÓN. SERVICIOS EDUCATIVOS, SANITARIOS, DE OCIO Y ENTRETENIMIENTO. 5. TRANSPORTE Y ALMACENAMIENTO. 6. INFORMÁTICA, TELECOMUNICACIONES Y OFIMÁTICA. 7. ENERGÍAS ALTERNATIVAS. 8. COMPRAVENTA Y REPARACIÓN DE VEHÍCULOS. REPARACIÓN Y MANTENIMIENTO DE INSTALACIONES Y MAQUINARIA. 9. INVESTIGACIÓN, DESARROLLO E INNOVACIÓN. 10. ACTIVIDADES CIENTÍFICAS Y TÉCNICAS",
      "mainEntityOfPage": "https://www.contratacion.euskadi.eus/webkpe00-kperoc/es/ac71aBusquedaRegistrosWar/empresa/07110",
      "_links": {
        "self": {
          "name": "INSTALACIONES ELÉCTRICAS ULMEIN, S.L.",
          "href": "https://api.euskadi.eus/procurements/companies/07110"
        }
      }
    },
    {
      "name": "PROYECTOS Y CONSTRUCCIONES EDIKON, S.L.",
      "registrationNumber": "07111",
      "identificationNumber": "B95697637",
      "address": "BIDEBARRIETA, 12-3º C",
      "location": {
        "postalCode": "48005",
        "municipality": "Bilbao",
        "county": "Bizkaia",
        "municipalityId": "020",
        "countyId": "48"
      },
      "economicActivities": [
        {
          "id": "1.507",
          "name": "Construcción, reparación y conservación de toda clase obras",
          "_links": {
            "self": {
              "name": "Construcción, reparación y conservación de toda clase obras",
              "href": "https://api.euskadi.eus/procurements/companies/economic-activities/1.507"
            }
          }
        }
      ],
      "certificateStartDate": "2020-06-19",
      "certificateEndDate": "2020-12-17",
      "object": "LA CONSTRUCCIÓN DE OBRAS PÚBLICAS Y EDIFICACIÓN; INSTALACIONES, REFORMAS Y MANTENIMIENTO. Y MÁS EN CONCRETO, LA PROYECCIÓN Y REALIZACIÓN, EN TODO O EN PARTE, POR MEDIOS PROPIOS O AJENOS, DE TODA CLASE DE MONTAJES, OBRAS, INSTALACIONES Y CONSTRUCCIONES TANTO EN EL ÁMBITO INMOBILIARIO E INDUSTRIAL O CONSTRUCTIVO, TANTO DE LA EMPRESA PRIVADA, COMO DE LOS ORGANISMOS DE LA ADMINISTRACIÓN ESTATAL, ENTES AUTONÓMICOS O CUALESQUIERA OTROS; Y MÁS EN CONCRETO, LA ELABORACIÓN DE PROYECTOS, REALIZACIÓN Y PRESTACIÓN DE TODA CLASE DE INSTALACIONES Y SERVICIOS QUE DE UN MODO DIRECTO O INDIRECTO SE RELACIONA CON EL MONTAJE, ACABADO, MODIFICACIÓN Y MEJORA DE EDIFICACIONES E INSTALACIONES INDUSTRIALES Y ADEMÁS TODA LA ACTIVIDAD PROPIA DEL ÁMBITO INMOBILIARIO O QUE CON ELLA SE RELACIONE, INCLUIDO LOS SERVICIOS DE ASESORAMIENTO Y CONTROL, EL ALQUILER DE MAQUINARIA Y TODO TIPO DE TRABAJO DE OBRAS PÚBLICAS",
      "mainEntityOfPage": "https://www.contratacion.euskadi.eus/webkpe00-kperoc/es/ac71aBusquedaRegistrosWar/empresa/07111",
      "_links": {
        "self": {
          "name": "PROYECTOS Y CONSTRUCCIONES EDIKON, S.L.",
          "href": "https://api.euskadi.eus/procurements/companies/07111"
        }
      }
    },
    {
      "name": "BIDEBARRI ENPLEGU ZENTRUA, S.L.",
      "registrationNumber": "07101",
      "identificationNumber": "B20564613",
      "address": "BARRIO ZUBILLAGA 20, BIDEBARRI ENPLEGU ZENTRUA S.L.",
      "location": {
        "postalCode": "20560",
        "municipality": "Oñati",
        "county": "Gipuzkoa",
        "municipalityId": "059",
        "countyId": "20"
      },
      "economicActivities": [
        {
          "id": "1.647.52",
          "name": "Venta de productos alimenticios en máquina, propietario máquina",
          "_links": {
            "self": {
              "name": "Venta de productos alimenticios en máquina, propietario máquina",
              "href": "https://api.euskadi.eus/procurements/companies/economic-activities/1.647.52"
            }
          }
        },
        {
          "id": "1.849.5",
          "name": "Servicios de recadería y reparto y manipulación de correspondencia",
          "_links": {
            "self": {
              "name": "Servicios de recadería y reparto y manipulación de correspondencia",
              "href": "https://api.euskadi.eus/procurements/companies/economic-activities/1.849.5"
            }
          }
        },
        {
          "id": "1.922.1",
          "name": "Servicios de limpieza de interiores",
          "_links": {
            "self": {
              "name": "Servicios de limpieza de interiores",
              "href": "https://api.euskadi.eus/procurements/companies/economic-activities/1.922.1"
            }
          }
        }
      ],
      "certificateStartDate": "2020-06-18",
      "certificateEndDate": "2020-11-12",
      "object": "A) COMERCIO AL POR MENOR DE PAN Y PANES ESPECIALES; DE PRODUCTOS DE PASTELERÍA, CONFITERÍA, BOLLERÍA Y REPOSTERÍA; OBLEAS Y BARQUILLOS, CARAMELOS, DULCES, TURRONES HOJALDRES, PASTAS, CONSERVAS EN DULCE, GALLETAS, CACAO Y CHOCOLATE Y SUS DERIVADOS Y SUCEDÁNEOS; DE LECHE, PRODUCTOS LÁCTEOS Y MIEL; HELADOS Y CONSERVAS DE TODA CLASE; FRUTAS EN ALMÍBAR, EN MERMELADA O EN PASTA, INFUSIONES, CAFÉ Y SOLUBLES; BEBIDAS EMBOTELLADAS Y CON MARCA. B) PROMOCIÓN Y COMERCIO DE PRODUCTOS TURÍSTICOS TÍPICOS. C) REALIZACIÓN DE TRABAJOS SUBCONTRATADOS EN GENERAL",
      "mainEntityOfPage": "https://www.contratacion.euskadi.eus/webkpe00-kperoc/es/ac71aBusquedaRegistrosWar/empresa/07101",
      "_links": {
        "self": {
          "name": "BIDEBARRI ENPLEGU ZENTRUA, S.L.",
          "href": "https://api.euskadi.eus/procurements/companies/07101"
        }
      }
    },
    {
      "name": "BOS CONSULTING MILENIUM, S.L.",
      "registrationNumber": "07102",
      "identificationNumber": "B84139021",
      "address": "GLORIETA DE QUEVEDO, 8",
      "location": {
        "postalCode": "28015",
        "municipality": "Madrid",
        "county": "Madrid",
        "municipalityId": "079",
        "countyId": "28"
      },
      "economicActivities": [
        {
          "id": "1.841",
          "name": "Servicios jurídicos",
          "_links": {
            "self": {
              "name": "Servicios jurídicos",
              "href": "https://api.euskadi.eus/procurements/companies/economic-activities/1.841"
            }
          }
        },
        {
          "id": "1.842",
          "name": "Servicios financieros y contables",
          "_links": {
            "self": {
              "name": "Servicios financieros y contables",
              "href": "https://api.euskadi.eus/procurements/companies/economic-activities/1.842"
            }
          }
        }
      ],
      "certificateStartDate": "2020-06-18",
      "certificateEndDate": "2020-12-04",
      "object": "A) EL ASESORAMIENTO, LA CONSULTORIA Y LA REALIZACIÓN DE CUALQUIER ESTUDIO D CARÁCTER JURÍDICO,\r\nADMINISTRATIVO, INDUSTRIAL, MERCANTIL, FISCAL, ECONÓMICO, FINANCIERO, COMERCIAL O DE OTRA ÍNDOLE\r\nCON EL OBJETO D MEJORAR LA PRODUCCIÓN Y/O LA GESTIÓN DE CUALQUIER GÉNERO DE EMPRESAS,\r\nINDUSTRIALES O JURÍDICAS, ORGANISMOS ADMINISTRATIVOS OFICIALES O PRIVADOS. B) LA PRESTACIÓN DE ESTUDIOS Y ANÁLISIS DE PROCESOS PARA SU TRATAMIENTO MECÁNICO, DE PROGRAMACIÓN PARA EQUIPOS ELECTRÓNICOS, D REGISTRO DE DATOS EN SOPORTES DE ENTRADA PARA ORDENADORES ASÍ COMO LA VENTA DE PROGRAMAS, EL PROCESO DE DATOS POR CUENTA DE TERCEROS Y OTROS SERVIDORES INDEPENDIENTES DE DATOS Y TABULACIÓN. C) LA PRESTACIÓN DE SERVICIOS DE FORMACIÓN A ORGANISMOS PÚBLICOS Y PRIVADOS: SEMINARIOS, CURSOS, PROGRAMAS Y CUALQUIER OTRO TIPO DE PRODUCTO RELACIONADO CON LA FORMACIÓN.\r\nD) TRATAMIENTO DE LA INFORMACIÓN, SERVICIOS DE POST VENTA Y ASISTENCIA TÉCNICA, ASÍ COMO LA ACTUALIZACIÓN DE PROGRAMA Y APLICACIONES INFORMÁTICAS. E) LA PRESTACIÓN DE SERVICIOS TAQUIGRÁFICOS, MECANOGRÁFICOS, DE REPRODUCCIÓN DE ESCRITOS, PLANOS Y DOCUMENTOS, GRABACIÓN DE DATOS, GRABACIÓN DE TEXTOS Y MICROFILMACIÓN. F) LA PRESTACIÓN DE SERVICIOS DE GESTIÓN ADMINISTRATIVA Y CIVIL A PERSONAS FÍSICAS Y JURÍDICAS, ASÍ COMO A ORGANISMOS PÚBLICOS Y PRIVADOS.\r\nG) LA CONSTRUCCIÓN, EDIFICACIÓN, PROMOCIÓN, ADQUISICIÓN, TENENCIA, PARCELACIÓN, URBANIZACIÓN,\r\nEXPLOTACIÓN EN RÉGIMEN DIRECTO, DE APARCERÍA O ARRENDAMIENTO Y ENAJENACIÓN POR CUALQUIER TÍTULO\r\nDE FINCAS RÚSTICAS Y URBANAS. LA INVERSIÓN EN BIENES INMUEBLES ASÍ COMO SU EXPLOTACIÓN Y \r\nPROMOCIÓN BAJO CUALQUIER MODALIDAD",
      "mainEntityOfPage": "https://www.contratacion.euskadi.eus/webkpe00-kperoc/es/ac71aBusquedaRegistrosWar/empresa/07102",
      "_links": {
        "self": {
          "name": "BOS CONSULTING MILENIUM, S.L.",
          "href": "https://api.euskadi.eus/procurements/companies/07102"
        }
      }
    }
  ]
}