{
  "totalItems": 9042,
  "totalPages": 905,
  "currentPage": 542,
  "itemsOfPage": 10,
  "items": [
    {
      "name": "EMARI 2006, S.L.",
      "registrationNumber": "07525",
      "identificationNumber": "B95429585",
      "address": "calle Encarnación nº2 1ºD",
      "location": {
        "postalCode": "48006",
        "municipality": "Bilbao",
        "county": "Bizkaia",
        "municipalityId": "020",
        "countyId": "48"
      },
      "economicActivities": [
        {
          "id": "1.847",
          "name": "Servicios de consultoría",
          "_links": {
            "self": {
              "name": "Servicios de consultoría",
              "href": "https://api.euskadi.eus/procurements/companies/economic-activities/1.847"
            }
          }
        },
        {
          "id": "1.934",
          "name": "Enseñanza fuera de establecimiento permanente",
          "_links": {
            "self": {
              "name": "Enseñanza fuera de establecimiento permanente",
              "href": "https://api.euskadi.eus/procurements/companies/economic-activities/1.934"
            }
          }
        }
      ],
      "certificateStartDate": "2021-03-02",
      "certificateEndDate": "2021-08-22",
      "object": "EL ASESORAMIENTO, LA FORMACIÓN Y LA REALIZACIÓN DE TODA CLASE DE ACTIVIDADES TENDENTES A LA IMPLANTACIÓN DE LA IGUALDAD ENTRE MUJERES Y HOMBRES; LA ORGANIZACIÓN Y GESTIÓN DE TODO TIPO DE CAMPAÑAS DE PUBLICIDAD, CON MEDIOS PROPIOS O AJENOS, INCLUSO POR VÍA TELEMÁTICA, RELACIONADAS CON EL TEMA; LA ORGANIZACIÓN Y PROMOCIÓN DE VIAJES, INTERCAMBIOS CULTURALES, CONFERENCIAS Y SEMINARIOS; EL MONTAJE, ORGANIZACIÓN, FINANCIACIÓN Y PRODUCCIÓN DE CUALESQUIERA OTROS EVENTOS LÚDICOS, DEPORTIVOS, CULTURALES Y ARTÍSTICOS; Y LA COMPRAVENTA, IMPORTACIÓN, EXPORTACIÓN Y COMERCIALIZACIÓN EN GENERAL DE MATERIAL PEDAGÓGICO Y DE OBJETOS Y PRODUCTOS NO SEXISTAS",
      "mainEntityOfPage": "https://www.contratacion.euskadi.eus/webkpe00-kperoc/es/ac71aBusquedaRegistrosWar/empresa/07525",
      "_links": {
        "self": {
          "name": "EMARI 2006, S.L.",
          "href": "https://api.euskadi.eus/procurements/companies/07525"
        }
      }
    },
    {
      "name": "WALL STREET LOGISTIC, S.A.",
      "registrationNumber": "03927",
      "identificationNumber": "A48214506",
      "address": "CAMINO IBARSUSI, Nº 19-2º B",
      "location": {
        "postalCode": "48004",
        "municipality": "Bilbao",
        "county": "Bizkaia",
        "municipalityId": "020",
        "countyId": "48"
      },
      "economicActivities": [
        {
          "id": "1.722",
          "name": "Transporte de mercancías por carretera",
          "_links": {
            "self": {
              "name": "Transporte de mercancías por carretera",
              "href": "https://api.euskadi.eus/procurements/companies/economic-activities/1.722"
            }
          }
        },
        {
          "id": "1.756.1",
          "name": "Agencias de transporte, transitarios",
          "_links": {
            "self": {
              "name": "Agencias de transporte, transitarios",
              "href": "https://api.euskadi.eus/procurements/companies/economic-activities/1.756.1"
            }
          }
        }
      ],
      "certificateStartDate": "2021-03-01",
      "certificateEndDate": "2021-08-03",
      "object": "LA REALIZACIÓN DE ACTIVIDADES DE TRANSPORTE DE MERCANCÍAS Y DE TODA CLASE DE BIENES DE CUALQUIER ÁMBITO O RADIO DE ACCIÓN, EFECTUANDO EL ALMACENAJE Y MANIPULACIÓN DE LAS MERCANCÍAS Y LOS SERVICIOS DE DISTRIBUCIÓN, RECOGIDA Y REPARTO DOMICILIARIO DE LOS ENVIOS QUE SE ORIGINEN, ATENDIENDO LAS LÍNEAS, TRÁFICO Y SERVICIOS QUE PARA ELLO SE CONSIDEREN OPORTUNOS, CON MEDIOS PROPIOS O DE TERCEROS Y LOS TRABAJOS Y LABORES COMPLEMENTARIOS DE ADMINISTRACIÓN Y CONTROL QUE FUEREN NECESARIOS; CONSTITUYE ASIMISMO SU OBJETO SOCIAL LA ACTIVIDAD DE AGENCIAS Y SERVICIO DE INTERMEDIAICÓN DE TRANSPORTES Y LOS SERVICIOS DE MENSAJERÍA Y RECADERÍA",
      "mainEntityOfPage": "https://www.contratacion.euskadi.eus/webkpe00-kperoc/es/ac71aBusquedaRegistrosWar/empresa/03927",
      "_links": {
        "self": {
          "name": "WALL STREET LOGISTIC, S.A.",
          "href": "https://api.euskadi.eus/procurements/companies/03927"
        }
      }
    },
    {
      "name": "HERCAL DIGGERS, S.L.",
      "registrationNumber": "07521",
      "identificationNumber": "B64143639",
      "address": "Carretera de Rubí, 286 B",
      "location": {
        "postalCode": "08228",
        "municipality": "Terrassa",
        "county": "Barcelona",
        "municipalityId": "279",
        "countyId": "08"
      },
      "economicActivities": [
        {
          "id": "1.502.1",
          "name": "Demoliciones y derribos en general",
          "_links": {
            "self": {
              "name": "Demoliciones y derribos en general",
              "href": "https://api.euskadi.eus/procurements/companies/economic-activities/1.502.1"
            }
          }
        },
        {
          "id": "1.502.3",
          "name": "Consolidación y preparación de terrenos para la realización de obras civiles",
          "_links": {
            "self": {
              "name": "Consolidación y preparación de terrenos para la realización de obras civiles",
              "href": "https://api.euskadi.eus/procurements/companies/economic-activities/1.502.3"
            }
          }
        },
        {
          "id": "1.507",
          "name": "Construcción, reparación y conservación de toda clase obras",
          "_links": {
            "self": {
              "name": "Construcción, reparación y conservación de toda clase obras",
              "href": "https://api.euskadi.eus/procurements/companies/economic-activities/1.507"
            }
          }
        },
        {
          "id": "1.692",
          "name": "Reparación de maquinaria industrial",
          "_links": {
            "self": {
              "name": "Reparación de maquinaria industrial",
              "href": "https://api.euskadi.eus/procurements/companies/economic-activities/1.692"
            }
          }
        }
      ],
      "certificateStartDate": "2021-02-26",
      "certificateEndDate": "2021-05-18",
      "object": "- LA REALIZACIÓN DE TRABAJOS DE EXCAVACIONES, MOVIMIENTOS DE TIERRAS, CONSOLIDACIÓN DE SUELOS,DEMOLICIONES, Y TAMBIÉN LOS TRABAJOS DE ASESORAMIENTO, DIRECCIÓN Y SEGUIMIENTO DE OBRAS DE CONSTRUCCIÓN ASÍ COMO EL ALQUILER DE MAQUINARIA PARA EXCAVACIONES Y LA CONSTRUCCIÓN.\r\n- LA PROMOCIÓN, CONSTRUCCIÓN Y/O REHABILITACIÓN DE TODO TIPOS DE BIENES INMUEBLES CON LA FINALIDAD DE LA VENTA O EL ARRENDAMIENTO NO FINANCIERO DE DICHOS BIENES INMUEBLES. LA COMPRAVENTA, ELA RRENDAMIENTO NO FINANCIERO, EL ASESORAMIENTO, LA GESTIÓN Y LA INTERMEDIACIÓN EN EL SECTOR INMOBILIARIO. - LA CONSTRUCCIÓN, CONSERVACIÓN Y MANTENIMIENTO DE TODO TIPOS DE OBRAS E INSTALACIONES",
      "mainEntityOfPage": "https://www.contratacion.euskadi.eus/webkpe00-kperoc/es/ac71aBusquedaRegistrosWar/empresa/07521",
      "_links": {
        "self": {
          "name": "HERCAL DIGGERS, S.L.",
          "href": "https://api.euskadi.eus/procurements/companies/07521"
        }
      }
    },
    {
      "name": "YUMA, S. A.",
      "registrationNumber": "06803",
      "identificationNumber": "A50034024",
      "address": "Polígono industrial Malpica Calle D, 26 y 27",
      "location": {
        "postalCode": "50016",
        "municipality": "Zaragoza",
        "county": "Zaragoza",
        "municipalityId": "297",
        "countyId": "50"
      },
      "economicActivities": [
        {
          "id": "1.455.9",
          "name": "Confección de otros artículos con materias textiles n.c.o.p",
          "_links": {
            "self": {
              "name": "Confección de otros artículos con materias textiles n.c.o.p",
              "href": "https://api.euskadi.eus/procurements/companies/economic-activities/1.455.9"
            }
          }
        },
        {
          "id": "1.494.2",
          "name": "Fabricación de artículos de deporte",
          "_links": {
            "self": {
              "name": "Fabricación de artículos de deporte",
              "href": "https://api.euskadi.eus/procurements/companies/economic-activities/1.494.2"
            }
          }
        },
        {
          "id": "1.619.1",
          "name": "Venta al por mayor de juguetes y artículos de deporte",
          "_links": {
            "self": {
              "name": "Venta al por mayor de juguetes y artículos de deporte",
              "href": "https://api.euskadi.eus/procurements/companies/economic-activities/1.619.1"
            }
          }
        }
      ],
      "certificateStartDate": "2021-02-24",
      "certificateEndDate": "2021-08-11",
      "object": "LA FABRICACIÓN DE TODO TIPO DE PRODUCTOS Y ARTÍCULOS DESTINADOS A LA PRÁCTICA Y DESARROLLO DE CUALQUIER DEPORTE. CONFECCIÓN DE VELAMEN Y DE TOLDOS O LONAS CON DESTINO DE USOS INDUSTRIALES O PRIVADOS. COMERCIALIZACIÓN DE TODO TIPO DE PRODUCTOS, ARTÍCULOS, ACCESORIOS Y COMPLEMENTOS CON DESTINO A LA PRÁCTICA Y DESARROLLO DE TODO TIPO DE DEPORTES. EL OBJETO SOCIAL PODRÁ SER DESARROLLADO TOTAL O PARCIALMENTE, MEDIANTE LA TITULARIDAD DE ACCIONES O PARTICIPACIONES EN OTRAS SOCIEDADES DE IDÉNTICO O ANÁLOGO OBJETO SOCIAL",
      "mainEntityOfPage": "https://www.contratacion.euskadi.eus/webkpe00-kperoc/es/ac71aBusquedaRegistrosWar/empresa/06803",
      "_links": {
        "self": {
          "name": "YUMA, S. A.",
          "href": "https://api.euskadi.eus/procurements/companies/06803"
        }
      }
    },
    {
      "name": "GRADO CERO SISTEMAS, S.L.",
      "registrationNumber": "07514",
      "identificationNumber": "B01404599",
      "address": "C/DONOSTIA 62 4ºD",
      "location": {
        "postalCode": "01015",
        "municipality": "Vitoria-Gasteiz",
        "county": "Araba/Álava",
        "municipalityId": "059",
        "countyId": "01"
      },
      "economicActivities": [
        {
          "id": "1.319.9",
          "name": "Talleres mecánicos n.c.o.p",
          "_links": {
            "self": {
              "name": "Talleres mecánicos n.c.o.p",
              "href": "https://api.euskadi.eus/procurements/companies/economic-activities/1.319.9"
            }
          }
        },
        {
          "id": "1.439.9",
          "name": "Otras industrias textiles n.c.o.p",
          "_links": {
            "self": {
              "name": "Otras industrias textiles n.c.o.p",
              "href": "https://api.euskadi.eus/procurements/companies/economic-activities/1.439.9"
            }
          }
        }
      ],
      "certificateStartDate": "2021-02-24",
      "certificateEndDate": "2021-05-09",
      "object": "EL DISEÑO Y FABRICACIÓN DE HERRAMIENTA Y MAQUINARIA PARA EL SECTOR DE AUTOMOCIÓN Y MECÁNICA GENERAL. FABRICACIÓN DE REMOLQUES. LA APLICACIÓN DE DIVERSOS PROCEDIMIENTOS DE TRANSFORMACIÓN DE METALES MEDIANTE MÁQUINAS-HERRAMIENTAS\r\n\r\n\r\n",
      "mainEntityOfPage": "https://www.contratacion.euskadi.eus/webkpe00-kperoc/es/ac71aBusquedaRegistrosWar/empresa/07514",
      "_links": {
        "self": {
          "name": "GRADO CERO SISTEMAS, S.L.",
          "href": "https://api.euskadi.eus/procurements/companies/07514"
        }
      }
    },
    {
      "name": "MENAI, S.L.",
      "registrationNumber": "07516",
      "identificationNumber": "B75206599",
      "address": "PASEO DUQUE DE MANDAS 3",
      "location": {
        "postalCode": "20012",
        "municipality": "Donostia / San Sebastián",
        "county": "Gipuzkoa",
        "municipalityId": "069",
        "countyId": "20"
      },
      "economicActivities": [
        {
          "id": "1.654.1",
          "name": "Venta al por menor de vehículos terrestres",
          "_links": {
            "self": {
              "name": "Venta al por menor de vehículos terrestres",
              "href": "https://api.euskadi.eus/procurements/companies/economic-activities/1.654.1"
            }
          }
        },
        {
          "id": "1.691.2",
          "name": "Reparación de vehículos automóviles, bicicletas y otros vehículos",
          "_links": {
            "self": {
              "name": "Reparación de vehículos automóviles, bicicletas y otros vehículos",
              "href": "https://api.euskadi.eus/procurements/companies/economic-activities/1.691.2"
            }
          }
        }
      ],
      "certificateStartDate": "2021-02-24",
      "certificateEndDate": "2021-07-12",
      "object": "- LA REPARACIÓN DE VEHÍCULOS A MOTOR, TANTO ELÉCTRICA, MECÁNICA COMO CARROCERO. - LA COMPRA Y VENTA DE VEHÍCULOS DE TODO TIPO, ASÍ COMO TAMBIÉN, DE TODA CLASE DE RECAMBIOS Y ACCESORIOS. - COMPRAVENTA DE VALORES MOBILIARIOS",
      "mainEntityOfPage": "https://www.contratacion.euskadi.eus/webkpe00-kperoc/es/ac71aBusquedaRegistrosWar/empresa/07516",
      "_links": {
        "self": {
          "name": "MENAI, S.L.",
          "href": "https://api.euskadi.eus/procurements/companies/07516"
        }
      }
    },
    {
      "name": "AINARA ETXEARTE GARCIA",
      "registrationNumber": "07510",
      "identificationNumber": "72514650C",
      "address": "ELCANO 28, 3E",
      "location": {
        "postalCode": "48008",
        "municipality": "Bilbao",
        "county": "Bizkaia",
        "municipalityId": "020",
        "countyId": "48"
      },
      "economicActivities": [
        {
          "id": "2.776",
          "name": "Doctores y licenciados en ciencias políticas y sociales",
          "_links": {
            "self": {
              "name": "Doctores y licenciados en ciencias políticas y sociales",
              "href": "https://api.euskadi.eus/procurements/companies/economic-activities/2.776"
            }
          }
        }
      ],
      "certificateStartDate": "2021-02-23",
      "certificateEndDate": "2021-08-22",
      "object": "DOCTORES Y LICENCIADOS EN CIENCIAS POLÍTICAS Y SOCIALES",
      "mainEntityOfPage": "https://www.contratacion.euskadi.eus/webkpe00-kperoc/es/ac71aBusquedaRegistrosWar/empresa/07510",
      "_links": {
        "self": {
          "name": "AINARA ETXEARTE GARCIA",
          "href": "https://api.euskadi.eus/procurements/companies/07510"
        }
      }
    },
    {
      "name": "INGENIERÍA E INTEGRACIÓN AVANZADAS (INGENIA), S.A.",
      "registrationNumber": "07511",
      "identificationNumber": "A29584315",
      "address": "C/ Severo Ochoa, nº 43",
      "location": {
        "postalCode": "29590",
        "municipality": "Málaga",
        "county": "Málaga",
        "municipalityId": "067",
        "countyId": "29"
      },
      "economicActivities": [
        {
          "id": "1.844",
          "name": "Servicios de publicidad, relaciones públicas y similares",
          "_links": {
            "self": {
              "name": "Servicios de publicidad, relaciones públicas y similares",
              "href": "https://api.euskadi.eus/procurements/companies/economic-activities/1.844"
            }
          }
        },
        {
          "id": "1.845",
          "name": "Explotación electrónica por cuenta de terceros",
          "_links": {
            "self": {
              "name": "Explotación electrónica por cuenta de terceros",
              "href": "https://api.euskadi.eus/procurements/companies/economic-activities/1.845"
            }
          }
        },
        {
          "id": "1.932.1",
          "name": "Enseñanza de formación y perfeccionamiento profesional no superior",
          "_links": {
            "self": {
              "name": "Enseñanza de formación y perfeccionamiento profesional no superior",
              "href": "https://api.euskadi.eus/procurements/companies/economic-activities/1.932.1"
            }
          }
        }
      ],
      "certificateStartDate": "2021-02-23",
      "certificateEndDate": "2021-07-14",
      "object": "1º- DISEÑO, ELABORACIÓN, IMPLANTACIÓN, SUMINISTRO, DISTRIBUCIÓN, VENTA, ALQUILER Y MANTENIMIENTO DE EQUIPOS, RECURSOS Y SISTEMAS INFORMÁTICOS, TELEFÓNICOS, OFIMÁTICOS, AUDIOVISUALES, ELECTRÓNICOS Y DE TELECOMUNICACIONES, ASÍ COMO SOLUCIONES DE INTEGRACIÓN DE DICHOS EQUIPOS, RECURSOS Y SISTEMAS, Y DE PLANES Y PROGRAMAS ESTRATÉGICOS PARA LA UTILIZACIÓN DE LOS MISMOS, ASÍ COMO ASESORAMIENTO EN LAS MATERIAS RELACIONADAS CON LAS PRESENTES CUESTIONES. 2º- PRESTACIÓN DE LOS SERVICIOS DE ANÁLISIS, DESARROLLO Y MANTENIMIENTO DE SISTEMAS INFORMÁTICOS.  3º- PRESTACIÓN DE SERVICIOS DE FORMACIÓN, INCLUÍDA LA ELABORACIÓN DE CONTENIDOS DIDÁCTICOS. 4º- INVESTIGACIÓN, DISEÑO Y DESARROLLO DE NUEVAS TECNOLOGÍAS, INCLUSO EN ASOCIACIÓN CON OTRAS ENTIDADES. 5º- CONSULTORÍA, DISEÑO Y EJECUCIÓN DE TODO TIPO DE ESTRATEGIAS DE MARKETING, COMUNICACIÓN Y PUBLICIDAD ASÍ COMO PLANIFICACIÓN Y CONTRATACIÓN DE MEDIOS Y ESPACIOS PUBLICITARIOS",
      "mainEntityOfPage": "https://www.contratacion.euskadi.eus/webkpe00-kperoc/es/ac71aBusquedaRegistrosWar/empresa/07511",
      "_links": {
        "self": {
          "name": "INGENIERÍA E INTEGRACIÓN AVANZADAS (INGENIA), S.A.",
          "href": "https://api.euskadi.eus/procurements/companies/07511"
        }
      }
    },
    {
      "name": "BECTON DICKINSON DISPENSING SPAIN, S.L.",
      "registrationNumber": "07512",
      "identificationNumber": "B92465343",
      "address": "CAMINO DE CASABERMEJA Nº 118",
      "location": {
        "postalCode": "29014",
        "municipality": "Málaga",
        "county": "Málaga",
        "municipalityId": "067",
        "countyId": "29"
      },
      "economicActivities": [
        {
          "id": "1.615.4",
          "name": "Venta al por mayor de aparatos y material radioeléctrico y electrónico",
          "_links": {
            "self": {
              "name": "Venta al por mayor de aparatos y material radioeléctrico y electrónico",
              "href": "https://api.euskadi.eus/procurements/companies/economic-activities/1.615.4"
            }
          }
        }
      ],
      "certificateStartDate": "2021-02-23",
      "certificateEndDate": "2021-06-17",
      "object": "LA FABRICACIÓN, DISTRIBUCIÓN INSTALACIÓN Y MANTENIMIENTO DE ACCESORIOS DE SISTEMAS DE AUTOMATIZACIÓN APARATOS ELÉCTRICOS ELECTRÓNICOS INFORMÁTICOS Y SOFTWARE",
      "mainEntityOfPage": "https://www.contratacion.euskadi.eus/webkpe00-kperoc/es/ac71aBusquedaRegistrosWar/empresa/07512",
      "_links": {
        "self": {
          "name": "BECTON DICKINSON DISPENSING SPAIN, S.L.",
          "href": "https://api.euskadi.eus/procurements/companies/07512"
        }
      }
    },
    {
      "name": "ERNST & YOUNG, S.L.",
      "registrationNumber": "00982",
      "identificationNumber": "B78970506",
      "address": "C/ RAIMUNDO FERNÁNDEZ VILLAVERDE, 65",
      "location": {
        "postalCode": "28003",
        "municipality": "Madrid",
        "county": "Madrid",
        "municipalityId": "079",
        "countyId": "28"
      },
      "economicActivities": [
        {
          "id": "1.842",
          "name": "Servicios financieros y contables",
          "_links": {
            "self": {
              "name": "Servicios financieros y contables",
              "href": "https://api.euskadi.eus/procurements/companies/economic-activities/1.842"
            }
          }
        },
        {
          "id": "1.849.7",
          "name": "Servicios de gestión administrativa",
          "_links": {
            "self": {
              "name": "Servicios de gestión administrativa",
              "href": "https://api.euskadi.eus/procurements/companies/economic-activities/1.849.7"
            }
          }
        },
        {
          "id": "1.849.9",
          "name": "Otros servicios independientes n.c.o.p",
          "_links": {
            "self": {
              "name": "Otros servicios independientes n.c.o.p",
              "href": "https://api.euskadi.eus/procurements/companies/economic-activities/1.849.9"
            }
          }
        },
        {
          "id": "1.932.2",
          "name": "Enseñanza de formación y perfeccionamiento profesional superior",
          "_links": {
            "self": {
              "name": "Enseñanza de formación y perfeccionamiento profesional superior",
              "href": "https://api.euskadi.eus/procurements/companies/economic-activities/1.932.2"
            }
          }
        }
      ],
      "certificateStartDate": "2021-02-19",
      "certificateEndDate": "2021-07-12",
      "object": "LA PRESTACIÓN DE SERVICIOS DE TODA CLASE EN EL CAMPO DE LA CONTABILIDAD, AUDITORÍA, CONSULTORÍA Y ASESORAMIENTO DE EMPRESAS",
      "mainEntityOfPage": "https://www.contratacion.euskadi.eus/webkpe00-kperoc/es/ac71aBusquedaRegistrosWar/empresa/00982",
      "_links": {
        "self": {
          "name": "ERNST & YOUNG, S.L.",
          "href": "https://api.euskadi.eus/procurements/companies/00982"
        }
      }
    }
  ]
}