{
  "totalItems": 9042,
  "totalPages": 905,
  "currentPage": 601,
  "itemsOfPage": 10,
  "items": [
    {
      "name": "STIEFEL FARMA, S.A.",
      "registrationNumber": "04883",
      "identificationNumber": "A28180602",
      "address": "SEVERO OCHOA, 2",
      "location": {
        "postalCode": "28760",
        "municipality": "Tres Cantos",
        "county": "Madrid",
        "municipalityId": "903",
        "countyId": "28"
      },
      "economicActivities": [
        {
          "id": "1.614.1",
          "name": "Venta al por mayor de productos farmacéuticos y medicamentos",
          "_links": {
            "self": {
              "name": "Venta al por mayor de productos farmacéuticos y medicamentos",
              "href": "https://api.euskadi.eus/procurements/companies/economic-activities/1.614.1"
            }
          }
        }
      ],
      "certificateStartDate": "2019-09-09",
      "certificateEndDate": "2020-03-09",
      "object": "LA FABRICACIÓN, ELABORACIÓN, PREPARACIÓN, EMPAQUETADO, ALMACENAJE, IMPORTACIÓN, EXPORTACIÓN, COMPRA, VENTA, DISTRIBUCIÓN, Y COMERCIO DE PRODUCTOS FARMACÉUTICOS, PREPARADOS MÉDICOS Y COSMÉTICOS, INSTRUMENTAL MÉDICO, ÓPTICO Y DE CONSULTA; PRODUCTOS QUÍMICOS NO BÁSICOS, PRODUCTOS BIOLÓGICOS Y NUTRITIVOS, COMPLEMENTARIOS Y SUPLEMENTARIOS, MEDICAMENTOS, ACEITES, FÓRMULAS Y ARTÍCULOS BENEFICIOSOS O DE UTILIDAD EN EL TRATAMIENTO DE LAS ENFERMEDADES Y PREVENCIÓN Y FOMENTO DE LA SALUD HUMANA Y ANIMAL. LA COMPRA, VENTA, IMPORTACIÓN, EXPORTACIÓN, DE TODA CLASE DE MATERIAS PRIMAS, MAQUINARIA, EQUIPOS DE LABORATORIO, ENVASES, PORCELANAS, VIDRIO Y CARTÓN. INSTALACIÓN DE LABORATORIOS PARA ESTUDIO E INVESTIGACIÓN, PRUEBAS Y EXPERIMENTOS, TENDENTES AL DESARROLLO Y FOMENTO DE CUANTO ESTÉ RELACIONADO CON LAS CIENCIAS NATURALES",
      "mainEntityOfPage": "https://www.contratacion.euskadi.eus/webkpe00-kperoc/es/ac71aBusquedaRegistrosWar/empresa/04883",
      "_links": {
        "self": {
          "name": "STIEFEL FARMA, S.A.",
          "href": "https://api.euskadi.eus/procurements/companies/04883"
        }
      }
    },
    {
      "name": "LEINTZ GARRAIOAK, S.L",
      "registrationNumber": "05777",
      "identificationNumber": "B20681714",
      "address": "MUSAKOLA, 20",
      "location": {
        "postalCode": "20500",
        "municipality": "Arrasate / Mondragón",
        "county": "Gipuzkoa",
        "municipalityId": "055",
        "countyId": "20"
      },
      "economicActivities": [
        {
          "id": "1.721.3",
          "name": "Transporte de viajeros por carretera",
          "_links": {
            "self": {
              "name": "Transporte de viajeros por carretera",
              "href": "https://api.euskadi.eus/procurements/companies/economic-activities/1.721.3"
            }
          }
        }
      ],
      "certificateStartDate": "2019-09-09",
      "certificateEndDate": "2020-01-10",
      "object": "EL TRANSPORTE EN GENERAL Y EN ESPECIAL, TRANSPORTE DE VIAJEROS EN SUS DIFERENTES VARIEDADES , URBANO, REGULAR Y DISCRECIONAL",
      "mainEntityOfPage": "https://www.contratacion.euskadi.eus/webkpe00-kperoc/es/ac71aBusquedaRegistrosWar/empresa/05777",
      "_links": {
        "self": {
          "name": "LEINTZ GARRAIOAK, S.L",
          "href": "https://api.euskadi.eus/procurements/companies/05777"
        }
      }
    },
    {
      "name": "HIJOS DE ANTONIO AREIZAGA, S.A.",
      "registrationNumber": "05789",
      "identificationNumber": "A20020699",
      "address": "Paseo Martutene, 3",
      "location": {
        "postalCode": "20014",
        "municipality": "Donostia / San Sebastián",
        "county": "Gipuzkoa",
        "municipalityId": "069",
        "countyId": "20"
      },
      "economicActivities": [
        {
          "id": "1.721.3",
          "name": "Transporte de viajeros por carretera",
          "_links": {
            "self": {
              "name": "Transporte de viajeros por carretera",
              "href": "https://api.euskadi.eus/procurements/companies/economic-activities/1.721.3"
            }
          }
        }
      ],
      "certificateStartDate": "2019-09-09",
      "certificateEndDate": "2020-01-30",
      "object": "EL NEGOCIO DEL TRANSPORTE, Y CUALESQUIERA OTROS QUE FUEREN CONSECUENCIA DIRECTA O INDIRECTA DE LAS ANTERIORES O TUVIEREN RELACIÓN CON ELLAS",
      "mainEntityOfPage": "https://www.contratacion.euskadi.eus/webkpe00-kperoc/es/ac71aBusquedaRegistrosWar/empresa/05789",
      "_links": {
        "self": {
          "name": "HIJOS DE ANTONIO AREIZAGA, S.A.",
          "href": "https://api.euskadi.eus/procurements/companies/05789"
        }
      }
    },
    {
      "name": "LANDALAN ESTRUCTURAS, S.L.U.",
      "registrationNumber": "03689",
      "identificationNumber": "B95391694",
      "address": "C/Mª DÍAZ DE HARO 10-BIS-3º. DPTOS. 11-12",
      "location": {
        "postalCode": "48013",
        "municipality": "Bilbao",
        "county": "Bizkaia",
        "municipalityId": "020",
        "countyId": "48"
      },
      "economicActivities": [
        {
          "id": "1.507",
          "name": "Construcción, reparación y conservación de toda clase obras",
          "_links": {
            "self": {
              "name": "Construcción, reparación y conservación de toda clase obras",
              "href": "https://api.euskadi.eus/procurements/companies/economic-activities/1.507"
            }
          }
        }
      ],
      "certificateStartDate": "2019-09-08",
      "certificateEndDate": "2020-03-07",
      "object": "CONSTRUCCION COMPLETA, CONSERVACION Y REPARACION DE TODO TIPO DE OBRAS E INSTALACIONES. ",
      "mainEntityOfPage": "https://www.contratacion.euskadi.eus/webkpe00-kperoc/es/ac71aBusquedaRegistrosWar/empresa/03689",
      "_links": {
        "self": {
          "name": "LANDALAN ESTRUCTURAS, S.L.U.",
          "href": "https://api.euskadi.eus/procurements/companies/03689"
        }
      }
    },
    {
      "name": "COMAR ARABA SL",
      "registrationNumber": "05200",
      "identificationNumber": "B01132703",
      "address": "Vitorialanda nº 13",
      "location": {
        "postalCode": "01010",
        "municipality": "Vitoria-Gasteiz",
        "county": "Araba/Álava",
        "municipalityId": "059",
        "countyId": "01"
      },
      "economicActivities": [
        {
          "id": "1.616.6",
          "name": "Venta al por mayor de productos químicos industriales",
          "_links": {
            "self": {
              "name": "Venta al por mayor de productos químicos industriales",
              "href": "https://api.euskadi.eus/procurements/companies/economic-activities/1.616.6"
            }
          }
        },
        {
          "id": "1.619.2",
          "name": "Venta al por mayor de aparatos e instrumentos médicos, ortopédicos, ópticos",
          "_links": {
            "self": {
              "name": "Venta al por mayor de aparatos e instrumentos médicos, ortopédicos, ópticos",
              "href": "https://api.euskadi.eus/procurements/companies/economic-activities/1.619.2"
            }
          }
        }
      ],
      "certificateStartDate": "2019-09-06",
      "certificateEndDate": "2020-03-06",
      "object": "LA COMPRA, VENTA, REPRESENTACIÓN  Y COMISIONADOS  DE PRODUCTOS QUÍMICOS Y APARATOS Y MATERIAL DE LABORATORIO, ASÍ COMO LA COMPRA-VENTA DE TODO TIPO DE PRODUCTOS DESINFECTANTES Y ALCOHOLES",
      "mainEntityOfPage": "https://www.contratacion.euskadi.eus/webkpe00-kperoc/es/ac71aBusquedaRegistrosWar/empresa/05200",
      "_links": {
        "self": {
          "name": "COMAR ARABA SL",
          "href": "https://api.euskadi.eus/procurements/companies/05200"
        }
      }
    },
    {
      "name": "CALDERÓN GARCÍA MORENO, ABOGADOS S.L.P.",
      "registrationNumber": "05899",
      "identificationNumber": "B95365870",
      "address": "Juan de Ajuriguerra 9 2do",
      "location": {
        "postalCode": "48009",
        "municipality": "Bilbao",
        "county": "Bizkaia",
        "municipalityId": "020",
        "countyId": "48"
      },
      "economicActivities": [
        {
          "id": "1.841",
          "name": "Servicios jurídicos",
          "_links": {
            "self": {
              "name": "Servicios jurídicos",
              "href": "https://api.euskadi.eus/procurements/companies/economic-activities/1.841"
            }
          }
        }
      ],
      "certificateStartDate": "2019-09-06",
      "certificateEndDate": "2020-03-05",
      "object": "LA SOCIEDAD LLEVARÁ A CABO EL OBJETO SOCIAL COMO INTERMEDIARIA DE SERVICIOS JURÍDICOS ENTRE LOS CLIENTES QUE CONTRATEN CON ELLA Y PROFESIONALES ADSCRITOS A LA SOCIEDAD POR CUALQUIER TÍTULO Y PODRÁ ASIMISMO, SUBCONTRATAR LOS SERVICIOS QUE A SU VEZ SE LE CONTRATEN ENTRE OTROS PROFESIONALES AUNQUE NO GUARDEN NINGÚN TIPO DE RELACIÓN CON LA MISMA. SERÁN ESTOS PROFESIONALES QUIENES DESARRO­LLEN EFECTIVAMENTE LA ACTIVIDAD PROFESIONAL QUE HAYA SIDO CONTRATADA Y QUE LA SOCIEDAD, COMO INTERMEDIARIA, LES ENCARGUE. SERÁ FINALIDAD DE LA ENTIDAD PROVEER Y GESTIONAR LOS MEDIOS PRECISOS PARA QUE OS PROFESIONALES PUEDAN DESARROLLAR SU TRABAJO EN LAS CONDICIONES PRECISAS PARA EL DESEMPEÑO DEL EJERCICIO INDIVIDUAL DE LA PROFESIÓN, COORDINANDO LAS DIFERENTES PRESTACIONES QUE SE REQUIERAN POR LOS CLIENTES. LA ASESORÍA JURÍDICA, FISCAL, LABORAL Y CONTABLE; LA MEDIACIÓN JURÍDICA Y   TRAMITACIÓN Y GESTIÓN DE DOCUMENTOS ANTE ORGANISMOS PÚBLICOS Y PRIVADOS, PARTICULARES Y EMPRESAS. LA PRESTACIÓN DE SERVICIOS A CUALQUIER EMPRESA Y ESPECIALMENTE A SU ALTA DIRECCIÓN E INFORMACIÓN, ESTUDIO, PROMOCIÓN, GESTIÓN, ADMINISTRACIÓN Y EXPLOTACIÓN DE NEGOCIOS Y UNIDADES EMPRESARIALES, TANTO EN EL MOMENTO DE CREACIÓN DE LAS MISMAS Y SU LANZAMIENTO AL MERCADO COMO EN SU POSTERIOR DESARROLLO, ASÍ COMO EN LO QUE TENGA RELACIÓN CON LA NECESARIA INTERLOCUCIÓN DE LAS EMPRESAS CON OTROS AGENTES ECONÓMICOS, NACIONALES E INTERNACIONALES. EL ASESORAMIENTO EMPRESARIAL EN ASUNTOS FUNCIONALES DE LA DIRECCIÓN DE EMPRESAS, COMO SON LA CONSULTORÍA, LA FORMACIÓN, LA ORGANIZACIÓN, LA PRODUCCIÓN, LOS RECURSOS HUMANOS, LA INTERLOCUCIÓN CON AGENTES ECONÓMICOS EXTERNOS, LA ADMINISTRACIÓN Y LAS FINANZAS, LOS ASPECTOS JURÍDICOS Y FISCALES Y LA COMERCIALIZACIÓN, PARA CUALESQUIERA NEGOCIOS Y UNIDADES EMPRESARIALES, TAR.TO EN EL MOMENTO DE CREACIÓN DE LAS MISMAS Y SU LANZAMIENTO AL MERCADO CON SU POSTERIOR DESARROLLO. LA PRESTACIÓN DE SERVICIOS DE INFORMACIÓN , INTERMEDIACIÓN Y ASESORAMIENTO FINANCIEROS EN EL ÁMBITO DE LOS MERCADOS DE INVERSIÓN, DE CAPITALES, DE DIVISAS, DE RELACIONES BANCARIAS, DE GESTIÓN DE CARTERA DE VALORES Y EN OTROS NEGOCIOS JURÍDICOS DENTRO DEL ESTRICTO ÁMBITO FINANCIERO, EXCLUIDAS TODAS AQUÉLLAS ACTIVIDADES PARA CUYO EJERCICIO LA LEY EXIJA REQUISITOS ESPECIALES QUE NO QUEDEN CUMPLIDOS POR ESTA SOCIEDAD, ESPECIALMENTE LO RELATIVO A LA LEY DEL MERCADO DE VALORES Y DE INVERSIONES COLECTIVAS. LA ACTIVIDAD INMOBILIARIA Y LA ADQUISICIÓN POR CUALQUIER TÍTULO, SU EXPLOTACIÓN, TENENCIA, ARRENDAMIENTO, ADMINISTRACIÓN Y ENAJENACIÓN DE TODA CLASE DE BIENES INMUEBLES",
      "mainEntityOfPage": "https://www.contratacion.euskadi.eus/webkpe00-kperoc/es/ac71aBusquedaRegistrosWar/empresa/05899",
      "_links": {
        "self": {
          "name": "CALDERÓN GARCÍA MORENO, ABOGADOS S.L.P.",
          "href": "https://api.euskadi.eus/procurements/companies/05899"
        }
      }
    },
    {
      "name": "PRAGSIS TECHNOLOGIES SL",
      "registrationNumber": "06186",
      "identificationNumber": "B83888958",
      "address": "Calle Manuel Tovar, 49-53",
      "location": {
        "postalCode": "28034",
        "municipality": "Madrid",
        "county": "Madrid",
        "municipalityId": "079",
        "countyId": "28"
      },
      "economicActivities": [
        {
          "id": "1.845",
          "name": "Explotación electrónica por cuenta de terceros",
          "_links": {
            "self": {
              "name": "Explotación electrónica por cuenta de terceros",
              "href": "https://api.euskadi.eus/procurements/companies/economic-activities/1.845"
            }
          }
        }
      ],
      "certificateStartDate": "2019-09-06",
      "certificateEndDate": "2020-03-06",
      "object": "ASESORAMIENTO, CONSULTORÍA, CONCEPCIÓN, DISEÑOS, DESARROLLO, IMPLANTACIÓN, EXPLOTACIÓN Y MANTENIMIENTO DE SISTEMAS INFORMACIÓN Y DE COMUNICACIÓN. LA REALIZACIÓN DE SISTEMAS INFORMÁTICOS Y DE INGENIERÍA DE SISTEMAS. DISEÑO, DESARROLLO, FABRICACIÓN Y COMERCIALIZACIÓN E SOPORTE LOGÍSTICO Y MATERIAL INFORMÁTICO. PRESTACIÓN DE SERVICIOS DE FORMACIÓN Y ASISTENCIA TÉCNICA,  TANTO EN EL ÁREA DE LA TÉCNICA INFORMÁTICA COMO EN LA DE SU EXPLOTACIÓN Y COMERCIALIZACIÓN. DISEÑO, DESARROLLO Y COMERCIALIZACIÓN DE SISTEMAS EXPERTOS O INTEGRADOS, COMPRENDIDO LA MICROINFORMÁTICA, ROBÓTICA, BURÓTICA, OFIMÁTICA, ASÍ COMO LA CONCEPCIÓN, DISEÑO Y FABRICACIÓN ASISTIDA POR ORDENADOR Y, EN GENERAL, EL TRATAMIENTO DE DATOS, IMAGEN Y SONIDO MEDIANTE TÉCNICAS INFORMÁTICAS. ELABORACIÓN, DISTRIBUCIÓN Y COMERCIALIZACIÓN DE BASES DE DATOS PROPIAS O AJENAS,  LA CONEXIÓN Y SERVICIOS ACCESORIOS  COMPLEMENTARIOS A LAS MISMAS RELATIVOS A OTRAS BASES DE DATOS O CENTROS DE INFORMACIÓN. LA EDICIÓN Y PUBLICACIÓN DE OBRAS CUYO CONTENIDO ESTÉ RELACIONADO CON LAS MATERIAS PRECITADAS. IGUALMENTE PODRÁ CREAR OTRAS SOCIEDADES DE ANÁLOGA FINALIDAD O PARTICIPAR EN EL CAPITAL SOCIAL DE LAS MISMAS, ASÍ COMO FORMAR PARTE DE ASOCIACIONES U OTRO TIPO DE ENTIDADES\r\n",
      "mainEntityOfPage": "https://www.contratacion.euskadi.eus/webkpe00-kperoc/es/ac71aBusquedaRegistrosWar/empresa/06186",
      "_links": {
        "self": {
          "name": "PRAGSIS TECHNOLOGIES SL",
          "href": "https://api.euskadi.eus/procurements/companies/06186"
        }
      }
    },
    {
      "name": "ASESORES DE PRENSA, IMAGEN Y COMUNICACIÓN, S.L.",
      "registrationNumber": "06426",
      "identificationNumber": "B01300821",
      "address": "Bustinzuri 14 - 1B",
      "location": {
        "postalCode": "01008",
        "municipality": "Vitoria-Gasteiz",
        "county": "Araba/Álava",
        "municipalityId": "059",
        "countyId": "01"
      },
      "economicActivities": [
        {
          "id": "1.844",
          "name": "Servicios de publicidad, relaciones públicas y similares",
          "_links": {
            "self": {
              "name": "Servicios de publicidad, relaciones públicas y similares",
              "href": "https://api.euskadi.eus/procurements/companies/economic-activities/1.844"
            }
          }
        }
      ],
      "certificateStartDate": "2019-09-06",
      "certificateEndDate": "2020-03-05",
      "object": "LA PRESTACIÓN DE SERVICIOS DE INFORMACIÓN Y DOCUMENTACIÓN RELATIVOS A TEMAS Y ASUNTOS SOLICITADOS POR EL CLIENTE APARECIDOS O PUBLICADOS EN MEDIOS DE COMUNICACIÓN SOCIAL. GABINETE DE PRENSA. ASESORÍA DE PERSONAS FISICAS O JURIDICAS YA SEAN DE NATURALEZA PUBLICA O PRIVADA SOBRE ASUNTOS RELACIONADOS CON SU IMAGEN EN MEDIOS DE COMUNICACIÓN SOCIAL. RELACIONES PUBLICAS EN SU MÁS AMPLIO SENTIDO. ACTIVIDADES DE CARÁCTER PUBLICITARIO",
      "mainEntityOfPage": "https://www.contratacion.euskadi.eus/webkpe00-kperoc/es/ac71aBusquedaRegistrosWar/empresa/06426",
      "_links": {
        "self": {
          "name": "ASESORES DE PRENSA, IMAGEN Y COMUNICACIÓN, S.L.",
          "href": "https://api.euskadi.eus/procurements/companies/06426"
        }
      }
    },
    {
      "name": "TESIS GALICIA, S.L.",
      "registrationNumber": "04893",
      "identificationNumber": "B36237477",
      "address": "LG. DEL PESO - CTRA. NACIONAL 120",
      "location": {
        "postalCode": "36860",
        "municipality": "Ponteareas",
        "county": "Pontevedra",
        "municipalityId": "042",
        "countyId": "36"
      },
      "economicActivities": [
        {
          "id": "1.255.1",
          "name": "Fabricación de jabones comunes, detergentes y lejías",
          "_links": {
            "self": {
              "name": "Fabricación de jabones comunes, detergentes y lejías",
              "href": "https://api.euskadi.eus/procurements/companies/economic-activities/1.255.1"
            }
          }
        },
        {
          "id": "1.614.2",
          "name": "Venta al por mayor de productos de perfumería, droguería, higiene y belleza",
          "_links": {
            "self": {
              "name": "Venta al por mayor de productos de perfumería, droguería, higiene y belleza",
              "href": "https://api.euskadi.eus/procurements/companies/economic-activities/1.614.2"
            }
          }
        },
        {
          "id": "1.614.4",
          "name": "Venta al por mayor de productos zoosanitarios",
          "_links": {
            "self": {
              "name": "Venta al por mayor de productos zoosanitarios",
              "href": "https://api.euskadi.eus/procurements/companies/economic-activities/1.614.4"
            }
          }
        },
        {
          "id": "1.654.5",
          "name": "Venta al por menor de toda clase de maquinaría",
          "_links": {
            "self": {
              "name": "Venta al por menor de toda clase de maquinaría",
              "href": "https://api.euskadi.eus/procurements/companies/economic-activities/1.654.5"
            }
          }
        }
      ],
      "certificateStartDate": "2019-09-05",
      "certificateEndDate": "2020-03-03",
      "object": "LA FABRICACIÓN DE PRODUCTOS QUÍMICOS. EL COMERCIO AL POR MAYOR Y POR MENOR DE MATERIAL DE DROGUERÍA INDUSTRIAL, TODO TIPO DE MATERIAL HOSPITALARIO Y SANITARIO, GUANTES, COMPLEMENTOS Y ÚTILES DE LIMPIEZA. EL TRATAMIENTO DE AGUAS, TRATAMIENTO HIGIÉNICO  SANITARIO DE LA PREVENCIÓN Y CONTROL DE LA LEGIONELOSIS; SERVICIO DE REPARACIÓN Y ASISTENCIA TÉCNICA DE MAQUINARIA. CURSOS DE FORMACIÓN Y DE SALVAMENTO MARÍTIMO. PRESTACIÓN DE SERVICIOS DE INTERMEDIACIÓN FINANCIERA E INMOBILIARIA. Y LOS SERVICIOS DE PREVENCIÓN DE RIESGOS LABORALES, ASÍ COMO LA VENTA DE MATERIAL RELATIVO A DICHOS SERVICIOS",
      "mainEntityOfPage": "https://www.contratacion.euskadi.eus/webkpe00-kperoc/es/ac71aBusquedaRegistrosWar/empresa/04893",
      "_links": {
        "self": {
          "name": "TESIS GALICIA, S.L.",
          "href": "https://api.euskadi.eus/procurements/companies/04893"
        }
      }
    },
    {
      "name": "ROMARATE Y ASOCIADOS ARQUITECTURA Y GESTIÓN, S.R.L.",
      "registrationNumber": "03132",
      "identificationNumber": "B48926737",
      "address": "VILLA DE PLE NCIA, 18 BAJO",
      "location": {
        "postalCode": "48930",
        "municipality": "Getxo",
        "county": "Bizkaia",
        "municipalityId": "044",
        "countyId": "48"
      },
      "economicActivities": [
        {
          "id": "1.843.2",
          "name": "Servicios técnicos de arquitectura y urbanismo",
          "_links": {
            "self": {
              "name": "Servicios técnicos de arquitectura y urbanismo",
              "href": "https://api.euskadi.eus/procurements/companies/economic-activities/1.843.2"
            }
          }
        }
      ],
      "certificateStartDate": "2019-08-27",
      "certificateEndDate": "2020-02-25",
      "object": "LA ARQUITECTURA Y EL PLANEAMIENTO EN GENERAL Y,  EN ESPECIAL, PROYECTOS DE ARQUITECTURA EN EL MÁS AMPLIO SENTIDO DEL TÉRMINO CIVIL, INDUSTRIAL, RELIGIOSO, MILITAR, DE INFRAESTRUCTURA DEL TRANSPORTE, ETC., DISEÑO URBANO, PROYECTOS DE URBANIZACIÓN E INFRAESTRUCTURA, ESTUDIOS DE PLANEAMIENTO LOCAL, REGIONAL Y NACIONAL,  REALIZACIÓN DE MODELOS DE TRANSPORTE, USO DEL SUELO ECONÓMICO Y SU VALUACIÓN.\r\nTODO ELLO SIEMPRE QUE LO REALICE LA SOCIEDAD POR CUENTA PROPIA Y CON EXCEPCIÓN DE LA TRAMITACIÓN Y BAJO LA DIRECCIÓN DE LOS PROFESIONALES TITULADOS Y CON LAS CONDICIONES QUE EXIGE LA LEGISLACIÒN VIGENTE.\r\nLAS ACTIVIDADES ENUMERADAS PODRÁN VERSE DESARROLLADAS TAMBIÉN POR LA SOCIEDAD, TOTAL O PARCIALMENTE, DE MODO INDIRECTO, MEDIANTE LA PARTICIPACIÓN EN OTRAS SOCIEDADES CON OBJETO ANÁLOGO",
      "mainEntityOfPage": "https://www.contratacion.euskadi.eus/webkpe00-kperoc/es/ac71aBusquedaRegistrosWar/empresa/03132",
      "_links": {
        "self": {
          "name": "ROMARATE Y ASOCIADOS ARQUITECTURA Y GESTIÓN, S.R.L.",
          "href": "https://api.euskadi.eus/procurements/companies/03132"
        }
      }
    }
  ]
}