{
  "totalItems": 9042,
  "totalPages": 905,
  "currentPage": 472,
  "itemsOfPage": 10,
  "items": [
    {
      "name": "INTELLIGENT SYSTEM VITALE, S.L.",
      "registrationNumber": "08805",
      "identificationNumber": "B71117659",
      "address": "Calle Larrazko 91. Of. 110",
      "location": {
        "postalCode": "31013",
        "municipality": "Ansoáin/Antsoain",
        "county": "Navarra",
        "municipalityId": "016",
        "countyId": "31"
      },
      "economicActivities": [
        {
          "id": "1.845",
          "name": "Explotación electrónica por cuenta de terceros",
          "_links": {
            "self": {
              "name": "Explotación electrónica por cuenta de terceros",
              "href": "https://api.euskadi.eus/procurements/companies/economic-activities/1.845"
            }
          }
        }
      ],
      "certificateStartDate": "2023-01-12",
      "certificateEndDate": "2023-07-12",
      "object": "EL DESARROLLO DE PROGRAMAS Y SISTEMAS DE TECNIFICACIÓN E I+D+I EN EL ÁMBITO DE LA ACTIVIDAD FÍSICA, LA SALUD, LA EDUCACIÓN Y EL DEPORTE. LA DISTRIBUCIÓN DE PROGRAMAS, HERRAMIENTAS, PROYECTOS, MAQUINARIA Y SISTEMAS RELACIONADOS CON LA ACTIVIDAD FÍSICA, LA SALUD, LA EDUCACIÓN Y EL DEPORTE. LA COMERCIALIZACIÓN Y DESARROLLO DE MARCAS, PATENTES Y PRODUCTOS RELACIONADOS CON LA ACTIVIDAD FÍSICA, LA SALUD, LA EDUCACIÓN Y EL DEPORTE. LA ORGANIZACIÓN, DESARROLLO E IMPARTICIÓN DE PROGRAMAS, CURSOS, MASTERS DE FORMACIÓN RELACIONADOS EL DEPORTE, LA SALUD, EL OCIO Y LAS ACTIVIDADES CULTURALES.",
      "mainEntityOfPage": "https://www.contratacion.euskadi.eus/webkpe00-kperoc/es/ac71aBusquedaRegistrosWar/empresa/08805",
      "_links": {
        "self": {
          "name": "INTELLIGENT SYSTEM VITALE, S.L.",
          "href": "https://api.euskadi.eus/procurements/companies/08805"
        }
      }
    },
    {
      "name": "MARIA ARANZAZU IRADI OTAEGUI",
      "registrationNumber": "06944",
      "identificationNumber": "15936606K",
      "address": "Heriz Pasealekua 92-1.A",
      "location": {
        "postalCode": "20008",
        "municipality": "Donostia / San Sebastián",
        "county": "Gipuzkoa",
        "municipalityId": "069",
        "countyId": "20"
      },
      "economicActivities": [
        {
          "id": "1.972.1",
          "name": "Servicios de peluquería de señoras y caballeros",
          "_links": {
            "self": {
              "name": "Servicios de peluquería de señoras y caballeros",
              "href": "https://api.euskadi.eus/procurements/companies/economic-activities/1.972.1"
            }
          }
        }
      ],
      "certificateStartDate": "2023-01-11",
      "certificateEndDate": "2023-06-28",
      "object": "PRESTACIÓN DE SERVICIOS DE PELUQUERIA DE SEÑORAS Y CABALLEROS",
      "mainEntityOfPage": "https://www.contratacion.euskadi.eus/webkpe00-kperoc/es/ac71aBusquedaRegistrosWar/empresa/06944",
      "_links": {
        "self": {
          "name": "MARIA ARANZAZU IRADI OTAEGUI",
          "href": "https://api.euskadi.eus/procurements/companies/06944"
        }
      }
    },
    {
      "name": "A3R SERVICIOS DE CONSULTORIA INFORMATICA 2013, S.L.",
      "registrationNumber": "08800",
      "identificationNumber": "B95749479",
      "address": "AV SAN ANTONIO 003 ETXEBARRI 48450 BIZKAIA",
      "location": {
        "postalCode": "48450",
        "municipality": "Etxebarri",
        "county": "Bizkaia",
        "municipalityId": "029",
        "countyId": "48"
      },
      "economicActivities": [
        {
          "id": "1.845",
          "name": "Explotación electrónica por cuenta de terceros",
          "_links": {
            "self": {
              "name": "Explotación electrónica por cuenta de terceros",
              "href": "https://api.euskadi.eus/procurements/companies/economic-activities/1.845"
            }
          }
        }
      ],
      "certificateStartDate": "2023-01-10",
      "certificateEndDate": "2023-07-10",
      "object": "1. CONSTRUCCIÓN, INSTALACIONES Y MANTENIMIENTO. 2. COMERCIO AL POR MAYOR Y AL POR MENOR. DISTRIBUCIÓN COMERCIAL. IMPORTACIÓN Y EXPORTACIÓN. 3. ACTIVIDADES INMOBILIARIAS. 5. INDUSTRIAS MANUFACTURERAS Y TEXTILES. 6. TURISMO, HOSTELERÍA Y RESTAURACIÓN. 7. PRESTACIÓN DE SERVICIOS. ACTIVIDADES DE GESTIÓN Y ADMINISTRACIÓN. SERVICIOS EDUCATIVOS, DE OCIO Y ENTRETENIMIENTO. 8. TRANSPORTE Y ALMACENAMIENTO. 9. INFORMACIÓN Y COMUNICACIONES. 10. AGRICULTURA, GANADERÍA Y PESCA. 11. INFORMÁTICA, TELECOMUNICACIONES Y OFIMÁTICA. 12. ENERGÍAS ALTERNATIVAS. 13. COMPRAVENTA Y REPARACIÓN DE VEHÍCULOS. REPARACIÓN Y MANTENIMIENTO DE INSTALACIONES Y MAQUINARIA. 14. INVESTIGACIÓN, DESARROLLO E INNOVACIÓN. 15. ACTIVIDADES CIENTÍFICAS Y TÉCNICAS.",
      "mainEntityOfPage": "https://www.contratacion.euskadi.eus/webkpe00-kperoc/es/ac71aBusquedaRegistrosWar/empresa/08800",
      "_links": {
        "self": {
          "name": "A3R SERVICIOS DE CONSULTORIA INFORMATICA 2013, S.L.",
          "href": "https://api.euskadi.eus/procurements/companies/08800"
        }
      }
    },
    {
      "name": "EDUARDO ELOY RODRIGO ROZALEN",
      "registrationNumber": "08799",
      "identificationNumber": "12413532H",
      "address": "Calle Zamácola (48003) 62 4ºB",
      "location": {
        "postalCode": "48003",
        "municipality": "Bilbao",
        "county": "Bizkaia",
        "municipalityId": "020",
        "countyId": "48"
      },
      "economicActivities": [
        {
          "id": "2.723",
          "name": "Administradores de fincas",
          "_links": {
            "self": {
              "name": "Administradores de fincas",
              "href": "https://api.euskadi.eus/procurements/companies/economic-activities/2.723"
            }
          }
        }
      ],
      "certificateStartDate": "2023-01-09",
      "certificateEndDate": "2023-07-02",
      "object": "ADMINISTRADORES DE FINCAS.",
      "mainEntityOfPage": "https://www.contratacion.euskadi.eus/webkpe00-kperoc/es/ac71aBusquedaRegistrosWar/empresa/08799",
      "_links": {
        "self": {
          "name": "EDUARDO ELOY RODRIGO ROZALEN",
          "href": "https://api.euskadi.eus/procurements/companies/08799"
        }
      }
    },
    {
      "name": "AVL IBERICA, S.A.",
      "registrationNumber": "08798",
      "identificationNumber": "A59503961",
      "address": "Paseo Arco de Ladrillo, número 68, planta 5ª ",
      "location": {
        "postalCode": "47007",
        "municipality": "Valladolid",
        "county": "Valladolid",
        "municipalityId": "186",
        "countyId": "47"
      },
      "economicActivities": [
        {
          "id": "1.692",
          "name": "Reparación de maquinaria industrial",
          "_links": {
            "self": {
              "name": "Reparación de maquinaria industrial",
              "href": "https://api.euskadi.eus/procurements/companies/economic-activities/1.692"
            }
          }
        },
        {
          "id": "1.843.1",
          "name": "Servicios técnicos de ingeniería",
          "_links": {
            "self": {
              "name": "Servicios técnicos de ingeniería",
              "href": "https://api.euskadi.eus/procurements/companies/economic-activities/1.843.1"
            }
          }
        }
      ],
      "certificateStartDate": "2023-01-09",
      "certificateEndDate": "2023-06-30",
      "object": "LA COMPRA, VENTA, IMPORTACIÓN, EXPORTACIÓN, DESARROLLO, REPRESENTACIÓN COMERCIAL Y DISTRIBUCIÓN DE MOTORES, MÁQUINAS, PRODUCTOS SEMI ACABADOS, APARATOS A INSTRUMENTOS DE TODO TIPO, EN PARTICULAR INSTRUMENTOS DE MEDICIÓN Y BANCOS DE PRUEBAS ELÉCTRICOS, ELECTRÓNICOS Y MECÁNICOS, Y TODAS LAS PRESTACIONES DE SERVICIOS COMPRENDIDOS EN TEMAS INFORMÁTICOS, DE ESTUDIO, DE INVESTIGACIÓN, DE MARQUETING, DE INSTALACIÓN Y OTROS RELATIVOS A LOS PRODUCTOS ANTES MENCIONADOS.",
      "mainEntityOfPage": "https://www.contratacion.euskadi.eus/webkpe00-kperoc/es/ac71aBusquedaRegistrosWar/empresa/08798",
      "_links": {
        "self": {
          "name": "AVL IBERICA, S.A.",
          "href": "https://api.euskadi.eus/procurements/companies/08798"
        }
      }
    },
    {
      "name": "NURIA TALLON CHAPARRO",
      "registrationNumber": "08791",
      "identificationNumber": "22749385Q",
      "address": "BULU BEURKO 7 12D",
      "location": {
        "postalCode": "48902",
        "municipality": "Barakaldo",
        "county": "Bizkaia",
        "municipalityId": "013",
        "countyId": "48"
      },
      "economicActivities": [
        {
          "id": "1.798",
          "name": "Otros profesionales relacionados con actividades financieras y jurídicas",
          "_links": {
            "self": {
              "name": "Otros profesionales relacionados con actividades financieras y jurídicas",
              "href": "https://api.euskadi.eus/procurements/companies/economic-activities/1.798"
            }
          }
        },
        {
          "id": "2.723",
          "name": "Administradores de fincas",
          "_links": {
            "self": {
              "name": "Administradores de fincas",
              "href": "https://api.euskadi.eus/procurements/companies/economic-activities/2.723"
            }
          }
        }
      ],
      "certificateStartDate": "2023-01-05",
      "certificateEndDate": "2023-06-26",
      "object": "ADMINISTRADORES DE FINCAS. OTROS PROFESIONALES RELACIONADOS CON ACTIVIDADES FINANCIERAS Y JURÍDICAS.",
      "mainEntityOfPage": "https://www.contratacion.euskadi.eus/webkpe00-kperoc/es/ac71aBusquedaRegistrosWar/empresa/08791",
      "_links": {
        "self": {
          "name": "NURIA TALLON CHAPARRO",
          "href": "https://api.euskadi.eus/procurements/companies/08791"
        }
      }
    },
    {
      "name": "IVAN MARRERO LOPEZ",
      "registrationNumber": "08787",
      "identificationNumber": "78707405W",
      "address": "Agustín Cabrera Díaz, 7. Bajo C",
      "location": {
        "postalCode": "38008",
        "municipality": "Santa Cruz de Tenerife",
        "county": "Santa Cruz de Tenerife",
        "municipalityId": "038",
        "countyId": "38"
      },
      "economicActivities": [
        {
          "id": "1.501.3",
          "name": "Albañilería y pequeños trabajos de construcción en general",
          "_links": {
            "self": {
              "name": "Albañilería y pequeños trabajos de construcción en general",
              "href": "https://api.euskadi.eus/procurements/companies/economic-activities/1.501.3"
            }
          }
        },
        {
          "id": "1.844",
          "name": "Servicios de publicidad, relaciones públicas y similares",
          "_links": {
            "self": {
              "name": "Servicios de publicidad, relaciones públicas y similares",
              "href": "https://api.euskadi.eus/procurements/companies/economic-activities/1.844"
            }
          }
        },
        {
          "id": "2.751",
          "name": "Profesionales de la publicidad, relaciones públicas y similares",
          "_links": {
            "self": {
              "name": "Profesionales de la publicidad, relaciones públicas y similares",
              "href": "https://api.euskadi.eus/procurements/companies/economic-activities/2.751"
            }
          }
        }
      ],
      "certificateStartDate": "2023-01-02",
      "certificateEndDate": "2023-05-29",
      "object": "PROFESIONALES DE LA PUBLICIDAD, RELACIONES PÚBLICAS Y SIMILARES. SERVICIOS DE PUBLICIDAD, RELACIONES PÚBLICAS Y SIMILARES. ALBAÑILERÍA Y PEQUEÑOS TRABAJOS DE CONSTRUCCIÓN EN GENERAL.",
      "mainEntityOfPage": "https://www.contratacion.euskadi.eus/webkpe00-kperoc/es/ac71aBusquedaRegistrosWar/empresa/08787",
      "_links": {
        "self": {
          "name": "IVAN MARRERO LOPEZ",
          "href": "https://api.euskadi.eus/procurements/companies/08787"
        }
      }
    },
    {
      "name": "DANIEL DIEZ CABAREDA",
      "registrationNumber": "07614",
      "identificationNumber": "30607597W",
      "address": "PARQUE LEHENDAKARI AGUIRRE Nº 3 1º A",
      "location": {
        "postalCode": "48800",
        "municipality": "Balmaseda",
        "county": "Bizkaia",
        "municipalityId": "090",
        "countyId": "48"
      },
      "economicActivities": [
        {
          "id": "1.659.2",
          "name": "Venta al por menor de muebles de oficina y máquinas y equipos de oficina",
          "_links": {
            "self": {
              "name": "Venta al por menor de muebles de oficina y máquinas y equipos de oficina",
              "href": "https://api.euskadi.eus/procurements/companies/economic-activities/1.659.2"
            }
          }
        },
        {
          "id": "1.861.2",
          "name": "Alquiler de locales industriales y otros alquileres n.c.o.p",
          "_links": {
            "self": {
              "name": "Alquiler de locales industriales y otros alquileres n.c.o.p",
              "href": "https://api.euskadi.eus/procurements/companies/economic-activities/1.861.2"
            }
          }
        },
        {
          "id": "2.763",
          "name": "Programadores y analistas de informática",
          "_links": {
            "self": {
              "name": "Programadores y analistas de informática",
              "href": "https://api.euskadi.eus/procurements/companies/economic-activities/2.763"
            }
          }
        }
      ],
      "certificateStartDate": "2022-12-30",
      "certificateEndDate": "2023-06-28",
      "object": "PROGRAMADORES Y ANALISTAS DE INFORMÁTICA",
      "mainEntityOfPage": "https://www.contratacion.euskadi.eus/webkpe00-kperoc/es/ac71aBusquedaRegistrosWar/empresa/07614",
      "_links": {
        "self": {
          "name": "DANIEL DIEZ CABAREDA",
          "href": "https://api.euskadi.eus/procurements/companies/07614"
        }
      }
    },
    {
      "name": "MAGMACULTURA S.L.",
      "registrationNumber": "06540",
      "identificationNumber": "B61949764",
      "address": "Corunya, 11 Bajos",
      "location": {
        "postalCode": "08026",
        "municipality": "Barcelona",
        "county": "Barcelona",
        "municipalityId": "019",
        "countyId": "08"
      },
      "economicActivities": [
        {
          "id": "1.966.9",
          "name": "Otros servicios culturales n.c.o.p",
          "_links": {
            "self": {
              "name": "Otros servicios culturales n.c.o.p",
              "href": "https://api.euskadi.eus/procurements/companies/economic-activities/1.966.9"
            }
          }
        }
      ],
      "certificateStartDate": "2022-12-30",
      "certificateEndDate": "2023-06-22",
      "object": "LA GESTIÓN CULTURAL ESPECIALIZADA EN PROYECTOS Y SERVICIOS EN EL ÁMBITO SOCIAL, DE LA CULTURA, LA EDUCACIÓN Y EL TURISMO, EN CONCRETO: CONSULTORÍA: CREACIÓN DE CONTENIDOS Y PRODUCTOS, PLANIFICACIÓN Y DISEÑO DE ESTRATEGIAS DE GESTIÓN Y COMUNICACIÓN SOCIAL Y CULTURAL. MUSEOLOGÍA Y MUSEOGRAFÍA: CONCEPTUALIZACIÓN, CONTENIDOS, DISEÑO Y CREACIÓN DE MUSEOS, EXPOSICIONES, STANDS, Y OTROS EQUIPAMIENTOS DE CARÁCTER CULTURAL O SOCIAL. EDUCACIÓN: CONCEPTUALIZACIÓN Y CREACIÓN DE PROYECTOS SOCIALES Y EDUCATIVOS. GESTIÓN DE SERVICIOS PARA EQUIPAMIENTOS CULTURALES Y SOCIALES, MUSEOS, CENTROS ESCOLARES Y ESPACIOS TURÍSTICOS: IMPLEMENTACIÓN Y GESTIÓN DE EQUIPOS ESPECIALIZADOS PARA LA REALIZACIÓN DE TAREAS ESPECÍFICAS EN MUSEOS, ARCHIVOS, BIBLIOTECAS Y OTROS EQUIPAMIENTOS CULTURALES, Y EN ESPACIOS TURÍSTICOS, ESCOLARES Y SOCIALES, EN CONCRETO: - ATENCIÓN E INFORMACIÓN AL PÚBLICO Y CONTROL DE ACCESOS. -MEDIACIÓN CULTURAL. -GESTIÓN Y DINAMIZACIÓN DE EQUIPAMIENTO. -ACTIVIDADES DIDÁCTICAS Y EDUCATIVAS. -ARCHIVÍSTICA, CATALOGACIÓN, ESCANEO, DESTRUCCIÓN Y ALMACENAJE DE DOCUMENTACIÓN. -SERVICIO DE ASISTENCIA Y BIENESTAR SOCIAL, GUARDERÍA INFANTIL. -OTROS SERVICIOS ESPECIALIZADOS. PRODUCCIÓN Y DINAMIZACIÓN DE PROYECTOS CULTURALES Y SOCIALES: CONCEPTUALIZACIÓN, DISEÑO, PRODUCCIÓN, MONTAJE Y DESMONTAJE, REALIZACIÓN, DINAMIZACIÓN Y GESTIÓN DE EVENTOS CULTURALES, LÚDICOS, O DE CONTENIDO SOCIAL O CORPORATIVO, EN CONCRETO: - PROYECTOS EXPOSITIVOS. -ESPACIOS INSTITUCIONALES O EFÍMEROS. - EVENTOS Y FIESTAS DE PARTICIPACIÓN CIUDADANA. - CONGRESOS, FERIAS Y JORANADAS. - SERVICIOS INTEGRALES. - DISEÑO GRÁFICO. COMUNICACIÓN Y MARKETING: DISEÑO E IMPLEMENTACIÓN DE ESTRATEGIAS DE COMUNICACIÓN Y ACCIONES DE MARKETING PARA INFORMAR, DINAMIZAR Y CAPTAR PÚBLICOS CULTURALES Y SOCIALES, EN CONCRETO: -CAMPAÑAS DE COMUNICACIÓN Y PUBLICIDAD. - DISEÑO GRÁFICO, Y CREACIÓN DE ELEMENTOS DE COMUNICACIÓN. -SERVICIOS ESTRATÉGICOS DE COMUNICACIÓN Y MARKETING CON LA APLICACIÓN DE HERRAMIENTAS 2.0, REDES SOCIALES. -SERVICIOS DE TELEMARKETING, TELEMÁTICOS Y CENTRAL DE RESERVAS. - INFORMACIÓN, RESERVAS Y CAPTACIÓN DE PÚBLICOS. - ENCUESTAS, TOMAS DE DATOS Y SERVICIOS ANÁLOGOS. CREACIÓN, DISEÑO Y COMERCIALIZACIÓN DE HARDWARE Y SOFTWARE PARA  LA GESTIÓN Y LA INTERPRETACIÓN DE EQUIPAMIENTOS CULTURALES Y SOCIALES: PROGRAMAS INFORMÁTICOS PARA LA GESTIÓN Y LA DIFUSIÓN DE CONTENIDOS EN PROYECTOS Y EQUIPAMIENTOS DE CARÁCTER CULTURAL O SOCIAL, EN CONCRETO: - DISEÑO Y COMERCIALIZACIÓN DE SOFTWARE PARA LA GESTIÓN DE PÚBLICOS Y VENTA DE ENTRADAS. -CREACIÓN DE PLATAFORMAS DIGITALES DE CONTENIDOS EDUCATIVOS, CULTURALES Y SOCIALES. - DISEÑO DE APPS Y APLICACIONES INFORMÁTICAS. -CREACIÓN DE AUDIOGUÍAS DIGITALES Y ELEMENTOS TECNOLÓGICOS DE INTERPRETACIÓN PATRIMONIAL, CULTURAL Y TURÍSTICA. -SERVICIOS DE TECNOLOGÍAS DE LA INFORMACIÓN Y LAS COMUNICACIONES, INCLUYENDO SERVICIOS DE CAPTURA DE INFORMACIÓN POR MEDIOS  ELECTRÓNICOS Y TELEMÁTICOS, SERVICIOS DE DESARROLLO Y MANTENIMIENTO DE PROGRAMAS DE ORDENADOR, SERVICIOS DE MANTENIMIENTO Y REPARACIÓN DE EQUIPOS E INSTALACIONES INFORMÁTICAS Y DE TELECOMUNICACIONES, Y SERVICIOS DE EXPLOTACIÓN Y CONTROL DE SISTEMAS INFORMÁTICOS E INFRAESTRUCTURAS TELEMÁTICAS. PRODUCCIÓN AUDIOVISUAL: CONCEPTUALIZACIÓN, CREACIÓN DE CONTENIDOS Y REALIZACIÓN DE PROYECTOS AUDIOVISUALES. EN CONCRETO: - PRODUCCIÓN Y REALIZACIÓN DE VIDEOS CULTURALES, EDUCATIVOS Y SOCIALES. -CREACIÓN DE CONTENIDOS PARA EL DESARROLLO DE PROYECTOS AUDIOVISUALES DE DIFUSIÓN TELEVISIVA, INTERNET, APLICACIONES INFORMÁTICAS. -CREACIÓN DE CONTENIDOS PARA AUDIOGUÍAS, Y COMERCIALIZACIÓN DE SISTEMAS DE INTERPRETACIÓN MEDIANTE AUDIOGUÍAS Y RADIOGUÍAS PARA EQUIPAMIENTOS CULTURALES, ESPACIOS PATRIMONIALES Y TURÍSTICOS",
      "mainEntityOfPage": "https://www.contratacion.euskadi.eus/webkpe00-kperoc/es/ac71aBusquedaRegistrosWar/empresa/06540",
      "_links": {
        "self": {
          "name": "MAGMACULTURA S.L.",
          "href": "https://api.euskadi.eus/procurements/companies/06540"
        }
      }
    },
    {
      "name": "ERTZ 4, S.L.",
      "registrationNumber": "03744",
      "identificationNumber": "B01304443",
      "address": "C/ PLAZA DE ZALDIARAN Nº 7-BAJO",
      "location": {
        "postalCode": "01012",
        "municipality": "Vitoria-Gasteiz",
        "county": "Araba/Álava",
        "municipalityId": "059",
        "countyId": "01"
      },
      "economicActivities": [
        {
          "id": "1.501.1",
          "name": "Construcción completa, reparación y conservación de edificaciones",
          "_links": {
            "self": {
              "name": "Construcción completa, reparación y conservación de edificaciones",
              "href": "https://api.euskadi.eus/procurements/companies/economic-activities/1.501.1"
            }
          }
        }
      ],
      "certificateStartDate": "2022-12-27",
      "certificateEndDate": "2023-06-14",
      "object": "LA REALIZACIÓN DE PROYECTOS Y COORDINACIÓN DE TODO TIPO DE GREMIOS DE CONSTRUCCIÓN. ALBAÑILERÍA Y CONSTRUCCIÓN EN GENERAL Y TODO TIPO DE ACTIVIDADES INMOBILIARIAS. LA ADQUISICIÓN, URBANIZACIÓN, PARCELACIÓN, CONSTRUCCIÓN, EDIFICACIÓN, CONSTITUCIÓN EN PROPIEDAD HORIZONTAL, REFORMA, AMPLIACIÓN, EXPLOTACIÓN DIRECTA O INDIRECTA, ENAJENACIÓN Y EN GENERAL, TODA ACTIVIDAD RELATIVA A BIENES INMUEBLES, ASÍ RÚSTICOS COMO URBANOS, Y LA REALIZACIÓN DE OBRAS PÚBLICAS Y TODA SUERTE DE INVERSIONES Y PROMOCIONES RELACIONADAS CON EL RAMO DE LA CONSTRUCCIÓN, ACUDIENDO A SUBASTAS Y CONTRATACIONES PÚBLICAS Y PRIVADAS",
      "mainEntityOfPage": "https://www.contratacion.euskadi.eus/webkpe00-kperoc/es/ac71aBusquedaRegistrosWar/empresa/03744",
      "_links": {
        "self": {
          "name": "ERTZ 4, S.L.",
          "href": "https://api.euskadi.eus/procurements/companies/03744"
        }
      }
    }
  ]
}