{
  "totalItems": 9042,
  "totalPages": 905,
  "currentPage": 803,
  "itemsOfPage": 10,
  "items": [
    {
      "name": "ORGANIZACIÓN TÉCNICA EMPRESAS VIZCAYA, S.A.",
      "registrationNumber": "02574",
      "identificationNumber": "A48087746",
      "address": "CALLE COLÓN DE LARREATEGUI, Nº 50-BAJO",
      "location": {
        "postalCode": "48011",
        "municipality": "Bilbao",
        "county": "Bizkaia",
        "municipalityId": "020",
        "countyId": "48"
      },
      "economicActivities": [
        {
          "id": "1.617.8",
          "name": "Venta al por mayor de máquinas y material de oficina",
          "_links": {
            "self": {
              "name": "Venta al por mayor de máquinas y material de oficina",
              "href": "https://api.euskadi.eus/procurements/companies/economic-activities/1.617.8"
            }
          }
        }
      ],
      "certificateStartDate": "2003-03-26",
      "certificateEndDate": "2003-09-16",
      "object": "LA EXPLOTACIÓN DE UN NEGOCO DEDICADO A LA COMERCIALIZACIÓN, VENTA, DISTRIBUCIÓN, IMPORTACIÓN Y EXPORTACIÓN DE TODA CLASE DE MÁQUINAS QUE DIRECTA O INDIRECTAMENTE INTERVENGAN EN LA ORGANIZACIÓN DE EMPRESAS, PUDIENDO INTERESARSE EN OTRAS SOCIEDADES DESTINADAS AL MISMO OBJETO SOCIAL. ASI MISMO, PODRÁ DEDICARSE A CUALQUIER OTRA ACTIVIDAD PERMITIDA POR LAS LEYES MEDIANTE ACUERDO DE LA JUNTA GENERAL.",
      "mainEntityOfPage": "https://www.contratacion.euskadi.eus/webkpe00-kperoc/es/ac71aBusquedaRegistrosWar/empresa/02574",
      "_links": {
        "self": {
          "name": "ORGANIZACIÓN TÉCNICA EMPRESAS VIZCAYA, S.A.",
          "href": "https://api.euskadi.eus/procurements/companies/02574"
        }
      }
    },
    {
      "name": "STRYKER-HOWMÉDICA IBÉRICA, S.L.",
      "registrationNumber": "02522",
      "identificationNumber": "B82173451",
      "address": "C/ MANUEL TOVAR, Nº 35 - 2ª PLANTA.",
      "location": {
        "postalCode": "28034",
        "municipality": "Madrid",
        "county": "Madrid",
        "municipalityId": "079",
        "countyId": "28"
      },
      "economicActivities": [
        {
          "id": "1.619.2",
          "name": "Venta al por mayor de aparatos e instrumentos médicos, ortopédicos, ópticos",
          "_links": {
            "self": {
              "name": "Venta al por mayor de aparatos e instrumentos médicos, ortopédicos, ópticos",
              "href": "https://api.euskadi.eus/procurements/companies/economic-activities/1.619.2"
            }
          }
        }
      ],
      "certificateStartDate": "2003-03-25",
      "certificateEndDate": "2003-08-24",
      "object": "LA FABRICACIÓN, COMERCIALIZACIÓN, IMPORTACIÓN Y EXPORTACIÓN DE MATERIAL MÉDICO Y QUIRÚRGICO ASÍ COMO PRODUCTOS FARMACÉUTICOS Y SIMILARES, CON SUJECIÓN AL CUMPLIMIENTO DE LAS DISPOSICIONES LEGALES APLICABLES Y EN ESPECIAL A LA OBTENCIÓN, EN SU CASO, DE CUALESQUIERA PERMISOS Y AUTORIZACIONES ",
      "mainEntityOfPage": "https://www.contratacion.euskadi.eus/webkpe00-kperoc/es/ac71aBusquedaRegistrosWar/empresa/02522",
      "_links": {
        "self": {
          "name": "STRYKER-HOWMÉDICA IBÉRICA, S.L.",
          "href": "https://api.euskadi.eus/procurements/companies/02522"
        }
      }
    },
    {
      "name": "ORGANIZACIÓN Y GESTIÓN RECAUDATORIA, S.A.",
      "registrationNumber": "01128",
      "identificationNumber": "A20088019",
      "address": "C/ LOYOLA, Nº 11 - 1º IZDA.",
      "location": {
        "postalCode": "20005",
        "municipality": "Donostia / San Sebastián",
        "county": "Gipuzkoa",
        "municipalityId": "069",
        "countyId": "20"
      },
      "economicActivities": [
        {
          "id": "1.849.1",
          "name": "Cobros de deudas y confección de facturas",
          "_links": {
            "self": {
              "name": "Cobros de deudas y confección de facturas",
              "href": "https://api.euskadi.eus/procurements/companies/economic-activities/1.849.1"
            }
          }
        }
      ],
      "certificateStartDate": "2003-03-24",
      "certificateEndDate": "2003-09-13",
      "object": "LA CONTRATACIÓN, TANTO CON PERSONAS FÍSICAS COMO JURÍDICAS, PÚBLICAS O PRIVADAS, Y ORGANISMOS Y ENTIDADES DE TODO TIPO, DE OPERACIONES RELACIONADAS CON LA ORGANIZACIÓN DE SERVICIOS, COLABORAR EN LA GESTIÓN DE LOS MISMOS Y SU MECANIZACIÓN, O CUALQUIER OTRO SERVICIO DE ASESORÍA O GESTIÓN EN GENERAL, ASÍ COMO REALIZACIÓN DE TODA CLASE DE ACTOS, QUE DIRECTA O INDIRECTAMENTE SE RELACIONEN CON LO ANTERIOR, Y COMPRA-VENTA DE MUEBLES E INMUEBLES, DESTINADOS O NO A LOS SERVICIOS QUE SE CONTRATEN",
      "mainEntityOfPage": "https://www.contratacion.euskadi.eus/webkpe00-kperoc/es/ac71aBusquedaRegistrosWar/empresa/01128",
      "_links": {
        "self": {
          "name": "ORGANIZACIÓN Y GESTIÓN RECAUDATORIA, S.A.",
          "href": "https://api.euskadi.eus/procurements/companies/01128"
        }
      }
    },
    {
      "name": "DIVERSEYLEVER, S.A.",
      "registrationNumber": "01437",
      "identificationNumber": "A08188344",
      "address": "C/ SAN GABRIEL, Nº 43-45",
      "location": {
        "postalCode": "08950",
        "municipality": "Esplugues de Llobregat",
        "county": "Barcelona",
        "municipalityId": "077",
        "countyId": "08"
      },
      "economicActivities": [
        {
          "id": "1.616.9",
          "name": "Otro comercio al por mayor interindustria de la minería n.c.o.p",
          "_links": {
            "self": {
              "name": "Otro comercio al por mayor interindustria de la minería n.c.o.p",
              "href": "https://api.euskadi.eus/procurements/companies/economic-activities/1.616.9"
            }
          }
        }
      ],
      "certificateStartDate": "2003-03-21",
      "certificateEndDate": "2003-03-12",
      "object": "LA FABRICACIÓN Y VENTA DE COMPUESTOS QUÍMICOS INDUSTRIALES INCLUYENDO, AUNQUE NO DE UN MODO LIMITATIVO, DETERGENTES, INSECTICIDAS, BACTERICIDAS Y AGENTES DE LIMPIEZA EN GENERAL, ASÍ COMO LA FABRICACIÓN Y VENTA DE DISPOSITIVOS MECÁNICOS Y ELECTRÓNICOS DE ENSAYO Y EXPEDICIÓN, ESTANDO DESTINADOS TODOS ESTOS COMPUESTOS Y DISPOSITIVOS A SU EMPLEO EN LAS INDUSTRIAS DE ELABORACIÓN DE PRODUCTOS ALIMENTICIOS Y TRATAMIENTO DE METALES Y EN CENTROS IMPORTANTES",
      "mainEntityOfPage": "https://www.contratacion.euskadi.eus/webkpe00-kperoc/es/ac71aBusquedaRegistrosWar/empresa/01437",
      "_links": {
        "self": {
          "name": "DIVERSEYLEVER, S.A.",
          "href": "https://api.euskadi.eus/procurements/companies/01437"
        }
      }
    },
    {
      "name": "TIP TOP COMUNICACIÓN, S.L.",
      "registrationNumber": "02642",
      "identificationNumber": "B20633301",
      "address": "AVDA. DE LA ZURRIOLA, Nº 34-3º IZDA.",
      "location": {
        "postalCode": "20000",
        "municipality": "Donostia / San Sebastián",
        "county": "Gipuzkoa",
        "municipalityId": "069",
        "countyId": "20"
      },
      "economicActivities": [
        {
          "id": "1.659.6",
          "name": "Venta al por menor de juguetes, artículos de deporte",
          "_links": {
            "self": {
              "name": "Venta al por menor de juguetes, artículos de deporte",
              "href": "https://api.euskadi.eus/procurements/companies/economic-activities/1.659.6"
            }
          }
        },
        {
          "id": "1.844",
          "name": "Servicios de publicidad, relaciones públicas y similares",
          "_links": {
            "self": {
              "name": "Servicios de publicidad, relaciones públicas y similares",
              "href": "https://api.euskadi.eus/procurements/companies/economic-activities/1.844"
            }
          }
        }
      ],
      "certificateStartDate": "2003-03-13",
      "certificateEndDate": "2003-09-05",
      "object": "A) LAS ACTIVIDADES DE MARKETING, PATROCINIO Y ORGANIZACIÓN DE ACONTECIMIENTOS DEPORTIVOS, CULTURALES Y RELATIVOS AL OCIO EN GENERAL Y ACTIVIDADES DE COMUNICACIÓN EN GENERAL; B) COMERCIO DE INSTALACIONES DEPORTIVAS Y SU INSTALACIÓN.\r\nLAS ACTIVIDADES RESEÑALDAS PODRÁN TAMBIÉN SER DESARROLLADAS DE MODO INDIRECTO, MEDIANTE LA PARTICIPACIÓN O TOMA DE INTERÉS EN OTRAS SOCIEDADES DE OBJETO ANÁLOGO.",
      "mainEntityOfPage": "https://www.contratacion.euskadi.eus/webkpe00-kperoc/es/ac71aBusquedaRegistrosWar/empresa/02642",
      "_links": {
        "self": {
          "name": "TIP TOP COMUNICACIÓN, S.L.",
          "href": "https://api.euskadi.eus/procurements/companies/02642"
        }
      }
    },
    {
      "name": "DISTCOR DISTRIBUCIÓN DE CORRESPONDENCIA, S.L.",
      "registrationNumber": "01766",
      "identificationNumber": "B48465835",
      "address": "C/ ENCARTACIONES, Nº 16 - LONJA.",
      "location": {
        "postalCode": "48902",
        "municipality": "Barakaldo",
        "county": "Bizkaia",
        "municipalityId": "013",
        "countyId": "48"
      },
      "economicActivities": [
        {
          "id": "1.849.5",
          "name": "Servicios de recadería y reparto y manipulación de correspondencia",
          "_links": {
            "self": {
              "name": "Servicios de recadería y reparto y manipulación de correspondencia",
              "href": "https://api.euskadi.eus/procurements/companies/economic-activities/1.849.5"
            }
          }
        }
      ],
      "certificateStartDate": "2003-03-07",
      "certificateEndDate": "2003-08-03",
      "object": "LA REALIZACIÓN DE LAS ACTIVIDADES DE MANIPULACIÓN Y REPARTO DE CORRESPONDENCIA Y LOS SERVICIOS DE ADMINISTRACIÓN",
      "mainEntityOfPage": "https://www.contratacion.euskadi.eus/webkpe00-kperoc/es/ac71aBusquedaRegistrosWar/empresa/01766",
      "_links": {
        "self": {
          "name": "DISTCOR DISTRIBUCIÓN DE CORRESPONDENCIA, S.L.",
          "href": "https://api.euskadi.eus/procurements/companies/01766"
        }
      }
    },
    {
      "name": "AUTOMÓVILES Y CAMIONES, S.A. (AUCASA)",
      "registrationNumber": "00288",
      "identificationNumber": "A48024434",
      "address": "C/ GRAN VÍA, Nº 83.",
      "location": {
        "postalCode": "48011",
        "municipality": "Bilbao",
        "county": "Bizkaia",
        "municipalityId": "020",
        "countyId": "48"
      },
      "economicActivities": [
        {
          "id": "1.654.1",
          "name": "Venta al por menor de vehículos terrestres",
          "_links": {
            "self": {
              "name": "Venta al por menor de vehículos terrestres",
              "href": "https://api.euskadi.eus/procurements/companies/economic-activities/1.654.1"
            }
          }
        },
        {
          "id": "1.654.2",
          "name": "Venta al por menor de accesorios, piezas de recambio de vehículos terrestres",
          "_links": {
            "self": {
              "name": "Venta al por menor de accesorios, piezas de recambio de vehículos terrestres",
              "href": "https://api.euskadi.eus/procurements/companies/economic-activities/1.654.2"
            }
          }
        },
        {
          "id": "1.691.2",
          "name": "Reparación de vehículos automóviles, bicicletas y otros vehículos",
          "_links": {
            "self": {
              "name": "Reparación de vehículos automóviles, bicicletas y otros vehículos",
              "href": "https://api.euskadi.eus/procurements/companies/economic-activities/1.691.2"
            }
          }
        },
        {
          "id": "1.751.5",
          "name": "Engrase y lavado de vehículos",
          "_links": {
            "self": {
              "name": "Engrase y lavado de vehículos",
              "href": "https://api.euskadi.eus/procurements/companies/economic-activities/1.751.5"
            }
          }
        }
      ],
      "certificateStartDate": "2003-03-03",
      "certificateEndDate": "2003-08-17",
      "object": "LA EXPLOTACIÓN DEL NEGOCIO DE COMPRA-VENTA DE AUTOMÓVILES Y CAMIONES Y SUS ACCESORIOS Y LA REPARACIÓN, CUSTODIA Y ENTRETENIMIENTO DE LOS MISMOS",
      "mainEntityOfPage": "https://www.contratacion.euskadi.eus/webkpe00-kperoc/es/ac71aBusquedaRegistrosWar/empresa/00288",
      "_links": {
        "self": {
          "name": "AUTOMÓVILES Y CAMIONES, S.A. (AUCASA)",
          "href": "https://api.euskadi.eus/procurements/companies/00288"
        }
      }
    },
    {
      "name": "PHARMACIA SPAIN, S.A.",
      "registrationNumber": "01839",
      "identificationNumber": "A08091050",
      "address": "CARRETERA DE RUBÍ, 90",
      "location": {
        "postalCode": "08190",
        "municipality": "Sant Cugat del Vallès",
        "county": "Barcelona",
        "municipalityId": "205",
        "countyId": "08"
      },
      "economicActivities": [
        {
          "id": "1.614.1",
          "name": "Venta al por mayor de productos farmacéuticos y medicamentos",
          "_links": {
            "self": {
              "name": "Venta al por mayor de productos farmacéuticos y medicamentos",
              "href": "https://api.euskadi.eus/procurements/companies/economic-activities/1.614.1"
            }
          }
        }
      ],
      "certificateStartDate": "2003-02-26",
      "certificateEndDate": "2003-07-24",
      "object": "LA INVESTIGACION Y DESARROLLO CIENTIFICO, ADQUISICION, FABRICACION, IMPORTACION, EXPORTACION, REPRESENTACION, COMERCIALIZACION, VENTA Y DISTRIBUCION DE TODA CLASE DE PRODUCTOS QUIMICOS, SANITARIOS, FARMACEUTICOS, PARAFARMACEUTICOS, MEDICINALES, HOSPITALARIOS Y VETERINARIOS, ASI COMO DE SUS MATERIAS PRIMAS Y COMPONENTES, E IGUALMENTE LA TENENCIA, DESARROLLO Y EXPLOTACION DE PATENTES, MARCAS Y PROCEDIMIENTOS DE FABRICACION RESPECTO DE LAS ACTIVIDADES EXPRESADAS. PRESTACION DE SERVICIOS Y ASISTENCIA TECNICA EN LOS SECTORES QUIMICO, FARMACEUTICO, HOSPITALARIO Y VETERINARIO",
      "mainEntityOfPage": "https://www.contratacion.euskadi.eus/webkpe00-kperoc/es/ac71aBusquedaRegistrosWar/empresa/01839",
      "_links": {
        "self": {
          "name": "PHARMACIA SPAIN, S.A.",
          "href": "https://api.euskadi.eus/procurements/companies/01839"
        }
      }
    },
    {
      "name": "INTERWAY, S.A.",
      "registrationNumber": "02633",
      "identificationNumber": "A28739480",
      "address": "AVDA. ALBERTO ALCOCER, 46 B - 1º",
      "location": {
        "postalCode": "28016",
        "municipality": "Madrid",
        "county": "Madrid",
        "municipalityId": "079",
        "countyId": "28"
      },
      "economicActivities": [
        {
          "id": "1.755.2",
          "name": "Servicios prestados al público por las agencias de viajes",
          "_links": {
            "self": {
              "name": "Servicios prestados al público por las agencias de viajes",
              "href": "https://api.euskadi.eus/procurements/companies/economic-activities/1.755.2"
            }
          }
        }
      ],
      "certificateStartDate": "2003-02-19",
      "certificateEndDate": "2003-07-08",
      "object": "ÚNICO Y EXCLUSIVO EL EJERCICIO DE LAS ACTIVIDADES PROPIAS DE LAS AGENCIAS DE VIAJES. QUEDAN EXCLUIDAS TODAS AQUELLAS ACTIVIDADES PARA CUYO EJERCICIO LA LEY EXIJA REQUISITOS ESPECIALES QUE NO QUEDEN CUMPLIDOS POR ESTA SOCIEDAD.\r\nSI PARA EL EJERCICIO DE ALGUNA DE LAS ACTIVIDADES COMPRENDIDAS EN EL OBJETO SOCIAL FUERE PRECISO ESTAR EN POSESIÓN DE ALGÚN TÍTULO O NOMBRAMIENTO OFICIAL, SÓLO PODRÁ SER REALIZADA AQUÉLLA POR CUENTA DE LA SOCIEDAD, COMO ACTIVIDAD SOCIAL, POR QUIEN TENGA LA TITULACIÓN LEGALMENTE REQUERIDA Y SE ENCUENTRE LIGADA POR CUALQUIER VÍNCULO A LA SOCIEDAD, SI ELLO FUERA LEGALMENTE POSIBLE. EN OTRO CASO, LA SOCIEDAD SE LIMITARÁ A INTERMEDIAR ENTRE EL PROFESIONAL QUE POSEA EL TÍTULO O NOMBRAMIENTO. ",
      "mainEntityOfPage": "https://www.contratacion.euskadi.eus/webkpe00-kperoc/es/ac71aBusquedaRegistrosWar/empresa/02633",
      "_links": {
        "self": {
          "name": "INTERWAY, S.A.",
          "href": "https://api.euskadi.eus/procurements/companies/02633"
        }
      }
    },
    {
      "name": "GESPREVEN, S.L.",
      "registrationNumber": "02628",
      "identificationNumber": "B48887640",
      "address": "C/ DOCTOR LUIS BILBAO LIBANO, 5 ENTREPLANTA",
      "location": {
        "postalCode": "48940",
        "municipality": "Leioa",
        "county": "Bizkaia",
        "municipalityId": "054",
        "countyId": "48"
      },
      "economicActivities": [
        {
          "id": "1.843.9",
          "name": "Otros servicios técnicos n.c.o.p",
          "_links": {
            "self": {
              "name": "Otros servicios técnicos n.c.o.p",
              "href": "https://api.euskadi.eus/procurements/companies/economic-activities/1.843.9"
            }
          }
        }
      ],
      "certificateStartDate": "2003-02-10",
      "certificateEndDate": "2003-06-26",
      "object": "LOS  SERVICIOS MÉDICOS EN GENERAL.\r\nFORMACIÓN EN SALUD Y MATERIA PREVENTIVA.\r\nLA GESTIÓN Y PREVENCIÓN DE LA SEGURIDAD, SALUD Y AUTOPROTECCIÓN DE LOS TRABAJADORES Y COLECTIVOS.\r\nLA ELABORACIÓN DE ESTUDIOS TÉCNICOS, MANUALES DE AUTOPROTECCIÓN, ASESORAMIENTO EN INSTALACIONES DE PROTECCIÓN CONTRA INCENDIOS O DE CUALQUIER OTRA ÍNDOLE RELACIONADA CON LA SEGURIDAD, GESTIÓN DE RECURSOS  HUMANOS Y MATERIALES, AUDITORÍAS DE SEGURIDAD.\r\nDISEÑO Y APLICACIÓN DE PLANES Y PROGRAMAS DE ACCIÓN PREVENTIVOS.\r\nCREACIÓN Y ORGANIZACIÓN DE LOS SERVICIOS DE PREVENCIÓN.\r\nEL EJERCICIO DE LAS ACTIVIDADES SUJETAS A TITULACIÓN PROFESIONAL SERÁN DESARROLLADAS POR PERSONAS QUE OSTENTEN LA NECESARIA TITULACIÓN.\r\nTALES ACTIVIDADES PODRÁN SER DESARROLLADAS POR LA SOCIEDAD EN FORMA DIRECTA, O BIEN EN CUALESQUIERA OTRAS FORMAS ADMITIDAS EN DERECHO, COMO LA PARTICIPACIÓN EN CALIDAD DE SOCIO EN OTRAS ENTIDADES  DE OBJETO IDÉNTICO O ANÁLOGO.\r\nQUEDAN EXCLUIDAS DEL OBJETO SOCIAL TODAS LAS ACTIVIDADES PARA CUYO EJERCICIO, LA LEY EXIJA REQUISITOS ESPECIALES QUE NO CUMPLA LA SOCIEDAD. \r\n ",
      "mainEntityOfPage": "https://www.contratacion.euskadi.eus/webkpe00-kperoc/es/ac71aBusquedaRegistrosWar/empresa/02628",
      "_links": {
        "self": {
          "name": "GESPREVEN, S.L.",
          "href": "https://api.euskadi.eus/procurements/companies/02628"
        }
      }
    }
  ]
}