{
  "totalItems": 9042,
  "totalPages": 905,
  "currentPage": 617,
  "itemsOfPage": 10,
  "items": [
    {
      "name": "IRATIFRUT S.L.U.",
      "registrationNumber": "06072",
      "identificationNumber": "B01557180",
      "address": "C/ Arribitarte nº2º Plígono Industrial Litutxipi; Pabellón nº 19",
      "location": {
        "postalCode": "01200",
        "municipality": "Agurain/Salvatierra",
        "county": "Araba/Álava",
        "municipalityId": "051",
        "countyId": "01"
      },
      "economicActivities": [
        {
          "id": "1.641",
          "name": "Venta al por menor de frutas, verduras, hortalizas y tubérculos",
          "_links": {
            "self": {
              "name": "Venta al por menor de frutas, verduras, hortalizas y tubérculos",
              "href": "https://api.euskadi.eus/procurements/companies/economic-activities/1.641"
            }
          }
        }
      ],
      "certificateStartDate": "2019-02-18",
      "certificateEndDate": "2019-07-03",
      "object": "EL COMERCIO AL POR MENOR FUERA DE ESTABLECIMIENTO PERMANENTE DE PRODUCTOS ALIMENTICIOS Y COMERCIO AL POR MENOR DE FRUTAS, VERDURAS, HORTALIZAS Y TUBÉRCULOS EN ESTABLECIMIENTO PERMANENTE",
      "mainEntityOfPage": "https://www.contratacion.euskadi.eus/webkpe00-kperoc/es/ac71aBusquedaRegistrosWar/empresa/06072",
      "_links": {
        "self": {
          "name": "IRATIFRUT S.L.U.",
          "href": "https://api.euskadi.eus/procurements/companies/06072"
        }
      }
    },
    {
      "name": "FILSAT MEDICAL, S.L.N.E.",
      "registrationNumber": "06073",
      "identificationNumber": "B85371268",
      "address": "Avenida de la Industria, 29C 1.6",
      "location": {
        "postalCode": "28760",
        "municipality": "Tres Cantos",
        "county": "Madrid",
        "municipalityId": "903",
        "countyId": "28"
      },
      "economicActivities": [
        {
          "id": "1.619.2",
          "name": "Venta al por mayor de aparatos e instrumentos médicos, ortopédicos, ópticos",
          "_links": {
            "self": {
              "name": "Venta al por mayor de aparatos e instrumentos médicos, ortopédicos, ópticos",
              "href": "https://api.euskadi.eus/procurements/companies/economic-activities/1.619.2"
            }
          }
        }
      ],
      "certificateStartDate": "2019-02-18",
      "certificateEndDate": "2019-06-12",
      "object": "ACTIVIDAD COMERCIAL.Y COMO ACTIVIDAD SINGULAR, COMERCIALIZACIÓN DE EQUIPOS MÉDICOS",
      "mainEntityOfPage": "https://www.contratacion.euskadi.eus/webkpe00-kperoc/es/ac71aBusquedaRegistrosWar/empresa/06073",
      "_links": {
        "self": {
          "name": "FILSAT MEDICAL, S.L.N.E.",
          "href": "https://api.euskadi.eus/procurements/companies/06073"
        }
      }
    },
    {
      "name": "PROYECTOS INDUSTRIALES HERMANOS ANTÚNEZ, SL",
      "registrationNumber": "06074",
      "identificationNumber": "B06495980",
      "address": "C/ MARTÍNEZ, 78",
      "location": {
        "postalCode": "06240",
        "municipality": "Fuente de Cantos",
        "county": "Badajoz",
        "municipalityId": "052",
        "countyId": "06"
      },
      "economicActivities": [
        {
          "id": "1.617.5",
          "name": "Venta al por mayor de maquinaria para la madera y el metal",
          "_links": {
            "self": {
              "name": "Venta al por mayor de maquinaria para la madera y el metal",
              "href": "https://api.euskadi.eus/procurements/companies/economic-activities/1.617.5"
            }
          }
        },
        {
          "id": "1.843.1",
          "name": "Servicios técnicos de ingeniería",
          "_links": {
            "self": {
              "name": "Servicios técnicos de ingeniería",
              "href": "https://api.euskadi.eus/procurements/companies/economic-activities/1.843.1"
            }
          }
        }
      ],
      "certificateStartDate": "2019-02-18",
      "certificateEndDate": "2019-07-17",
      "object": "- INSTALACIONES ELÉCTRICAS, FONTANERÍA Y GAS. - PROYECTOS INDUSTRIALES. - FABRICACIÓN, REPARACIÓN Y MANTENIMIENTO DE MAQUINARIA INDUSTRIAL. - VENTA MAYOR Y MENOR DE MAQUINARIA INDUSTRIAL. -SERVICIOS DE PREVENCIÓN DE RIESGOS LABORALES. - ORGANISMO DE CONTROL AUTORIZADO. - GESTIÓN DE CALIDAD. - FABRICACIÓN DE ARMARIOS ELÉCTRICOS. - PROMOCIÓN Y CONSTRUCCIÓN DE TODA CLASE DE INMUEBLES. - TODA CLASE DE INDUSTRIAS MANUFACTURERAS. - SUMINISTRO DE ENERGÍA ELÉCTRICA, GAS, VAPOR Y AIRE ACONDICIONADO. - SUMINISTRO DE AGUA, ACTIVIDADES DE SANEAMIENTO, GESTIÓN DE RESIDUOS Y DESCONTAMINACIÓN. - CONSTRUCCIÓN DE TODO TIPO DE INMUEBLES, OBRA CIVIL E INSTALACIONES. - COMERCIO AL POR MENOR Y AL POR MAYOR DE VEHÍCULOS Y REPARACIÓN DE VEHÍCULOS A MOTOR Y MOTOCICLETAS. - TRANSPORTE Y ALMACENAMIENTO DE CUALQUIER TIPO DE MERCANCÍAS. - TRANSPORTE DE PERSONAS MEDIANTE CUALQUIER MEDIO. - ACTIVIDADES INFORMÁTICAS Y CUALQUIER TIPO DE TELECOMUNICACIONES. - CUALQUIER TIPO DE ACTIVIDAD PROFESIONAL, CIENTÍFICA Y TÉCNICA. - ALQUILER DE CUALQUIER TIPO DE VEHÍCULO Y MAQUINARIA. - LIMPIEZA DE EDIFICIOS Y JARDINERÍA. - VENTA Y REPARACIÓN DE MATERIAL INFORMÁTICO, DE TELECOMUNICACIONES Y ELECTRODOMÉSTICOS. - VENTA DE MATERIAL Y ROPA LABORAL, ASÍ COMO PROTECCIONES INDIVIDUALES. - FABRICACIÓN Y DISTRIBUCIÓN DE TODO TIPO DE MUEBLES, TANTO DE CARPINTERÍA METÁLICA COMO DE MADERA",
      "mainEntityOfPage": "https://www.contratacion.euskadi.eus/webkpe00-kperoc/es/ac71aBusquedaRegistrosWar/empresa/06074",
      "_links": {
        "self": {
          "name": "PROYECTOS INDUSTRIALES HERMANOS ANTÚNEZ, SL",
          "href": "https://api.euskadi.eus/procurements/companies/06074"
        }
      }
    },
    {
      "name": "TRANSFORMADOS DUMYPARK S.L.L.",
      "registrationNumber": "06062",
      "identificationNumber": "B01544626",
      "address": "PORTAL DE BERGARA Nº 5",
      "location": {
        "postalCode": "01013",
        "municipality": "Vitoria-Gasteiz",
        "county": "Araba/Álava",
        "municipalityId": "059",
        "countyId": "01"
      },
      "economicActivities": [
        {
          "id": "1.316.6",
          "name": "Fabricación de mobiliario metálico",
          "_links": {
            "self": {
              "name": "Fabricación de mobiliario metálico",
              "href": "https://api.euskadi.eus/procurements/companies/economic-activities/1.316.6"
            }
          }
        },
        {
          "id": "1.619.1",
          "name": "Venta al por mayor de juguetes y artículos de deporte",
          "_links": {
            "self": {
              "name": "Venta al por mayor de juguetes y artículos de deporte",
              "href": "https://api.euskadi.eus/procurements/companies/economic-activities/1.619.1"
            }
          }
        }
      ],
      "certificateStartDate": "2019-02-11",
      "certificateEndDate": "2019-07-19",
      "object": "EL DISEÑO, LA FABRICACIÓN Y/O COMERCIALIZACIÓN DE MOBILIARIO URBANO DE TODO TIPO, EQUIPAMIENTO DE PARQUES INFANTILES Y CIRCUITOS BIOSALUDABLES Y DEPORTIVOS, ASÍ COMO EL MONTAJE Y MANTENIMIENTO DE LOS MISMOS",
      "mainEntityOfPage": "https://www.contratacion.euskadi.eus/webkpe00-kperoc/es/ac71aBusquedaRegistrosWar/empresa/06062",
      "_links": {
        "self": {
          "name": "TRANSFORMADOS DUMYPARK S.L.L.",
          "href": "https://api.euskadi.eus/procurements/companies/06062"
        }
      }
    },
    {
      "name": "AGFA HEALTHCARE SPAIN, S.A.U.",
      "registrationNumber": "03610",
      "identificationNumber": "A85088698",
      "address": "C/ Gaspar Fábregas i Roses, 81-3º",
      "location": {
        "postalCode": "08950",
        "municipality": "Esplugues de Llobregat",
        "county": "Barcelona",
        "municipalityId": "077",
        "countyId": "08"
      },
      "economicActivities": [
        {
          "id": "1.617.8",
          "name": "Venta al por mayor de máquinas y material de oficina",
          "_links": {
            "self": {
              "name": "Venta al por mayor de máquinas y material de oficina",
              "href": "https://api.euskadi.eus/procurements/companies/economic-activities/1.617.8"
            }
          }
        },
        {
          "id": "1.619.2",
          "name": "Venta al por mayor de aparatos e instrumentos médicos, ortopédicos, ópticos",
          "_links": {
            "self": {
              "name": "Venta al por mayor de aparatos e instrumentos médicos, ortopédicos, ópticos",
              "href": "https://api.euskadi.eus/procurements/companies/economic-activities/1.619.2"
            }
          }
        },
        {
          "id": "1.691.9",
          "name": "Reparación de otros bienes de consumo n.c.o.p",
          "_links": {
            "self": {
              "name": "Reparación de otros bienes de consumo n.c.o.p",
              "href": "https://api.euskadi.eus/procurements/companies/economic-activities/1.691.9"
            }
          }
        }
      ],
      "certificateStartDate": "2019-02-08",
      "certificateEndDate": "2019-05-06",
      "object": "LA COMPRA Y DISTRIBUCIÓN EN TODAS SUS FORMAS DE TODO TIPO DE PROUCTOS SANITARIOS, PELÍCULAS RADIOGRÁFICAS, SISTEMAS DE REVELADO DE PELÍCULAS E IMPRESIÓN DE IMÁGENES; SISTEMAS DE RADIOLOGÍA DIGITAL; SISTEMAS (HARDWARE Y SOFTWARE) DE INFORMACIÓN, GESTIÓN, ADQUISICIÓN, DIAGNÓSTICO, DICTADO, FIRMA ELECTRÓNICA, VISUALIZACIÓN, COMUNICACIÓN Y ARCHIVO. SISTEMAS Y EQUIPOS DE DIATGNÓSTICO NO DESTRUCTIVO, DIGITALIZADORES DE IMAGEN, DETECTORES DE FUGAS Y FALLOS, MEDIADORES, PELÍCULAS DE RAYOS X Y PROCESADORAS PARA EL REVELADO AUTOMÁTICO DE ÉSTAS ASÍ COMO EQUIPOS CON FUENTE IONIZANTE CONTROLADA Y SISTEMAS COMPLETOS COPUESTOS POR CABINA Y TUBO, ASÍ COMO LA COMERCIALIZACIÓN DE SOFTWARE DE APLICACIONES PARA TODOS ESTOS SISTEMAS. LA PRESTACIÓN DE SERVICIOS, CAPTURA DE INFORMACIÓN POR MEDIOS TLECTRÓNICOS, INFORMÁTICOS Y TE4LEMÁTICOS; DESARROLLO Y MANTENIMIENTO DE PROGRAMAS DE ORDENADOR; MANTENIMIENTO Y REPARACIÓN DE EQUIPOS E INSTALACIONES INFORMÁTICOS Y DE TELECOMUNICACIONES; TELECOMUNICACIONES; EXPLOTACIÓN Y CONTROL DE SISTEMAS INFORMÁTICOS E INFRAESTRUCTURAS TELEMÁTICAS; INTEGRACIÓN DE APLICACIONES Y SISTEMAS INFORMÁTICOS; FORMACIÓN DE DISTINTOS USUARIOS; MANTENIMIENTO Y REPARACIÓN DE EQUIPOS E INSTALACIONES ELÉCTRICAS ELECTRÓNICAS Y DE ELECTROMEDICINA; SERVICIOS DE CONSULTORÍA RELACIONADOS CON LAS ACTIVIDADES DESCRITAS EN ESTE APARTADO. EL CUMPLIMIENTO DEL RESTO DE TRABAJOS, SERVICIOS Y PRESTACIONES CORRESPONDIENTES A LOS PRODUCTOS Y ARTÍCULOS ENUMERADOS ARRIBA",
      "mainEntityOfPage": "https://www.contratacion.euskadi.eus/webkpe00-kperoc/es/ac71aBusquedaRegistrosWar/empresa/03610",
      "_links": {
        "self": {
          "name": "AGFA HEALTHCARE SPAIN, S.A.U.",
          "href": "https://api.euskadi.eus/procurements/companies/03610"
        }
      }
    },
    {
      "name": "F&M CONTROL, S.L.",
      "registrationNumber": "06057",
      "identificationNumber": "B01124593",
      "address": "C/Basaldea, 13",
      "location": {
        "postalCode": "01015",
        "municipality": "Vitoria-Gasteiz",
        "county": "Araba/Álava",
        "municipalityId": "059",
        "countyId": "01"
      },
      "economicActivities": [
        {
          "id": "1.352",
          "name": "Fabricación de aparatos y equipo electromédico y de uso profesional",
          "_links": {
            "self": {
              "name": "Fabricación de aparatos y equipo electromédico y de uso profesional",
              "href": "https://api.euskadi.eus/procurements/companies/economic-activities/1.352"
            }
          }
        },
        {
          "id": "1.619.2",
          "name": "Venta al por mayor de aparatos e instrumentos médicos, ortopédicos, ópticos",
          "_links": {
            "self": {
              "name": "Venta al por mayor de aparatos e instrumentos médicos, ortopédicos, ópticos",
              "href": "https://api.euskadi.eus/procurements/companies/economic-activities/1.619.2"
            }
          }
        }
      ],
      "certificateStartDate": "2019-02-07",
      "certificateEndDate": "2019-07-15",
      "object": "COMERCIALIZACIÓN, REPRESENTACIÓN Y DISTRIBUCIÓN DE TODA CLASE DE ARTÍCULOS O PRODUCTOS, NACIONALES O EXTRANJEROS CON DESTINO A LA INDUSTRIA Y AL SECTOR HOSPITALARIO Y CLÍNICO Y CUALESQUIERA OTRA ACTIVIDAD DE LÍCITO COMERCIO QUE, DIRECTA O INDIRECTAMENTE , SE RELACIONE CON LO ANTERIOR",
      "mainEntityOfPage": "https://www.contratacion.euskadi.eus/webkpe00-kperoc/es/ac71aBusquedaRegistrosWar/empresa/06057",
      "_links": {
        "self": {
          "name": "F&M CONTROL, S.L.",
          "href": "https://api.euskadi.eus/procurements/companies/06057"
        }
      }
    },
    {
      "name": "JUAN ANTONIO ABRAIRA GALLEGO",
      "registrationNumber": "04788",
      "identificationNumber": "24402835L",
      "address": "ESTARTETXE, 10-1º D",
      "location": {
        "postalCode": "48940",
        "municipality": "Leioa",
        "county": "Bizkaia",
        "municipalityId": "054",
        "countyId": "48"
      },
      "economicActivities": [
        {
          "id": "1.659.2",
          "name": "Venta al por menor de muebles de oficina y máquinas y equipos de oficina",
          "_links": {
            "self": {
              "name": "Venta al por menor de muebles de oficina y máquinas y equipos de oficina",
              "href": "https://api.euskadi.eus/procurements/companies/economic-activities/1.659.2"
            }
          }
        },
        {
          "id": "1.659.4",
          "name": "Venta al por menor de libros, periódicos y artículos de papelería y escritorio",
          "_links": {
            "self": {
              "name": "Venta al por menor de libros, periódicos y artículos de papelería y escritorio",
              "href": "https://api.euskadi.eus/procurements/companies/economic-activities/1.659.4"
            }
          }
        }
      ],
      "certificateStartDate": "2019-02-04",
      "certificateEndDate": "2019-05-09",
      "object": "Venta de mobiliario de oficina y suministros de papeleria",
      "mainEntityOfPage": "https://www.contratacion.euskadi.eus/webkpe00-kperoc/es/ac71aBusquedaRegistrosWar/empresa/04788",
      "_links": {
        "self": {
          "name": "JUAN ANTONIO ABRAIRA GALLEGO",
          "href": "https://api.euskadi.eus/procurements/companies/04788"
        }
      }
    },
    {
      "name": "CONNECTIS ICT SERVICES, S.A.",
      "registrationNumber": "03092",
      "identificationNumber": "A48263693",
      "address": "VÍA DE LOS POBLADOS Nº 1. EDIFICIO D. PLANTA 2.",
      "location": {
        "postalCode": "28033",
        "municipality": "Madrid",
        "county": "Madrid",
        "municipalityId": "079",
        "countyId": "28"
      },
      "economicActivities": [
        {
          "id": "1.845",
          "name": "Explotación electrónica por cuenta de terceros",
          "_links": {
            "self": {
              "name": "Explotación electrónica por cuenta de terceros",
              "href": "https://api.euskadi.eus/procurements/companies/economic-activities/1.845"
            }
          }
        }
      ],
      "certificateStartDate": "2019-02-01",
      "certificateEndDate": "2019-05-28",
      "object": "LA REALIZACIÓN DE ESTUDIOS, TRABAJOS Y APLICACIONES INFORMÁTICAS, LA APROBACIÓN DE TODA LA GAMA DE SERVICIOS RELACIONADOS CON EL PROCESAMIENTO DE LA INFORMACIÓN, TALES COMO ANÁLISIS Y FUNCIONAL, ANÁLISIS ORGÁNICO, PROGRAMACIÓN, GRABACIÓN, ETC.; LA SELECCIÓN Y FORMACIÓN DE PRESONAL INFORMÁTICO DE EMPRESAS, ORGANISMOS E INSTITUCIONES, ASÍ COMO LA REALIZACIÓN DE CHEQUEOS, AUDITORÍAS, REVISIONES, CONSULTORÍA, ETC.; Y CUALQUIER OTRA ACTIVIDAD DE CARÁCTER INFORMÁTICO YA SEA DENTRO DEL ÁREA DEL \"HARDWARE\" COMO DENTRO DEL ÁREA DEL \"SOFTWARE\", ASÍ COMO A TODAS LAS TAREAS Y SERVICIOS RELACIONADOS CON LA ORGANIZACIÓN DE EMPRESAS, EL DISEÑO Y REDACCIÓN DE TODO TIPO DE PROYECTOS, ASÍ COMO LA REALIZACIÓN DE TODO TIPO DEOBRAS E INSTALACONES TANTO CON ENTIDADES PÚBLICAS COMO PRIVADAS, Y A TODO CUANTO SEA ANTECEDENTE, AUXILIAR, ACCESORIO, CONSECUENCIA O SE RELACIONE DIRECTA O INDIRECTAMENTE CON LAS FINALIDADES EXPRESADAS.\r\n\r\nLAS ACTIVIDADES INTEGRANTES DEL OBJETO SOCIAL PODRÁN SER DESARROLLADAS POR LA SOCIEDAD, TOTAL O PARCIALMENTE, DE MODO INDIRECTO MEDIANTE SU PARTICIPACIÓN EN SOCIEDADES CON IDÉNTICO O ANÁLOGO OBJETO.\r\n\r\nLA SOCIEDAD NO DESARROLLARÁ NINGUNA ACTIVIDAD PARA LA QUE LAS LEYES EXIJAN CONDICIONES O LIMITACIONES ESPECÍFICAS, EN TANTO NO DÉ EXACTO CUMPLIMIENTO A LAS MISMAS",
      "mainEntityOfPage": "https://www.contratacion.euskadi.eus/webkpe00-kperoc/es/ac71aBusquedaRegistrosWar/empresa/03092",
      "_links": {
        "self": {
          "name": "CONNECTIS ICT SERVICES, S.A.",
          "href": "https://api.euskadi.eus/procurements/companies/03092"
        }
      }
    },
    {
      "name": "AZTERTZEN SERVICIOS ASISTENCIALES, S.L.",
      "registrationNumber": "06052",
      "identificationNumber": "B20779468",
      "address": "Gregorio de la Revilla 27, 3º",
      "location": {
        "postalCode": "48010",
        "municipality": "Bilbao",
        "county": "Bizkaia",
        "municipalityId": "020",
        "countyId": "48"
      },
      "economicActivities": [
        {
          "id": "1.952",
          "name": "Asistencia y servicios sociales en centros no residenciales",
          "_links": {
            "self": {
              "name": "Asistencia y servicios sociales en centros no residenciales",
              "href": "https://api.euskadi.eus/procurements/companies/economic-activities/1.952"
            }
          }
        }
      ],
      "certificateStartDate": "2019-02-01",
      "certificateEndDate": "2019-05-30",
      "object": "LOS FINES Y ACTIVIDAD DE LA EMPRESA SON LA PRESTACIÓN DE TODO TIPO SE SERVICIOS DE ASISTENCIA SOCIAL, SANITARIA, GERONTOLÓGICO, ASISTENCIAL Y PSICOLÓGICA MEDIANTE PERSONAL CUALIFICADO (MÉDICOS, PSICÓLOGOS, PEDAGOGOS, DIPLOMADOS UNIVERSITARIOS EN ENFERMERÍA,  ASISTENTES SOCIALES, FISOTERAPEUTAS OCUPACIONALES, ETC.) A LOS SIGUIENTES COLECTIVOS: ANCIANOS, MINUSVÁLIDOS, FAMILIAS, INFANCIA, MUJERES SOLITARIAS CON CARGAS FAMILIARES NO COMPARTIDAS, DISCAPACITADOS FÍSICOS Y PSÍQUICOS Y PERSONAS O GRUPO DE POLBACIÓN EN SITUACIÓN DE NECESIDAD, MEDIANTE LA REALIZACIÓN DE LAS SIGUIENTES TAREAS: TELEASISTENCIA DOMICILIARIA Y SOCIO-SANITARIA, EXPLOTACIÓN O GESTIÓN, TOTAL O PARCIAL DE RESIDENCAS, PISOS TUTELADOS, CENTROS DE DÍA, COMUNIDADES TERAPEÚTICAS Y OTROS CENTROS DE ACOGIDA Y REHABILITACIÓN. TRASLADO Y ACOMPAÑAMIENTO DE LOS COLECTIVOS ANTES CITADOS. HOSPITALIZACIÓN A DOMICILIO Y AYUDA MÉDICA Y DE ENFERMERÍA A DOMICILIO. LA FORMACIÓN PROFESIONAL Y RECICLAJE DE LAS PERSONAS QUE PRESTEN LOS SERVICIOS EXPRESADOS EN LOS PUNTOS ANTERIORES. LA EXPLOTACIÓN DE SISTEMAS DE COMUNICACIÓN RÁPIDA CON SERVICIOS PÚBLICOS ASISTENCIALES, COMO PUEDEN SER POLICÍA, BOMBEROS, HOSPITALES, CENTROS MÉDICOS, ETC. REALIZAR INVESTIGACIONES, PROYECTOS Y ESTUDIOS EN ÁREAS ASISTENCIALES, SOCIALES, RECURSOS COMUNITARIOS Y TODOS AQUELLOS QUE SE REFIEREN A LOS SERVICIOS ENUMERADOS EN EL PUNTO 1. ELABORACIÓN, CONDIMENTACIÓN Y DISTRIBUCIÓN DE COMIDAS, INCLUSO FUERA DE LAS OFICINAS DE LA EMPRESA (CATERING), PARA SUMINISTRO A TERCEROS. PRESTACIÓN DE SERVICIOS DE AYUDA DOMICILIARIA, A TODAS AQUELLAS PERSONAS QUE, BIEN POR SU EDAD, CONDICIÓN FÍSICA, MENTAL, O DISMINUCIÓN DE TODAS AQUELLAS EN GENERAL, NO PUEDEN VALERSE POR SÍ MISMAS Y PRECISEN DE ESTE SERVICIO. ADMINISTRACIÓN Y GESTIÓN DE SERVICIOS SOCIALES DE BASE INCLUIDOS EN INSTITUCIONES PÚBLICAS MUNICIPALES, PROVINCIALES, AUTONÓMICAS Y ESTATALES O DE CUALQUIER OTRA ÍNDOLE. PRESTACIÓN DE SERVICIOS DEPORTIVOS Y ORGANIZACIÓN DE ACTIVIDADES DEPORTIVAS, TANTO EN LOCALES O INFRAESTRUCTURAS DEPORTIVAS (POLIDEPORTIVOS, PATIOS ESCOLARES Y OTRAS INSTALACIONES), COMO AL AIRE LIBRE. CONSULTORÍA DEPORTIVA EN CUANTO A ORGANIZACIÓN A PLANES DE FORMACIÓN, CHARLAS, CONFERENCIAS, ASESORAMIENTO SOBRE DISEÑO DE INSTALACIONES DEPORTIVAS Y PREVENCIÓN DE RIESGOS EN LOCALES DEPORTIVOS",
      "mainEntityOfPage": "https://www.contratacion.euskadi.eus/webkpe00-kperoc/es/ac71aBusquedaRegistrosWar/empresa/06052",
      "_links": {
        "self": {
          "name": "AZTERTZEN SERVICIOS ASISTENCIALES, S.L.",
          "href": "https://api.euskadi.eus/procurements/companies/06052"
        }
      }
    },
    {
      "name": "EGIA KOLEKTIBOA SOCIEDAD CIVIL PROFESIONAL",
      "registrationNumber": "06053",
      "identificationNumber": "J20978870",
      "address": "AVENIDA DE AMETZAGAÑA Nº 17, BAJO",
      "location": {
        "postalCode": "20012",
        "municipality": "Donostia / San Sebastián",
        "county": "Gipuzkoa",
        "municipalityId": "069",
        "countyId": "20"
      },
      "economicActivities": [
        {
          "id": "1.841",
          "name": "Servicios jurídicos",
          "_links": {
            "self": {
              "name": "Servicios jurídicos",
              "href": "https://api.euskadi.eus/procurements/companies/economic-activities/1.841"
            }
          }
        }
      ],
      "certificateStartDate": "2019-02-01",
      "certificateEndDate": "2019-03-26",
      "object": "LA ACTIVIDAD PROPIA DEL EJERCICIO DE LAS PROFESIONES DE ABOGADO Y ECONOMISTA",
      "mainEntityOfPage": "https://www.contratacion.euskadi.eus/webkpe00-kperoc/es/ac71aBusquedaRegistrosWar/empresa/06053",
      "_links": {
        "self": {
          "name": "EGIA KOLEKTIBOA SOCIEDAD CIVIL PROFESIONAL",
          "href": "https://api.euskadi.eus/procurements/companies/06053"
        }
      }
    }
  ]
}