{
  "totalItems": 9042,
  "totalPages": 905,
  "currentPage": 523,
  "itemsOfPage": 10,
  "items": [
    {
      "name": "KEIMA ANIMAZIOA, S.L.UNIPERSONAL",
      "registrationNumber": "03057",
      "identificationNumber": "B95113056",
      "address": "C/LA LAGUNA 5 LONJA",
      "location": {
        "postalCode": "48003",
        "municipality": "Bilbao",
        "county": "Bizkaia",
        "municipalityId": "020",
        "countyId": "48"
      },
      "economicActivities": [
        {
          "id": "1.934",
          "name": "Enseñanza fuera de establecimiento permanente",
          "_links": {
            "self": {
              "name": "Enseñanza fuera de establecimiento permanente",
              "href": "https://api.euskadi.eus/procurements/companies/economic-activities/1.934"
            }
          }
        },
        {
          "id": "1.966.9",
          "name": "Otros servicios culturales n.c.o.p",
          "_links": {
            "self": {
              "name": "Otros servicios culturales n.c.o.p",
              "href": "https://api.euskadi.eus/procurements/companies/economic-activities/1.966.9"
            }
          }
        }
      ],
      "certificateStartDate": "2021-07-05",
      "certificateEndDate": "2021-12-03",
      "object": "A) LA GESTIÓN, DESARROLLO Y ORGANIZACIÓN  DE ACTIVIDADES MEDIOMBIENTALES, DE OCIO Y TIEMPO LIBRE, LÚDICAS Y DEPORTIVAS. B) LA REALIZACIÓN, DESARROLLO Y FOMENTO DE TODO TIPO DE ACTIVIDADES ECONÓMICAS ENCAMINADAS A FACILITAR LA INCORPORACIÓN SOCIOLABORAL DE PERSONAS EN SITUACIÓN DE EXCLUSIÓN SOCIAL  ",
      "mainEntityOfPage": "https://www.contratacion.euskadi.eus/webkpe00-kperoc/es/ac71aBusquedaRegistrosWar/empresa/03057",
      "_links": {
        "self": {
          "name": "KEIMA ANIMAZIOA, S.L.UNIPERSONAL",
          "href": "https://api.euskadi.eus/procurements/companies/03057"
        }
      }
    },
    {
      "name": "AXPE CONSULTING, S.L.",
      "registrationNumber": "03364",
      "identificationNumber": "B84184548",
      "address": "ARTURO SORIA, 122. A-B",
      "location": {
        "postalCode": "28043",
        "municipality": "Madrid",
        "county": "Madrid",
        "municipalityId": "079",
        "countyId": "28"
      },
      "economicActivities": [
        {
          "id": "1.845",
          "name": "Explotación electrónica por cuenta de terceros",
          "_links": {
            "self": {
              "name": "Explotación electrónica por cuenta de terceros",
              "href": "https://api.euskadi.eus/procurements/companies/economic-activities/1.845"
            }
          }
        }
      ],
      "certificateStartDate": "2021-07-05",
      "certificateEndDate": "2021-12-02",
      "object": "A) ASESORAMIENTO, CONSULTORÍA, CONCEPCIÓN, DISEÑOS, DESARROLLO, IMPLANTACIÓN, EXPLOTACIÓN Y MANTENIMIENTO DE SISTEMAS DE INFORMACIÓN Y DE COMUNICACIÓN; B) LA REALIZACIÓN DE SISTEMAS INFORMÁTICOS Y DE INGENIERÍA DE SISTEMAS; C) DISEÑO, DESARROLLO, FABRICAICÓN Y COMERCIALIZACIÓN DE SOPORTE LÓGICO Y MATERIAL INFORMATIVO; D) PRESTACIÓN DE SERVICIOS DE FORMACIÓN Y ASISTENCIA TÉCNICA, TANTO EN EL ÁREA DE LA TÉCNICA INFORMÁTICA COMO EN LA DE SU EXPLOTACIÓN Y COMERCIALIZACIÓN; F) DISEÑO, DESARROLLO Y COMERCIALIZACIÓN DE SISTEMAS EXPERTOS O INTEGRADOS, COMPRENDIDO LA MICROINFORMÁTICA, ROBÓTICA, BURÓTICA, OFIMÁTICA, ASÍ COMO LA CONCEPCIÓN, DISEÑO Y FABRICACIÓN ASISTIDA POR ORDENADOR Y, EN GENERAL, EL TRATAMIENTO DE DATOS, IMAGEN Y SONIDO MEDIANTE TÉCNICAS INFORMÁTICAS; G) ELABORACIÓN, DISTRIBUCIÓN Y COMERCIALIZACIÓN DE BASES DE DATOS PROPIAS O AJENAS, Y LA CONEXIÓN Y SERVICIOS ACCESORIOS Y COMPLEMENTARIOS A LAS MISMAS RELATIVOS A OTRAS BASES DE DATOS O CENTROS DE INFORMACIÓN; H) LA EDICIÓN Y PUBLICACIÓN DE OBRAS CUYO CONTENIDO ESTE RELACIONADO CON LAS MATERIAS PRECITADAS",
      "mainEntityOfPage": "https://www.contratacion.euskadi.eus/webkpe00-kperoc/es/ac71aBusquedaRegistrosWar/empresa/03364",
      "_links": {
        "self": {
          "name": "AXPE CONSULTING, S.L.",
          "href": "https://api.euskadi.eus/procurements/companies/03364"
        }
      }
    },
    {
      "name": "ALBOKA SOFT TECNOLOGÍAS DE LA INFORMACIÓN, S.L.",
      "registrationNumber": "05001",
      "identificationNumber": "B01505882",
      "address": "C/ Postas, 25 - 1º",
      "location": {
        "postalCode": "01004",
        "municipality": "Vitoria-Gasteiz",
        "county": "Araba/Álava",
        "municipalityId": "059",
        "countyId": "01"
      },
      "economicActivities": [
        {
          "id": "1.845",
          "name": "Explotación electrónica por cuenta de terceros",
          "_links": {
            "self": {
              "name": "Explotación electrónica por cuenta de terceros",
              "href": "https://api.euskadi.eus/procurements/companies/economic-activities/1.845"
            }
          }
        }
      ],
      "certificateStartDate": "2021-07-05",
      "certificateEndDate": "2021-12-30",
      "object": "DESARROLLO DE SERVICIOS, PÁGINAS WEB, APLICACIONES Y CUALQUIER OTRO TIPO DE SOPORTE TECNOLÓGICO EN CUALQUIER TIPO DE PLATAFORMA. DE MANERA ENUNCIATIVA PERO NO EXCLUYENTE, MÓVIL WEB, IPHONE, IPADS, ANDROID...ETC, TANTO PARA CONSUMIDORES FINALES COMO PARA CLIENTES INDUSTRIALES, FACILITANDO LA REALIZACIÓN DE INTERCAMBIOS, TRANSACCIONES DE CUALQUIER TIPO DE PRODUCTO O SERVICIO Y SU EXHIBICIÓN PUBLICITARIA O EDITORIAL. COMPRAVENTA, IMPORTACIÓN, EXPORTACIÓN, REPRESENTACIÓN Y COMERCIALIZACIÓN DE EQUIPOS SOFTWARE Y HARDWARE ASÍ COMO SU MANTENIMIENTO Y REPARACIÓN. REALIZACIÓN DE TRABAJOS INFORMÁTICOS EN PROGRAMAS Y APLICACIONES, Y CUALESQUIERA OTROS EXISTENTES  QUE SE CREEN EN EL FUTURO EN INTERNET O EN OTRAS APLICACIONES INFORMÁTICAS. LA PLANIFICACIÓN, ORGANIZACIÓN, DISEÑO, GESTIÓN, IMPORTACIÓN, CONTROL Y EVALUACIÓN DE ACCIONES DE FORMACIÓN, CUALIFICACIÓN Y CAPACITACIÓN",
      "mainEntityOfPage": "https://www.contratacion.euskadi.eus/webkpe00-kperoc/es/ac71aBusquedaRegistrosWar/empresa/05001",
      "_links": {
        "self": {
          "name": "ALBOKA SOFT TECNOLOGÍAS DE LA INFORMACIÓN, S.L.",
          "href": "https://api.euskadi.eus/procurements/companies/05001"
        }
      }
    },
    {
      "name": "EXPLOTACIONES FORESTALES TRUCIOS, S.L.",
      "registrationNumber": "05907",
      "identificationNumber": "B95035523",
      "address": "El Baular nº 13 Bj",
      "location": {
        "postalCode": "48860",
        "municipality": "Zalla",
        "county": "Bizkaia",
        "municipalityId": "096",
        "countyId": "48"
      },
      "economicActivities": [
        {
          "id": "1.461",
          "name": "Aserrado y preparación industrial de la madera",
          "_links": {
            "self": {
              "name": "Aserrado y preparación industrial de la madera",
              "href": "https://api.euskadi.eus/procurements/companies/economic-activities/1.461"
            }
          }
        },
        {
          "id": "1.912",
          "name": "Servicios forestales",
          "_links": {
            "self": {
              "name": "Servicios forestales",
              "href": "https://api.euskadi.eus/procurements/companies/economic-activities/1.912"
            }
          }
        }
      ],
      "certificateStartDate": "2021-07-05",
      "certificateEndDate": "2021-12-02",
      "object": "SERVICIOS FORESTALES. COMO DESBROCES, PLANTACIONES, CIERRES, PODAS Y TALAS, ASÍ COMO SERVICIOS DE JARDINERÍA. COMPRA Y VENTA DE MADERAS. TRANSPORTE POR CUENTA PROPIA O AJENA DE MADERA. LA COMPRA Y VENTA Y PERMUTA DE SOLARES, TERRENOS Y TODAS CLASES DE FINCAS RÚSTICAS Y URBANAS, PISOS, LOCALES, APARTAMENTOS E INMUEBLES EN GENERAL",
      "mainEntityOfPage": "https://www.contratacion.euskadi.eus/webkpe00-kperoc/es/ac71aBusquedaRegistrosWar/empresa/05907",
      "_links": {
        "self": {
          "name": "EXPLOTACIONES FORESTALES TRUCIOS, S.L.",
          "href": "https://api.euskadi.eus/procurements/companies/05907"
        }
      }
    },
    {
      "name": "BADIHARDUGU: DEBA IBARREKO EUSKERA ALKARTIA",
      "registrationNumber": "07783",
      "identificationNumber": "G20733416",
      "address": "Otaola hiribidea, 1",
      "location": {
        "postalCode": "20600",
        "municipality": "Eibar",
        "county": "Gipuzkoa",
        "municipalityId": "030",
        "countyId": "20"
      },
      "economicActivities": [
        {
          "id": "1.966.9",
          "name": "Otros servicios culturales n.c.o.p",
          "_links": {
            "self": {
              "name": "Otros servicios culturales n.c.o.p",
              "href": "https://api.euskadi.eus/procurements/companies/economic-activities/1.966.9"
            }
          }
        }
      ],
      "certificateStartDate": "2021-07-01",
      "certificateEndDate": "2021-11-29",
      "object": "DEBA IBAR OSOKO EUSKALTZALEAK BATUKO DITUEN GUNEA OSATZEA, EUSKAL HERRI OSOAN ERAGINGO DUENA. DEBA IBARREKO ETA EUSKAL HERRI OSOKO AHOZKO ONDAREA JASO ETA HEDATZEA: KULTURA, HISTORIA, ETNOGRAFIA, OROIMEN HISTORIKOA ETA HIZKUNTZAREN INGURUKO AHOZKO TETIGANTZEN BILKETA, KATALOGAZIOA, LANKETA ETA HEDAPENA EGITEA, XX. MENDEKO BIZIMODU TRADIZIONALA JASO ETA GORDEKO DITUEN DATU-BASE DIGITALA OSATUZ. GURE IBARREKO ETA BESTE ESKUALDE BATZUETAKO EUSKARAREN EGOERAREN INGURUAN, TRANSMISIO NATURALA ETA KULTURALA BULTZATZEA, BALAUNALDI BERRIEN LEKUKOA HARTZEA, TRANSMISIOA ZIURTATZEA ETA ERABILERA ESPARRUAK FINKATU ETA ZABALTZEA. ETA, HORRETARAKO, BEHARREZKO BALIABIDEAK SORTZEA (AISIALDIRAKO ZEIN IRAKASKUNTZARAKO) BETIERE BERDINTASUNA BERMATUZ ETA GENERO IKUSPEGIA INTEGRATUZ. HERRI-HIZKERAK JASOZ, AZTERTUZ ETA INDARTUZ, EUSKARA BERA ETA EUSKALKIEN ERABILERA SENDOTU ETA ABERASTEA, BAI IZAERAN, BAI ERABILERAN. BETIERE, EUSKARA BATUAK BERE LEKUA ETA ZEREGINA DITUELA GARBI IZANDA. EZ DAGO HERRI-HIZKERAK V.S. BATUA BORROKARIK, OSAGARRITASUNA ETA BATERAGARRITASUNA BAIZIK. GURE HERRIETAKO HIZKEREN CORPUSA BILAKETA-LANA SUSTATZEA, ETA EUSKARA ESTANDARREAN BERE LEKUA IZAN DEZATEN ZIURTATZEA, BESTEAK BESTE HIZTEGIAK SORTUZ. EUSKARAK INTEGRAZIO HIZKUNTZA GISA DUEN AHALMENA ERAKUSTEA ETA BIZIKIDETZA BULTZATZEA, EUSKAL HERRIKO ANIZTASUNA BALIOETSITA. AURREKO PARAGRAFOAN AZALDUTAKO JARDUERAK GORABEHERA, ELKARTEAK, BERE XEDEAK BETETZEKO, HONAKO HAUEK EGIN AHALKO DITU: HELBURUAK BETETZEKO EDO HORRETARAKO BALIABIDEAK BILTZEKO ERA GUZTIETAKO JARDUERA EKONOMIKOAK GAUZATU. ERA GUZTIETAKO ONDASUNAK EDOZEIN TITULUREN BIDEZ ESKURATU EDO EDUKI, ETA MOTA GUZTIETAKO EGINTZAK ETA KONTRATUAK EGIN. NOLANAHIKO EKINTZAK BURUTU, BETIERE LEGEEKIN ETA ESTATUTUEKIN BAT ETORTZEKOTAN",
      "mainEntityOfPage": "https://www.contratacion.euskadi.eus/webkpe00-kperoc/es/ac71aBusquedaRegistrosWar/empresa/07783",
      "_links": {
        "self": {
          "name": "BADIHARDUGU: DEBA IBARREKO EUSKERA ALKARTIA",
          "href": "https://api.euskadi.eus/procurements/companies/07783"
        }
      }
    },
    {
      "name": "ROTEC MEDICA, S.A.",
      "registrationNumber": "07782",
      "identificationNumber": "A82371758",
      "address": "Leganitos 37 2º D",
      "location": {
        "postalCode": "28013",
        "municipality": "Madrid",
        "county": "Madrid",
        "municipalityId": "079",
        "countyId": "28"
      },
      "economicActivities": [
        {
          "id": "1.619.2",
          "name": "Venta al por mayor de aparatos e instrumentos médicos, ortopédicos, ópticos",
          "_links": {
            "self": {
              "name": "Venta al por mayor de aparatos e instrumentos médicos, ortopédicos, ópticos",
              "href": "https://api.euskadi.eus/procurements/companies/economic-activities/1.619.2"
            }
          }
        }
      ],
      "certificateStartDate": "2021-07-01",
      "certificateEndDate": "2021-12-11",
      "object": "LA FABRICACIÓN, DISTRIBUCIÓN, REPARACIÓN, COMERCIALIZACIÓN Y VENTA DE APARATOS DE ELECTRO-MEDICINA, RAYOS X, ESTERILIZACIÓN, MATERIAL MÉDICO-QUIRÚRGICO DE LABORATORIO Y VETERINARIO, MATERIAL DESECHABLE, MOBILIARIO CLÍNICO Y MATERIAL DE ESTÉTICA Y ACUPUNTURA",
      "mainEntityOfPage": "https://www.contratacion.euskadi.eus/webkpe00-kperoc/es/ac71aBusquedaRegistrosWar/empresa/07782",
      "_links": {
        "self": {
          "name": "ROTEC MEDICA, S.A.",
          "href": "https://api.euskadi.eus/procurements/companies/07782"
        }
      }
    },
    {
      "name": "DANICO EVENTS 2020, S.L.",
      "registrationNumber": "07779",
      "identificationNumber": "B25756214",
      "address": "Avenida del Segrià s/n",
      "location": {
        "postalCode": "25200",
        "municipality": "Cervera",
        "county": "Lleida",
        "municipalityId": "072",
        "countyId": "25"
      },
      "economicActivities": [
        {
          "id": "1.859",
          "name": "Alquiler de otros bienes muebles n.c.o.p. (sin personal permanente)",
          "_links": {
            "self": {
              "name": "Alquiler de otros bienes muebles n.c.o.p. (sin personal permanente)",
              "href": "https://api.euskadi.eus/procurements/companies/economic-activities/1.859"
            }
          }
        }
      ],
      "certificateStartDate": "2021-07-01",
      "certificateEndDate": "2021-10-30",
      "object": "A) LA PRESTACIÓN DE SERVICIOS DE ALQUILER DE BIENES MUEBLES. B) EL SERVICIO DE MONTAJE Y DESMONTAJE DE BIENES MUEBLES, ASÍ COMO SU TRANSPORTE Y MANTENIMIENTO, PUDIENDO SER ESTOS ÚLTIMOS REALIZADOS DE FORMA DIRECTA O CONTRATADA A TERCEROS",
      "mainEntityOfPage": "https://www.contratacion.euskadi.eus/webkpe00-kperoc/es/ac71aBusquedaRegistrosWar/empresa/07779",
      "_links": {
        "self": {
          "name": "DANICO EVENTS 2020, S.L.",
          "href": "https://api.euskadi.eus/procurements/companies/07779"
        }
      }
    },
    {
      "name": "EUSKOPI S.L.",
      "registrationNumber": "03979",
      "identificationNumber": "B01395623",
      "address": "HERMINIO MADINABEITIA, 18 PABELLÓN 3",
      "location": {
        "postalCode": "01006",
        "municipality": "Vitoria-Gasteiz",
        "county": "Araba/Álava",
        "municipalityId": "059",
        "countyId": "01"
      },
      "economicActivities": [
        {
          "id": "1.844",
          "name": "Servicios de publicidad, relaciones públicas y similares",
          "_links": {
            "self": {
              "name": "Servicios de publicidad, relaciones públicas y similares",
              "href": "https://api.euskadi.eus/procurements/companies/economic-activities/1.844"
            }
          }
        }
      ],
      "certificateStartDate": "2021-06-30",
      "certificateEndDate": "2021-12-07",
      "object": "LA REALIZACIÓN DE TODA CLASE DE ACTOS, NEGOCIOS Y OPERACIONES RELACIONADOS CON EL SECTOR DE LAS ARTES GRÁFICAS Y DE EDICIÓN FABRICACIÓN, COMPRAVENTA, REPRESENTACIÓN, IMPORTACIÓN, EXPORTACIÓN, COMERCIALIZACIÓN, ALMACENAMIENTO Y EXPLOTACIÓN DE TODA CLASE DE MATERIALES, OBJETOS, PRODUCTOS, TÉCNICAS Y PATENTES RELACIONADOS CON DICHO SECTOR; EL ASESORAMIENTO EN IMAGEN Y COMUNICACIÓN CORPORATIVA, DISEÑO, REALIZACIÓN Y GESTIÓN DE CAMPAÑAS PUBLICITARIAS Y DE PROMOCIÓN COMERCIAL, INCLUYENDO LA CONTRATACIÓN Y GESTIÓN DE MEDIOS; SERVICIOS DE MEDIACIÓN, GESTIÓN, ALMACENAMIENTO, COMERCIALIZACIÓN Y DISTRIBUCIÓN DE TODA CLASE DE PRODUCTOS RELACIONADOS CON LAS ARTES GRÁFICAS; LA ENSEÑANZA, FORMACIÓN, PERFECCIONAMIENTO PROFESIONAL Y ASESORAMIENTO TÉCNICO RELACIONADOS CON ARTES GRÁFICAS O EDICIÓN; LA ADQUISICIÓN, TENENCIA, ADMINISTRACIÓN, ENAJENACIÓN DE TODA CLASE DE TÍTULOS, VALORES MOBILIARIOS, ACTIVOS FINANCIEROS, DRECHOS, CUOTAS O PARTICIPACIONES ENENTIDADES MERCANTILES, TODO ELLO POR CUENTA PROPIA, EXCLUYENDO LA INTERMEDIACIÓN Y DEJANDO A SALVO LAS ACTIVIDADES PROPIAS DE LAS INSTITUCIONES DE INVERSIÓN COLECTIVA Y DEL MERCADO DE VALORES; LA ORDENACIÓN, URBANIZACIÓN, PARCELACIÓN, PROMOCIÓN, CONSTRUCCIÓN, ADQUISICIÓN, VENTA, CESIÓN, PERMUTA Y EXPLOTACIÓN POR CUALQUIER TÍTULO DE TODA CLASE DE TERRENOS, SOLARES, OBRAS, VIVIENDAS, LOCALES, PABELLONES E INMUEBLES",
      "mainEntityOfPage": "https://www.contratacion.euskadi.eus/webkpe00-kperoc/es/ac71aBusquedaRegistrosWar/empresa/03979",
      "_links": {
        "self": {
          "name": "EUSKOPI S.L.",
          "href": "https://api.euskadi.eus/procurements/companies/03979"
        }
      }
    },
    {
      "name": "STEELCO ESPAÑA SOLUCIONES INTEGRALES EN ESTERILIZACIÓN, S.L.",
      "registrationNumber": "06360",
      "identificationNumber": "B87871422",
      "address": "Av. de la Industria, 32 (Edif. Payma). 2ª planta (oficina 2P/1)",
      "location": {
        "postalCode": "28108",
        "municipality": "Alcobendas",
        "county": "Madrid",
        "municipalityId": "006",
        "countyId": "28"
      },
      "economicActivities": [
        {
          "id": "1.619.2",
          "name": "Venta al por mayor de aparatos e instrumentos médicos, ortopédicos, ópticos",
          "_links": {
            "self": {
              "name": "Venta al por mayor de aparatos e instrumentos médicos, ortopédicos, ópticos",
              "href": "https://api.euskadi.eus/procurements/companies/economic-activities/1.619.2"
            }
          }
        },
        {
          "id": "1.699",
          "name": "Otras reparaciones n.c.o.p",
          "_links": {
            "self": {
              "name": "Otras reparaciones n.c.o.p",
              "href": "https://api.euskadi.eus/procurements/companies/economic-activities/1.699"
            }
          }
        }
      ],
      "certificateStartDate": "2021-06-30",
      "certificateEndDate": "2021-12-04",
      "object": "A) COMPRAVENTA, ARRENDAMIENTO Y DISTRIBUCIÓN DE TODO TIPO DE BIENES, EQUIPAMIENTOS Y SERVICIOS RELACIONADOS CON EL CONTROL Y PREVENCIÓN DE INFECCIONES PARA LA INDUSTRIA MÉDICO-SANITARIA Y FARMACÉUTICA, ASÍ COMO LA REALIZACIÓN DE TODO TIPO DE NEGOCIOS RELACIONADOS CON LA MISMA(CNAE 4646 COMERCIO AL POR MAYOR DE PRODUCTOS FARMACÉUTICOS Y CNAE 4773 COMERCIO AL POR MENOR DE PRODUCTOS FARMACÉUTICOS EN ESTABLECIMIENTOS ESPECIALIZADOS). B) LA ADQUISICIÓN, TENENCIA, DISFRUTE, ADMINISTRACIÓN, CESIÓN Y DISPOSICIÓN, EN CUALQUIER FORMA, DE PATENTES, DERECHOS DE EDICIÓN, MARCAS Y NOMBRES REGISTRADOS Y CUALESQUIERA DERECHOS DE PROPIEDAD INDUSTRIAL O INTELECTUAL. C) LA PRESTACIÓN DE SERVICIOS DE ASESORAMIENTO Y CONSULTORÍA, EN GENERAL, RELACIONADO CON EL SECTOR MÉDICO-SANITARIO O FARMACÉUTICO. D) LA REALIZACIÓN DE ESTUDIOS E INVESTIGACIONES DE MERCADO DE CUALQUIER TIPO RELACIONADO CON EL SECTOR MÉDICO-SANITARIO O FARMACÉUTICO",
      "mainEntityOfPage": "https://www.contratacion.euskadi.eus/webkpe00-kperoc/es/ac71aBusquedaRegistrosWar/empresa/06360",
      "_links": {
        "self": {
          "name": "STEELCO ESPAÑA SOLUCIONES INTEGRALES EN ESTERILIZACIÓN, S.L.",
          "href": "https://api.euskadi.eus/procurements/companies/06360"
        }
      }
    },
    {
      "name": "EDP SOLAR ESPAÑA, S.A.",
      "registrationNumber": "07774",
      "identificationNumber": "A74466178",
      "address": "Plaza del Fresno 2",
      "location": {
        "postalCode": "33007",
        "municipality": "Oviedo",
        "county": "Asturias",
        "municipalityId": "044",
        "countyId": "33"
      },
      "economicActivities": [
        {
          "id": "1.504.1",
          "name": "Instalaciones eléctricas en general",
          "_links": {
            "self": {
              "name": "Instalaciones eléctricas en general",
              "href": "https://api.euskadi.eus/procurements/companies/economic-activities/1.504.1"
            }
          }
        }
      ],
      "certificateStartDate": "2021-06-29",
      "certificateEndDate": "2021-12-01",
      "object": "LA REALIZACION DE ACTIVIDADES, TRABAJOS, OBRAS Y SERVICIOS RELACIONADOS CON: A) EL APROVECHAMIENTO DE LA ENERGIA FOTOVOLTAICA, TERMOSOLAR Y, EN GENERAL, DE CUALQUIER OTRA FUENTE DE ENRGÍA RENOVABLE; B) LOS SERVICIOS DE EFICIENCIA ENERGÉTICA PARA OPTIMIZAR LA CALIDAD DE SUMINISTROS Y REDUCIR LOS COSTES ENERGETICOS",
      "mainEntityOfPage": "https://www.contratacion.euskadi.eus/webkpe00-kperoc/es/ac71aBusquedaRegistrosWar/empresa/07774",
      "_links": {
        "self": {
          "name": "EDP SOLAR ESPAÑA, S.A.",
          "href": "https://api.euskadi.eus/procurements/companies/07774"
        }
      }
    }
  ]
}