{
  "totalItems": 9042,
  "totalPages": 905,
  "currentPage": 565,
  "itemsOfPage": 10,
  "items": [
    {
      "name": "AC CAMERFIRMA, S.A.",
      "registrationNumber": "07189",
      "identificationNumber": "A82743287",
      "address": "CALLE RIBERA DEL LOIRA, 12",
      "location": {
        "postalCode": "28042",
        "municipality": "Madrid",
        "county": "Madrid",
        "municipalityId": "079",
        "countyId": "28"
      },
      "economicActivities": [
        {
          "id": "1.845",
          "name": "Explotación electrónica por cuenta de terceros",
          "_links": {
            "self": {
              "name": "Explotación electrónica por cuenta de terceros",
              "href": "https://api.euskadi.eus/procurements/companies/economic-activities/1.845"
            }
          }
        }
      ],
      "certificateStartDate": "2020-07-20",
      "certificateEndDate": "2020-09-30",
      "object": "A) LA PRESTACIÓN DE SERVICIOS DE CERTIFICACIÓN ELECTRÓNICA RELACIONADA CON EL TRÁFICO MERCANTIL, TANTO NACIONAL COMO INTERNACIONAL. B) CONSULTORÍA, SOPORTE, DESARROLLO, EXPLOTACIÓN, DISTRIBUCIÓN Y VENTA DE PRODUCTOS Y SISTEMAS DE TECNOLOGÍAS DE LA INFORMACIÓN. C) ESTUDIO E INVESTIGACIÓN DE NUEVAS TECNOLOGÍAS APLICADAS AL ÁMBITO DE LA INFORMÁTICA",
      "mainEntityOfPage": "https://www.contratacion.euskadi.eus/webkpe00-kperoc/es/ac71aBusquedaRegistrosWar/empresa/07189",
      "_links": {
        "self": {
          "name": "AC CAMERFIRMA, S.A.",
          "href": "https://api.euskadi.eus/procurements/companies/07189"
        }
      }
    },
    {
      "name": "CONSTRUCCIONES HERMANOS RIESGO DE ARANDA, S.L.",
      "registrationNumber": "05932",
      "identificationNumber": "B09266420",
      "address": "AVDA. PORTUGAL,14",
      "location": {
        "postalCode": "09400",
        "municipality": "Aranda de Duero",
        "county": "Burgos",
        "municipalityId": "018",
        "countyId": "09"
      },
      "economicActivities": [
        {
          "id": "1.501.1",
          "name": "Construcción completa, reparación y conservación de edificaciones",
          "_links": {
            "self": {
              "name": "Construcción completa, reparación y conservación de edificaciones",
              "href": "https://api.euskadi.eus/procurements/companies/economic-activities/1.501.1"
            }
          }
        }
      ],
      "certificateStartDate": "2020-07-18",
      "certificateEndDate": "2021-01-18",
      "object": "LA EJECUCIÓN POR CUENTA PROPIA O POR TERCEROS, DE OBRAS NUEVAS DE EDIFICACIONES URBANAS, INDUSTRIALES, URBANIZACIONES, SANEAMIENTOS, ABASTECIMIENTOS DE AGUAS, MOVIMIENTOS DE TIERRAS, Y TODA CLASE DE OBRAS DE CONSTRUCCIÓN, ASÍ COMO TRABAJOS DE CONSERVACIÓN Y REPARACIÓN, LA PROMOCIÓN Y COMPRA-VENTA DE CONSTRUCCIONES Y EDIFICACIONES DE CUALQUIER CLASE, EN SU TOTALIDAD, POR PARTES O POR PISOS Y LOCALES, BIEN PARA VIVIENDAS, GARAJES, NEGOCIOS, INDUSTRIAS U OTROS FINES, CONSTRUIDAS DIRECTAMENTE POR LA SOCIEDAD O POR MEDIO DE CONTRATISTAS Y TERCEROS; Y LA ADQUISICIÓN, ENAJENACIÓN, VENTA Y EXPLOTACIÓN DE FINCAS RÚSTICAS Y URBANAS POR CUALQUIER TÍTULO",
      "mainEntityOfPage": "https://www.contratacion.euskadi.eus/webkpe00-kperoc/es/ac71aBusquedaRegistrosWar/empresa/05932",
      "_links": {
        "self": {
          "name": "CONSTRUCCIONES HERMANOS RIESGO DE ARANDA, S.L.",
          "href": "https://api.euskadi.eus/procurements/companies/05932"
        }
      }
    },
    {
      "name": "INNOPULSE ASESORES TECNOLÓGICOS, S.L.",
      "registrationNumber": "07181",
      "identificationNumber": "B84465863",
      "address": "calle aguacate, 41 - Portal B4 - 2º local 6",
      "location": {
        "postalCode": "28054",
        "municipality": "Madrid",
        "county": "Madrid",
        "municipalityId": "079",
        "countyId": "28"
      },
      "economicActivities": [
        {
          "id": "1.845",
          "name": "Explotación electrónica por cuenta de terceros",
          "_links": {
            "self": {
              "name": "Explotación electrónica por cuenta de terceros",
              "href": "https://api.euskadi.eus/procurements/companies/economic-activities/1.845"
            }
          }
        },
        {
          "id": "1.934",
          "name": "Enseñanza fuera de establecimiento permanente",
          "_links": {
            "self": {
              "name": "Enseñanza fuera de establecimiento permanente",
              "href": "https://api.euskadi.eus/procurements/companies/economic-activities/1.934"
            }
          }
        }
      ],
      "certificateStartDate": "2020-07-17",
      "certificateEndDate": "2020-12-29",
      "object": "LA EXPLOTACIÓN ECONÓMICA DE TODO TIPO DE ACTIVIDADES INFORMÁTICAS. LA ASESORÍA, INSTALACIÓN Y FORMACIÓN DE PROYECTOS DE INFORMÁTICA E INTERNET. CONSULTORÍA EN EQUIPO INFORMÁTICO. CONSULTORÍA DE APLICACIONES INFORMÁTICAS Y SUMINISTRO DE PROGRAMAS INFORMÁTICOS. PROCESO DE DATOS. ACTIVIDADES RELACIONADAS CON BASES DE DATOS. MANTENIMIENTO Y REPARACIÓN DE MÁQUINAS DE OFICINA, CONTABILIDAD Y EQUIPO INFORMÁTICO. INSTALACIONES Y MANTENIMIENTO DE REDES, SOPORTES INFORMÁTICOS, INSTALACIONES TÉCNICAS DE SOFTWARE Y HARDWARE Y ACTUALIZACIONES DE LAS MISMA. COMERCIALIZACIÓN DISTRIBUCIÓN DE HARDWARE Y SOFTWARE. IMPARTIR CURSOS DE FORMACIÓN DEL ÁMBITO INFORMÁTICO, TELEMÁTICO, PROGRAMACIÓN, INFORMÁTICA E INTERNET. LA HOSTELERÍA, MEDIANTE EXPLOTACIÓN DE BARES, RESTAURANTES, DISCO PUBS, DISCOTECAS U HOTELES. SERVICIOS E INTERMEDIACIÓN INMOBILIARIA YA SE MEDIANTE LA ADQUISICIÓN POR CUENTA PROPIA O COMO INTERMEDIARIO EN LA ADQUISICIÓN, VENTA Y ARRENDAMIENTO DE INMUEBLES. LA IMPORTACIÓN Y EXPORTACIÓN DE BIENES Y SERVICIOS RELACIONADOS CON LAS ANTERIORES ACTIVIDADES",
      "mainEntityOfPage": "https://www.contratacion.euskadi.eus/webkpe00-kperoc/es/ac71aBusquedaRegistrosWar/empresa/07181",
      "_links": {
        "self": {
          "name": "INNOPULSE ASESORES TECNOLÓGICOS, S.L.",
          "href": "https://api.euskadi.eus/procurements/companies/07181"
        }
      }
    },
    {
      "name": "ASOFRIGO, S. COOP.",
      "registrationNumber": "01435",
      "identificationNumber": "F48042725",
      "address": "Cº DE LA VENTOSA, Nº 46",
      "location": {
        "postalCode": "48013",
        "municipality": "Bilbao",
        "county": "Bizkaia",
        "municipalityId": "020",
        "countyId": "48"
      },
      "economicActivities": [
        {
          "id": "1.504.3",
          "name": "Instalaciones de frío, calor y acondicionamiento de aire",
          "_links": {
            "self": {
              "name": "Instalaciones de frío, calor y acondicionamiento de aire",
              "href": "https://api.euskadi.eus/procurements/companies/economic-activities/1.504.3"
            }
          }
        }
      ],
      "certificateStartDate": "2020-07-16",
      "certificateEndDate": "2020-12-01",
      "object": "EL PROYECTO, CONSTRUCCIÓN, MONTAJE Y ENTRETENIMIENTO DE INSTALACIONES FRIGORÍFICAS, DE VENTILACIÓN Y DE ACONDICIONAMIENTO DE AIRE, EN TODA SU AMPLITUD Y APLICACIONES",
      "mainEntityOfPage": "https://www.contratacion.euskadi.eus/webkpe00-kperoc/es/ac71aBusquedaRegistrosWar/empresa/01435",
      "_links": {
        "self": {
          "name": "ASOFRIGO, S. COOP.",
          "href": "https://api.euskadi.eus/procurements/companies/01435"
        }
      }
    },
    {
      "name": "RECINFOR, S.L.",
      "registrationNumber": "04471",
      "identificationNumber": "B48874754",
      "address": "PLAZA HARO 2 ,LONJA",
      "location": {
        "postalCode": "48006",
        "municipality": "Bilbao",
        "county": "Bizkaia",
        "municipalityId": "020",
        "countyId": "48"
      },
      "economicActivities": [
        {
          "id": "1.617.8",
          "name": "Venta al por mayor de máquinas y material de oficina",
          "_links": {
            "self": {
              "name": "Venta al por mayor de máquinas y material de oficina",
              "href": "https://api.euskadi.eus/procurements/companies/economic-activities/1.617.8"
            }
          }
        },
        {
          "id": "1.849.8",
          "name": "Multiservicios intensivos en personal",
          "_links": {
            "self": {
              "name": "Multiservicios intensivos en personal",
              "href": "https://api.euskadi.eus/procurements/companies/economic-activities/1.849.8"
            }
          }
        }
      ],
      "certificateStartDate": "2020-07-16",
      "certificateEndDate": "2021-01-15",
      "object": "a.- COMPRAVENTA, IMPORTACION, EXPORTACION, REPRESENTACION, ALMACENAJE, Y DISTRIBUCION DE MAQUINAS, APARATOS, CONSUMIBLES Y ACCESORIOS PARA INFORMATICA, AUDIO Y VIDEO.\r\n\r\nb.- ADQUIRIR, ENAJENAR Y ARRENDAR BIENES INMUEBLES (CONCRETAMENTE LOS DETERMINADOS EN EL ARTÍCULOS 334.1 DEL CÓDIGO CIVIL), ACCIONES PARTIRCIPACIONES SOCIALES, OBLIGACIONES, BONOS DE CAJA, CERTIFICADOS DE DEPÓSITO Y PAGARÉS DE TODA CLASE DE EMPRESAS Y NEGOCIOS)\r\n",
      "mainEntityOfPage": "https://www.contratacion.euskadi.eus/webkpe00-kperoc/es/ac71aBusquedaRegistrosWar/empresa/04471",
      "_links": {
        "self": {
          "name": "RECINFOR, S.L.",
          "href": "https://api.euskadi.eus/procurements/companies/04471"
        }
      }
    },
    {
      "name": "CUPAR CONSTRUCCIONES Y REFORMAS, S.L.",
      "registrationNumber": "07172",
      "identificationNumber": "B01547785",
      "address": "C/BARCELONA Nº36 BAJO LOCAL 3",
      "location": {
        "postalCode": "01010",
        "municipality": "Vitoria-Gasteiz",
        "county": "Araba/Álava",
        "municipalityId": "059",
        "countyId": "01"
      },
      "economicActivities": [
        {
          "id": "1.501.1",
          "name": "Construcción completa, reparación y conservación de edificaciones",
          "_links": {
            "self": {
              "name": "Construcción completa, reparación y conservación de edificaciones",
              "href": "https://api.euskadi.eus/procurements/companies/economic-activities/1.501.1"
            }
          }
        }
      ],
      "certificateStartDate": "2020-07-16",
      "certificateEndDate": "2021-01-02",
      "object": "A) CONSTRUCCIÓN COMPLETA, REPARACIÓN Y CONSERVACIÓN DE EDIFICACIONES Y OBRAS CIVILES, LA PROMOCIÓN Y COMERCIALIZACIÓN DE LAS MISMAS. B) ALBAÑILERÍA Y PEQUEÑOS TRABAJOS DE CONSTRUCCIÓN EN GENERAL. C) PINTURA DE CUALQUIER TIPO Y CLASE Y REVESTIMIENTOS DE PAPEL, TEJIDOS O PLÁSTICOS Y TERMINACIÓN Y DECORACIÓN DE EDIFICIOS Y LOCALES",
      "mainEntityOfPage": "https://www.contratacion.euskadi.eus/webkpe00-kperoc/es/ac71aBusquedaRegistrosWar/empresa/07172",
      "_links": {
        "self": {
          "name": "CUPAR CONSTRUCCIONES Y REFORMAS, S.L.",
          "href": "https://api.euskadi.eus/procurements/companies/07172"
        }
      }
    },
    {
      "name": "TRANSFORMA 21 SL",
      "registrationNumber": "07179",
      "identificationNumber": "B65336828",
      "address": "CALLE BONAVISTA, S/N",
      "location": {
        "postalCode": "08680",
        "municipality": "Gironella",
        "county": "Barcelona",
        "municipalityId": "092",
        "countyId": "08"
      },
      "economicActivities": [
        {
          "id": "1.361",
          "name": "Construcción y montaje de vehículos automóviles y sus motores",
          "_links": {
            "self": {
              "name": "Construcción y montaje de vehículos automóviles y sus motores",
              "href": "https://api.euskadi.eus/procurements/companies/economic-activities/1.361"
            }
          }
        },
        {
          "id": "1.619.2",
          "name": "Venta al por mayor de aparatos e instrumentos médicos, ortopédicos, ópticos",
          "_links": {
            "self": {
              "name": "Venta al por mayor de aparatos e instrumentos médicos, ortopédicos, ópticos",
              "href": "https://api.euskadi.eus/procurements/companies/economic-activities/1.619.2"
            }
          }
        },
        {
          "id": "1.654.1",
          "name": "Venta al por menor de vehículos terrestres",
          "_links": {
            "self": {
              "name": "Venta al por menor de vehículos terrestres",
              "href": "https://api.euskadi.eus/procurements/companies/economic-activities/1.654.1"
            }
          }
        }
      ],
      "certificateStartDate": "2020-07-16",
      "certificateEndDate": "2020-12-09",
      "object": "LA FABRICACIÓN Y VENTA DE CARROCERÍAS DE VEHÍCULOS DE TODO TIPO Y REPARACIÓN Y MANTENIMIENTO EN GENERAL DE LAS MISMAS, ASÍ COMO PINTURA DE VEHÍCULOS EN GENERAL. COMPRA, VENTA, IMPORTACIÓN Y EXPORTACIÓN DE TODO TIPO DE AUTOMÓVILES Y MATERIAL SANITARIO. LA REPRESENTACIÓN COMERCIAL DE COMPAÑÍAS NACIONALES O EXTRANJERAS DEL SECTOR DE LA AUTOMOCIÓN Y MATERIAL SANITARIO",
      "mainEntityOfPage": "https://www.contratacion.euskadi.eus/webkpe00-kperoc/es/ac71aBusquedaRegistrosWar/empresa/07179",
      "_links": {
        "self": {
          "name": "TRANSFORMA 21 SL",
          "href": "https://api.euskadi.eus/procurements/companies/07179"
        }
      }
    },
    {
      "name": "ECKOING COMMUNICATION SL",
      "registrationNumber": "06034",
      "identificationNumber": "B95716536",
      "address": "LAS MERCEDES 31, 4º, DPTO 4",
      "location": {
        "postalCode": "48930",
        "municipality": "Getxo",
        "county": "Bizkaia",
        "municipalityId": "044",
        "countyId": "48"
      },
      "economicActivities": [
        {
          "id": "1.844",
          "name": "Servicios de publicidad, relaciones públicas y similares",
          "_links": {
            "self": {
              "name": "Servicios de publicidad, relaciones públicas y similares",
              "href": "https://api.euskadi.eus/procurements/companies/economic-activities/1.844"
            }
          }
        }
      ],
      "certificateStartDate": "2020-07-15",
      "certificateEndDate": "2021-01-14",
      "object": "INFORMÁTICA, TELECOMUNICACIONES Y OFIMÁTICA, Y EN ESPECIAL, LA PRESTACIÓN Y COMERCIALIZACIÓN DE SERVICIOS DE TELECOMUNICACIONES; EL COMERCIO ELECTRÓNICO; Y LA PRESTACIÓN DE SERVICIOS DE MARKETING Y TELEMARKETING, PUBLICIDAD, CONSULTORÍA INFORMÁTICA Y DE TELECOMUNICACIONES, SERVICIOS DE SEGURIDAD RELACIONADOS CON EL SECTOR DE TELECOMUNICACIONES Y DEMÁS ACTIVIDADES RELACIONADAS AUTORIZADAS DE ACUERDO CON LA LEGISLACIÓN VIGENTE",
      "mainEntityOfPage": "https://www.contratacion.euskadi.eus/webkpe00-kperoc/es/ac71aBusquedaRegistrosWar/empresa/06034",
      "_links": {
        "self": {
          "name": "ECKOING COMMUNICATION SL",
          "href": "https://api.euskadi.eus/procurements/companies/06034"
        }
      }
    },
    {
      "name": "JOVINO MARTINEZ SIERRA",
      "registrationNumber": "06149",
      "identificationNumber": "10830588A",
      "address": "C/ DOCTOR BELLMUNT, 18 BAJO",
      "location": {
        "postalCode": "33205",
        "municipality": "Gijón",
        "county": "Asturias",
        "municipalityId": "024",
        "countyId": "33"
      },
      "economicActivities": [
        {
          "id": "2.411",
          "name": "Arquitectos",
          "_links": {
            "self": {
              "name": "Arquitectos",
              "href": "https://api.euskadi.eus/procurements/companies/economic-activities/2.411"
            }
          }
        },
        {
          "id": "2.861",
          "name": "Pintores, escultores, ceramistas, artesanos, artistas y similares",
          "_links": {
            "self": {
              "name": "Pintores, escultores, ceramistas, artesanos, artistas y similares",
              "href": "https://api.euskadi.eus/procurements/companies/economic-activities/2.861"
            }
          }
        }
      ],
      "certificateStartDate": "2020-07-15",
      "certificateEndDate": "2021-01-09",
      "object": "ARQUITECTOS. PINTORES, ESCULTORES, CERAMISTAS, ARTESANOS, ARTISTAS Y SIMILARES",
      "mainEntityOfPage": "https://www.contratacion.euskadi.eus/webkpe00-kperoc/es/ac71aBusquedaRegistrosWar/empresa/06149",
      "_links": {
        "self": {
          "name": "JOVINO MARTINEZ SIERRA",
          "href": "https://api.euskadi.eus/procurements/companies/06149"
        }
      }
    },
    {
      "name": "BIDAIDEA GESTIÓN, S.L.",
      "registrationNumber": "07169",
      "identificationNumber": "B84652973",
      "address": "Avenida Cuarta, nº 1, Planta 1, Local 6 y 7",
      "location": {
        "postalCode": "28022",
        "municipality": "Madrid",
        "county": "Madrid",
        "municipalityId": "079",
        "countyId": "28"
      },
      "economicActivities": [
        {
          "id": "1.654.5",
          "name": "Venta al por menor de toda clase de maquinaría",
          "_links": {
            "self": {
              "name": "Venta al por menor de toda clase de maquinaría",
              "href": "https://api.euskadi.eus/procurements/companies/economic-activities/1.654.5"
            }
          }
        },
        {
          "id": "1.843.9",
          "name": "Otros servicios técnicos n.c.o.p",
          "_links": {
            "self": {
              "name": "Otros servicios técnicos n.c.o.p",
              "href": "https://api.euskadi.eus/procurements/companies/economic-activities/1.843.9"
            }
          }
        },
        {
          "id": "1.849.4",
          "name": "Servicios de custodia, seguridad y protección",
          "_links": {
            "self": {
              "name": "Servicios de custodia, seguridad y protección",
              "href": "https://api.euskadi.eus/procurements/companies/economic-activities/1.849.4"
            }
          }
        }
      ],
      "certificateStartDate": "2020-07-15",
      "certificateEndDate": "2020-12-10",
      "object": "A) REALIZACIÓN DE PLANES DE EMERGENCIA, PLANES DE EVACUACIÓN, PLANES DE AUTOPROTECCIÓN PARA SITUACIONES DE ALARMA O RIESGO DE PERSONAS, BIENES O MEDIOAMBIENTE. B) EDICIÓN Y COMERCIALIZACIÓN DE PUBLICACIONES RELACIONADAS CON LA REALIZACIÓN DE PLANES DE EMERGENCIA, PLANES DE EVACUACIÓN, PLANES DE AUTOPROTECCIÓN PARA SITUACIONES DE ALARMA O RIESGO DE PERSONAS, BIENES O MEDIOAMBIENTE. C) PROMOCIÓN DE LA CONSTRUCCIÓN O REHABILITACIÓN DE EDIFICIOS Y LOCALES, ASÍ COMO EL ACONDICIONAMIENTO DE ESPACIOS Y EQUIPAMIENTOS, JUNTO A SU EXPLOTACIÓN EN VENTA O EN ALQUILER, Y SU ADMINISTRACIÓN DIRECTA O INDIRECTA, DESTINADOS A FINES RESIDENCIALES. D) LA ADJUDICACIÓN Y CONTRATACIÓN DE TODA CLASE DE OBRAS, ESTUDIOS Y PROYECTOS PARA LA CONSTRUCCIÓN O REHABILITACIÓN DE LAS MENCIONADAS FINCAS. E) LA ADQUISICIÓN DE SUELO E INMUEBLES; LA EJECUCIÓN DE LAS OBRAS DE CONSTRUCCIÓN O REHABILITACIÓN DE EDIFICIOS, LOCALES, ESPACIOS Y EQUIPAMIENTOS, POR SÍ O MEDIANTE EMPRESAS CONSTRUCTORAS Y SU EXPLOTACIÓN DIRECTA O INDIRECTA CON LA MISMA FINALIDAD. F) SERVICIOS DE CIBERSEGURIDAD ESTRATÉGICOS PRESTADOS A EMPRESAS ENCAMINADOS A LA PROTECCIÓN DE LAS AMENAZAS DERIVADAS DEL USO DE LAS TECNOLOGÍAS DE LA INFORMACIÓN. G) SERVICIOS DE ASESORAMIENTO, CONSULTORÍA, AUDITORÍA RELACIONADOS CON LA SEGURIDAD DIGITAL, ELABORACIÓN DE PLANES DE CONTINUIDAD DE NEGOCIO. H) LA PRESENTACIÓN Y VENTA DE PRODUCTOS Y SERVICIOS TECNOLÓGICOS DE CIBERSEGURIDAD. I) EL DESARROLLO DE SOFTWARE, PRINCIPALMENTE RELACIONADO CON LA CIBERSEGURIDAD. J) LA REALIZACIÓN DE TODO TIPO DE CONSULTORÍA, ESPECIALMENTE DE BASE TECNOLÓGICA",
      "mainEntityOfPage": "https://www.contratacion.euskadi.eus/webkpe00-kperoc/es/ac71aBusquedaRegistrosWar/empresa/07169",
      "_links": {
        "self": {
          "name": "BIDAIDEA GESTIÓN, S.L.",
          "href": "https://api.euskadi.eus/procurements/companies/07169"
        }
      }
    }
  ]
}