{
  "totalItems": 9042,
  "totalPages": 905,
  "currentPage": 532,
  "itemsOfPage": 10,
  "items": [
    {
      "name": "HELI-TRANS PYRINEES,S.L.U.",
      "registrationNumber": "06644",
      "identificationNumber": "B25500786",
      "address": "AEROPUERTO ANDORRA-LA SEU D'URGELL,S/N",
      "location": {
        "postalCode": "25797",
        "municipality": "Ribera d'Urgellet",
        "county": "Lleida",
        "municipalityId": "185",
        "countyId": "25"
      },
      "economicActivities": [
        {
          "id": "1.382",
          "name": "Construcción, reparación y mantenimiento de aeronaves",
          "_links": {
            "self": {
              "name": "Construcción, reparación y mantenimiento de aeronaves",
              "href": "https://api.euskadi.eus/procurements/companies/economic-activities/1.382"
            }
          }
        },
        {
          "id": "1.742.1",
          "name": "Transporte aéreo nacional de viajeros (servicios no regulares)",
          "_links": {
            "self": {
              "name": "Transporte aéreo nacional de viajeros (servicios no regulares)",
              "href": "https://api.euskadi.eus/procurements/companies/economic-activities/1.742.1"
            }
          }
        },
        {
          "id": "1.742.2",
          "name": "Transporte aéreo nacional de mercancías (servicios no regulares)",
          "_links": {
            "self": {
              "name": "Transporte aéreo nacional de mercancías (servicios no regulares)",
              "href": "https://api.euskadi.eus/procurements/companies/economic-activities/1.742.2"
            }
          }
        },
        {
          "id": "1.855.1",
          "name": "Alquiler de aeronaves de todas clases",
          "_links": {
            "self": {
              "name": "Alquiler de aeronaves de todas clases",
              "href": "https://api.euskadi.eus/procurements/companies/economic-activities/1.855.1"
            }
          }
        },
        {
          "id": "1.912",
          "name": "Servicios forestales",
          "_links": {
            "self": {
              "name": "Servicios forestales",
              "href": "https://api.euskadi.eus/procurements/companies/economic-activities/1.912"
            }
          }
        },
        {
          "id": "3.015",
          "name": "Operadores de cámaras de cine de televisión y de vídeo",
          "_links": {
            "self": {
              "name": "Operadores de cámaras de cine de televisión y de vídeo",
              "href": "https://api.euskadi.eus/procurements/companies/economic-activities/3.015"
            }
          }
        }
      ],
      "certificateStartDate": "2021-05-18",
      "certificateEndDate": "2021-11-06",
      "object": "EL TRANSPORTE AÉREO DE PERSONAL, MERCANCÍAS Y CORRESPONDENCIA, MEDIANTE TODO TIPO DE AERONAVES, ESPECIALMENTE HELICÓPTERO, LA COMPRA-VENTA, REPARACIÓN Y EXPLOTACIÓN DE AERONAVES, ASÍ COMO DE SUS RECAMBIOS Y ACCESORIOS",
      "mainEntityOfPage": "https://www.contratacion.euskadi.eus/webkpe00-kperoc/es/ac71aBusquedaRegistrosWar/empresa/06644",
      "_links": {
        "self": {
          "name": "HELI-TRANS PYRINEES,S.L.U.",
          "href": "https://api.euskadi.eus/procurements/companies/06644"
        }
      }
    },
    {
      "name": "VOXEL 3D, S.L.",
      "registrationNumber": "07651",
      "identificationNumber": "B47735733",
      "address": "Paseo de Belén 9A. Campus Miguel Delibes. Edif. CTTA",
      "location": {
        "postalCode": "47011",
        "municipality": "Valladolid",
        "county": "Valladolid",
        "municipalityId": "186",
        "countyId": "47"
      },
      "economicActivities": [
        {
          "id": "1.843.1",
          "name": "Servicios técnicos de ingeniería",
          "_links": {
            "self": {
              "name": "Servicios técnicos de ingeniería",
              "href": "https://api.euskadi.eus/procurements/companies/economic-activities/1.843.1"
            }
          }
        },
        {
          "id": "1.843.4",
          "name": "Servicios técnicos de topografía",
          "_links": {
            "self": {
              "name": "Servicios técnicos de topografía",
              "href": "https://api.euskadi.eus/procurements/companies/economic-activities/1.843.4"
            }
          }
        },
        {
          "id": "1.973.1",
          "name": "Servicios fotográficos",
          "_links": {
            "self": {
              "name": "Servicios fotográficos",
              "href": "https://api.euskadi.eus/procurements/companies/economic-activities/1.973.1"
            }
          }
        }
      ],
      "certificateStartDate": "2021-05-18",
      "certificateEndDate": "2021-11-11",
      "object": "EL PROCESAMIENTO, EXPLOTACIÓN Y ANÁLISIS DE TODO TIPO DE DATOS GEOESPACIALES, LA GENERACIÓN DE PRODUCTOS CARTOGRÁFICOS Y MODELOS DIGITALES DEL TERRITORIO, LA GESTIÓN DE BASES DE DATOS DE INFORMACIÓN GEOGRÁFICA Y SU DIFUSIÓN O PUBLICACIÓN POR CUALQUIER MEDIO, INCLUYENDO LA PUBLICACIÓN A TRAVÉS DE INTERNET. ASÍ COMO LA ELABORACIÓN DE ESTUDIOS, PROYECTOS, ASESORÍAS E INFORMES TÉCNICOS SOBRE GEODESIA, CARTOGRAFÍA, TOPOGRAFÍA, ARQUITECTURA, HIDROLOGÍA, HIDROGRAFÍA, GEOTECNIA, URBANISMO, MEDIOAMBIENTE, ECOLOGÍA, CATASTROS, INVENTARIOS Y CENSOS. LA REALIZACIÓN, EDICIÓN, PUBLICACIÓN Y COMERCIALIZACIÓN, DE FORMA DIRECTA O INDIRECTA, DE TODA CLASE DE TRABAJOS Y ACTIVIDADES RELACIONADAS CON LA CAPTURA DE INFORMACIÓN GEOGRÁFICA MEDIANTE DISPOSITIVOS TERRESTRES, INSTALADOS EN VEHÍCULOS O AEROTRANSPORTADOS. INCLUYENDO LA FOTOGRAFÍA AÉREA EN CUALQUIERA DE SUS MODALIDADES, TRANSPORTE DE VIAJEROS Y MERCANCÍAS, REALIZACIÓN DE VUELOS LIDAR, FOTOGRAMÉTRICOS, FOTOGRÁFICOS, DE FOTOGRAFÍA OBLICUA O SIMPLEMENTE PUBLICITARIOS Y CON EL TRATAMIENTO Y OBTENCIÓN DE IMÁGENES, GRÁFICOS, ÓPTICAS Y DIGITALES EN CUALQUIERA DE SUS MODALIDADES. LA REALIZACIÓN DE TRABAJOS RELACIONADOS CON LA INGENIERÍA DEL TERRITORIO COMO TOPOGRAFÍA, FOTOGRAFÍA, FOTOGRAMETRÍA, ORTOFOTOGRAFÍA, REPROGRAFÍA, DIGITALIZACIÓN, TRATAMIENTO DE IMÁGENES, EDICIÓN GRÁFICA, PUBLICACIÓN, MODELADO DIGITAL DE INFORMACIÓN DEL TERRITORIO, DISEÑO ARQUITECTÓNICO Y DISEÑO GRÁFICO. LA REALIZACIÓN DE ACTIVIDADES DE CONSULTORÍA INFORMÁTICA Y DE COMUNICACIONES, EL DESARROLLO Y CREACIÓN, COMPRAVENTA, IMPORTACIÓN Y EXPORTACIÓN DE PRODUCTOS SOFTWARE, HARDWARE Y COMUNICACIONES Y TODOS LOS RELACIONADOS CON LAS TECNOLOGÍAS DE LOS SISTEMAS DE INFORMACIÓN Y COMUNICACIONES. EL DESARROLLO Y PROGRAMAS INFORMÁTICOS, ASÍ COMO LA EXPLOTACIÓN DE DICHOS PROGRAMAS, TODO ELLO DENTRO DEL ENTORNO DE LAS TELECOMUNICACIONES MÓVILES Y SERVICIOS DE MOVILIDAD. CUALQUIER OTRO SERVICIO INFORMÁTICO O DE TELECOMUNICACIONES",
      "mainEntityOfPage": "https://www.contratacion.euskadi.eus/webkpe00-kperoc/es/ac71aBusquedaRegistrosWar/empresa/07651",
      "_links": {
        "self": {
          "name": "VOXEL 3D, S.L.",
          "href": "https://api.euskadi.eus/procurements/companies/07651"
        }
      }
    },
    {
      "name": "SOLUCIONES INTEGRALES PARA COCINAS PROFESIONALES, S.L.",
      "registrationNumber": "07652",
      "identificationNumber": "B88339312",
      "address": "C/ Villanueva, 10",
      "location": {
        "postalCode": "28001",
        "municipality": "Madrid",
        "county": "Madrid",
        "municipalityId": "079",
        "countyId": "28"
      },
      "economicActivities": [
        {
          "id": "1.617.9",
          "name": "Venta al por mayor interindustrial de otros productos n.c.o.p",
          "_links": {
            "self": {
              "name": "Venta al por mayor interindustrial de otros productos n.c.o.p",
              "href": "https://api.euskadi.eus/procurements/companies/economic-activities/1.617.9"
            }
          }
        }
      ],
      "certificateStartDate": "2021-05-18",
      "certificateEndDate": "2021-11-11",
      "object": "LA INTERMEDIACIÓN EN LA PRESTACIÓN DE SERVICIOS DE INGENIERÍA DE TODA ÍNDOLE, COMO ELABORACIÓN DE PROYECTOS, DIRECCIÓN DE LOS MISMOS, CONTROL DE PROCESOS DE CALIDAD, CONSULTORÍA, AUDITORÍA Y ANÁLISIS Y EN GENERAL, TODAS AQUELLAS ACTIVIDADES RELACIONADAS CON LA INGENIERÍA Y CON LA INSTALACIÓN, INCLUSO MONTAJE, PROCESOS DE MANTENIMIENTO Y EQUIPAMIENTO, ASÍ COMO ACTIVIDADES INMOBILIARIAS, COMPRA, VENTA Y ALQUILER DE INMUEBLES RÚSTICOS Y URBANOS. LA VENTA, MANTENIMIENTO Y REPARACIÓN DE MAQUINARIA EN GENERAL, DETERGENTES INDUSTRIALES, FABRICADOS EN ACERO INOXIDABLE, APARATOS ELÉCTRICOS Y MOBILIARIO. CONSTRUCCIÓN COMPLETA, REPARACIÓN Y CONSERVACIÓN DE OBRA CIVIL. INSTALACIÓN Y MONTAJE DE TODA CLASE DE MAQUINARIA. INSTALACIONES DE FRÍO Y CALOR. REALIZACIÓN DE OBRAS E INSTALACIONES DE FONTANERÍA. REALIZACIÓN DE OBRAS E INSTALACIONES DE ELECTRICIDAD. REALIZACIÓN DE OBRAS E INSTALACIONES INFORMÁTICAS Y ELECTRÓNICAS. REALIZACIÓN DE OBRAS E INSTALACIONES DE GAS. REALIZACIÓN DE OBRAS E INSTALACIONES DE CARPINTERÍA. EL EQUIPAMIENTO, CONSTRUCCIÓN INTEGRAL DE TODO TIPO DE PLANTAS ALIMENTARIAS Y LOGÍSTICAS: PANIFICACIÓN, PASTELERÍA, CÁRNICA, ASÍ COMO DE CENTROS DE PRODUCCIÓN DE ALIMENTOS. DIRECCIÓN, GESTIÓN Y EXPLOTACIÓN DE COMEDORES COLECTIVOS",
      "mainEntityOfPage": "https://www.contratacion.euskadi.eus/webkpe00-kperoc/es/ac71aBusquedaRegistrosWar/empresa/07652",
      "_links": {
        "self": {
          "name": "SOLUCIONES INTEGRALES PARA COCINAS PROFESIONALES, S.L.",
          "href": "https://api.euskadi.eus/procurements/companies/07652"
        }
      }
    },
    {
      "name": "NASCOR FORMACIÓN, S.L.",
      "registrationNumber": "07653",
      "identificationNumber": "B65187569",
      "address": "De las Dos Castillas",
      "location": {
        "postalCode": "28224",
        "municipality": "Pozuelo de Alarcón",
        "county": "Madrid",
        "municipalityId": "115",
        "countyId": "28"
      },
      "economicActivities": [
        {
          "id": "1.932.1",
          "name": "Enseñanza de formación y perfeccionamiento profesional no superior",
          "_links": {
            "self": {
              "name": "Enseñanza de formación y perfeccionamiento profesional no superior",
              "href": "https://api.euskadi.eus/procurements/companies/economic-activities/1.932.1"
            }
          }
        },
        {
          "id": "1.934",
          "name": "Enseñanza fuera de establecimiento permanente",
          "_links": {
            "self": {
              "name": "Enseñanza fuera de establecimiento permanente",
              "href": "https://api.euskadi.eus/procurements/companies/economic-activities/1.934"
            }
          }
        }
      ],
      "certificateStartDate": "2021-05-18",
      "certificateEndDate": "2021-10-05",
      "object": "-LA ADMINISTRACIÓN, GESTIÓN, DIRECCIÓN, ORGANIZACIÓN Y/O IMPARTICIÓN DE TODA CLASE DE PROGRAMAS Y ACCIONES FORMATIVAS, ENTRE ELLAS LAS DE FORMACIÓN PROFESIONAL, LA FORMACIÓN CONTINUA DE LOS TRABAJADORES, LA FORMACIÓN OCUPACIONAL, O EL APRENDIZAJE CONTINUO, MEDIANTE CUALQUIER MODALIDAD FORMATIVA: PRESENCIAL, A DISTANCIA, POR TELEFORMACIÓN O MIXTA. - LA TRAMITACIÓN Y GESTIÓN DE SUBVENCIONES PARA LA FORMACIÓN ANTE CUALQUIER ADMINISTRACIÓN O INSTITUCIÓN. -EL DESARROLLO, EDICIÓN, PUBLICACIÓN, COMERCIALIZACIÓN DE MATERIAL FORMATIVO Y DIDÁCTICO, MEDIANTE CUALQUIER SOPORTE FÍSICO O DIGITAL SOPORTADO EN LAS TECNOLOGÍAS DE LA INFORMÁTICA Y LAS TELECOMUNICACIONES, ENTRE ELLAS INTERNET, DIRIGIDAS A LA FORMACIÓN",
      "mainEntityOfPage": "https://www.contratacion.euskadi.eus/webkpe00-kperoc/es/ac71aBusquedaRegistrosWar/empresa/07653",
      "_links": {
        "self": {
          "name": "NASCOR FORMACIÓN, S.L.",
          "href": "https://api.euskadi.eus/procurements/companies/07653"
        }
      }
    },
    {
      "name": "COMERCIAL ARBERE, S.L.",
      "registrationNumber": "07654",
      "identificationNumber": "B48527139",
      "address": "Bº ETXANO 4",
      "location": {
        "postalCode": "48213",
        "municipality": "Izurtza",
        "county": "Bizkaia",
        "municipalityId": "050",
        "countyId": "48"
      },
      "economicActivities": [
        {
          "id": "1.616.5",
          "name": "Venta al por mayor de petróleo y lubricantes",
          "_links": {
            "self": {
              "name": "Venta al por mayor de petróleo y lubricantes",
              "href": "https://api.euskadi.eus/procurements/companies/economic-activities/1.616.5"
            }
          }
        }
      ],
      "certificateStartDate": "2021-05-18",
      "certificateEndDate": "2021-11-03",
      "object": "LA COMERCIALIZACIÓN, COMPRA, VENTA Y DISTRIBUCIÓN DE LUBRICANTES, ACEITES Y SUS DERIVADOS, PETRÓLEOS, Y SUS DERIVADOS ASÍ COMO GASOLINAS, GASÓLEOS, ACCESORIOS Y REPUESTOS PARA AUTOMÓVILES, CAMIONES, MOTOS Y TODA CLASE DE VEHÍCULOS MOTORIZADOS",
      "mainEntityOfPage": "https://www.contratacion.euskadi.eus/webkpe00-kperoc/es/ac71aBusquedaRegistrosWar/empresa/07654",
      "_links": {
        "self": {
          "name": "COMERCIAL ARBERE, S.L.",
          "href": "https://api.euskadi.eus/procurements/companies/07654"
        }
      }
    },
    {
      "name": "HAMILTON IBERIA, S.L.",
      "registrationNumber": "07655",
      "identificationNumber": "B66809013",
      "address": "C/ELECTRONICA 5",
      "location": {
        "postalCode": "08925",
        "municipality": "Badalona",
        "county": "Barcelona",
        "municipalityId": "015",
        "countyId": "08"
      },
      "economicActivities": [
        {
          "id": "1.391",
          "name": "Fabricación de instrumentos de precisión, medida y control",
          "_links": {
            "self": {
              "name": "Fabricación de instrumentos de precisión, medida y control",
              "href": "https://api.euskadi.eus/procurements/companies/economic-activities/1.391"
            }
          }
        }
      ],
      "certificateStartDate": "2021-05-18",
      "certificateEndDate": "2021-11-13",
      "object": "LA FABRICACIÓN, VENTA, SERVICIOS, IMPORTACIÓN Y EXPORTACIÓN Y COMERCIALIZACIÓN DE INSTRUMENTOS DE MEDICIÓN Y PRECISIÓN Y AUTOMATIZACIÓN DE INSTRUMENTOS Y DE BIENES DE CONSUMO EN EL ÁMBITO INDUSTRIAL, EN EL DE LA CIENCIA DE LA VIDA, ÁMBITO MÉDICO Y ÁMBITOS RELACIONADOS",
      "mainEntityOfPage": "https://www.contratacion.euskadi.eus/webkpe00-kperoc/es/ac71aBusquedaRegistrosWar/empresa/07655",
      "_links": {
        "self": {
          "name": "HAMILTON IBERIA, S.L.",
          "href": "https://api.euskadi.eus/procurements/companies/07655"
        }
      }
    },
    {
      "name": "MOONOFF, S.L.",
      "registrationNumber": "07649",
      "identificationNumber": "B70328307",
      "address": "C/ Oslo",
      "location": {
        "postalCode": "15707",
        "municipality": "Santiago de Compostela",
        "county": "Coruña, A",
        "municipalityId": "078",
        "countyId": "15"
      },
      "economicActivities": [
        {
          "id": "1.614.2",
          "name": "Venta al por mayor de productos de perfumería, droguería, higiene y belleza",
          "_links": {
            "self": {
              "name": "Venta al por mayor de productos de perfumería, droguería, higiene y belleza",
              "href": "https://api.euskadi.eus/procurements/companies/economic-activities/1.614.2"
            }
          }
        }
      ],
      "certificateStartDate": "2021-05-17",
      "certificateEndDate": "2021-11-10",
      "object": "INTERVENCIÓN Y PARTICIPACIÓN, INCLUSO MAYORITARIA, POR INVERSIÓN DIRECTA, COMPRAVENTA O POR ADQUISICIÓN POR CUALQUIER TÍTULO, EN OTRAS EMPRESAS, SOCIEDADES O ENTIDADES, ASÍ COMO LA COMPRA, SUSCRIPCIÓN, TITULARIDAD, TENENCIA, DISFRUTE, PERMUTA Y VENTA DE VALORES MOBILIARIOS, NACIONALES E INTERNACIONALES. ADQUISICIÓN Y GESTIÓN DE ACTIVOS INMOBILIARIOS. PROMOCIÓN, CONSTRUCCIÓN, REMODELACIÓN, REFORMA, PUESTA EN VALOR, COMPRA, VENTA, ARRENDAMIENTO Y SUBARRENDAMIENTO DE INMUEBLES PARA DISTINTOS FINES. EJECUCIÓN, REPARACIÓN Y CONSERVACIÓN DE OBRAS Y EDIFICACIONES DE TODO TIPO Y CLASE, ASÍ COMO OBRA CIVIL DE TODO TIPO Y MODALIDAD. INVESTIGACIÓN, DESARROLLO, INNOVACIÓN Y FABRICACIÓN DE PRODUCTOS. PRESTACIÓN DE SERVICIOS DE INGENIERÍA. DESARROLLO Y VENTA DE TODO TIPO DE SOFTWARE, PROGRAMAS Y APLICACIONES. DISEÑO, FABRICACIÓN, INSTALACIÓN, REPARACIÓN, MANTENIMIENTO Y PROGRAMACIÓN DE TODO TIPO DE MATERIA E INSTALACIONES ELÉCTRICAS, ELECTRÓNICAS, ROBÓTICAS, AUTOMÁTICAS Y DE CONTROL. COMPRA, VENTA, IMPORTACIÓN, EXPORTACIÓN Y COMERCIALIZACIÓN DE PRODUCTOS TECNOLÓGICOS, ELÉCTRICOS, ELECTRÓNICOS, CLÍNICOS, SANITARIOS, PROMOCIONALES, ACCESORIOS, EQUIPAMIENTO PARA TODO TIPO DE EMPRESAS, MAQUINARIA, RECAMBIOS, COMPONENTES, MATERIAS PRIMAS",
      "mainEntityOfPage": "https://www.contratacion.euskadi.eus/webkpe00-kperoc/es/ac71aBusquedaRegistrosWar/empresa/07649",
      "_links": {
        "self": {
          "name": "MOONOFF, S.L.",
          "href": "https://api.euskadi.eus/procurements/companies/07649"
        }
      }
    },
    {
      "name": "TECIMAN INTERNATIONAL, S.L.",
      "registrationNumber": "07650",
      "identificationNumber": "B09245960",
      "address": "Avda Castilla y León 14 Comercial",
      "location": {
        "postalCode": "09006",
        "municipality": "Burgos",
        "county": "Burgos",
        "municipalityId": "059",
        "countyId": "09"
      },
      "economicActivities": [
        {
          "id": "1.843.1",
          "name": "Servicios técnicos de ingeniería",
          "_links": {
            "self": {
              "name": "Servicios técnicos de ingeniería",
              "href": "https://api.euskadi.eus/procurements/companies/economic-activities/1.843.1"
            }
          }
        }
      ],
      "certificateStartDate": "2021-05-17",
      "certificateEndDate": "2021-11-03",
      "object": "A) SERVICIOS PROFESIONALES DE CONSULTORÍA Y FORMACIÓN A EMPRESAS E INSTITUCIONES PÚBLICAS Y PRIVADAS DENTRO DE LAS ÁREAS DE ORGANIZACIÓN Y GESTIÓN; ASÍ COMO LA EJECUCIÓN DE ESTUDIOS, PROGRAMAS Y PROYECTOS ENCLAVADOS EN LAS ÁREAS DE CALIDAD, MEDIOAMBIENTE, LOGÍSTICA, RECURSOS HUMANOS, MARKETING, PRODUCCIÓN, INGENIERÍA, ORGANIZACIÓN Y GESTIÓN EMPRESARIAL. B) LA INGENIERÍA DE MANTENIMIENTO DE INSTALACIONES Y EQUIPOS INDUSTRIALES, EL CONTROL Y SEGUIMIENTO DEL ADECUADO FUNCIONAMIENTO DE LAS MISMAS. C) LA EJECUCIÓN DE PROYECTOS E INSTALACIONES, LA DIRECCIÓN E INSTALACIÓN DE LAS MISMAS. D) LA EXPEDICIÓN DE CERTIFICADOS DE CALIDAD. E) EL CONTROL DE CALIDAD DE INSTALACIONES, EQUIPOS Y PLANTAS INDUSTRIALES, LA ADECUACIÓN DE LAS MISMAS A LA NORMATIVA VIGENTE. F) AUDITORÍA DE MANTENIMIENTO DE INSTALACIONES, EQUIPOS Y PLANTAS INDUSTRIALES. G) COMERCIO AL POR MAYOR Y AL POR MENOR DE TODO TIPO DE APARATOS DE DIAGNOSIS, CONTROL DE CALIDAD Y MEDICIONES Y APARATOS DE APOYO AL MANTENIMIENTO, CALIDAD Y PRODUCCIÓN. H) SERVICIOS DE COORDINACIÓN, SUBCONTRATACIÓN Y GESTIÓN ADMINISTRATIVA DE TODAS LAS ACTIVIDADES EXPUESTAS ANTERIORMENTE. I) FUNDACIÓN Y PARTICIPACIÓN EN OTRAS SOCIEDADES QUE TENGAN OBJETO ANÁLOGO",
      "mainEntityOfPage": "https://www.contratacion.euskadi.eus/webkpe00-kperoc/es/ac71aBusquedaRegistrosWar/empresa/07650",
      "_links": {
        "self": {
          "name": "TECIMAN INTERNATIONAL, S.L.",
          "href": "https://api.euskadi.eus/procurements/companies/07650"
        }
      }
    },
    {
      "name": "TECNIGRAL, S.L.",
      "registrationNumber": "06701",
      "identificationNumber": "B80081094",
      "address": "Calle Príncipe de Vergara, 210",
      "location": {
        "postalCode": "28002",
        "municipality": "Madrid",
        "county": "Madrid",
        "municipalityId": "079",
        "countyId": "28"
      },
      "economicActivities": [
        {
          "id": "1.843.9",
          "name": "Otros servicios técnicos n.c.o.p",
          "_links": {
            "self": {
              "name": "Otros servicios técnicos n.c.o.p",
              "href": "https://api.euskadi.eus/procurements/companies/economic-activities/1.843.9"
            }
          }
        },
        {
          "id": "1.845",
          "name": "Explotación electrónica por cuenta de terceros",
          "_links": {
            "self": {
              "name": "Explotación electrónica por cuenta de terceros",
              "href": "https://api.euskadi.eus/procurements/companies/economic-activities/1.845"
            }
          }
        }
      ],
      "certificateStartDate": "2021-05-13",
      "certificateEndDate": "2021-11-11",
      "object": "1º LA REALIZACIÓN DE ESTUDIOS TÉCNICOS, INFORMES, PERITAJES, PROYECTOS, CONTROLES DE CALIDAD, ASISTENCIAS TÉCNICAS Y DIRECCIONES DE OBRA DE CUALQUIER CLASE Y OBJETO. 2º LA REALIZACIÓN DE CENSOS, INVENTARIOS, CATASTROS Y LEVANTAMIENTOS TOPOGRÁFICOS, DE CUALQUIER CLASE Y OBJETO. 3º LA DIGITALIZACIÓN, LA GENERACIÓN Y MODIFICACIÓN DE CARTOGRAFÍA AUTOMATIZADA, LA GRABACIÓN DE DATOS, LA GENERACIÓN DE BASES DE DATOS Y, EN GENERAL, LA INFORMATIZACIÓN DE DATOS DE CUALQUIER TIPO Y NATURALEZA. 4º LA GENERACIÓN, SUMINISTRO Y COMERCIALIZACIÓN DE TODO TIPO DE SOFTWARE, APLICACIONES INFORMÁTICAS, HARDWARE, INSTRUMENTOS Y EQUIPOS ELECTRÓNICOS, SIN NINGUNA CLASE DE LIMITACIÓN. 5º LA REALIZACIÓN  DE INFORMES, ESTUDIOS, CONCESIONES, CONSTRUCCIONES Y EXPLOTACIÓN DE TODA CLASE DE OBRAS, PÚBLICAS O PRIVADAS, RELACIONADAS CON LA GESTIÓN, LA CONSERVACIÓN Y LA CREACIÓN DE ÁREAS VERDES Y ARBOLADO, PUDIENDO ACUDIR PARA CONTRATARLAS A CONCURSOS, SUBASTAS O PROCEDIMIENTOS LEGALES QUE ASÍ SE ESTABLEZCAN, SIN LIMITACIÓN ALGUNA, REALIZANDO AL EFECTO TODA CLASE DE OFERTAS Y LLEVANDO A CABO TODOS LOS TRÁMITES NECESARIOS, SIN EXCEPCIÓN ALGUNA, HASTA CONSEGUIR LA ADJUDICACIÓN DE LAS REPETIDAS OBRAS PÚBLICAS O PRIVADAS. 6º LA GESTIÓN DE SERVICIOS PÚBLICOS, CUALQUIERA QUE SEA SU CLASE Y OBJETO, PUDIENDO ACUDIR PARA SU CONTRATACIÓN A TODO TIPO DE CONCURSOS, SUBASTAS O PROCEDIMIENTOS LEGALMENTE ESTABLECIDOS, REALIZANDO AL EFECTO TODA CLASE DE OFERTAS Y LLEVANDO A CABO TODOS LOS TRÁMITES NECESARIOS HASTA SU ADJUDICACIÓN. 7º LA PARTICIPACIÓN EN OTRAS SOCIEDADES DE IDÉNTICO O ANÁLOGO OBJETO, PARA EL DESARROLLO DEL PROPIO DE ESTA SOCIEDAD, MEDIANTE LA SUSCRIPCIÓN DE ACCIONES O PARTICIPACIONES EN LA FUNDACIÓN O AUMENTO DEL CAPITAL DE LA MISMA, O LA ADQUISICIÓN DE ELLAS POR CUALQUIER TÍTULO",
      "mainEntityOfPage": "https://www.contratacion.euskadi.eus/webkpe00-kperoc/es/ac71aBusquedaRegistrosWar/empresa/06701",
      "_links": {
        "self": {
          "name": "TECNIGRAL, S.L.",
          "href": "https://api.euskadi.eus/procurements/companies/06701"
        }
      }
    },
    {
      "name": "SOGECAR, S.A.",
      "registrationNumber": "06852",
      "identificationNumber": "A48816193",
      "address": "Polígono Industrial Torrelarragoiti s/n-Intersección B y C",
      "location": {
        "postalCode": "48170",
        "municipality": "Zamudio",
        "county": "Bizkaia",
        "municipalityId": "905",
        "countyId": "48"
      },
      "economicActivities": [
        {
          "id": "1.253.5",
          "name": "Tratamiento de aceites y grasa para usos industriales",
          "_links": {
            "self": {
              "name": "Tratamiento de aceites y grasa para usos industriales",
              "href": "https://api.euskadi.eus/procurements/companies/economic-activities/1.253.5"
            }
          }
        },
        {
          "id": "1.253.9",
          "name": "Fabricación de otros productos químicos de uso industrial n.c.o.p",
          "_links": {
            "self": {
              "name": "Fabricación de otros productos químicos de uso industrial n.c.o.p",
              "href": "https://api.euskadi.eus/procurements/companies/economic-activities/1.253.9"
            }
          }
        }
      ],
      "certificateStartDate": "2021-05-13",
      "certificateEndDate": "2021-11-13",
      "object": "CUANTAS OPERACIONES GUARDEN RELACIÓN DIRECTA O INDIRECTA CON LA GESTIÓN DE CENTRO AVANZADO DE RECICLAJE -C.A.R.- DE ZAMUDIO Y, EN PARTICULAR, CON LA RECOGIDA, TRANSPORTE, TRATAMIENTO, ALMACENAMIENTO, RECICLAJE, TRANSFORMACIÓN, RECUPERACIÓN, COMERCIALIZACIÓN Y VENTA DE ACEITES USADO, TALADRINAS, EMULSIONES Y DISOLVENTES PROCEDENTES DE LA COMUNIDAD AUTÓNOMA VASCA Y/O DE EMPRESAS UBICADAS EN LA MISMA",
      "mainEntityOfPage": "https://www.contratacion.euskadi.eus/webkpe00-kperoc/es/ac71aBusquedaRegistrosWar/empresa/06852",
      "_links": {
        "self": {
          "name": "SOGECAR, S.A.",
          "href": "https://api.euskadi.eus/procurements/companies/06852"
        }
      }
    }
  ]
}