{
  "totalItems": 9042,
  "totalPages": 905,
  "currentPage": 622,
  "itemsOfPage": 10,
  "items": [
    {
      "name": "ELECTRÓNICA XANTINA, S.L.",
      "registrationNumber": "05948",
      "identificationNumber": "B48795538",
      "address": "c/LABAYRU,21",
      "location": {
        "postalCode": "48012",
        "municipality": "Bilbao",
        "county": "Bizkaia",
        "municipalityId": "020",
        "countyId": "48"
      },
      "economicActivities": [
        {
          "id": "1.654.2",
          "name": "Venta al por menor de accesorios, piezas de recambio de vehículos terrestres",
          "_links": {
            "self": {
              "name": "Venta al por menor de accesorios, piezas de recambio de vehículos terrestres",
              "href": "https://api.euskadi.eus/procurements/companies/economic-activities/1.654.2"
            }
          }
        }
      ],
      "certificateStartDate": "2018-11-28",
      "certificateEndDate": "2019-01-13",
      "object": "LA COMPRA Y VENTA AL POR MAYOR Y MENOR DE MATERIAL ELÉCTRICO Y ELECTRÓNICO, TELECOMUNICACIONES Y COMPONENTES DE AUTOMÓVILES, ASÍ COMO SU MANIPULACIÓN PARA INSTALACIÓN Y MANTENIMIENTO; VENTA Y ALQUILER DE INMUEBLES",
      "mainEntityOfPage": "https://www.contratacion.euskadi.eus/webkpe00-kperoc/es/ac71aBusquedaRegistrosWar/empresa/05948",
      "_links": {
        "self": {
          "name": "ELECTRÓNICA XANTINA, S.L.",
          "href": "https://api.euskadi.eus/procurements/companies/05948"
        }
      }
    },
    {
      "name": "ICE PROFESIONAL SLL",
      "registrationNumber": "05950",
      "identificationNumber": "B75060079",
      "address": "DONOSTIA PASEO UBARBURU N 98 NAVE 2",
      "location": {
        "postalCode": "20014",
        "municipality": "Donostia / San Sebastián",
        "county": "Gipuzkoa",
        "municipalityId": "069",
        "countyId": "20"
      },
      "economicActivities": [
        {
          "id": "1.616.6",
          "name": "Venta al por mayor de productos químicos industriales",
          "_links": {
            "self": {
              "name": "Venta al por mayor de productos químicos industriales",
              "href": "https://api.euskadi.eus/procurements/companies/economic-activities/1.616.6"
            }
          }
        }
      ],
      "certificateStartDate": "2018-11-28",
      "certificateEndDate": "2019-04-02",
      "object": "LA REALIZACIÓN DE LA EXPLOTACIÓN ECONÓMICA DEL NEGOCIO DE LA DISTRIBUCIÓN Y COMERCIALIZACIÓN DE PRODUCTOS, ARTÍCULOS, ELEMENTOS Y MATERIAL DE LIMPIEZA Y CELULOSA",
      "mainEntityOfPage": "https://www.contratacion.euskadi.eus/webkpe00-kperoc/es/ac71aBusquedaRegistrosWar/empresa/05950",
      "_links": {
        "self": {
          "name": "ICE PROFESIONAL SLL",
          "href": "https://api.euskadi.eus/procurements/companies/05950"
        }
      }
    },
    {
      "name": "ORMAK EGIN CONSTRUCCIONES, S.A.",
      "registrationNumber": "01105",
      "identificationNumber": "A48179428",
      "address": "PASEO LANDABARRI, 4 -  ESC. 2ª 3º EDIFICIO GOBELAS ",
      "location": {
        "postalCode": "48940",
        "municipality": "Leioa",
        "county": "Bizkaia",
        "municipalityId": "054",
        "countyId": "48"
      },
      "economicActivities": [
        {
          "id": "1.507",
          "name": "Construcción, reparación y conservación de toda clase obras",
          "_links": {
            "self": {
              "name": "Construcción, reparación y conservación de toda clase obras",
              "href": "https://api.euskadi.eus/procurements/companies/economic-activities/1.507"
            }
          }
        },
        {
          "id": "1.751.2",
          "name": "Guarda y custodia de vehículos en \"parkings\"",
          "_links": {
            "self": {
              "name": "Guarda y custodia de vehículos en \"parkings\"",
              "href": "https://api.euskadi.eus/procurements/companies/economic-activities/1.751.2"
            }
          }
        },
        {
          "id": "1.833.2",
          "name": "Promoción de edificaciones",
          "_links": {
            "self": {
              "name": "Promoción de edificaciones",
              "href": "https://api.euskadi.eus/procurements/companies/economic-activities/1.833.2"
            }
          }
        }
      ],
      "certificateStartDate": "2018-11-22",
      "certificateEndDate": "2019-04-08",
      "object": "LA EJECUCIÓN Y PROMOCIÓN COMPLETA O POR RAMOS, DE TODA CALASE DE OBRAS DE CONSTRUCCIÓN, URBANIZACIÓN Y SERVICIOS, REPARACIÓN O CONSERVACIÓN, POR CUENTA PROPIA O AJENA, EJECUCIÓN DE OBRAS CON EL ESTADO, MUNICIPIOS O PARTICULARES Y ENTIDADES OFICIALES, INCLUSO VIVIENDAS Y LOCALES COMERCIALES DE LAS LLAMADAS DE PROTECCIÓN OFICIAL. LA URBANIZACIÓN Y PARCELACIÓN DE TERRENOS CONFORME A LOS PLANES DE ORDENACIÓN URBANÍSTICA, APROBADOS POR LAS AUTORIDADES COMPETENTES EN LOS POLÍGONOS Y ZONAS DE ACTUACIÓN QUE AL EFECTO SEAN DESIGNADAS, Y LA REPARCELACIÓN DE DICHOS TERRENOS URBANÍSTICOS Y EN SU CASO, EDIFICACIÓN Y VENTA DE LOS MISMOS O DE LAS EDIFICACIONES Y OBRAS DE URBANIZACIÓN Y SERVICOS A CUYO OBJETO PODRÁ FORMAR PARTE DE ASOCIACIONES DE PROPIETARIOS, EMPRESAS MIXTAS Y ENTIDADES URBANÍSTICAS COLABORADORAS QUE PUEDAN REGLAMENTARSE A LOS EXPRESADOS FINES. LA FABRICACIÓN Y VENTA AL POR MAYOR Y MENOR DE TODA CLASE DE MATERIALES AUXILIARES O ANEJOS PARA LA CONSTRUCCIÓN, CON PATENTES PROPIAS O AJENAS, NACIONALES Y EXTRANJERAS, DE ACUERDO CON LAS LEYES EN VIGOR. LA COMPRA-VENTA Y ALQUILER DE EDIFICACIONES EN SU TOTALIDAD, POR PARTES O POR PISOS, BIEN PARA IVIENDAS O PARA LOCALES DE OFICIANAS, DE NEGOCIO O INDUSTRIALES, COSTRUIDAS PARA TAL FIN DIRECTAMENTE O POR MEDIO DE CONTRATISTAS, SUBCONTRATISTAS Y DESTAJISTAS O BIEN ADQUIRIDAS YA CONSTRUIDAS O EN CONSTRUCCIÓN. COMPRA-VENTA, ALQUILER DE TERRENOS RÚSTICOS Y URBANOS. LA REPRESENTACIÓN DE EMPRESAS NACIONALES O EXTRANJERAS PRODUCTORAS DE ARTÍCULOS Y MERCANCÍAS A QUE SE REFIERE EL APARTADO ANTERIOR, ASÍ COMO SU IMPORTACIÓN Y EXPORTACIÓN     ",
      "mainEntityOfPage": "https://www.contratacion.euskadi.eus/webkpe00-kperoc/es/ac71aBusquedaRegistrosWar/empresa/01105",
      "_links": {
        "self": {
          "name": "ORMAK EGIN CONSTRUCCIONES, S.A.",
          "href": "https://api.euskadi.eus/procurements/companies/01105"
        }
      }
    },
    {
      "name": "FRANCISCO SORIA MELGUIZO, S.A.",
      "registrationNumber": "02353",
      "identificationNumber": "A28171601",
      "address": "C/CARAMUEL, 38 ",
      "location": {
        "postalCode": "28011",
        "municipality": "Madrid",
        "county": "Madrid",
        "municipalityId": "079",
        "countyId": "28"
      },
      "economicActivities": [
        {
          "id": "1.619.2",
          "name": "Venta al por mayor de aparatos e instrumentos médicos, ortopédicos, ópticos",
          "_links": {
            "self": {
              "name": "Venta al por mayor de aparatos e instrumentos médicos, ortopédicos, ópticos",
              "href": "https://api.euskadi.eus/procurements/companies/economic-activities/1.619.2"
            }
          }
        },
        {
          "id": "1.619.7",
          "name": "Venta al por mayor de instrumentos de precisión, medida y similares",
          "_links": {
            "self": {
              "name": "Venta al por mayor de instrumentos de precisión, medida y similares",
              "href": "https://api.euskadi.eus/procurements/companies/economic-activities/1.619.7"
            }
          }
        }
      ],
      "certificateStartDate": "2018-11-22",
      "certificateEndDate": "2019-04-01",
      "object": "LA FABRICACIÓN, IMPORTACIÓN, EXPORTACIÓN, DISTRIBUCIÓN Y VENTA DE PRODUCTOS SANITARIOS Y DE PRODUCTOS SANITARIOS DE DIAGNÓSTICO \"IN VITRO\", ASÍ COMO DE PRODUCTOS QUÍMICOS Y APARATOS Y MATERIAL DE USO HOSPITALARIO E INDUSTRIAL, CLÍNICO Y DE LABORATORIO. EL DISEÑO DE SISTEMAS Y ARTÍCULOS PARA EL ETIQUETADO E IDENTIFICACIÓN DE PRODUCTOS QUE PERMITAN SU MANIPULACIÓN Y CONTROL A TRAVÉS DE SISTEMAS INFORMATIZADOS. LA PRESTACIÓN DE SERVICIOS Y ASESORAMIENTO EN TODOS LOS CAMPOS, EN LA MÁS AMPLIA ACEPCIÓN DE LA EXPRESIÓN, RELACIONADOS CON LA DIRECCIÓN Y ADMINISTRACIÓN DE EMPRESAS, INFORMÁTICA, ORGANIZACIÓN, MERCADOTECNIA, PUBLICIDAD, PERSONAL, CONTABILIDAD, DE FINANZAS, FISCAL, LABORAL Y ESTADÍSTICA",
      "mainEntityOfPage": "https://www.contratacion.euskadi.eus/webkpe00-kperoc/es/ac71aBusquedaRegistrosWar/empresa/02353",
      "_links": {
        "self": {
          "name": "FRANCISCO SORIA MELGUIZO, S.A.",
          "href": "https://api.euskadi.eus/procurements/companies/02353"
        }
      }
    },
    {
      "name": "JON MARTINEZ CARRO",
      "registrationNumber": "05940",
      "identificationNumber": "14576231G",
      "address": "AIXERROTA Nº 11 C",
      "location": {
        "postalCode": "48993",
        "municipality": "Getxo",
        "county": "Bizkaia",
        "municipalityId": "044",
        "countyId": "48"
      },
      "economicActivities": [
        {
          "id": "1.722",
          "name": "Transporte de mercancías por carretera",
          "_links": {
            "self": {
              "name": "Transporte de mercancías por carretera",
              "href": "https://api.euskadi.eus/procurements/companies/economic-activities/1.722"
            }
          }
        }
      ],
      "certificateStartDate": "2018-11-19",
      "certificateEndDate": "2019-03-13",
      "object": "TRANSPORTE MERCANCIAS",
      "mainEntityOfPage": "https://www.contratacion.euskadi.eus/webkpe00-kperoc/es/ac71aBusquedaRegistrosWar/empresa/05940",
      "_links": {
        "self": {
          "name": "JON MARTINEZ CARRO",
          "href": "https://api.euskadi.eus/procurements/companies/05940"
        }
      }
    },
    {
      "name": "LEYMA CONSTRUCCIONES DEL NORTE, S.L.",
      "registrationNumber": "03283",
      "identificationNumber": "B48902100",
      "address": "P.E. UDONDO. AV.RIBERA DE AXPE (ALTZAGA), 49. PAB. 8 B",
      "location": {
        "postalCode": "48950",
        "municipality": "Erandio",
        "county": "Bizkaia",
        "municipalityId": "902",
        "countyId": "48"
      },
      "economicActivities": [
        {
          "id": "1.501.1",
          "name": "Construcción completa, reparación y conservación de edificaciones",
          "_links": {
            "self": {
              "name": "Construcción completa, reparación y conservación de edificaciones",
              "href": "https://api.euskadi.eus/procurements/companies/economic-activities/1.501.1"
            }
          }
        },
        {
          "id": "1.501.2",
          "name": "Construcción completa, reparación y conservación obras civiles",
          "_links": {
            "self": {
              "name": "Construcción completa, reparación y conservación obras civiles",
              "href": "https://api.euskadi.eus/procurements/companies/economic-activities/1.501.2"
            }
          }
        }
      ],
      "certificateStartDate": "2018-11-16",
      "certificateEndDate": "2019-05-15",
      "object": "LA CONSTRUCCIÓN Y ACTIVIDADES DE INSTALACIÓN, OBRAS Y SERVICIOS DIRECTAMENTE RELACIONADOS CON LA MISMA, TALES COMO ALBAÑILERÍA, DECORACIÓN Y AMUEBLAMIENTO DE INTERIORES, DIRECCIONES DE OBRA, Y TODO ELLO MEDIANTE CONTRATACIÓN DIRECTA O SUBCONTRATACIÓN",
      "mainEntityOfPage": "https://www.contratacion.euskadi.eus/webkpe00-kperoc/es/ac71aBusquedaRegistrosWar/empresa/03283",
      "_links": {
        "self": {
          "name": "LEYMA CONSTRUCCIONES DEL NORTE, S.L.",
          "href": "https://api.euskadi.eus/procurements/companies/03283"
        }
      }
    },
    {
      "name": "HAIZEA IKERKETA, S.L.",
      "registrationNumber": "02314",
      "identificationNumber": "B20663100",
      "address": "Kolon pasealekua, 33 - 4º Ezk",
      "location": {
        "postalCode": "20002",
        "municipality": "Donostia / San Sebastián",
        "county": "Gipuzkoa",
        "municipalityId": "069",
        "countyId": "20"
      },
      "economicActivities": [
        {
          "id": "1.849.9",
          "name": "Otros servicios independientes n.c.o.p",
          "_links": {
            "self": {
              "name": "Otros servicios independientes n.c.o.p",
              "href": "https://api.euskadi.eus/procurements/companies/economic-activities/1.849.9"
            }
          }
        }
      ],
      "certificateStartDate": "2018-11-14",
      "certificateEndDate": "2019-04-30",
      "object": "LA OBTENCIÓN DE BENEFICIOS MEDIANTE LA REALIZACIÓN DE TRABAJOS RELACIONADOS CON LA PRESTACIÓN DE OTROS SERVICIOS A EMPRESAS, FORMACIÓN, RECICLAJE DE TRABAJADORES DE OTRAS EMPRESAS Y AQUELLAS ACTIVIDADES COMPLEMENTARIAS DE LAS ANTERIORES QUE PUEDAN CONSIDERARSE DE INTERÉS POR LOS SOCIOS",
      "mainEntityOfPage": "https://www.contratacion.euskadi.eus/webkpe00-kperoc/es/ac71aBusquedaRegistrosWar/empresa/02314",
      "_links": {
        "self": {
          "name": "HAIZEA IKERKETA, S.L.",
          "href": "https://api.euskadi.eus/procurements/companies/02314"
        }
      }
    },
    {
      "name": "ACUITEC, S.L.",
      "registrationNumber": "05782",
      "identificationNumber": "B20201208",
      "address": "POLIGONO URTAKI, 4",
      "location": {
        "postalCode": "20150",
        "municipality": "Aduna",
        "county": "Gipuzkoa",
        "municipalityId": "002",
        "countyId": "20"
      },
      "economicActivities": [
        {
          "id": "1.617.9",
          "name": "Venta al por mayor interindustrial de otros productos n.c.o.p",
          "_links": {
            "self": {
              "name": "Venta al por mayor interindustrial de otros productos n.c.o.p",
              "href": "https://api.euskadi.eus/procurements/companies/economic-activities/1.617.9"
            }
          }
        }
      ],
      "certificateStartDate": "2018-11-14",
      "certificateEndDate": "2019-04-03",
      "object": "LA EXPLOTACIÓN DE UN NEGOCIO DEDICADO A LA IMPORTACIÓN Y COMERCIALIZACIÓN DE MAQUINARIA, UTILLAJE E INSTALACIONES PARA PISCIFACTORÍAS; ESTUDIO Y DISEÑO DE INSTALACIONES ESPECIALES PARA LA ACUICULTURA Y ASESORAMIENTO TÉCNICO SANITARIO A PISCIFACTORIAS; FABRICACIÓN, DESARROLLO Y COMERCIALIZACIÓN DE VACUNAS PARA PECES; COMERCIALIZACIÓN DE PRODUCTOS FABRICADOS RELACIONADOS CON LAS ACTIVIDADES ANTERIORES SEÑALADAS; IMPORTACIÓN Y COMERCIALIZACIÓN DE HUEVOS DE PECES E IMPORTACIÓN DE FÁRMACOS",
      "mainEntityOfPage": "https://www.contratacion.euskadi.eus/webkpe00-kperoc/es/ac71aBusquedaRegistrosWar/empresa/05782",
      "_links": {
        "self": {
          "name": "ACUITEC, S.L.",
          "href": "https://api.euskadi.eus/procurements/companies/05782"
        }
      }
    },
    {
      "name": "BIO-LOGIC SCIENCE INSTRUMENTS ESPAÑA, S.L.U.",
      "registrationNumber": "05937",
      "identificationNumber": "B66572769",
      "address": "calle Diputación, 262 1º 1ª",
      "location": {
        "postalCode": "08007",
        "municipality": "Barcelona",
        "county": "Barcelona",
        "municipalityId": "019",
        "countyId": "08"
      },
      "economicActivities": [
        {
          "id": "1.659.3",
          "name": "Venta al por menor de aparatos médicos, ortopédicos, ópticos y fotográficos",
          "_links": {
            "self": {
              "name": "Venta al por menor de aparatos médicos, ortopédicos, ópticos y fotográficos",
              "href": "https://api.euskadi.eus/procurements/companies/economic-activities/1.659.3"
            }
          }
        }
      ],
      "certificateStartDate": "2018-11-14",
      "certificateEndDate": "2019-03-26",
      "object": "EL DISEÑO, PRODUCCIÓN Y COMERCIALIZACIÓN, AL POR MAYOR Y AL POR MENOR, DE TODA CLASE DE DISPOSITIVOS CIENTÍFICOS, ELECTRÓNICOS Y BIOLÓGICOS",
      "mainEntityOfPage": "https://www.contratacion.euskadi.eus/webkpe00-kperoc/es/ac71aBusquedaRegistrosWar/empresa/05937",
      "_links": {
        "self": {
          "name": "BIO-LOGIC SCIENCE INSTRUMENTS ESPAÑA, S.L.U.",
          "href": "https://api.euskadi.eus/procurements/companies/05937"
        }
      }
    },
    {
      "name": "ARABAKO ELKAR KULTURA, S.L.",
      "registrationNumber": "01818",
      "identificationNumber": "B01185784",
      "address": "URITIASOLO, 2 (2.PAB.)",
      "location": {
        "postalCode": "01006",
        "municipality": "Vitoria-Gasteiz",
        "county": "Araba/Álava",
        "municipalityId": "059",
        "countyId": "01"
      },
      "economicActivities": [
        {
          "id": "1.615.4",
          "name": "Venta al por mayor de aparatos y material radioeléctrico y electrónico",
          "_links": {
            "self": {
              "name": "Venta al por mayor de aparatos y material radioeléctrico y electrónico",
              "href": "https://api.euskadi.eus/procurements/companies/economic-activities/1.615.4"
            }
          }
        },
        {
          "id": "1.653.9",
          "name": "Venta al por menor de otros artículos para el equipamiento del hogar",
          "_links": {
            "self": {
              "name": "Venta al por menor de otros artículos para el equipamiento del hogar",
              "href": "https://api.euskadi.eus/procurements/companies/economic-activities/1.653.9"
            }
          }
        },
        {
          "id": "1.659.2",
          "name": "Venta al por menor de muebles de oficina y máquinas y equipos de oficina",
          "_links": {
            "self": {
              "name": "Venta al por menor de muebles de oficina y máquinas y equipos de oficina",
              "href": "https://api.euskadi.eus/procurements/companies/economic-activities/1.659.2"
            }
          }
        },
        {
          "id": "1.659.4",
          "name": "Venta al por menor de libros, periódicos y artículos de papelería y escritorio",
          "_links": {
            "self": {
              "name": "Venta al por menor de libros, periódicos y artículos de papelería y escritorio",
              "href": "https://api.euskadi.eus/procurements/companies/economic-activities/1.659.4"
            }
          }
        },
        {
          "id": "1.659.6",
          "name": "Venta al por menor de juguetes, artículos de deporte",
          "_links": {
            "self": {
              "name": "Venta al por menor de juguetes, artículos de deporte",
              "href": "https://api.euskadi.eus/procurements/companies/economic-activities/1.659.6"
            }
          }
        }
      ],
      "certificateStartDate": "2018-11-13",
      "certificateEndDate": "2019-03-26",
      "object": "LA EDICIÓN, DISTRIBUCIÓN, PUBLICACIÓN Y VENTA DE LIBROS, ASÍ COMO PRODUCTOS DE PAPELERÍA, PAPEL IMPRESO, OCIO, VÍDEO Y AUDIO",
      "mainEntityOfPage": "https://www.contratacion.euskadi.eus/webkpe00-kperoc/es/ac71aBusquedaRegistrosWar/empresa/01818",
      "_links": {
        "self": {
          "name": "ARABAKO ELKAR KULTURA, S.L.",
          "href": "https://api.euskadi.eus/procurements/companies/01818"
        }
      }
    }
  ]
}