{
  "totalItems": 9042,
  "totalPages": 905,
  "currentPage": 58,
  "itemsOfPage": 10,
  "items": [
    {
      "name": "LIZARRALDE SOINUA TXALAPARTA, S.L.",
      "registrationNumber": "06178",
      "identificationNumber": "B01216829",
      "address": "Domingo Beltrán 36, 5. B",
      "location": {
        "postalCode": "01012",
        "municipality": "Vitoria-Gasteiz",
        "county": "Araba/Álava",
        "municipalityId": "059",
        "countyId": "01"
      },
      "economicActivities": [
        {
          "id": "1.843.9",
          "name": "Otros servicios técnicos n.c.o.p",
          "_links": {
            "self": {
              "name": "Otros servicios técnicos n.c.o.p",
              "href": "https://api.euskadi.eus/procurements/companies/economic-activities/1.843.9"
            }
          }
        }
      ],
      "certificateStartDate": "2026-01-23",
      "certificateEndDate": "2026-07-13",
      "object": "LA PRESTACIÓN DE SERVICIOS DE SONORIZACIÓN DE ACTOS PÚBLICOS, CON MATERIAL PROPIO DE SONIDO, ASÍ COMO EL POSIBLE ALQUILER DE EQUIPOS DE SONIDO E INSTALACIÓN FIJA DE MEGAFONÍA. LA ADQUISICIÓN, VENTA Y EXPLOTACIÓN, MEDIANTE ARRENDAMIENTO O CUALQUIER OTRA FORMA JURÍDICA, DE BIENES INMUEBLES, PROPIOS O AJENOS A LA SOCIEDAD",
      "mainEntityOfPage": "https://www.contratacion.euskadi.eus/webkpe00-kperoc/es/ac71aBusquedaRegistrosWar/empresa/06178",
      "_links": {
        "self": {
          "name": "LIZARRALDE SOINUA TXALAPARTA, S.L.",
          "href": "https://api.euskadi.eus/procurements/companies/06178"
        }
      }
    },
    {
      "name": "PROSODIE IBERICA, S.L.",
      "registrationNumber": "05668",
      "identificationNumber": "B83071290",
      "address": "C/ PEDRO DE VALDIVIA, N.10, 3º-2ª",
      "location": {
        "postalCode": "28006",
        "municipality": "Madrid",
        "county": "Madrid",
        "municipalityId": "079",
        "countyId": "28"
      },
      "economicActivities": [
        {
          "id": "1.845",
          "name": "Explotación electrónica por cuenta de terceros",
          "_links": {
            "self": {
              "name": "Explotación electrónica por cuenta de terceros",
              "href": "https://api.euskadi.eus/procurements/companies/economic-activities/1.845"
            }
          }
        }
      ],
      "certificateStartDate": "2026-01-23",
      "certificateEndDate": "2026-07-23",
      "object": "LA PRESTACIÓN DE SERVICIOS INFORMÁTICOS Y DE TELECOMUNICACIONES, DE VOZ Y DATOS, DE ASESORAMIENTO, CONSULTORIA Y DESARROLLO DE SOLUCIONES PARA CENTROS DE ATENCIÓN AL CLIENTE, QUE SE DIRIJAN O CONSISTAN EN TRATAR, ALMACENAR Y SUMINISTRAR INFORMACIÓN A LOS USUARIOS. ENTRE LOS SERVICIOS SE INCLUYE, LA VENTA AL POR MAYOR Y AL POR MENOR, EL ALQUILER, IMPORTACIÓN Y EXPORTACIÓN DE TODA CLASE DE ARTÍCULOS DE INFORMÁTICA ELECTRÓNICA Y LAS COMUNICACIONES, ASÍ COMO ENSAMBLAJE E INSTALACIONES DE DICHOS ARTÍCULOS DE INFORMÁTICA.",
      "mainEntityOfPage": "https://www.contratacion.euskadi.eus/webkpe00-kperoc/es/ac71aBusquedaRegistrosWar/empresa/05668",
      "_links": {
        "self": {
          "name": "PROSODIE IBERICA, S.L.",
          "href": "https://api.euskadi.eus/procurements/companies/05668"
        }
      }
    },
    {
      "name": "LOGROZA, S.L.",
      "registrationNumber": "05067",
      "identificationNumber": "B50003177",
      "address": "Avda. de España, 2. Taquilla 4",
      "location": {
        "postalCode": "26003",
        "municipality": "Logroño",
        "county": "Rioja, La",
        "municipalityId": "089",
        "countyId": "26"
      },
      "economicActivities": [
        {
          "id": "1.721.3",
          "name": "Transporte de viajeros por carretera",
          "_links": {
            "self": {
              "name": "Transporte de viajeros por carretera",
              "href": "https://api.euskadi.eus/procurements/companies/economic-activities/1.721.3"
            }
          }
        }
      ],
      "certificateStartDate": "2026-01-23",
      "certificateEndDate": "2026-07-13",
      "object": "LA EXPLOTACIÓN DE LA CONCESIÓN DE SERVICIO PÚBLICO REGULAR DE VIAJEROS Y MERCANCÍAS ENTRE LOGROÑO Y ZARAGOZA Y VICEVERSA, O DE CUALQUIER OTRA CONCESIÓN E CARÁCTER ANÁLOGO EN TERITORIO ESPAÑOL, PUDIENDESE A TAL EFECTO CONCURRIR A LAS SUBASTAS O CONCURSO QUE SE ANUNCIEN PARA LOS FINES EXPRESADOS, SOLICITAR APERTURA DE LA LÍNEA DE QUE SE TRATE, SI NOLO HICIERE DE OFICIO LA ADMINISTRACIÓN, PRESENTAR LOS PROYECTOS Y SOLICITUDES OPORTUNAS; EJERCITAR EN SU CASO DERECHOS DE TANTEO, RETRACTO, PREFERENCIA QUE LE CORRESPONDAN, EXPLOTAR LOS SERVICIOS QUE SE LE ADJUDIQUEN Y ADQUIRIR LOS DERECHO Y MATERIALES NECESARIOS",
      "mainEntityOfPage": "https://www.contratacion.euskadi.eus/webkpe00-kperoc/es/ac71aBusquedaRegistrosWar/empresa/05067",
      "_links": {
        "self": {
          "name": "LOGROZA, S.L.",
          "href": "https://api.euskadi.eus/procurements/companies/05067"
        }
      }
    },
    {
      "name": "CIUDADANO KANE COMUNICACIÓN S.L.",
      "registrationNumber": "07226",
      "identificationNumber": "B01538388",
      "address": "HERMINIO MADINABEITIA 22",
      "location": {
        "postalCode": "01006",
        "municipality": "Vitoria-Gasteiz",
        "county": "Araba/Álava",
        "municipalityId": "059",
        "countyId": "01"
      },
      "economicActivities": [
        {
          "id": "1.849.9",
          "name": "Otros servicios independientes n.c.o.p",
          "_links": {
            "self": {
              "name": "Otros servicios independientes n.c.o.p",
              "href": "https://api.euskadi.eus/procurements/companies/economic-activities/1.849.9"
            }
          }
        }
      ],
      "certificateStartDate": "2026-01-23",
      "certificateEndDate": "2026-07-13",
      "object": "SERVICIOS A EMPRESAS: RÉGIMEN DE IGUALA. ELABORACIÓN DE INFORMES. AUDITORÍAS Y DIAGNÓSTICOS AMBIENTALES. EVOLUCIÓN DE RIESGOS AMBIENTALES. TRAMITACIONES ADMINISTRATIVAS. GESTIÓN DE RECURSOS. ORGANIZACIÓN DE PROCESOS Y PROCEDIMIENTOS EMPRESARIALES. CONSULTORÍA. CERTIFICACIÓN EMPRESARIAL (ISO,..) EVALUACIÓN DE OFERTAS. ANÁLISIS Y SUPERVISIÓN DE PROCESOS DE COMPRAS. CONTROL DE CALIDAD EN EMPRESAS DE SERVICIOS. ÁREAS DE NEGOCIO: EVOLUCIÓN Y CONTROL DE PROYECTOS. VALORACIÓN DE LA ADECUACIÓN Y CONDICIONANTES URBANÍSTICOS. NEGOCIACIÓN CON LA ADMINISTRACIÓN Y OTRAS EMPRESAS. ANÁLISIS Y DISEÑO DE IMAGEN EMPRESARIAL. DIFUSIÓN DE PRODUCTOS Y SERVICIOS. BÚSQUEDA Y GESTIÓN DE SUBVENCIONES. GESTIÓN DE PROYECTOS: MEDIO AMBIENTE-ENERGÍA. MEDIO AMBIENTE TERRITORIO Y URBANISMO. MEDIO-AMBIENTE-BIODIVERSIDAD. RESPONSABILIDAD SOCIAL CORPORATIVA: IMPLANTACIÓN DE PROCEDIMIENTOS RSC. REDACCIÓN DE PROYECTOS Y ELABORACIÓN DE INFORMES. AUDITORÍAS Y DIAGNÓSTICOS AMBIENTALES. EVALUACIÓNDE RIESGOS Y PROCESOS AMBIENTALES. DISEÑO DE HERRAMIENTAS DE GESTIÓN AMBIENTAL Y TERRITORIAL. ELABORACIÓN DE ESTRATEGIAS, PLANES Y PROGRAMAS DE DESARROLLO SOSTENIBLE. TRAMITACIÓN Y SEGUIMIENTO DE PROCEDIMIENTOS, LICENCIAS Y AUTORIZACIONES ADMINISTRATIVAS. GESTIÓN DE RECURSOS. ORGANIZACIÓN DE PROCESOS Y PROCEDIMIENTOS EMPRESARIALES. INNOVACIÓN Y DISEÑO DE NUEVOS ESCENARIOS EMPRESARIALES. CONSULTORÍA PARA LA CERTIFICACIÓN EMPRESARIAL (ISO, EMAS&#8230;). ELABORACIÓN Y EVALUACIÓN DE OFERTAS. ANÁLISIS Y SUPERVISIÓN DE PROCESOS DE COMPRAS. CONTROL DE CALIDAD EN EMPRESAS DE SERVICIOS. EVALUACIÓN, SEGUIMIENTO Y CONTROL DE PROYECTOS. ELABORACIÓN, GESTIÓN Y DESARROLLO DE PLANES Y PROGRAMAS URBANÍSTICOS. REDACCIÓN Y GESTIÓN DE PROYECTOS ENERGÉTICOS. REDACCIÓN DE ESTUDIOS E IMPLANTACIÓN DE IPROYECTOS DE GESTIÓN DE RESIDUOS. RELACIONES CON LA ADMINISTRACIÓN Y OTRAS EMPRESAS. ANÁLISIS Y DISEÑO DE IMAGEN EMPRESARIAL. DIFUSIÓN DE PRODUCTOS Y SERVICIOS. BÚSQUEDA Y GESTIÓN DE SUBVENCIONES. DISEÑO E IMPLANTACIÓN DE PLANES DE RESPONSABILIDAD SOCIAL EMPRESARIAL-CORPORATIVA. ELABORACIÓN Y DESARROLLO DE PROGRAMAS DE FORMACIÓN PARA LA ADMINISTRACIÓN Y LA EMPRESA. DESARROLLO E IMPLANTACIÓN DE HERRAMIENTAS DE COMUNICACIÓN Y PARTICIPACIÓN. PROMOCIÓN, DESARROLLO E IMPLANTACIÓN DE PROYECTOS DE ENERGÍAS RENOVABLES: BIOMASA, EÓLICA, MINIEÓLICA, SOLAR FOTOVOLTAICA, SOLAR TÉRMICA, TERMOSOLAR, HIDRÁULICA Y MINIHIDRÁULICA, GEOTÉRMICA Y OTRAS ENERGÍAS RENOVABLES. PROMOCIÓN, DESARROLLO E IMPLANTACIÓN DE PROYECTOS DE CARÁCTER MEDIOAMBIENTAL LIGADOS A LA GESTIÓN DE RESIDUOS (INERTES, NO PELIGROSOS, PELIGROSOS) Y A LA GESTIÓN Y TRATAMIENTO DE AGUAS (ABASTECIMIENTO, DEPURACIÓN Y OTROS PROCESOS). PROMOCIÓN, DESARROLLO E IMPLANTACIÓN DE PROYECTOS DE COGENERACIÓN ENERGÉTICA, A PARTIR DE GAS NATURAL, COMBUSTIBLES DERIVADOS DEL PETRÓLEO Y OTROS COMBUSTIBLES DE ORIGEN RENOVABLE (BIOMASA O SIMILARES)",
      "mainEntityOfPage": "https://www.contratacion.euskadi.eus/webkpe00-kperoc/es/ac71aBusquedaRegistrosWar/empresa/07226",
      "_links": {
        "self": {
          "name": "CIUDADANO KANE COMUNICACIÓN S.L.",
          "href": "https://api.euskadi.eus/procurements/companies/07226"
        }
      }
    },
    {
      "name": "OTEIC CONSULTING GROUP, S.A.",
      "registrationNumber": "00572",
      "identificationNumber": "A20068631",
      "address": "PARQUE EMPRESARIAL ZUATZU - EDIF. IGELDO, 1º",
      "location": {
        "postalCode": "20018",
        "municipality": "Donostia / San Sebastián",
        "county": "Gipuzkoa",
        "municipalityId": "069",
        "countyId": "20"
      },
      "economicActivities": [
        {
          "id": "1.847",
          "name": "Servicios de consultoría",
          "_links": {
            "self": {
              "name": "Servicios de consultoría",
              "href": "https://api.euskadi.eus/procurements/companies/economic-activities/1.847"
            }
          }
        },
        {
          "id": "1.932.2",
          "name": "Enseñanza de formación y perfeccionamiento profesional superior",
          "_links": {
            "self": {
              "name": "Enseñanza de formación y perfeccionamiento profesional superior",
              "href": "https://api.euskadi.eus/procurements/companies/economic-activities/1.932.2"
            }
          }
        }
      ],
      "certificateStartDate": "2026-01-23",
      "certificateEndDate": "2026-07-21",
      "object": "LA PRESTACIÓN DE SERVICIOS DE TODA CLASE A TERCEROS Y CLIENTES; LA ORGANIZACIÓN Y ASESORAMIENTO EN CUALQUIERA DE SUS FORMAS A EMPRESAS, PERSONAS, NEGOCIOS Y ACTIVIDADES DE TODO TIPO; LA APLICACIÓN DE TÉCNICAS ORGANIZATIVAS Y REALIZACIÓN DE FUNCIONES DE CONSULTORES; LA SELECCIÓN, CLASIFICACIÓN Y FORMACIÓN DE PERSONAL DE CUALQUIER CATEGORÍA Y ACTIVIDAD; LA REALIZACIÓN DE GESTIONES Y TRÁMITES QUE SE ENCARGUEN A LA SOCIEDAD POR OTRAS ENTIDADES O PERSONAS; LA COMPRAVENTA, ADQUISICIÓN, COMERCIALIZACIÓN, IMPORTACIÓN O EXPORTACIÓN Y DISTRIBUCIÓN DE TODA CLASE Y TIPO DE OBJETOS, ARTÍCULOS, PRODUCTOS Y MATERIALES; LA REPRESENTACIÓN COMERCIAL-MERCANTIL EN TODAS SUS MANIFESTACIONES, ASÍ COMO CUALQUIER TIPO DE MEDIACIÓN, INTERVENCIÓN, PROMOCIÓN Y REALIZACIÓN DE OPERACIONES MERCANTILES DE CUALQUIER CLASE DE PRODUCTOS O SERVICIOS; LA CONTRATACIÓN Y EJECUCIÓN DE SERVICIOS",
      "mainEntityOfPage": "https://www.contratacion.euskadi.eus/webkpe00-kperoc/es/ac71aBusquedaRegistrosWar/empresa/00572",
      "_links": {
        "self": {
          "name": "OTEIC CONSULTING GROUP, S.A.",
          "href": "https://api.euskadi.eus/procurements/companies/00572"
        }
      }
    },
    {
      "name": "INSTITUTO AUDITIVO SALESA, S.L.",
      "registrationNumber": "08356",
      "identificationNumber": "B67503177",
      "address": "C/ PAU CLARIS, 98",
      "location": {
        "postalCode": "08010",
        "municipality": "Barcelona",
        "county": "Barcelona",
        "municipalityId": "019",
        "countyId": "08"
      },
      "economicActivities": [
        {
          "id": "1.619.2",
          "name": "Venta al por mayor de aparatos e instrumentos médicos, ortopédicos, ópticos",
          "_links": {
            "self": {
              "name": "Venta al por mayor de aparatos e instrumentos médicos, ortopédicos, ópticos",
              "href": "https://api.euskadi.eus/procurements/companies/economic-activities/1.619.2"
            }
          }
        }
      ],
      "certificateStartDate": "2026-01-23",
      "certificateEndDate": "2026-07-13",
      "object": "LA COMERCIALIZACIÓN DE ELECTROMEDICINA E INSTRUMENTOS DE OTORRINOLARINGOLOGÍA, ASÍ COMO EN LA ADAPTACIÓN DE AUDÍFONOS Y SERVICIOS PROFESIONALES A ÉSTOS. EL CNAE DE LA ACTIVIDAD PRINCIPAL ES 4774.",
      "mainEntityOfPage": "https://www.contratacion.euskadi.eus/webkpe00-kperoc/es/ac71aBusquedaRegistrosWar/empresa/08356",
      "_links": {
        "self": {
          "name": "INSTITUTO AUDITIVO SALESA, S.L.",
          "href": "https://api.euskadi.eus/procurements/companies/08356"
        }
      }
    },
    {
      "name": "BEROSTI GEST, S.L.",
      "registrationNumber": "06547",
      "identificationNumber": "B95705984",
      "address": "ERCILLA, 31-1ºIZD",
      "location": {
        "postalCode": "48011",
        "municipality": "Bilbao",
        "county": "Bizkaia",
        "municipalityId": "020",
        "countyId": "48"
      },
      "economicActivities": [
        {
          "id": "1.501.1",
          "name": "Construcción completa, reparación y conservación de edificaciones",
          "_links": {
            "self": {
              "name": "Construcción completa, reparación y conservación de edificaciones",
              "href": "https://api.euskadi.eus/procurements/companies/economic-activities/1.501.1"
            }
          }
        }
      ],
      "certificateStartDate": "2026-01-23",
      "certificateEndDate": "2026-07-02",
      "object": "A)EL MANTENIMIENTO DE EDIFICIOS Y CONJUNTOS INMOBILIARIOS Y LA REALIZACIÓN DE TRABAJOS DE MANTENIMIENTO, CONSERVACIÓN Y REPARACIÓN DE INMUEBLES EN GENERAL Y PARA COMUNIDADES DE PROPIETARIOS. B) LA REALIZACIÓN DE TRABAJOS DE REFORMA Y REHABILITACIÓN DE EDIFICIOS. C) LA PROMOCIÓN, GESTIÓN Y EJECUCIÓN DE TODA CLASE DE CONSTRUCCIONES, EDIFICACIONES Y PROYECTOS INMOBILIARIOS. D) LA COMPRA, VENTA, TÍTULO, DE TERRENOS, FINCAS, SOLARES, VIVIENDAS, LOCALES Y EN GENERAL DE CUALESQUIERA BIENES IMUEBLES. E) LA REALIZACIÓN DE OBRAS DE URBANIZACIÓN. F) LA EJECUCIÓN DE OBRAS PÚBLICAS Y DE OBRA CIVIL EN GENERAL",
      "mainEntityOfPage": "https://www.contratacion.euskadi.eus/webkpe00-kperoc/es/ac71aBusquedaRegistrosWar/empresa/06547",
      "_links": {
        "self": {
          "name": "BEROSTI GEST, S.L.",
          "href": "https://api.euskadi.eus/procurements/companies/06547"
        }
      }
    },
    {
      "name": "TECNICA CINEMATOGRAFICA LOZA, S.L.",
      "registrationNumber": "06412",
      "identificationNumber": "B95653994",
      "address": "Lurkizaga kalea, 7 bajos, lonja",
      "location": {
        "postalCode": "48902",
        "municipality": "Barakaldo",
        "county": "Bizkaia",
        "municipalityId": "013",
        "countyId": "48"
      },
      "economicActivities": [
        {
          "id": "1.615.4",
          "name": "Venta al por mayor de aparatos y material radioeléctrico y electrónico",
          "_links": {
            "self": {
              "name": "Venta al por mayor de aparatos y material radioeléctrico y electrónico",
              "href": "https://api.euskadi.eus/procurements/companies/economic-activities/1.615.4"
            }
          }
        },
        {
          "id": "1.691.9",
          "name": "Reparación de otros bienes de consumo n.c.o.p",
          "_links": {
            "self": {
              "name": "Reparación de otros bienes de consumo n.c.o.p",
              "href": "https://api.euskadi.eus/procurements/companies/economic-activities/1.691.9"
            }
          }
        },
        {
          "id": "1.859",
          "name": "Alquiler de otros bienes muebles n.c.o.p. (sin personal permanente)",
          "_links": {
            "self": {
              "name": "Alquiler de otros bienes muebles n.c.o.p. (sin personal permanente)",
              "href": "https://api.euskadi.eus/procurements/companies/economic-activities/1.859"
            }
          }
        }
      ],
      "certificateStartDate": "2026-01-23",
      "certificateEndDate": "2026-07-06",
      "object": "LA COMPRA, VENTA, INSTALACIÓN Y MANTENIMIENTO DE EQUIPAMIENTO DE PROYECCIÓN CINEMATOGRÁFICA DE TECNOLOGÍA DIGITAL 2D Y 3D, PROYECCÍÓN DE 35 MM. Y SONIDO CINEMATOGRÁFICO, EQUIPOS DE VIDEO PROYECCIÓN, PANTALLAS Y ACCESORIOS, INTERCOMUNICADORES PARA TAQUILLAS, SISTEMAS DE INFORMACIÓN GRÁFICA, ORDENADORES, SISTEMAS DE ALIMENTACIÓN ININTERRUPIDA, ASIENTOS ELEVADORES PARA NIÑOS, POSTES GUÍA PÚBLICO, BARRERAS ANTI-HURTO, GAFAS SISTEMA 3D ACTIVAS Y PASIVAS, ARMARIOS Y CARROS DE TRANSPORTE DE GAFAS, LAVAGAFAS Y DETERGENTES, TOALLITAS PARA GAFAS, ELABORACIÓN DE PROYECTOS PARA NUEVAS SALAS DE CINE O REFORMAS DE CINES ANTIGUOS Y ALQUILER DE TODO TIPO DE PROYECTORES Y VIDEOS",
      "mainEntityOfPage": "https://www.contratacion.euskadi.eus/webkpe00-kperoc/es/ac71aBusquedaRegistrosWar/empresa/06412",
      "_links": {
        "self": {
          "name": "TECNICA CINEMATOGRAFICA LOZA, S.L.",
          "href": "https://api.euskadi.eus/procurements/companies/06412"
        }
      }
    },
    {
      "name": "STARTUL, S.L.",
      "registrationNumber": "06704",
      "identificationNumber": "B63323851",
      "address": "Riera d´en Cintet, 21 B - Bajos 1ª",
      "location": {
        "postalCode": "08340",
        "municipality": "Vilassar de Mar",
        "county": "Barcelona",
        "municipalityId": "219",
        "countyId": "08"
      },
      "economicActivities": [
        {
          "id": "1.849.3",
          "name": "Servicios de traducción y similares",
          "_links": {
            "self": {
              "name": "Servicios de traducción y similares",
              "href": "https://api.euskadi.eus/procurements/companies/economic-activities/1.849.3"
            }
          }
        }
      ],
      "certificateStartDate": "2026-01-23",
      "certificateEndDate": "2026-07-23",
      "object": "A) LA PRESTACIÓN DE SERVICIOS DE CONSULTORÍA, ASESORÍA, ASISTENCIA TÉCNICA, AUDITORÍA, INSPECCIÓN TÉCNICA, TRADUCCIÓN Y FORMACIÓN EN MATERIA DE INGENIERÍA, INSTALACIONES INDUSTRIALES, LOGÍSTICA, ENERGÍA, SANIDAD Y OBRAS TANTO PÚBLICAS COMO PRIVADAS. B) LA PRESTACIÓN DE SERVICIOS DE CONSULTORÍA, ASESORÍA, ASISTENCIA TÉCNICA Y FORMACIÓN EN MATERIA DE IMAGEN, COMUNICACIÓN E INFORMÁTICA E INTERNET. C) LA COMPRA, FABRICACIÓN, DISTRIBUCIÓN, VENTA, IMPORTACIÓN Y EXPORTACIÓN DE MATERIALES, BIENES, EQUIPOS E INSTRUMENTOS PARA LAS SIGUIENTES INDUSTRIAS: GAS, PETRÓLEO, ENERGÍA ELÉCTRICA, ENERGÍAS NO CONVENCIONALES, AGUA, TELEFONÍA, CONSTRUCCIÓN E INFORMÁTICA. D) LA REPRESENTACIÓN COMERCIAL DE MATERIALES, BENES, EQUIPOS E INSTRUMENTOS DESTINADOS A LAS INDUSTRIAS DEL GAS, PETRÓLEO, ENERGÍA ELÉCTRICA, ENERGÍAS NO CONVENCIONALES, AGUA, TELEFONÍA, CONSTRUCCIÓN E INFORMÁTICA. E) LA COMPRA, VENTA, ARRENDAMIENTO NO FINANCIERO Y EXPLOTACIÓN DE TODO TIPO DE SOLARES, TERRENOS, EDIFICIOS, VIVIENDAS, LOCALES, NAVES INDUSTRIALES O INMUEBLES EN GENERAL. F) EL ESTUDIO, PROMOCIÓN Y REALIZACIÓN DE TODA CLASE DE OBRAS DE CONSTRUCCIÓN, MEJORA Y CONSERVACIÓN, TANTO PRIVADAS, COMO PÚBLICAS, INCLUYENDO TODA CLASE DE CONSTRUCCIONES INDUSTRIALES, EDIFICIOS, VIVIENDAS, LOCALES, NAVES INDUSTRIALES O INMUEBLES EN GENERAL.",
      "mainEntityOfPage": "https://www.contratacion.euskadi.eus/webkpe00-kperoc/es/ac71aBusquedaRegistrosWar/empresa/06704",
      "_links": {
        "self": {
          "name": "STARTUL, S.L.",
          "href": "https://api.euskadi.eus/procurements/companies/06704"
        }
      }
    },
    {
      "name": "TINKO GARBIKETAK, S.L.",
      "registrationNumber": "08345",
      "identificationNumber": "B01361971",
      "address": "SANCHO EL SABIO 19, 2º CENTRO",
      "location": {
        "postalCode": "01008",
        "municipality": "Vitoria-Gasteiz",
        "county": "Araba/Álava",
        "municipalityId": "059",
        "countyId": "01"
      },
      "economicActivities": [
        {
          "id": "1.849.4",
          "name": "Servicios de custodia, seguridad y protección",
          "_links": {
            "self": {
              "name": "Servicios de custodia, seguridad y protección",
              "href": "https://api.euskadi.eus/procurements/companies/economic-activities/1.849.4"
            }
          }
        },
        {
          "id": "1.922",
          "name": "Servicios de limpieza",
          "_links": {
            "self": {
              "name": "Servicios de limpieza",
              "href": "https://api.euskadi.eus/procurements/companies/economic-activities/1.922"
            }
          }
        }
      ],
      "certificateStartDate": "2026-01-23",
      "certificateEndDate": "2026-07-08",
      "object": "SERVICIOS DE LIMPIEZA DE INTERIORES (EDIFICIOS, OFICINAS, ESTABLECIMIENTOS COMERCIALES, RESIDENCIAS, CENTROS SANITARIOS Y ESTABLECIMIENTOS INDUSTRIALES). LA INSERCIÓN SOCIOLABORAL DE PERSONAS QUE PRESENTEN ESPECIALES DIFICULTADES DE ACCESO AL MERCADO DE TRABAJO. SERVICIOS DIVERSOS DE ASISTENCIA. SOPORTE TÉCNICO EN MERCADOS DE VENTA AMBULANTE Y EN EVENTOS DIVERSOS. SERVICIOS AUXILIARES EN MANTENIMIENTO, CONSEJERÍA, JARDINERÍA, MUDANZAS, LOGÍSTICA INTERNA Y SERVICIOS AUXILIARES A LA HOSTELERÍA.",
      "mainEntityOfPage": "https://www.contratacion.euskadi.eus/webkpe00-kperoc/es/ac71aBusquedaRegistrosWar/empresa/08345",
      "_links": {
        "self": {
          "name": "TINKO GARBIKETAK, S.L.",
          "href": "https://api.euskadi.eus/procurements/companies/08345"
        }
      }
    }
  ]
}