{
  "totalItems": 9042,
  "totalPages": 905,
  "currentPage": 477,
  "itemsOfPage": 10,
  "items": [
    {
      "name": "BELDARRAIN ASESORAMIENTOS MARITIMOS, S.L.",
      "registrationNumber": "05570",
      "identificationNumber": "B95279022",
      "address": "IPARRAGUIRRE, 39 LOCAL",
      "location": {
        "postalCode": "48980",
        "municipality": "Santurtzi",
        "county": "Bizkaia",
        "municipalityId": "082",
        "countyId": "48"
      },
      "economicActivities": [
        {
          "id": "1.311.1",
          "name": "Fundición de piezas de hierro y acero",
          "_links": {
            "self": {
              "name": "Fundición de piezas de hierro y acero",
              "href": "https://api.euskadi.eus/procurements/companies/economic-activities/1.311.1"
            }
          }
        },
        {
          "id": "1.372",
          "name": "Reparación y mantenimiento de buques",
          "_links": {
            "self": {
              "name": "Reparación y mantenimiento de buques",
              "href": "https://api.euskadi.eus/procurements/companies/economic-activities/1.372"
            }
          }
        },
        {
          "id": "1.502.3",
          "name": "Consolidación y preparación de terrenos para la realización de obras civiles",
          "_links": {
            "self": {
              "name": "Consolidación y preparación de terrenos para la realización de obras civiles",
              "href": "https://api.euskadi.eus/procurements/companies/economic-activities/1.502.3"
            }
          }
        },
        {
          "id": "1.502.5",
          "name": "Cimentaciones y pavimentaciones en obras civiles",
          "_links": {
            "self": {
              "name": "Cimentaciones y pavimentaciones en obras civiles",
              "href": "https://api.euskadi.eus/procurements/companies/economic-activities/1.502.5"
            }
          }
        },
        {
          "id": "1.832.2",
          "name": "Servicios de tasación y tarificación de seguros",
          "_links": {
            "self": {
              "name": "Servicios de tasación y tarificación de seguros",
              "href": "https://api.euskadi.eus/procurements/companies/economic-activities/1.832.2"
            }
          }
        }
      ],
      "certificateStartDate": "2022-11-03",
      "certificateEndDate": "2023-04-28",
      "object": "A) EL ASESORAMIENTO, COMERCIALIZACIÓN Y REALIZACIÓN DE SUMINISTROS RELACIONADOS CON EL BUCEO, LA LUCHA CONTRA LA CONTAMINACIÓN EN GENERAL, EL SALVAMENTO MARÍTIMO, INSTALACIONES Y SISTEMAS HIPERBÁRICOS. B) SERVICIOS DE FORMACIÓN EN BUCEO PROFESIONAL, BUCEO DEPORTIVO Y LUCHA CONTRA LA CONTAMINACIÓN. C) LA REALIZACIÓN DE ABASTECIMIENTOS  Y SANEAMIENTOS, PRESAS, CANALES, ACEQUIAS Y DESAGÜES, DEFENSAS DE MÁRGENES Y ENCAUZAMIENTOS, CONDUCCIONES CON TUBERÍA DE PRESIÓN DE GRAN DIÁMETRO, OBRAS HIDRÁULICAS SIN CUALIFICACIÓN ESPECÍFICA, DRAGADOS, ESCOLLERAS CON BLOQUEO DE HORMIGÓN, ESCALLERAS CON CAJONES DE HORMIGÓN ARMADO, ESCOLLERAS CON PILOTES Y TABLESTACAS, FAROS, RADIOFAROS Y SEÑALIZACIONES MARÍTIMAS, OBRAS MARÍTIMAS SIN CUALIFICACIÓN ESPECÍFICA Y EMISARIOS SUBMARINOS. D) LA COMPRA, SUSCRIPCIÓN, PERMUTA Y VENTA DE MOBILIARIOS NACIONALES Y EXTRANJEROS, POR CUENTA PROPIA Y SIN ACTIVIDAD DE INTERMEDIACIÓN, CON LA FINALIDAD DE DIRIGIR, ADMINISTRAR Y GESTIONAR DICHAS PARTICIPACIONES. SE EXCEPTÚAN LAS ACTIVIDADES EXPRESAMENTE RESERVADAS POR LA LEY A LAS INSTITUCIONES DE INVERSIÓN COLECTIVA, ASÍ COMO LO EXPRESAMENTE RESERVADO POR LA LEY DEL MERCADO DE VALORES A LAS AGENCIAS Y/O SOCIEDADES DE VALORES Y BOLSA. E) LA ADQUISICIÓN DE TERRENOS Y DEMÁS BIENES INMUEBLES ASÍ COMO SU TRANSMISIÓN, CESIÓN Y EXPLOTACIÓN DIRECTA O POR CUALQUIER  TÍTULO ADMITIDO EN DERECHO E IGUALMENTE SU PROMOCIÓN, URBANIZACIÓN, PARCELACIÓN, CONSTRUCCIÓN Y APROVECHAMIENTO, INCLUÍDO SU ARRENDAMIENTO ACTIVO. F) EL ASESORAMIENTO A EMPRESAS, MEDIANTE EL ANÁLISIS, DIAGNÓSTICO DE SUS PROBLEMAS, LA SUPERVISIÓN  GENERAL DE SU FUNCIONAMIENTO Y, EN ESPECIAL, LA PRESTACIÓN DE SERVICIOS DE ASISTENCIA Y ASESORAMIENTO ECONÓMICO-FINANCIERRO",
      "mainEntityOfPage": "https://www.contratacion.euskadi.eus/webkpe00-kperoc/es/ac71aBusquedaRegistrosWar/empresa/05570",
      "_links": {
        "self": {
          "name": "BELDARRAIN ASESORAMIENTOS MARITIMOS, S.L.",
          "href": "https://api.euskadi.eus/procurements/companies/05570"
        }
      }
    },
    {
      "name": "AVAM PROPIEDADES FAMILIARES, S.L.",
      "registrationNumber": "08027",
      "identificationNumber": "B13528252",
      "address": "Calle Juan Caba Nº1",
      "location": {
        "postalCode": "13001",
        "municipality": "Ciudad Real",
        "county": "Ciudad Real",
        "municipalityId": "034",
        "countyId": "13"
      },
      "economicActivities": [
        {
          "id": "1.455.9",
          "name": "Confección de otros artículos con materias textiles n.c.o.p",
          "_links": {
            "self": {
              "name": "Confección de otros artículos con materias textiles n.c.o.p",
              "href": "https://api.euskadi.eus/procurements/companies/economic-activities/1.455.9"
            }
          }
        },
        {
          "id": "1.849.7",
          "name": "Servicios de gestión administrativa",
          "_links": {
            "self": {
              "name": "Servicios de gestión administrativa",
              "href": "https://api.euskadi.eus/procurements/companies/economic-activities/1.849.7"
            }
          }
        },
        {
          "id": "1.861.1",
          "name": "Alquiler de viviendas",
          "_links": {
            "self": {
              "name": "Alquiler de viviendas",
              "href": "https://api.euskadi.eus/procurements/companies/economic-activities/1.861.1"
            }
          }
        }
      ],
      "certificateStartDate": "2022-11-03",
      "certificateEndDate": "2023-05-03",
      "object": "LA GESTIÓN DE PATRIMONIOS PERSONALES Y ADMINISTRACIÓN DE TODO LO RELACIONADO CON LOS INMUEBLES PERTENECIENTES A TALES PATRIMONIOS.",
      "mainEntityOfPage": "https://www.contratacion.euskadi.eus/webkpe00-kperoc/es/ac71aBusquedaRegistrosWar/empresa/08027",
      "_links": {
        "self": {
          "name": "AVAM PROPIEDADES FAMILIARES, S.L.",
          "href": "https://api.euskadi.eus/procurements/companies/08027"
        }
      }
    },
    {
      "name": "CONSTRUCCION Y ARQUITECTURA GERKOA, S.L.",
      "registrationNumber": "08683",
      "identificationNumber": "B67748525",
      "address": "Plaza Lehendakari Agirre",
      "location": {
        "postalCode": "48360",
        "municipality": "Mundaka",
        "county": "Bizkaia",
        "municipalityId": "068",
        "countyId": "48"
      },
      "economicActivities": [
        {
          "id": "1.501.2",
          "name": "Construcción completa, reparación y conservación obras civiles",
          "_links": {
            "self": {
              "name": "Construcción completa, reparación y conservación obras civiles",
              "href": "https://api.euskadi.eus/procurements/companies/economic-activities/1.501.2"
            }
          }
        }
      ],
      "certificateStartDate": "2022-11-03",
      "certificateEndDate": "2023-04-26",
      "object": "LA CONSTRUCCIÓN DE INFRAESTRUCTURAS URBANAS O CIVILES, TALES COMO: URBANIZACIONES, BIDEGORRIS, OBRAS DE SANEAMIENTO, MANTENIMIENTO DE CAMINOS RURALES, ACERADOS Y PLAZAS, OBRAS DE ASFALTADO Y SEÑALIZACIÓN DE CARRETERAS. LAS OBRAS DE CONSTRUCCIÓN, EXCEPTO DE EDIFICIOS COMO: VIVIENDAS UNIFAMILIARES Y BIFAMILIARES , REHABILITACIÓN INTEGRAL DE BASERRIS, REHABILITACIÓN DE CUBIERTAS. LA PARCELACIÓN CON MEJORA DE TERRENOS, ADICIÓN DE CARRETERAS, INFRAESTRUCTURAS PARA REDES DE ABASTECIMIENTO.",
      "mainEntityOfPage": "https://www.contratacion.euskadi.eus/webkpe00-kperoc/es/ac71aBusquedaRegistrosWar/empresa/08683",
      "_links": {
        "self": {
          "name": "CONSTRUCCION Y ARQUITECTURA GERKOA, S.L.",
          "href": "https://api.euskadi.eus/procurements/companies/08683"
        }
      }
    },
    {
      "name": "ARQUITECTOS AYALA, S.L.P.",
      "registrationNumber": "08681",
      "identificationNumber": "B85410488",
      "address": "C/ Boix y Morer 6, 2º Izq.",
      "location": {
        "postalCode": "28003",
        "municipality": "Madrid",
        "county": "Madrid",
        "municipalityId": "079",
        "countyId": "28"
      },
      "economicActivities": [
        {
          "id": "1.843.2",
          "name": "Servicios técnicos de arquitectura y urbanismo",
          "_links": {
            "self": {
              "name": "Servicios técnicos de arquitectura y urbanismo",
              "href": "https://api.euskadi.eus/procurements/companies/economic-activities/1.843.2"
            }
          }
        }
      ],
      "certificateStartDate": "2022-11-03",
      "certificateEndDate": "2023-04-26",
      "object": "LA PRESTACIÓN DE SERVICIOS PROFESIONALES EN LOS CAMPOS DE LA ARQUITECTURA Y EL URBANISMO A CARGO DE LOS ARQUITECTOS SOCIOS, CON LA COLABORACIÓN, EN SU CASO, DE OTROS PROFESIONALES LEGALMENTE COMPETENTES. COMPLEMENTARIAMENTE SE INCLUYE EN EL OBJETO SOCIAL LA ASUNCIÓN POR LA ENTIDAD, EN REPRESENTACIÓN DE LOS CLIENTES Y POR CUENTA EXCLUSIVA DE LOS MISMOS, DE LAS ACTIVIDADES DE GESTIÓN, ASESORAMIENTO, COORDINACIÓN Y ADMINISTRACIÓN QUE GUARDEN RELACIÓN Y SEAN COMPATIBLES CON LA REALIZACIÓN DE LAS MISIONES PROFESIONALES ENCARGADAS. TAMBIÉN SE CONTEMPLA LA EXPLOTACIÓN DE DERECHOS DE PROPIEDAD INTELECTUAL O INDUSTRIAL DERIVADOS DE LA ACTIVIDAD DE LOS MIEMBROS DE LA ENTIDAD.",
      "mainEntityOfPage": "https://www.contratacion.euskadi.eus/webkpe00-kperoc/es/ac71aBusquedaRegistrosWar/empresa/08681",
      "_links": {
        "self": {
          "name": "ARQUITECTOS AYALA, S.L.P.",
          "href": "https://api.euskadi.eus/procurements/companies/08681"
        }
      }
    },
    {
      "name": "ARKAITZ QUINCOCES BIGURI",
      "registrationNumber": "07206",
      "identificationNumber": "44688144H",
      "address": "Larrieta 42 - Goiko Benta",
      "location": {
        "postalCode": "01468",
        "municipality": "Amurrio",
        "county": "Araba/Álava",
        "municipalityId": "002",
        "countyId": "01"
      },
      "economicActivities": [
        {
          "id": "2.411",
          "name": "Arquitectos",
          "_links": {
            "self": {
              "name": "Arquitectos",
              "href": "https://api.euskadi.eus/procurements/companies/economic-activities/2.411"
            }
          }
        }
      ],
      "certificateStartDate": "2022-11-02",
      "certificateEndDate": "2023-04-24",
      "object": "ARQUITECTOS",
      "mainEntityOfPage": "https://www.contratacion.euskadi.eus/webkpe00-kperoc/es/ac71aBusquedaRegistrosWar/empresa/07206",
      "_links": {
        "self": {
          "name": "ARKAITZ QUINCOCES BIGURI",
          "href": "https://api.euskadi.eus/procurements/companies/07206"
        }
      }
    },
    {
      "name": "COHER DISTRIBUCIONES GASTEIZ S.L.",
      "registrationNumber": "06925",
      "identificationNumber": "B01531946",
      "address": "ZORROLLETA 7 PAB 3",
      "location": {
        "postalCode": "01015",
        "municipality": "Vitoria-Gasteiz",
        "county": "Araba/Álava",
        "municipalityId": "059",
        "countyId": "01"
      },
      "economicActivities": [
        {
          "id": "1.612.9",
          "name": "Venta al por mayor de otros productos alimenticios, helados de todas clases",
          "_links": {
            "self": {
              "name": "Venta al por mayor de otros productos alimenticios, helados de todas clases",
              "href": "https://api.euskadi.eus/procurements/companies/economic-activities/1.612.9"
            }
          }
        }
      ],
      "certificateStartDate": "2022-11-02",
      "certificateEndDate": "2023-05-02",
      "object": "COMERCIO AL POR MAYOR DE MATERIAS PRIMAS AGRARIAS, PRODUCTOS ALIMENTICIOS Y BEBIDAS",
      "mainEntityOfPage": "https://www.contratacion.euskadi.eus/webkpe00-kperoc/es/ac71aBusquedaRegistrosWar/empresa/06925",
      "_links": {
        "self": {
          "name": "COHER DISTRIBUCIONES GASTEIZ S.L.",
          "href": "https://api.euskadi.eus/procurements/companies/06925"
        }
      }
    },
    {
      "name": "R M RIOJA, S.L.",
      "registrationNumber": "08369",
      "identificationNumber": "B26261081",
      "address": "CL SAN PEDRO/SAN PETRI KALEA, 42  PG CASABLANCA",
      "location": {
        "postalCode": "01300",
        "municipality": "Laguardia",
        "county": "Araba/Álava",
        "municipalityId": "031",
        "countyId": "01"
      },
      "economicActivities": [
        {
          "id": "1.425.1",
          "name": "Elaboración y crianza de vinos",
          "_links": {
            "self": {
              "name": "Elaboración y crianza de vinos",
              "href": "https://api.euskadi.eus/procurements/companies/economic-activities/1.425.1"
            }
          }
        },
        {
          "id": "1.612.7",
          "name": "Venta al por mayor de vinos y vinagres del país",
          "_links": {
            "self": {
              "name": "Venta al por mayor de vinos y vinagres del país",
              "href": "https://api.euskadi.eus/procurements/companies/economic-activities/1.612.7"
            }
          }
        }
      ],
      "certificateStartDate": "2022-11-01",
      "certificateEndDate": "2023-05-01",
      "object": "LA COMERCIALIZACIÓN DE VINOS Y VINAGRES PUDIENDO INTERVENIR SIN LIMITACIÓN GEOGRÁFICA ALGUNA. LA COMERCIALIZACIÓN ALCANZARÁ TAMBIÉN A SERVICIOS DE EXPORTACIÓN E IMPORTACIÓN.",
      "mainEntityOfPage": "https://www.contratacion.euskadi.eus/webkpe00-kperoc/es/ac71aBusquedaRegistrosWar/empresa/08369",
      "_links": {
        "self": {
          "name": "R M RIOJA, S.L.",
          "href": "https://api.euskadi.eus/procurements/companies/08369"
        }
      }
    },
    {
      "name": "DEPORTES ALTERNATIVOS, S.L.",
      "registrationNumber": "07999",
      "identificationNumber": "B80629850",
      "address": "GAMONAL 16, 2ºA",
      "location": {
        "postalCode": "28031",
        "municipality": "Madrid",
        "county": "Madrid",
        "municipalityId": "079",
        "countyId": "28"
      },
      "economicActivities": [
        {
          "id": "1.619.1",
          "name": "Venta al por mayor de juguetes y artículos de deporte",
          "_links": {
            "self": {
              "name": "Venta al por mayor de juguetes y artículos de deporte",
              "href": "https://api.euskadi.eus/procurements/companies/economic-activities/1.619.1"
            }
          }
        },
        {
          "id": "1.999",
          "name": "Otros servicios n.c.o.p",
          "_links": {
            "self": {
              "name": "Otros servicios n.c.o.p",
              "href": "https://api.euskadi.eus/procurements/companies/economic-activities/1.999"
            }
          }
        }
      ],
      "certificateStartDate": "2022-10-31",
      "certificateEndDate": "2023-04-30",
      "object": "LA COMERCIALIZACIÓN Y DISTRIBUCIÓN, COMPRA-VENTA, IMPORTACIÓN Y EXPORTACIÓN, AL MAYOR Y DETALLE DE ARTÍCULOS DE DEPORTE, OCIO, NATURALEZA Y CREACIÓN. ORGANIZACIÓN Y REALIZACIÓN DE ACTIVIDADES, SERVICIOS Y CURSOS RELACIONADOS CON LA EDUCACIÓN FÍSICA, EL DEPORTE, OCIO, NATURALEZA Y RECREACIÓN. PRODUCCIÓN DE PUBLICACIONES RELACIONADAS CON LO ANTERIOR Y GESTIÓN DE DERECHOS DE AUTOR Y PROPIEDAD INTELECTUAL DERIVADOS DE LAS MISMAS. LA ADQUISICIÓN, EXPLOTACIÓN Y ENAJENACIÓN DE BIENES INMUEBLES.",
      "mainEntityOfPage": "https://www.contratacion.euskadi.eus/webkpe00-kperoc/es/ac71aBusquedaRegistrosWar/empresa/07999",
      "_links": {
        "self": {
          "name": "DEPORTES ALTERNATIVOS, S.L.",
          "href": "https://api.euskadi.eus/procurements/companies/07999"
        }
      }
    },
    {
      "name": "UNICO COAGULANTES UNIVERSALES, S.L.",
      "registrationNumber": "08019",
      "identificationNumber": "B40253825",
      "address": "Carretera Turégano-Navas de Oro, km 1 C.P.40280 ",
      "location": {
        "postalCode": "40280",
        "municipality": "Navalmanzano",
        "county": "Segovia",
        "municipalityId": "141",
        "countyId": "40"
      },
      "economicActivities": [
        {
          "id": "1.253.9",
          "name": "Fabricación de otros productos químicos de uso industrial n.c.o.p",
          "_links": {
            "self": {
              "name": "Fabricación de otros productos químicos de uso industrial n.c.o.p",
              "href": "https://api.euskadi.eus/procurements/companies/economic-activities/1.253.9"
            }
          }
        }
      ],
      "certificateStartDate": "2022-10-31",
      "certificateEndDate": "2023-04-30",
      "object": "CNAE.- 2059.- FABRICACIÓN DE OTROS PRODUCTOS QUÍMICOS N.C.O.P. LA COMPRAVENTA DE TERRENOS, PARCELAS O SOLARES DESTINADOS A LA PARCELACIÓN, URBANIZACIÓN, PROMOCIÓN Y EJECUCIÓN DE EDIFICIOS PARA VIVIENDAS, LOCALES COMERCIALES, Y OFICINAS, O NAVES COMERCIALES O INDUSTRIALES; ASÍ COMO LA CREACIÓN DE POLÍGONOS DE VIVIENDAS, POLÍGONOS INDUSTRIALES PARA SU EXPLOTACIÓN EN RÉGIMEN DE VENTA, ACCESO DIFERIDO A LA PROPIEDAD O ARRENDAMIENTO. ASESORAMIENTO Y ASISTENCIA TÉCNICA Y COMERCIAL EN INVERSIONES MOBILIARIAS, ANTEPROYECTOS Y ORDENACIÓN DE TERRENOS Y ESTUDIOS INDUSTRIALES. GESTIÓN Y EJECUCIÓN DE PARADAS PROGRAMADAS. SERVICIOS DE OPERACIÓN Y MANTENIMIENTO EN EDIFICIOS E INFRAESTRUCTURAS. MONTAJE MECÁNICO DE PLANTAS QUÍMICAS, PETROQUÍMICAS, GENERACIÓN DE ENERGÍA, CEMENTERAS, MINERÍA, ETC. DISEÑO, SUMINISTRO Y CONSTRUCCIÓN DE LÍNEAS DE TRANSPORTE DE HIDROCARBUROS POR TUBERÍA (PIPELINES). VIGILANCIA, EMERGENCIAS Y OTROS SERVICIOS PARA LÍNEAS Y REDES DE TRANSPORTE. INSTALACIONES ELÉCTRICAS Y DE INSTRUMENTACIÓN PARA PLANTAS INDUSTRIALES Y DE GENERACIÓN DE ENERGÍA. ENERGÍAS RENOVABLES: EÓLICA Y SOLAR. TRANSPORTE Y DISTRIBUCIÓN DE ENERGÍA ELÉCTRICA: LÍNEAS Y SUBESTACIONES. DISEÑO, INGENIERÍA Y FABRICACIÓN DE CUADROS ELÉCTRICOS, CABINAS DE MEDIA TENSIÓN, CENTROS DE CONTROL DE MOTORES, ANALIZADORES. ELECTRIFICACIÓN DE CATENARIAS Y SUBESTACIONES DE TRACCIÓN. INSTALACIONES ELÉCTRICAS, DE CLIMATIZACIÓN Y ESPECIALES PARA EDIFICACIÓN SINGULAR. INSTALACIONES DE SEGURIDAD. FABRICACIÓN, COMERCIALIZACIÓN Y TRANSPORTE DE COAGULANTES FLOCULANTE PARA TRATAMIENTO DE AGUAS POTABLES, RESIDUALES Y EFLUENTES INDUSTRIALES. FABRICACIÓN, COMERCIALIZACIÓN Y TRANSPORTE DE PRODUCTOS QUÍMICOS BÁSICOS, COMPUESTOS NITROGENADOS, FERTILIZANTES, PLÁSTICOS Y CAUCHO SINTÉTICO DE FORMAS PRIMARIAS. FABRICACIÓN, COMERCIALIZACIÓN Y TRANSPORTE DE GASES INDUSTRIALES. TRANSPORTE DE TODA CLASE DE MERCANCÍAS POR CARRETERA POR CUENTA PROPIA O AJENA, EN TODO TIPO DE VEHÍCULOS, NACIONAL E INTERNACIONAL. ALMACENAMIENTO Y DISTRIBUCIÓN DE TODA CLASE DE MERCANCÍAS, TANTO EN TERRITORIO NACIONAL COMO EN EL EXTRANJERO.",
      "mainEntityOfPage": "https://www.contratacion.euskadi.eus/webkpe00-kperoc/es/ac71aBusquedaRegistrosWar/empresa/08019",
      "_links": {
        "self": {
          "name": "UNICO COAGULANTES UNIVERSALES, S.L.",
          "href": "https://api.euskadi.eus/procurements/companies/08019"
        }
      }
    },
    {
      "name": "FELIX GONZALEZ REBOLLO",
      "registrationNumber": "08675",
      "identificationNumber": "13292798V",
      "address": "Calle Dos de Mayo nº5 4ºDCHA",
      "location": {
        "postalCode": "09200",
        "municipality": "Miranda de Ebro",
        "county": "Burgos",
        "municipalityId": "219",
        "countyId": "09"
      },
      "economicActivities": [
        {
          "id": "2.421",
          "name": "Arquitectos técnicos y aparejadores",
          "_links": {
            "self": {
              "name": "Arquitectos técnicos y aparejadores",
              "href": "https://api.euskadi.eus/procurements/companies/economic-activities/2.421"
            }
          }
        }
      ],
      "certificateStartDate": "2022-10-31",
      "certificateEndDate": "2023-04-30",
      "object": "ARQUITECTOS TÉCNICOS Y APAREJADORES.",
      "mainEntityOfPage": "https://www.contratacion.euskadi.eus/webkpe00-kperoc/es/ac71aBusquedaRegistrosWar/empresa/08675",
      "_links": {
        "self": {
          "name": "FELIX GONZALEZ REBOLLO",
          "href": "https://api.euskadi.eus/procurements/companies/08675"
        }
      }
    }
  ]
}