{
  "totalItems": 9042,
  "totalPages": 905,
  "currentPage": 810,
  "itemsOfPage": 10,
  "items": [
    {
      "name": "MUDANZAS FLIPPERS INTERNATIONAL, S.L.",
      "registrationNumber": "02331",
      "identificationNumber": "B59437178",
      "address": "C/ METAL, S/N POLÍGONO INDUSTRIAL CAN SUNYER",
      "location": {
        "postalCode": "08740",
        "municipality": "Sant Andreu de la Barca",
        "county": "Barcelona",
        "municipalityId": "196",
        "countyId": "08"
      },
      "economicActivities": [
        {
          "id": "1.757",
          "name": "Servicio de mudanzas",
          "_links": {
            "self": {
              "name": "Servicio de mudanzas",
              "href": "https://api.euskadi.eus/procurements/companies/economic-activities/1.757"
            }
          }
        }
      ],
      "certificateStartDate": "2002-03-25",
      "certificateEndDate": "2002-09-14",
      "object": "LAS MUDANZAS,  NACIONALES E INTERNACIONALES, GUARDAMUEBLES Y EMBALAJES.",
      "mainEntityOfPage": "https://www.contratacion.euskadi.eus/webkpe00-kperoc/es/ac71aBusquedaRegistrosWar/empresa/02331",
      "_links": {
        "self": {
          "name": "MUDANZAS FLIPPERS INTERNATIONAL, S.L.",
          "href": "https://api.euskadi.eus/procurements/companies/02331"
        }
      }
    },
    {
      "name": "LEICA MICROSISTEMAS, S.A. SOCIEDAD UNIPERSONAL",
      "registrationNumber": "00454",
      "identificationNumber": "A58521147",
      "address": "C/ NICARAGUA, Nº 46 - 5º, 2ª",
      "location": {
        "postalCode": "08029",
        "municipality": "Barcelona",
        "county": "Barcelona",
        "municipalityId": "019",
        "countyId": "08"
      },
      "economicActivities": [
        {
          "id": "1.619.2",
          "name": "Venta al por mayor de aparatos e instrumentos médicos, ortopédicos, ópticos",
          "_links": {
            "self": {
              "name": "Venta al por mayor de aparatos e instrumentos médicos, ortopédicos, ópticos",
              "href": "https://api.euskadi.eus/procurements/companies/economic-activities/1.619.2"
            }
          }
        }
      ],
      "certificateStartDate": "2002-03-21",
      "certificateEndDate": "2002-09-04",
      "object": "\r\n\r\na) EL MANTENIMIENTO, REPRESENTACIÓN, IMPORTACIÓN, EXPORTACIÓN, DISTRIBUCIÓN, FABRICACIÓN, MONTAJE, ALQUILER, COMERCIALIZACIÓN, ASÍ COMO PRESTACIÓN DE SERVICIOS INFORMÁTICOS RELACIONADOS CON TODA CLASE DE MAQUINARIA, INSTRUMENTOS, ELEMENTOS Y COMPLEMENTOS DESTINADOS A LA ANALÍTICA, CONTROL, MEDICIÓN O INVESTIGACIÓN TANTO MÉDICA COMO INDUSTRIAL, CIENTÍFICA, DOCENTE ASÍ COMO PRODUCTOS DE TOPOGRAFÍA, INGENIERÍA Y FOTOGRAFÍA. ASIMISMO LA SOCIEDAD PODRÁ VENDER ASISTENCIA TÉCNICA EN RELACIÓN A LOS PRODUCTOS SEÑALADOS ANTERIORMENTE; Y\r\n\r\nb) LA PRESTACIÓN DE SERVICIOS DE ASESORAMIENTO, ESTUDIO Y GESTIÓN TÉCNICA Y ECONÓMICA A TERCERAS PERSONAS, FÍSICAS Y/O JURÍDICAS, YA SEAN ESPAÑOLAS O EXTRANJERAS, EMITIENDO INFORMES, REALIZANDO ESTUDIOS DE MERCADO, ORGANIZACIÓN ADMINISTRATIVA, TRABAJOS DE CONTABILIDAD, FACTURACIÓN Y CORRESPONDENCIA",
      "mainEntityOfPage": "https://www.contratacion.euskadi.eus/webkpe00-kperoc/es/ac71aBusquedaRegistrosWar/empresa/00454",
      "_links": {
        "self": {
          "name": "LEICA MICROSISTEMAS, S.A. SOCIEDAD UNIPERSONAL",
          "href": "https://api.euskadi.eus/procurements/companies/00454"
        }
      }
    },
    {
      "name": "AUTOS AI, S.A.",
      "registrationNumber": "01948",
      "identificationNumber": "A48190789",
      "address": "C/ LICENCIADO POZA, Nº 32.",
      "location": {
        "postalCode": "48011",
        "municipality": "Bilbao",
        "county": "Bizkaia",
        "municipalityId": "020",
        "countyId": "48"
      },
      "economicActivities": [
        {
          "id": "1.654.1",
          "name": "Venta al por menor de vehículos terrestres",
          "_links": {
            "self": {
              "name": "Venta al por menor de vehículos terrestres",
              "href": "https://api.euskadi.eus/procurements/companies/economic-activities/1.654.1"
            }
          }
        },
        {
          "id": "1.691.2",
          "name": "Reparación de vehículos automóviles, bicicletas y otros vehículos",
          "_links": {
            "self": {
              "name": "Reparación de vehículos automóviles, bicicletas y otros vehículos",
              "href": "https://api.euskadi.eus/procurements/companies/economic-activities/1.691.2"
            }
          }
        }
      ],
      "certificateStartDate": "2002-03-14",
      "certificateEndDate": "2002-09-06",
      "object": "\r\n\r\na) LA IMPORTACIÓN, COMPRAVENTA AL POR MAYOR Y MENOR DE VEHÍCULOS Y MAQUINARIA DE TODAS CLASES INDUSTRIALES Y MAQUINARIA PARA LA CONSTRUCCIÓN; Y LA REPRESENTACIÓN DE EMPRESAS NACIONALES O EXTRANJERAS PRODUCTORAS DE VEHÍCULOS, MOTORES, MAQUINARIA, APARATOS Y ARTÍCULOS Y MERCANCÍAS A QUE SE REFIERE LO ANTERIOR.\r\n\r\nb) FABRICACIÓN, VENTA Y REPARACIÓN DE UNIDADES DE TRANSPORTE, VEHÍCULOS MARÍTIMOS, FLUVIALES, AÉREOS Y TERRESTRES Y DE ARTÍCULOS PROPIOS PARA LA REPARACIÓN, PIEZAS DE RECAMBIO, CONSTRUCCIÓN DE CARROCERÍAS PARA LOS CITADOS VEHÍCULOS.\r\n\r\nc) LA VENTA AL POR MAYOR O MENOR DE GASOLINA, GAS-OIL, ACEITES Y GRASAS LUBRICANTES, SIEMPRE CON SUJECIÓN A LAS NORMAS LEGALES Y CON OBTENCIÓN EN SU CASO, DE LAS AUTORIZACIONES PRECISAS DE LOS ORGANISMOS PÚBLICOS O DE CAMPSA.\r\n\r\nd) EL ALQUILER DE VEHÍCULOS, DE AVIACIÓN, MARÍTIMOS O TERRESTRES, CON O SIN CONDUCTOR, SIN EFECTUAR EL SERVICIO DE TRANSPORTE.\r\n\r\ne) LA CONSTRUCCIÓN Y EXPLOTACIÓN, VENTA O ALQUILER DE PARKINS, GARAJES Y LA REALIZACIÓN DE LOS SERVICIOS DE LAVADO Y ENGRASE DE VEHÍCULOS.\r\n\r\nf) LA PRESTACIÓN Y CONTRATACIÓN DE TODA CLASE DE TRANSPORTES AÉREOS, MARÍTIMOS, FLUVIALES Y TERRESTRES DE VIAJEROS Y TODA CLASE DE MERCANCÍAS.\r\n\r\ng) LA PRESTACIÓN DE SERVICIOS DE GRÚAS, BIEN CON MEDIOS PROPIOS O A TRAVÉS DE TERCEROS.\r\n\r\nh) LA PRESTACIÓN DE SERVICIOS DE ENSEÑANZA DE CONDUCCIÓN Y MECÁNICA DEL AUTOMÓVIL, MEDIANTE EL RÉGIMEN DE AUTO-ESCUELA DE CONDUCTORES",
      "mainEntityOfPage": "https://www.contratacion.euskadi.eus/webkpe00-kperoc/es/ac71aBusquedaRegistrosWar/empresa/01948",
      "_links": {
        "self": {
          "name": "AUTOS AI, S.A.",
          "href": "https://api.euskadi.eus/procurements/companies/01948"
        }
      }
    },
    {
      "name": "TELARRA TEXTIL, S.L.",
      "registrationNumber": "01042",
      "identificationNumber": "B20300612",
      "address": "POLÍGONO BRUNET. PABELLÓN 11",
      "location": {
        "postalCode": "20160",
        "municipality": "Lasarte-Oria",
        "county": "Gipuzkoa",
        "municipalityId": "902",
        "countyId": "20"
      },
      "economicActivities": [
        {
          "id": "1.455.1",
          "name": "Confección de artículos textiles para el hogar y tapicería",
          "_links": {
            "self": {
              "name": "Confección de artículos textiles para el hogar y tapicería",
              "href": "https://api.euskadi.eus/procurements/companies/economic-activities/1.455.1"
            }
          }
        }
      ],
      "certificateStartDate": "2002-03-12",
      "certificateEndDate": "2002-08-21",
      "object": "LA FABRICACIÓN Y COMERCIALIZACIÓN DE PRODUCTOS TEXTILES ",
      "mainEntityOfPage": "https://www.contratacion.euskadi.eus/webkpe00-kperoc/es/ac71aBusquedaRegistrosWar/empresa/01042",
      "_links": {
        "self": {
          "name": "TELARRA TEXTIL, S.L.",
          "href": "https://api.euskadi.eus/procurements/companies/01042"
        }
      }
    },
    {
      "name": "FUJITSU ICL ESPAÑA, S.A.",
      "registrationNumber": "00914",
      "identificationNumber": "A28321131",
      "address": "CAMINO CERRO DE LOS GAMOS, 1",
      "location": {
        "postalCode": "28224",
        "municipality": "Pozuelo de Alarcón",
        "county": "Madrid",
        "municipalityId": "115",
        "countyId": "28"
      },
      "economicActivities": [
        {
          "id": "1.659.2",
          "name": "Venta al por menor de muebles de oficina y máquinas y equipos de oficina",
          "_links": {
            "self": {
              "name": "Venta al por menor de muebles de oficina y máquinas y equipos de oficina",
              "href": "https://api.euskadi.eus/procurements/companies/economic-activities/1.659.2"
            }
          }
        },
        {
          "id": "1.769",
          "name": "Otros servicios de telecomunicaciones",
          "_links": {
            "self": {
              "name": "Otros servicios de telecomunicaciones",
              "href": "https://api.euskadi.eus/procurements/companies/economic-activities/1.769"
            }
          }
        },
        {
          "id": "1.845",
          "name": "Explotación electrónica por cuenta de terceros",
          "_links": {
            "self": {
              "name": "Explotación electrónica por cuenta de terceros",
              "href": "https://api.euskadi.eus/procurements/companies/economic-activities/1.845"
            }
          }
        },
        {
          "id": "1.853",
          "name": "Alquiler de maquinaria y equipo contable de oficina y cálculo",
          "_links": {
            "self": {
              "name": "Alquiler de maquinaria y equipo contable de oficina y cálculo",
              "href": "https://api.euskadi.eus/procurements/companies/economic-activities/1.853"
            }
          }
        },
        {
          "id": "1.932.1",
          "name": "Enseñanza de formación y perfeccionamiento profesional no superior",
          "_links": {
            "self": {
              "name": "Enseñanza de formación y perfeccionamiento profesional no superior",
              "href": "https://api.euskadi.eus/procurements/companies/economic-activities/1.932.1"
            }
          }
        }
      ],
      "certificateStartDate": "2002-03-08",
      "certificateEndDate": "2002-07-29",
      "object": "LA IMPORTACIÓN, EXPORTACIÓN, COMPRA-VENTA, ARRIENDO Y, EN SU CASO, \"LEASING\" O ALQUILER FINANCIERO, DE ORDENADORES ELECTRÓNICOS, EQUIPOS PERIFÉRICOS, DE TELEPROCESOS Y, EN GENERAL, DE CUALQUIER TIPO DE MÁQUINA ELÉCTRICA DE CONTABILIDAD Y LA ELABORACIÓN, DESARROLLO, COMPRA Y VENTA DE PROGRAMAS DE APLICACIÓN O (\"SOFTWARE\") ASIMISMO SE DEDICARÁ A LA FORMACIÓN DE PERSONAL ADECUADO Y NECESARIO PARA LOS SERVICIOS DE VENTA Y POST-VENTA DE LOS PRODUCTOS, Y TODAS AQUELLAS ACTIVIDADES, DE SERVICIO Y DOCENCIA, QUE GUARDEN RELACIÓN, DIRECTA O INDIRECTAMENTE, CON EL TRATAMIENTO ELECTRÓNICO DE DATOS",
      "mainEntityOfPage": "https://www.contratacion.euskadi.eus/webkpe00-kperoc/es/ac71aBusquedaRegistrosWar/empresa/00914",
      "_links": {
        "self": {
          "name": "FUJITSU ICL ESPAÑA, S.A.",
          "href": "https://api.euskadi.eus/procurements/companies/00914"
        }
      }
    },
    {
      "name": "PAINSAIN, S.L. SOCIEDAD UNIPERSONAL",
      "registrationNumber": "02504",
      "identificationNumber": "B20722997",
      "address": "SAN MARCIAL, Nº 35-6º",
      "location": {
        "postalCode": "20000",
        "municipality": "Donostia / San Sebastián",
        "county": "Gipuzkoa",
        "municipalityId": "069",
        "countyId": "20"
      },
      "economicActivities": [
        {
          "id": "1.844",
          "name": "Servicios de publicidad, relaciones públicas y similares",
          "_links": {
            "self": {
              "name": "Servicios de publicidad, relaciones públicas y similares",
              "href": "https://api.euskadi.eus/procurements/companies/economic-activities/1.844"
            }
          }
        }
      ],
      "certificateStartDate": "2002-03-04",
      "certificateEndDate": "2002-08-05",
      "object": "LA EXPLOTACIÓN DE UN NEGOCIO DEDICADO :\r\nA) AGENCIA DE PUBLICIDAD Y MARKETING, PARA LA REALIZACIÓN, POR CUENTA DE TERCEROS, DE ACTIVIDADES DE CREACIÓN, PROYECCIÓN, EJECUCIÓN Y DISTRIBUCIÓN TANTO DE CAMPAÑAS DE PUBLICIDAD, EN CUALQUIER SOPORTE DE COMUNICACIÓN EXISTENTE, INCLUSO A TRAVÉS DE INTERNET O APLICACIONES QUE INTEGREN EL COMERCIO ELECTRÓNICO, ASÍ COMO SOBRE CUALQUIER OTRO SOPORTE DE COMUNICACIÓN QUE PUEDA DESARROLLARSE EN EL FUTURO.\r\n\r\nB) ASESORAMIENTO SOBRE EL USO DE TODO TIPO DE TECNOLOGÍAS, INCLUÍDAS LAS DIGITALES, EN RELACIÓN A LOS SECTORES DE PUBLICIDAD, MARKETING, COMUNICACIÓN E INFORMACIÓN.\r\n    ",
      "mainEntityOfPage": "https://www.contratacion.euskadi.eus/webkpe00-kperoc/es/ac71aBusquedaRegistrosWar/empresa/02504",
      "_links": {
        "self": {
          "name": "PAINSAIN, S.L. SOCIEDAD UNIPERSONAL",
          "href": "https://api.euskadi.eus/procurements/companies/02504"
        }
      }
    },
    {
      "name": "CONSTRUCCIONES ARRIGUNAGA, S.A.",
      "registrationNumber": "00182",
      "identificationNumber": "A48204457",
      "address": "C/ SAN NICOLÁS, Nº 16 - 2º F",
      "location": {
        "postalCode": "48990",
        "municipality": "Getxo",
        "county": "Bizkaia",
        "municipalityId": "044",
        "countyId": "48"
      },
      "economicActivities": [
        {
          "id": "1.501.3",
          "name": "Albañilería y pequeños trabajos de construcción en general",
          "_links": {
            "self": {
              "name": "Albañilería y pequeños trabajos de construcción en general",
              "href": "https://api.euskadi.eus/procurements/companies/economic-activities/1.501.3"
            }
          }
        },
        {
          "id": "1.507",
          "name": "Construcción, reparación y conservación de toda clase obras",
          "_links": {
            "self": {
              "name": "Construcción, reparación y conservación de toda clase obras",
              "href": "https://api.euskadi.eus/procurements/companies/economic-activities/1.507"
            }
          }
        }
      ],
      "certificateStartDate": "2002-02-27",
      "certificateEndDate": "2002-08-14",
      "object": "PROYECTOS, REALIZACIÓN COMERCIALIZACIÓN Y PROMOCIÓN DE VIVIENDAS, LOCALES COMERCIALES E INDUSTRIALES, URBANIZACIONES Y DEMÁS OBRAS DE CONSTRUCCIÓN EN GENERAL",
      "mainEntityOfPage": "https://www.contratacion.euskadi.eus/webkpe00-kperoc/es/ac71aBusquedaRegistrosWar/empresa/00182",
      "_links": {
        "self": {
          "name": "CONSTRUCCIONES ARRIGUNAGA, S.A.",
          "href": "https://api.euskadi.eus/procurements/companies/00182"
        }
      }
    },
    {
      "name": "PELCONS, S.A.",
      "registrationNumber": "00156",
      "identificationNumber": "A01034685",
      "address": "C/ PEDRO ASÚA, Nº 45.",
      "location": {
        "postalCode": "01008",
        "municipality": "Vitoria-Gasteiz",
        "county": "Araba/Álava",
        "municipalityId": "059",
        "countyId": "01"
      },
      "economicActivities": [
        {
          "id": "1.476.2",
          "name": "Edición de periódicos y revistas",
          "_links": {
            "self": {
              "name": "Edición de periódicos y revistas",
              "href": "https://api.euskadi.eus/procurements/companies/economic-activities/1.476.2"
            }
          }
        },
        {
          "id": "1.844",
          "name": "Servicios de publicidad, relaciones públicas y similares",
          "_links": {
            "self": {
              "name": "Servicios de publicidad, relaciones públicas y similares",
              "href": "https://api.euskadi.eus/procurements/companies/economic-activities/1.844"
            }
          }
        }
      ],
      "certificateStartDate": "2002-02-22",
      "certificateEndDate": "2002-08-07",
      "object": "EL EJERCICIO DE ACTIVIDADES PUBLICITARIAS",
      "mainEntityOfPage": "https://www.contratacion.euskadi.eus/webkpe00-kperoc/es/ac71aBusquedaRegistrosWar/empresa/00156",
      "_links": {
        "self": {
          "name": "PELCONS, S.A.",
          "href": "https://api.euskadi.eus/procurements/companies/00156"
        }
      }
    },
    {
      "name": "ADAXKA ASOCIACIÓN PARA LA ASISTENCIA A LA TERCERA EDAD Y DISCAPACITADOS",
      "registrationNumber": "02083",
      "identificationNumber": "G20622247",
      "address": "C/ ZUBELZU, Nº 10 - BAJO.",
      "location": {
        "postalCode": "20303",
        "municipality": "Irun",
        "county": "Gipuzkoa",
        "municipalityId": "045",
        "countyId": "20"
      },
      "economicActivities": [
        {
          "id": "1.952",
          "name": "Asistencia y servicios sociales en centros no residenciales",
          "_links": {
            "self": {
              "name": "Asistencia y servicios sociales en centros no residenciales",
              "href": "https://api.euskadi.eus/procurements/companies/economic-activities/1.952"
            }
          }
        }
      ],
      "certificateStartDate": "2002-02-15",
      "certificateEndDate": "2002-08-14",
      "object": "LA REALIZACIÓN SIN ÁNIMO DE LUCRO DE LABORES DE ASISTENCIA SOCIAL. PARA LA CONSECUCIÓN DE DICHOS FINES SE LLEVARÁN A CABO, PREVIO EL CUMPLIMIENTO DE LOS REQUISITOS LEGALES ESTABLECIDOS, LAS SIGUIENTES ACTIVIDADES: AYUDA DOMICILIARIA A PERSONAS DE LA TERCERA EDAD Y DISCAPACITADOS, SERVICIO DE LIMPIEZA EN DOMICILIOS Y RESIDENCIAS DE LA TERCERA EDAD Y DISCAPACITADOS",
      "mainEntityOfPage": "https://www.contratacion.euskadi.eus/webkpe00-kperoc/es/ac71aBusquedaRegistrosWar/empresa/02083",
      "_links": {
        "self": {
          "name": "ADAXKA ASOCIACIÓN PARA LA ASISTENCIA A LA TERCERA EDAD Y DISCAPACITADOS",
          "href": "https://api.euskadi.eus/procurements/companies/02083"
        }
      }
    },
    {
      "name": "DISTRIBUIDORA DE MATERIAL DIDÁCTICO, S.A.",
      "registrationNumber": "00601",
      "identificationNumber": "A48106033",
      "address": "C/ ITURRIZA, Nº 9 BIS.",
      "location": {
        "postalCode": "48003",
        "municipality": "Bilbao",
        "county": "Bizkaia",
        "municipalityId": "020",
        "countyId": "48"
      },
      "economicActivities": [
        {
          "id": "1.619.5",
          "name": "Venta al por mayor de artículos de papelería y escritorios",
          "_links": {
            "self": {
              "name": "Venta al por mayor de artículos de papelería y escritorios",
              "href": "https://api.euskadi.eus/procurements/companies/economic-activities/1.619.5"
            }
          }
        }
      ],
      "certificateStartDate": "2002-02-14",
      "certificateEndDate": "2002-08-13",
      "object": "LA COMERCIALIZACIÓN Y VENTA DE MATERIAL DE OFICINA Y OBJETOS DE ESCRITORIO, MATERIAL ESCOLAR, DIDÁCTICO-CIENTÍFICO, EQUIPOS Y MÁQUINAS AUDIOVISUALES Y DE OFICINA EN GENERAL",
      "mainEntityOfPage": "https://www.contratacion.euskadi.eus/webkpe00-kperoc/es/ac71aBusquedaRegistrosWar/empresa/00601",
      "_links": {
        "self": {
          "name": "DISTRIBUIDORA DE MATERIAL DIDÁCTICO, S.A.",
          "href": "https://api.euskadi.eus/procurements/companies/00601"
        }
      }
    }
  ]
}