{
  "totalItems": 9042,
  "totalPages": 905,
  "currentPage": 260,
  "itemsOfPage": 10,
  "items": [
    {
      "name": "JOSE ANTONIO DE LA HOZ HERRERO",
      "registrationNumber": "09252",
      "identificationNumber": "30593092X",
      "address": "Barrio Aperribai",
      "location": {
        "postalCode": "48960",
        "municipality": "Galdakao",
        "county": "Bizkaia",
        "municipalityId": "036",
        "countyId": "48"
      },
      "economicActivities": [
        {
          "id": "2.511",
          "name": "Agentes comerciales",
          "_links": {
            "self": {
              "name": "Agentes comerciales",
              "href": "https://api.euskadi.eus/procurements/companies/economic-activities/2.511"
            }
          }
        }
      ],
      "certificateStartDate": "2025-09-23",
      "certificateEndDate": "2026-03-06",
      "object": "AGENTES COMERCILAES.",
      "mainEntityOfPage": "https://www.contratacion.euskadi.eus/webkpe00-kperoc/es/ac71aBusquedaRegistrosWar/empresa/09252",
      "_links": {
        "self": {
          "name": "JOSE ANTONIO DE LA HOZ HERRERO",
          "href": "https://api.euskadi.eus/procurements/companies/09252"
        }
      }
    },
    {
      "name": "LEJARZA, S.A.",
      "registrationNumber": "00517",
      "identificationNumber": "A48027098",
      "address": "C/ CARRETERA LUTXANA-ASÚA, Km. 12,250.",
      "location": {
        "postalCode": "48950",
        "municipality": "Erandio",
        "county": "Bizkaia",
        "municipalityId": "902",
        "countyId": "48"
      },
      "economicActivities": [
        {
          "id": "1.842",
          "name": "Servicios financieros y contables",
          "_links": {
            "self": {
              "name": "Servicios financieros y contables",
              "href": "https://api.euskadi.eus/procurements/companies/economic-activities/1.842"
            }
          }
        },
        {
          "id": "1.861.2",
          "name": "Alquiler de locales industriales y otros alquileres n.c.o.p",
          "_links": {
            "self": {
              "name": "Alquiler de locales industriales y otros alquileres n.c.o.p",
              "href": "https://api.euskadi.eus/procurements/companies/economic-activities/1.861.2"
            }
          }
        }
      ],
      "certificateStartDate": "2025-09-23",
      "certificateEndDate": "2026-03-08",
      "object": "LA EXPLOTACIÓN DEL NEGOCIO DE FABRICACIÓN, COMPRAVENTA E IMPORTACIÓN Y EXPORTACIÓN DE AUTOMÓVILES Y CAMIONES, TRACTORES U OTROS VEHÍCULOS Y SUS REPUESTOS Y ACCESORIOS, ASÍ COMO LA REPARACIÓN, CUSTODIA Y ENTRETENIMIENTO DE LOS MISMOS",
      "mainEntityOfPage": "https://www.contratacion.euskadi.eus/webkpe00-kperoc/es/ac71aBusquedaRegistrosWar/empresa/00517",
      "_links": {
        "self": {
          "name": "LEJARZA, S.A.",
          "href": "https://api.euskadi.eus/procurements/companies/00517"
        }
      }
    },
    {
      "name": "KASTORE GEST, S.L",
      "registrationNumber": "06311",
      "identificationNumber": "B20805933",
      "address": "Antilla Kalea 6 2B",
      "location": {
        "postalCode": "20810",
        "municipality": "Orio",
        "county": "Gipuzkoa",
        "municipalityId": "061",
        "countyId": "20"
      },
      "economicActivities": [
        {
          "id": "1.733.1",
          "name": "Transporte de cabotaje y por vías navegables interiores de viajeros",
          "_links": {
            "self": {
              "name": "Transporte de cabotaje y por vías navegables interiores de viajeros",
              "href": "https://api.euskadi.eus/procurements/companies/economic-activities/1.733.1"
            }
          }
        },
        {
          "id": "1.855.2",
          "name": "Alquiler de embarcaciones",
          "_links": {
            "self": {
              "name": "Alquiler de embarcaciones",
              "href": "https://api.euskadi.eus/procurements/companies/economic-activities/1.855.2"
            }
          }
        },
        {
          "id": "1.934",
          "name": "Enseñanza fuera de establecimiento permanente",
          "_links": {
            "self": {
              "name": "Enseñanza fuera de establecimiento permanente",
              "href": "https://api.euskadi.eus/procurements/companies/economic-activities/1.934"
            }
          }
        },
        {
          "id": "1.966.9",
          "name": "Otros servicios culturales n.c.o.p",
          "_links": {
            "self": {
              "name": "Otros servicios culturales n.c.o.p",
              "href": "https://api.euskadi.eus/procurements/companies/economic-activities/1.966.9"
            }
          }
        }
      ],
      "certificateStartDate": "2025-09-22",
      "certificateEndDate": "2026-03-22",
      "object": "-SERVICIOS DE PROMOCIÓN, ORGANIZACIÓN Y COORDINACIÓN DE TODO TIPO DE ACTIVIDADES O EVENTOS CULTURALES, DEPORTIVOS O DE OCIO. - ALQUILER DE TODO TIPO DE EQUIPAMIENTOS DEPORTIVOS Y DE OCIO. - GESTIÓN DE CENTROS DE INTERPRETACIÓN, ALBERGUES, EQUIPAMIENTOS Y SIMILARES. -COMERCIO MAYOR Y/O MENOR DE EQUIPAMIENTOS DEPORTIVOS Y DE OCIO",
      "mainEntityOfPage": "https://www.contratacion.euskadi.eus/webkpe00-kperoc/es/ac71aBusquedaRegistrosWar/empresa/06311",
      "_links": {
        "self": {
          "name": "KASTORE GEST, S.L",
          "href": "https://api.euskadi.eus/procurements/companies/06311"
        }
      }
    },
    {
      "name": "REFORMAS, OBRAS, REPARACIONES Y SERVICIOS HIRUSTA, S.L.",
      "registrationNumber": "08496",
      "identificationNumber": "B20985586",
      "address": "Plaza Pio XII, 5 entlo",
      "location": {
        "postalCode": "20010",
        "municipality": "Donostia / San Sebastián",
        "county": "Gipuzkoa",
        "municipalityId": "069",
        "countyId": "20"
      },
      "economicActivities": [
        {
          "id": "1.468.2",
          "name": "Fabricación de mobiliario de madera escolar y de oficina",
          "_links": {
            "self": {
              "name": "Fabricación de mobiliario de madera escolar y de oficina",
              "href": "https://api.euskadi.eus/procurements/companies/economic-activities/1.468.2"
            }
          }
        },
        {
          "id": "1.501.1",
          "name": "Construcción completa, reparación y conservación de edificaciones",
          "_links": {
            "self": {
              "name": "Construcción completa, reparación y conservación de edificaciones",
              "href": "https://api.euskadi.eus/procurements/companies/economic-activities/1.501.1"
            }
          }
        },
        {
          "id": "1.843.9",
          "name": "Otros servicios técnicos n.c.o.p",
          "_links": {
            "self": {
              "name": "Otros servicios técnicos n.c.o.p",
              "href": "https://api.euskadi.eus/procurements/companies/economic-activities/1.843.9"
            }
          }
        }
      ],
      "certificateStartDate": "2025-09-22",
      "certificateEndDate": "2026-03-22",
      "object": "- REFORMAS, HABILITACIONES, INTERIORISMO, DIRECCIÓN Y COORDINACIÓN DE LOS GREMIOS QUE INTERVENGAN EN LA REALIZACIÓN DE OBRAS O REFORMAS, EN TODA CLASE DE EDIFICIOS. - REALIZACIÓN DE PROYECTOS, PRESUPUESTOS Y PLANOS. - GESTIÓN PARA LA OBTENCIÓN DE LAS LICENCIAS Y REQUISITOS NECESARIOS PARA LA DIRECCIÓN FACULTATIVA DE CUALQUIER PROYECTO DE OBRAS DE REFORMAS. - DIRECCIÓN Y COORDINACIÓN EN CUALQUIER TIPO DE REPARACIÓN CONSECUENCIA DE ACCIDENTES O SINIESTROS CUBIERTOS POR PÓLIZAS DE SEGURO DE HOGAR, LOCAL O INDUSTRIA. - DIRECCIÓN, COORDINACIÓN Y VIGILANCIA DEL MANTENIMIENTO DE ELEMENTOS COMUNES DE COMUNIDADES DE PROPIETARIOS, COORDINANDO A LOS GREMIOS QUE DEBAN INTERVENIR. - SERVICIOS DE SECRETARIADO A LAS EMPRESAS QUE COLABOREN CON LA PROPIA SOCIEDAD, TALES COMO ATENCIÓN TELEFÓNICA, ORGANIZACIÓN DE AGENDA DE TRABAJO Y SIMILARES. - SERVICIOS DE ASESORÍA CONTABLE A TODO TIPO DE PEQUEÑA EMPRESA.",
      "mainEntityOfPage": "https://www.contratacion.euskadi.eus/webkpe00-kperoc/es/ac71aBusquedaRegistrosWar/empresa/08496",
      "_links": {
        "self": {
          "name": "REFORMAS, OBRAS, REPARACIONES Y SERVICIOS HIRUSTA, S.L.",
          "href": "https://api.euskadi.eus/procurements/companies/08496"
        }
      }
    },
    {
      "name": "KAREALDE, S.A.",
      "registrationNumber": "08401",
      "identificationNumber": "A48140909",
      "address": "CRTA BILBAO-SANTANDER, KM.120",
      "location": {
        "postalCode": "48903",
        "municipality": "Barakaldo",
        "county": "Bizkaia",
        "municipalityId": "013",
        "countyId": "48"
      },
      "economicActivities": [
        {
          "id": "1.654.1",
          "name": "Venta al por menor de vehículos terrestres",
          "_links": {
            "self": {
              "name": "Venta al por menor de vehículos terrestres",
              "href": "https://api.euskadi.eus/procurements/companies/economic-activities/1.654.1"
            }
          }
        },
        {
          "id": "1.691.2",
          "name": "Reparación de vehículos automóviles, bicicletas y otros vehículos",
          "_links": {
            "self": {
              "name": "Reparación de vehículos automóviles, bicicletas y otros vehículos",
              "href": "https://api.euskadi.eus/procurements/companies/economic-activities/1.691.2"
            }
          }
        },
        {
          "id": "1.751.1",
          "name": "Guarda y custodia de vehículos en garajes y locales cubiertos",
          "_links": {
            "self": {
              "name": "Guarda y custodia de vehículos en garajes y locales cubiertos",
              "href": "https://api.euskadi.eus/procurements/companies/economic-activities/1.751.1"
            }
          }
        },
        {
          "id": "1.831.9",
          "name": "Otros servicios financieros n.c.o.p",
          "_links": {
            "self": {
              "name": "Otros servicios financieros n.c.o.p",
              "href": "https://api.euskadi.eus/procurements/companies/economic-activities/1.831.9"
            }
          }
        },
        {
          "id": "1.854.1",
          "name": "Alquiler de automóviles sin conductor",
          "_links": {
            "self": {
              "name": "Alquiler de automóviles sin conductor",
              "href": "https://api.euskadi.eus/procurements/companies/economic-activities/1.854.1"
            }
          }
        },
        {
          "id": "1.854.2",
          "name": "Alquiler de automóviles sin conductor en régimen de \"renting\"",
          "_links": {
            "self": {
              "name": "Alquiler de automóviles sin conductor en régimen de \"renting\"",
              "href": "https://api.euskadi.eus/procurements/companies/economic-activities/1.854.2"
            }
          }
        }
      ],
      "certificateStartDate": "2025-09-22",
      "certificateEndDate": "2026-03-18",
      "object": "A. LA COMPRA, FABRICACIÓN, VENTA, DISTRIBUCIÓN, COMERCIALIZACIÓN, PERMUTA, ALQUILER A CORTO Y LARGO PLAZO, INCLUYENDO EXPRESAMENTE ACTIVIDADES DE RENTING, LEASING, ASÍ COMO LA REPARACIÓN, REPRESENTACIÓN, EXPORTACIÓN, IMPORTACIÓN Y EXPLOTACIÓN DE TODA CLASE DE VEHÍCULOS, SEAN TERRESTRES, MARÍTIMOS O AÉREOS, DE TURISMO O INDUSTRIALES, CON O SIN MOTOR, INCLUYENDO VEHÍCULOS ELÉCTRICOS Y SUS PIEZAS DE RECAMBIO, ASÍ COMO LA PRESTACIÓN DEL SERVICIO DE POSTVENTA Y ASISTENCIA TÉCNICA EN INSTALACIONES O CARRETERA DERIVADA DE LAS ACTIVIDADES ENUNCIADAS. B. LA REALIZACIÓN DE TODO TIPO DE ACTIVIDADES TÉCNICO-ADMINISTRATIVAS LIGADAS A LAS ACTIVIDADES RELACIONADAS CON EL APARTADO A), TALES COMO AGENCIA DE SEGUROS Y GESTORÍA ADMINISTRATIVA, AGENCIA DE ADUANAS, SERVICIOS DE ASESORAMIENTO Y CONSULTORÍA Y CUALESQUIERA OTRA VINCULADAS AL PUNTO A) ANTERIOR, EN CUANTO LO PERMITAN LAS LEGISLACIONES PROPIAS DE CADA MATERIA. C. LA REALIZACIÓN DE ACTIVIDADES INMOBILIARIAS DE PROMOCIÓN, LA CONSTRUCCIÓN Y LA EXPLOTACIÓN DE CUALQUIER TÍTULO, FORMA Y NEGOCIO JURÍDICO DE INMUEBLES TALES COMO LA ADQUISICIÓN, URBANIZACIÓN, PARCELACIÓN, CONSTRUCCIÓN, EDIFICACIÓN, CONSTITUCIÓN EN PROPIEDAD HORIZONTAL, ADMINISTRACIÓN DE FINCAS, REFORMA, AMPLIACIÓN, EXPLOTACIÓN DIRECTA E INDIRECTA, ARRENDAMIENTO Y ENAJENACIÓN Y, EN GENERAL, TODA ACTIVIDAD RELATIVA A LA EXPLOTACIÓN DE ESOS BINES, ASÍ RÚSTICOS COMO URBANOS Y LA REALIZACIÓN DE OBRAS PÚBLICAS Y PRIVADAS DE TODA SUERTE DE INVERSIONES Y DE PROMOCIONES RELACIONADA CON EL RAMO DE LA CONSTRUCCIÓN Y GESTIÓN DE INMUEBLES. D. LA ADQUISICIÓN, TENENCIA, DISFRUTE, ADMINISTRACIÓN, SUSCRIPCIÓN, PIGNORACIÓN Y ENAJENACIÓN DE TODA CLASE DE VALORES MOBILIARIOS POR CUENTA PROPIA, QUEDANDO EXCLUIDAS LAS ACTIVIDADES QUE LA LEGISLACIÓN ESPECIAL, Y BÁSICAMENTE LA LEY DEL MERCADO DE VALORES, ATRIBUYE CON CARÁCTER EXCLUSIVO A OTRAS ENTIDADES. E. LA ADQUISICIÓN, EXPLOTACIÓN EN CUALQUIER FORMA, COMERCIALIZACIÓN, CESIÓN Y ENAJENACIÓN DE TODO TIPO DE PROPIEDAD INTELECTUAL Y DE PATENTES Y DEMÁS MODALIDADES DE PROPIEDAD INDUSTRIAL. F. LA ASISTENCIA FINANCIERA, ADMINISTRATIVA, TÉCNICA, COMERCIAL O LEGAL A OTRAS SOCIEDADES POR CUALQUIER TÍTULO Y MODALIDAD, INCUSO CON PARTICIPACIÓN EN SUS FONDOS PROPIOS POR VÍA DE PRÉSTAMOS PARTICIPATIVOS, INCLUYENDO LA PROMOCIÓN O PARTICIPACIÓN, POR SÍ O POR CUENTA DE TERCEROS, EN EL NEGOCIO DE CUALQUIER PERSONA, NATURAL O JURÍDICA, -INCLUYENDO LAS AGRUPACIONES DE INTERÉS ECONÓMICO-, MEDIANTE LA INVERSIÓN EN FONDOS, VALORES, BIENES O DISPOSICIONES SOCIALES, CUALQUIERA QUE SEA LA FÓRMULA QUE TE UTILICE, PUDIENDO PARTICIPAR EN LA CONSTRUCCIÓN Y AMPLIACIÓN DE CAPITAL Y OSTENTAR EN ELLAS CUALESQUIERA CARGOS ADMINISTRATIVOS, DE DIRECCIÓN, ADMINISTRACIÓN Y CONTROL MEDIANTE LA OPORTUNA DESIGNACIÓN DE PERSONA FÍSICA QUE REPRESENTE A LA SOCIEDAD.",
      "mainEntityOfPage": "https://www.contratacion.euskadi.eus/webkpe00-kperoc/es/ac71aBusquedaRegistrosWar/empresa/08401",
      "_links": {
        "self": {
          "name": "KAREALDE, S.A.",
          "href": "https://api.euskadi.eus/procurements/companies/08401"
        }
      }
    },
    {
      "name": "MOLDES TXINGUDI, S.L.",
      "registrationNumber": "10341",
      "identificationNumber": "B20627840",
      "address": "Pol. Ind. 108 Itturrin Kalea 61",
      "location": {
        "postalCode": "20100",
        "municipality": "Lezo",
        "county": "Gipuzkoa",
        "municipalityId": "053",
        "countyId": "20"
      },
      "economicActivities": [
        {
          "id": "1.316.7",
          "name": "Fabricación de recipientes y envases metálicos",
          "_links": {
            "self": {
              "name": "Fabricación de recipientes y envases metálicos",
              "href": "https://api.euskadi.eus/procurements/companies/economic-activities/1.316.7"
            }
          }
        }
      ],
      "certificateStartDate": "2025-09-22",
      "certificateEndDate": "2026-03-09",
      "object": "CONSTRUCCIÓN DE MOLDES EN ACERO, PARA LA INYECCIÓN DE PLÁSTICOS, CAUCHO Y MATERIALES NO FÉRRICOS. MECANIZACIÓN DE PIEZAS EN GENERAL.",
      "mainEntityOfPage": "https://www.contratacion.euskadi.eus/webkpe00-kperoc/es/ac71aBusquedaRegistrosWar/empresa/10341",
      "_links": {
        "self": {
          "name": "MOLDES TXINGUDI, S.L.",
          "href": "https://api.euskadi.eus/procurements/companies/10341"
        }
      }
    },
    {
      "name": "LÉLEMAN, S.L.",
      "registrationNumber": "05184",
      "identificationNumber": "B46193827",
      "address": "ADOR 2, BAJO IZQ.",
      "location": {
        "postalCode": "46026",
        "municipality": "València",
        "county": "Valencia/València",
        "municipalityId": "250",
        "countyId": "46"
      },
      "economicActivities": [
        {
          "id": "1.619.2",
          "name": "Venta al por mayor de aparatos e instrumentos médicos, ortopédicos, ópticos",
          "_links": {
            "self": {
              "name": "Venta al por mayor de aparatos e instrumentos médicos, ortopédicos, ópticos",
              "href": "https://api.euskadi.eus/procurements/companies/economic-activities/1.619.2"
            }
          }
        }
      ],
      "certificateStartDate": "2025-09-22",
      "certificateEndDate": "2026-03-22",
      "object": "LA COMERCIALIZACIÓN DE MATERIAL HOSPITALARIO Y AFINES",
      "mainEntityOfPage": "https://www.contratacion.euskadi.eus/webkpe00-kperoc/es/ac71aBusquedaRegistrosWar/empresa/05184",
      "_links": {
        "self": {
          "name": "LÉLEMAN, S.L.",
          "href": "https://api.euskadi.eus/procurements/companies/05184"
        }
      }
    },
    {
      "name": "KARCHER, S.A.",
      "registrationNumber": "06713",
      "identificationNumber": "A08749079",
      "address": "C/ AGUACATE, 56",
      "location": {
        "postalCode": "28054",
        "municipality": "Madrid",
        "county": "Madrid",
        "municipalityId": "079",
        "countyId": "28"
      },
      "economicActivities": [
        {
          "id": "1.617.9",
          "name": "Venta al por mayor interindustrial de otros productos n.c.o.p",
          "_links": {
            "self": {
              "name": "Venta al por mayor interindustrial de otros productos n.c.o.p",
              "href": "https://api.euskadi.eus/procurements/companies/economic-activities/1.617.9"
            }
          }
        },
        {
          "id": "1.692",
          "name": "Reparación de maquinaria industrial",
          "_links": {
            "self": {
              "name": "Reparación de maquinaria industrial",
              "href": "https://api.euskadi.eus/procurements/companies/economic-activities/1.692"
            }
          }
        },
        {
          "id": "1.699",
          "name": "Otras reparaciones n.c.o.p",
          "_links": {
            "self": {
              "name": "Otras reparaciones n.c.o.p",
              "href": "https://api.euskadi.eus/procurements/companies/economic-activities/1.699"
            }
          }
        }
      ],
      "certificateStartDate": "2025-09-22",
      "certificateEndDate": "2026-03-22",
      "object": "LA VENTA, COMERCIALIZACIÓN, DISTRIBUCIÓN, INSTALACIÓN Y FABRICACIÓN DE TODA CLASE DE MAQUINARIA Y APARATOS DESTINADOS A LA HUMIDIFICACIÓN, LAVADO, APROVECHAMIENTO, PRODUCCIÓN O RECUPERACIÓN DE TODO TIPO DE ENERGÍA, Y TODAS AQUELLAS OTRAS ACTIVIDIDADES COMPLEMENTARIAS QUE DERIVEN DEL EXPRESADO OBJETO",
      "mainEntityOfPage": "https://www.contratacion.euskadi.eus/webkpe00-kperoc/es/ac71aBusquedaRegistrosWar/empresa/06713",
      "_links": {
        "self": {
          "name": "KARCHER, S.A.",
          "href": "https://api.euskadi.eus/procurements/companies/06713"
        }
      }
    },
    {
      "name": "HAZIHEZKUNTZA, S.L.",
      "registrationNumber": "08084",
      "identificationNumber": "B95874350",
      "address": "Barrio San Anton 38B",
      "location": {
        "postalCode": "48530",
        "municipality": "Ortuella",
        "county": "Bizkaia",
        "municipalityId": "083",
        "countyId": "48"
      },
      "economicActivities": [
        {
          "id": "1.933.9",
          "name": "Otras actividades de enseñanza tales como idiomas, mecanografía",
          "_links": {
            "self": {
              "name": "Otras actividades de enseñanza tales como idiomas, mecanografía",
              "href": "https://api.euskadi.eus/procurements/companies/economic-activities/1.933.9"
            }
          }
        },
        {
          "id": "1.942.9",
          "name": "Otros servicios sanitarios sin internados, no clasificados",
          "_links": {
            "self": {
              "name": "Otros servicios sanitarios sin internados, no clasificados",
              "href": "https://api.euskadi.eus/procurements/companies/economic-activities/1.942.9"
            }
          }
        },
        {
          "id": "1.966.9",
          "name": "Otros servicios culturales n.c.o.p",
          "_links": {
            "self": {
              "name": "Otros servicios culturales n.c.o.p",
              "href": "https://api.euskadi.eus/procurements/companies/economic-activities/1.966.9"
            }
          }
        },
        {
          "id": "1.967.2",
          "name": "Escuelas y servicios de perfeccionamiento del deporte",
          "_links": {
            "self": {
              "name": "Escuelas y servicios de perfeccionamiento del deporte",
              "href": "https://api.euskadi.eus/procurements/companies/economic-activities/1.967.2"
            }
          }
        }
      ],
      "certificateStartDate": "2025-09-22",
      "certificateEndDate": "2026-03-22",
      "object": "FORMACION: IMPARTIR CURSOS DE FORMACION DE LANBIDE, ON-LINE Y DE FORMA PRESENCIAL, SOCIO EDUCATIVOS, SOCIO CULTURALES, SOBRE SALUD, EN MATERIA DEPORTIVA Y RECREO. INTERVENCION SOCIAL: INTERVENCION SOCIO-EDUCATIVA CON INFANCIA, JUVENTUD Y FAMILIA (CAMPAMENTOS DE VERANO, CHARLAS,...) GESTION DE SERVICIOS SOCIALES, CULTURALES Y DEPORTIVOS YA SEAN MUNICIPALES O PRIVADOS,EN SU MÁS AMPLIA GAMA.",
      "mainEntityOfPage": "https://www.contratacion.euskadi.eus/webkpe00-kperoc/es/ac71aBusquedaRegistrosWar/empresa/08084",
      "_links": {
        "self": {
          "name": "HAZIHEZKUNTZA, S.L.",
          "href": "https://api.euskadi.eus/procurements/companies/08084"
        }
      }
    },
    {
      "name": "API OFICINA DE ARQUITECTURA, S.L.",
      "registrationNumber": "08096",
      "identificationNumber": "B95088019",
      "address": "las Mercedes 14, 3Dcha",
      "location": {
        "postalCode": "48930",
        "municipality": "Getxo",
        "county": "Bizkaia",
        "municipalityId": "044",
        "countyId": "48"
      },
      "economicActivities": [
        {
          "id": "1.843.2",
          "name": "Servicios técnicos de arquitectura y urbanismo",
          "_links": {
            "self": {
              "name": "Servicios técnicos de arquitectura y urbanismo",
              "href": "https://api.euskadi.eus/procurements/companies/economic-activities/1.843.2"
            }
          }
        }
      ],
      "certificateStartDate": "2025-09-22",
      "certificateEndDate": "2026-03-22",
      "object": "LA ACTIVIDAD PROPIA DEL EJERCICIO DE LA ARQUITECTURA.",
      "mainEntityOfPage": "https://www.contratacion.euskadi.eus/webkpe00-kperoc/es/ac71aBusquedaRegistrosWar/empresa/08096",
      "_links": {
        "self": {
          "name": "API OFICINA DE ARQUITECTURA, S.L.",
          "href": "https://api.euskadi.eus/procurements/companies/08096"
        }
      }
    }
  ]
}