{
  "totalItems": 9042,
  "totalPages": 905,
  "currentPage": 481,
  "itemsOfPage": 10,
  "items": [
    {
      "name": "JOSE ESCOBAL PEREDA",
      "registrationNumber": "07114",
      "identificationNumber": "14598223P",
      "address": "El Arroyo nº 8 - 4ºC",
      "location": {
        "postalCode": "48800",
        "municipality": "Balmaseda",
        "county": "Bizkaia",
        "municipalityId": "090",
        "countyId": "48"
      },
      "economicActivities": [
        {
          "id": "1.721.2",
          "name": "Transporte por autotaxis",
          "_links": {
            "self": {
              "name": "Transporte por autotaxis",
              "href": "https://api.euskadi.eus/procurements/companies/economic-activities/1.721.2"
            }
          }
        }
      ],
      "certificateStartDate": "2022-10-12",
      "certificateEndDate": "2023-04-12",
      "object": "TRANSPORTE POR AUTOTAXI",
      "mainEntityOfPage": "https://www.contratacion.euskadi.eus/webkpe00-kperoc/es/ac71aBusquedaRegistrosWar/empresa/07114",
      "_links": {
        "self": {
          "name": "JOSE ESCOBAL PEREDA",
          "href": "https://api.euskadi.eus/procurements/companies/07114"
        }
      }
    },
    {
      "name": "AXONES IBERICA, S.L.",
      "registrationNumber": "08002",
      "identificationNumber": "B06850127",
      "address": "CALLE RAMÓN BARES, 40 ",
      "location": {
        "postalCode": "36930",
        "municipality": "Bueu",
        "county": "Pontevedra",
        "municipalityId": "004",
        "countyId": "36"
      },
      "economicActivities": [
        {
          "id": "1.659.3",
          "name": "Venta al por menor de aparatos médicos, ortopédicos, ópticos y fotográficos",
          "_links": {
            "self": {
              "name": "Venta al por menor de aparatos médicos, ortopédicos, ópticos y fotográficos",
              "href": "https://api.euskadi.eus/procurements/companies/economic-activities/1.659.3"
            }
          }
        }
      ],
      "certificateStartDate": "2022-10-12",
      "certificateEndDate": "2023-04-12",
      "object": "1- COMPRAVENTA AL POR MAYOR Y MENOR DE APARATOS E INSTRUMENTOS MÉDICOS, ORTOPÉDICOS, ÓPTICOS Y FOTOGRÁFICOS, ACCESORIOS, INSUMOS Y ALMACENAMIENTO. IMPORTACIÓN Y EXPORTACIÓN. 2 - MANTENIMIENTO Y REPARACIÓN DE TODO TIPO DE ARTÍCULOS ELÉCTRICOS, ELECTRÓNICOS Y DE MAQUINARIA INDUSTRIAL.",
      "mainEntityOfPage": "https://www.contratacion.euskadi.eus/webkpe00-kperoc/es/ac71aBusquedaRegistrosWar/empresa/08002",
      "_links": {
        "self": {
          "name": "AXONES IBERICA, S.L.",
          "href": "https://api.euskadi.eus/procurements/companies/08002"
        }
      }
    },
    {
      "name": "JOSE MARÍA LARRAURI MARTÍNEZ",
      "registrationNumber": "08334",
      "identificationNumber": "16287100H",
      "address": "HARROBI 43 BAJO",
      "location": {
        "postalCode": "01013",
        "municipality": "Vitoria-Gasteiz",
        "county": "Araba/Álava",
        "municipalityId": "059",
        "countyId": "01"
      },
      "economicActivities": [
        {
          "id": "1.502.2",
          "name": "Consolidación y preparación de terrenos para la construcción de edificaciones",
          "_links": {
            "self": {
              "name": "Consolidación y preparación de terrenos para la construcción de edificaciones",
              "href": "https://api.euskadi.eus/procurements/companies/economic-activities/1.502.2"
            }
          }
        }
      ],
      "certificateStartDate": "2022-10-12",
      "certificateEndDate": "2023-04-12",
      "object": "CONSOLIDACIÓN Y PREPARACIÓN DE TERRENOS PARA LA CONSTRUCCIÓN DE EDIFICACIONES.",
      "mainEntityOfPage": "https://www.contratacion.euskadi.eus/webkpe00-kperoc/es/ac71aBusquedaRegistrosWar/empresa/08334",
      "_links": {
        "self": {
          "name": "JOSE MARÍA LARRAURI MARTÍNEZ",
          "href": "https://api.euskadi.eus/procurements/companies/08334"
        }
      }
    },
    {
      "name": "A & B ELECTRICIDAD, S.L.",
      "registrationNumber": "08319",
      "identificationNumber": "B80728587",
      "address": "CALLE EDUARDO REQUENAS, Nº2",
      "location": {
        "postalCode": "28053",
        "municipality": "Madrid",
        "county": "Madrid",
        "municipalityId": "079",
        "countyId": "28"
      },
      "economicActivities": [
        {
          "id": "1.653.2",
          "name": "Venta al por menor de material y aparatos eléctricos, electrodomésticos y cocina",
          "_links": {
            "self": {
              "name": "Venta al por menor de material y aparatos eléctricos, electrodomésticos y cocina",
              "href": "https://api.euskadi.eus/procurements/companies/economic-activities/1.653.2"
            }
          }
        }
      ],
      "certificateStartDate": "2022-10-11",
      "certificateEndDate": "2023-04-11",
      "object": "1.- EL DESARROLLO DE TODA CLASE DE ACTIVIDAD RELACIONADA CON LA COMERCIALIZACIÓN AL POR MAYOR O AL DETALLE DE MATERIAL ELÉCTRICO, OBJETOS DE REGALO, LÁMPARAS Y APARATOS ELECTRODOMÉSTICOS. 2.- LA INSTALACIÓN DE TODA CLASE DE CENTRALES AUTOMÁTICAS, REDES TELEFÓNICAS Y DE INSTALACIONES ELÉCTRICAS. 3.- LA IMPORTACIÓN Y EXPORTACIÓN DE MAQUINARIA, MERCANCIÍAS, VEHÍCULOS Y BIENES DE EQUIPO. 4.- LA ADQUISICIÓN, FABRICACIÓN, EXTRACCIÓN, TENENCIA, DISFRUTE Y ADMINISTRACIÓN EN GENERAL DE MATERIAS PRIMAS Y SU TRANSFORMACIÓN EN PRODUCTOS SEMIELABORADOS, ASÍ COMO SU ENAJENACIÓN POR CUALQUIER TÍTULO. 5.- LA CONSTRUCCIÓN DE TODA CLASE DE OBRAS PÚBLICAS O PRIVADAS. 6.- LA COMPRAVENTA DE TODA CLASE DE BIENES, INMUEBLES, LA CONSTRUCCIÓN, PROMOCIÓN, EXPLOTACIÓN, ADECUACIÓN DE TODA CLASE DE FINCAS RÚSTICAS O URBANAS E INCLUSO SU VENTA O EXPLOTACIÓN, DIRECTA; LA CONSTRUCCIÓN, TRANSFORMACIÓN, ADECUACIÓN DE TODA CLASE DE INSTALACIONES TURÍSTICAS.",
      "mainEntityOfPage": "https://www.contratacion.euskadi.eus/webkpe00-kperoc/es/ac71aBusquedaRegistrosWar/empresa/08319",
      "_links": {
        "self": {
          "name": "A & B ELECTRICIDAD, S.L.",
          "href": "https://api.euskadi.eus/procurements/companies/08319"
        }
      }
    },
    {
      "name": "EDUARDO ARRUTI LOPETEGUI",
      "registrationNumber": "08211",
      "identificationNumber": "44150915T",
      "address": "k/Usandizaga 10-2.ezk.",
      "location": {
        "postalCode": "20002",
        "municipality": "Donostia / San Sebastián",
        "county": "Gipuzkoa",
        "municipalityId": "069",
        "countyId": "20"
      },
      "economicActivities": [
        {
          "id": "2.421",
          "name": "Arquitectos técnicos y aparejadores",
          "_links": {
            "self": {
              "name": "Arquitectos técnicos y aparejadores",
              "href": "https://api.euskadi.eus/procurements/companies/economic-activities/2.421"
            }
          }
        }
      ],
      "certificateStartDate": "2022-10-11",
      "certificateEndDate": "2023-02-13",
      "object": "ARQUITECTOS TÉCNICOS Y APAREJADORES.",
      "mainEntityOfPage": "https://www.contratacion.euskadi.eus/webkpe00-kperoc/es/ac71aBusquedaRegistrosWar/empresa/08211",
      "_links": {
        "self": {
          "name": "EDUARDO ARRUTI LOPETEGUI",
          "href": "https://api.euskadi.eus/procurements/companies/08211"
        }
      }
    },
    {
      "name": "INFORMACIÓN Y DESARROLLO, S.L.",
      "registrationNumber": "00606",
      "identificationNumber": "B48236251",
      "address": "C/ AVENIDA ZUGAZARTE, Nº 8 - 3ª. Dpto.1",
      "location": {
        "postalCode": "48930",
        "municipality": "Getxo",
        "county": "Bizkaia",
        "municipalityId": "044",
        "countyId": "48"
      },
      "economicActivities": [
        {
          "id": "1.847",
          "name": "Servicios de consultoría",
          "_links": {
            "self": {
              "name": "Servicios de consultoría",
              "href": "https://api.euskadi.eus/procurements/companies/economic-activities/1.847"
            }
          }
        }
      ],
      "certificateStartDate": "2022-10-11",
      "certificateEndDate": "2023-03-17",
      "object": "LA REALIZACIÓN DE ESTUDIOS ECONÓMICOS, SOCIALES Y TERRITORIALES, ASÍ COMO EL ASESORAMIENTO EN TALES MATERIAS",
      "mainEntityOfPage": "https://www.contratacion.euskadi.eus/webkpe00-kperoc/es/ac71aBusquedaRegistrosWar/empresa/00606",
      "_links": {
        "self": {
          "name": "INFORMACIÓN Y DESARROLLO, S.L.",
          "href": "https://api.euskadi.eus/procurements/companies/00606"
        }
      }
    },
    {
      "name": "ENBOR CONSULTORES SL",
      "registrationNumber": "08631",
      "identificationNumber": "B48989875",
      "address": "Barrio Txakale 8",
      "location": {
        "postalCode": "48392",
        "municipality": "Muxika",
        "county": "Bizkaia",
        "municipalityId": "067",
        "countyId": "48"
      },
      "economicActivities": [
        {
          "id": "1.151.4",
          "name": "Producción de energía no especificada en otros epígrafes",
          "_links": {
            "self": {
              "name": "Producción de energía no especificada en otros epígrafes",
              "href": "https://api.euskadi.eus/procurements/companies/economic-activities/1.151.4"
            }
          }
        },
        {
          "id": "1.425.1",
          "name": "Elaboración y crianza de vinos",
          "_links": {
            "self": {
              "name": "Elaboración y crianza de vinos",
              "href": "https://api.euskadi.eus/procurements/companies/economic-activities/1.425.1"
            }
          }
        },
        {
          "id": "1.681",
          "name": "Servicios de hospedaje en hoteles y moteles",
          "_links": {
            "self": {
              "name": "Servicios de hospedaje en hoteles y moteles",
              "href": "https://api.euskadi.eus/procurements/companies/economic-activities/1.681"
            }
          }
        },
        {
          "id": "1.849.9",
          "name": "Otros servicios independientes n.c.o.p",
          "_links": {
            "self": {
              "name": "Otros servicios independientes n.c.o.p",
              "href": "https://api.euskadi.eus/procurements/companies/economic-activities/1.849.9"
            }
          }
        }
      ],
      "certificateStartDate": "2022-10-10",
      "certificateEndDate": "2023-04-10",
      "object": "ESPECIALIZACIÓN EN ASUNTOS DE PERSONAL. REALIZACIÓN DE SERVICIOS DE ASESORÍA A LAS ORGANIZACIONES QUE DESEEN IMPLANTAR PROCESOS Y ACCIONES DE CAMBIO DE MEJORA CONTINUA, A TRAVÉS DE DIAGNÓSTICOS. CALIDAD TOTAL, AUTOEVALUACIÓN SEGÚN EL MODELO EFQM. AUDITORÍA DE PLANES DE FORMACIÓN EN EL ÁMBITO DE LA MEJORA CONTÍNUA. ÁREA DE GESTIÓN Y ÁREA DE DESARROLLO DE EQUIPOS DE TRABAJO Y DE DESARROLLO DE HABILIDADES SOCIALES Y RECURSOS HUMANOS.",
      "mainEntityOfPage": "https://www.contratacion.euskadi.eus/webkpe00-kperoc/es/ac71aBusquedaRegistrosWar/empresa/08631",
      "_links": {
        "self": {
          "name": "ENBOR CONSULTORES SL",
          "href": "https://api.euskadi.eus/procurements/companies/08631"
        }
      }
    },
    {
      "name": "RAMON CHAO SL",
      "registrationNumber": "08315",
      "identificationNumber": "B46263745",
      "address": "CARRETERA NACIONAL 332 Kilometro 191",
      "location": {
        "postalCode": "03740",
        "municipality": "Gata de Gorgos",
        "county": "Alicante/Alacant",
        "municipalityId": "071",
        "countyId": "03"
      },
      "economicActivities": [
        {
          "id": "1.151.4",
          "name": "Producción de energía no especificada en otros epígrafes",
          "_links": {
            "self": {
              "name": "Producción de energía no especificada en otros epígrafes",
              "href": "https://api.euskadi.eus/procurements/companies/economic-activities/1.151.4"
            }
          }
        },
        {
          "id": "1.468.5",
          "name": "Actividades anexas a la industria del mueble (acabado, barnizado,...)",
          "_links": {
            "self": {
              "name": "Actividades anexas a la industria del mueble (acabado, barnizado,...)",
              "href": "https://api.euskadi.eus/procurements/companies/economic-activities/1.468.5"
            }
          }
        },
        {
          "id": "1.619.9",
          "name": "Venta al por mayor de otros productos n.c.o.p",
          "_links": {
            "self": {
              "name": "Venta al por mayor de otros productos n.c.o.p",
              "href": "https://api.euskadi.eus/procurements/companies/economic-activities/1.619.9"
            }
          }
        }
      ],
      "certificateStartDate": "2022-10-10",
      "certificateEndDate": "2023-04-10",
      "object": "LA FABRICACIÓN, VENTA, COMERCIALIZACIÓN Y DISTRIBUCIÓN DE ATAÚDES Y ORNAMENTOS PARA LOS MISMOS, ACABADO DE MUEBLES DE MADERA Y AUXILIARES.",
      "mainEntityOfPage": "https://www.contratacion.euskadi.eus/webkpe00-kperoc/es/ac71aBusquedaRegistrosWar/empresa/08315",
      "_links": {
        "self": {
          "name": "RAMON CHAO SL",
          "href": "https://api.euskadi.eus/procurements/companies/08315"
        }
      }
    },
    {
      "name": "ARGITXU AGUERRE OLAIZOLA",
      "registrationNumber": "07687",
      "identificationNumber": "44611515W",
      "address": "Iturgaitzaga 2, 1 Izq, 2, 1izq",
      "location": {
        "postalCode": "20210",
        "municipality": "Lazkao",
        "county": "Gipuzkoa",
        "municipalityId": "049",
        "countyId": "20"
      },
      "economicActivities": [
        {
          "id": "2.421",
          "name": "Arquitectos técnicos y aparejadores",
          "_links": {
            "self": {
              "name": "Arquitectos técnicos y aparejadores",
              "href": "https://api.euskadi.eus/procurements/companies/economic-activities/2.421"
            }
          }
        }
      ],
      "certificateStartDate": "2022-10-10",
      "certificateEndDate": "2023-04-10",
      "object": "ARQUITECTOS TÉCNICOS Y APAREJADORES",
      "mainEntityOfPage": "https://www.contratacion.euskadi.eus/webkpe00-kperoc/es/ac71aBusquedaRegistrosWar/empresa/07687",
      "_links": {
        "self": {
          "name": "ARGITXU AGUERRE OLAIZOLA",
          "href": "https://api.euskadi.eus/procurements/companies/07687"
        }
      }
    },
    {
      "name": "FUNDACION MIRANDA",
      "registrationNumber": "08629",
      "identificationNumber": "G48094270",
      "address": "Avda. Miranda, 4",
      "location": {
        "postalCode": "48902",
        "municipality": "Barakaldo",
        "county": "Bizkaia",
        "municipalityId": "013",
        "countyId": "48"
      },
      "economicActivities": [
        {
          "id": "1.861.2",
          "name": "Alquiler de locales industriales y otros alquileres n.c.o.p",
          "_links": {
            "self": {
              "name": "Alquiler de locales industriales y otros alquileres n.c.o.p",
              "href": "https://api.euskadi.eus/procurements/companies/economic-activities/1.861.2"
            }
          }
        },
        {
          "id": "1.951",
          "name": "Asistencia y servicios sociales en centros residenciales",
          "_links": {
            "self": {
              "name": "Asistencia y servicios sociales en centros residenciales",
              "href": "https://api.euskadi.eus/procurements/companies/economic-activities/1.951"
            }
          }
        }
      ],
      "certificateStartDate": "2022-10-10",
      "certificateEndDate": "2023-04-07",
      "object": "REGIR Y GOBERNAR UNA RESIDENCIA, CONSTITUIDA EN SU DÍA POR LA FUNDACIÓN MIRANDA, PARA PERSONAS MAYORES DE LIMITADOS RECURSOS ECONÓMICOS Y QUE SEAN NATURALES DE BARAKALDO. IGUALMENTE LA FUNDACIÓN, CUMPLIDO SU FIN PRINCIPAL DE ATENDER A SUS PROPIAS INSTALACIONES A LOS BENEFICIARIOS QUE EN LOS PRESENTES ESTATUTOS SE DETERMINAN, PODRÁ PRESTAR SUS SERVICIOS ASISTENCIALES MEDIANTE CENTROS DE DÍA, ASISTENCIA DOMICILIARIA O BAJO CUALQUIER OTRA MODALIDAD QUE EL PATRONATO CONSIDERE OPORTUNO.\n",
      "mainEntityOfPage": "https://www.contratacion.euskadi.eus/webkpe00-kperoc/es/ac71aBusquedaRegistrosWar/empresa/08629",
      "_links": {
        "self": {
          "name": "FUNDACION MIRANDA",
          "href": "https://api.euskadi.eus/procurements/companies/08629"
        }
      }
    }
  ]
}