{
  "totalItems": 9042,
  "totalPages": 905,
  "currentPage": 626,
  "itemsOfPage": 10,
  "items": [
    {
      "name": "ARANDAKI, S.L.",
      "registrationNumber": "02448",
      "identificationNumber": "B01192426",
      "address": "PORTAL DE GAMARRA, 9. PAB. 24",
      "location": {
        "postalCode": "01080",
        "municipality": "Vitoria-Gasteiz",
        "county": "Araba/Álava",
        "municipalityId": "059",
        "countyId": "01"
      },
      "economicActivities": [
        {
          "id": "1.617.8",
          "name": "Venta al por mayor de máquinas y material de oficina",
          "_links": {
            "self": {
              "name": "Venta al por mayor de máquinas y material de oficina",
              "href": "https://api.euskadi.eus/procurements/companies/economic-activities/1.617.8"
            }
          }
        }
      ],
      "certificateStartDate": "2018-09-20",
      "certificateEndDate": "2019-03-20",
      "object": "EL COMERCIO AL POR MAYOR DE TODO TIPO DE MATERIAL DE OFICINA, ASÍ COMO MAQUINARIA DE OFICINA",
      "mainEntityOfPage": "https://www.contratacion.euskadi.eus/webkpe00-kperoc/es/ac71aBusquedaRegistrosWar/empresa/02448",
      "_links": {
        "self": {
          "name": "ARANDAKI, S.L.",
          "href": "https://api.euskadi.eus/procurements/companies/02448"
        }
      }
    },
    {
      "name": "ROFF ESPAÑA CONSULTORES  INDEPENDIENTES, S.A.",
      "registrationNumber": "05859",
      "identificationNumber": "A78897964",
      "address": "Calle Serrano Galvache nº 56, Edificio Olmo, 6ª planta",
      "location": {
        "postalCode": "28033",
        "municipality": "Madrid",
        "county": "Madrid",
        "municipalityId": "079",
        "countyId": "28"
      },
      "economicActivities": [
        {
          "id": "1.849.4",
          "name": "Servicios de custodia, seguridad y protección",
          "_links": {
            "self": {
              "name": "Servicios de custodia, seguridad y protección",
              "href": "https://api.euskadi.eus/procurements/companies/economic-activities/1.849.4"
            }
          }
        }
      ],
      "certificateStartDate": "2018-09-20",
      "certificateEndDate": "2019-01-06",
      "object": "- LA INVESTIGACIÓN, EL DESARROLLO, FABRICACIÓN, IMPORTACIÓN, EXPORTACIÓN, ARRENDAMIENTO Y COMERCIALIZACIÓN PARA SU PROPIO USO Y CONSUMO DE PRODUCTOS Y EQUIPOS INFORMÁTICOS, ELECTRÓNICOS Y DE TELECOMUNICACIÓN EN GENERAL, RELACIONADOS CON LA SEGURIDAD. - LA INVESTIGACIÓN, Y MANTENIMIENTO DE APARATOS, DISPOSITIVOS Y SISTEMAS DE SEGURIDAD. - PLANIFICACIÓN Y ASESORAMIENTO DE LAS ACTIVIDADES DE SEGURIDAD PRIVADA",
      "mainEntityOfPage": "https://www.contratacion.euskadi.eus/webkpe00-kperoc/es/ac71aBusquedaRegistrosWar/empresa/05859",
      "_links": {
        "self": {
          "name": "ROFF ESPAÑA CONSULTORES  INDEPENDIENTES, S.A.",
          "href": "https://api.euskadi.eus/procurements/companies/05859"
        }
      }
    },
    {
      "name": "CUADRA BUS, S.L.",
      "registrationNumber": "03142",
      "identificationNumber": "B48046692",
      "address": "C/GURTUBAY, 1",
      "location": {
        "postalCode": "48013",
        "municipality": "Bilbao",
        "county": "Bizkaia",
        "municipalityId": "020",
        "countyId": "48"
      },
      "economicActivities": [
        {
          "id": "1.721.3",
          "name": "Transporte de viajeros por carretera",
          "_links": {
            "self": {
              "name": "Transporte de viajeros por carretera",
              "href": "https://api.euskadi.eus/procurements/companies/economic-activities/1.721.3"
            }
          }
        },
        {
          "id": "1.854.1",
          "name": "Alquiler de automóviles sin conductor",
          "_links": {
            "self": {
              "name": "Alquiler de automóviles sin conductor",
              "href": "https://api.euskadi.eus/procurements/companies/economic-activities/1.854.1"
            }
          }
        },
        {
          "id": "1.861.2",
          "name": "Alquiler de locales industriales y otros alquileres n.c.o.p",
          "_links": {
            "self": {
              "name": "Alquiler de locales industriales y otros alquileres n.c.o.p",
              "href": "https://api.euskadi.eus/procurements/companies/economic-activities/1.861.2"
            }
          }
        }
      ],
      "certificateStartDate": "2018-09-17",
      "certificateEndDate": "2019-03-04",
      "object": "LA ADQUISICIÓN Y EXPLOTACIÓN DE TODA CLASE DE LÍNEAS DE TRANSPORTE MECÁNICO POR CARRETERAS O AUTOVÍAS, YA SE TRATE DE CONCESIONES CON DERECHO A LA EXCLUSIVA O NO Y SEAN DE VIAJEROS O DE MERCANCÍAS  EN COMBINACIÓN O NO CON FERROCARRILES Y TRANVÍAS; Y EL ESTABLECIMIENTO Y EXPLOTACIÓN DE DESPACHOS CENTRALES PARA LA EXPEDICIÓN DE BILLETES  COMBINADOS CON OTROS MEDIOS DE TRANSPORTE, RECEPCIÓN Y ENTREGA DE MERCANCÍAS",
      "mainEntityOfPage": "https://www.contratacion.euskadi.eus/webkpe00-kperoc/es/ac71aBusquedaRegistrosWar/empresa/03142",
      "_links": {
        "self": {
          "name": "CUADRA BUS, S.L.",
          "href": "https://api.euskadi.eus/procurements/companies/03142"
        }
      }
    },
    {
      "name": "ENTELGY CONSULTING, S.A.",
      "registrationNumber": "03035",
      "identificationNumber": "A83456202",
      "address": "ORENSE, 70",
      "location": {
        "postalCode": "28020",
        "municipality": "Madrid",
        "county": "Madrid",
        "municipalityId": "079",
        "countyId": "28"
      },
      "economicActivities": [
        {
          "id": "1.845",
          "name": "Explotación electrónica por cuenta de terceros",
          "_links": {
            "self": {
              "name": "Explotación electrónica por cuenta de terceros",
              "href": "https://api.euskadi.eus/procurements/companies/economic-activities/1.845"
            }
          }
        },
        {
          "id": "1.932.2",
          "name": "Enseñanza de formación y perfeccionamiento profesional superior",
          "_links": {
            "self": {
              "name": "Enseñanza de formación y perfeccionamiento profesional superior",
              "href": "https://api.euskadi.eus/procurements/companies/economic-activities/1.932.2"
            }
          }
        }
      ],
      "certificateStartDate": "2018-09-14",
      "certificateEndDate": "2019-03-13",
      "object": "A) LA PRESTACIÓN DE SERVICIOS DE ASESORAMIENTO Y CONSULTORÍA GLOBAL Y DE GESTIÓN DE EMPRESAS, SOCIEDADES, ENTIDADES, ORGANISMOS E INSTITUCIONES DE CUALQUIER TIPO O ÁMBITO EN TODOS LOS CAMPOS, TÉCNICO, ORGANIZATIVO, ECONÓMICO, FINANCIERO, ADMINISTRATIVO E INFORMÁTICO; B) EL ANÁLISIS, DISEÑO, CREACIÓN, FABRICACIÓN, DESARROLLO, IMPLANTACIÓN, PROGRAMACIÓN Y COMERCIALIZACIÓN DE ESTUDIOS, TRABAJOS, APLICACIONES, PROGRAMAS Y SOLUCIONES INFORMÁTICAS; C) LA ENSEÑANZA Y FORMACIÓN MEDIANTE LA ORGANIZACIÓN E IMPARTICIÓN DE SEMINARIOS, CONFERENCIAS Y CURSOS EN ESTE SECTOR; D) LA REALIZACIÓN DE CHEQUEOS, INFORMES, AUDITORÍAS Y REVISIONES INFORMÁTICAS; E) LA INVESTIGACIÓN Y DESARROLLO DE TECNOLOGÍAS RELATIVAS A LA COMPUTACIÓN, ALGORITMOS Y APLICACIONES INFORMÁTICAS; F) LA COMERCIALIZACIÓN Y DISTRIBUCIÓN DE SOLUCIONES, MAQUINARIA  Y PRODUCTOS INFORMÁTICOS YA SEAN PROPIOS O AJENOS",
      "mainEntityOfPage": "https://www.contratacion.euskadi.eus/webkpe00-kperoc/es/ac71aBusquedaRegistrosWar/empresa/03035",
      "_links": {
        "self": {
          "name": "ENTELGY CONSULTING, S.A.",
          "href": "https://api.euskadi.eus/procurements/companies/03035"
        }
      }
    },
    {
      "name": "BABESTEN, S.L.",
      "registrationNumber": "05841",
      "identificationNumber": "B95562500",
      "address": "GREGORIO DE LA REVILLA 27, 3º",
      "location": {
        "postalCode": "48010",
        "municipality": "Bilbao",
        "county": "Bizkaia",
        "municipalityId": "020",
        "countyId": "48"
      },
      "economicActivities": [
        {
          "id": "1.849.7",
          "name": "Servicios de gestión administrativa",
          "_links": {
            "self": {
              "name": "Servicios de gestión administrativa",
              "href": "https://api.euskadi.eus/procurements/companies/economic-activities/1.849.7"
            }
          }
        },
        {
          "id": "1.932.1",
          "name": "Enseñanza de formación y perfeccionamiento profesional no superior",
          "_links": {
            "self": {
              "name": "Enseñanza de formación y perfeccionamiento profesional no superior",
              "href": "https://api.euskadi.eus/procurements/companies/economic-activities/1.932.1"
            }
          }
        },
        {
          "id": "1.951",
          "name": "Asistencia y servicios sociales en centros residenciales",
          "_links": {
            "self": {
              "name": "Asistencia y servicios sociales en centros residenciales",
              "href": "https://api.euskadi.eus/procurements/companies/economic-activities/1.951"
            }
          }
        },
        {
          "id": "1.952",
          "name": "Asistencia y servicios sociales en centros no residenciales",
          "_links": {
            "self": {
              "name": "Asistencia y servicios sociales en centros no residenciales",
              "href": "https://api.euskadi.eus/procurements/companies/economic-activities/1.952"
            }
          }
        }
      ],
      "certificateStartDate": "2018-09-12",
      "certificateEndDate": "2018-10-19",
      "object": "LA PRESTACIÓN DE TODO TIPO DE SEVICIOS DE ASISTENCIA SOCIAL, SANITARIA, GERONTOLÓGICO, ASISTENCIAL Y PSICOLÓGICA MEDIANTE PERSONAL CUALIFICADO (MÉDICOS, PSICÓLOGOS, PEDAGOGOS, DIPLOMADOS UNIVERSITARIOS EN ENFERMERÍA, ASISTENTES SOCIALES, FISIOTERAPEUTAS OCUPACIONALES, ETC) A LOS SIGUIENTES COLECTIVOS: ANCIANOS, MINUSVÁLIDOS, FAMILIAS, INFANCIA, MUJERES SOLITARIAS CON CARGAS FAMILIARES NO COMPARTIDAS, DISCAPACITADOS FÍSICOS Y PSÍQUICOS Y PERSONAS O GRUPOS DE POBLACIÓN EN SITUACIÓN DE NECESIDAD, MEDIANTE LA REALIZACIÓN DE LAS SIGUIENTES TAREAS: TELE-ASISTENCIA DOMICILIARIAS Y SOCIO-SANITARIA. EXPLOTACIÓN  O GESTIÓN, TOTAL O PARCIAL DE RESIDENCIAS, PISOS TUTELADOS, CENTROS DE DÍA, COMUNIDADES TERAPÉUTICAS Y OTROS CENTROS DE ACOGIDA Y REHABILITACIÓN. TRASLADO Y ACOMPAÑAMIENTO DE LOS COLECTIVOS  ANTE CITADOS. HOSPITALIZACIÓN A DOMICILIO Y AYUDA MÉDICA Y DE ENFERMERÍA A DOMICILIO. LA FORMACIÓN PROFESIONAL Y RECICLAJE DE LAS PERSONAS QUE PRESTEN LOS SERVICIOS EXPRESADOS EN LOS PUNTOS ANTERIORES. LA EXPLOTACIÓN DE SISTEMAS  DE COMUNICACIÓN RÁPIDA CON SERVICIOS PÚBLICOS ASISTENCIALES, COMO PUEDEN SER: POLICÍA, BOMBEROS, HOSPITALES, CENTROS MÉDICOS, ETC. REALIZAR INVESTIGACIONES, PROYECTOS Y ESTUDIOS EN ÁREAS  ASISTENCIALES, SOCIALES, RECURSOS COMUNITARIOS Y TODOS AQUELLOS QUE SE REFIERAN A LOS SERVICIOS ENUMERADOS EN EL PUNTO 1. ELABORACIÓN, CONDIMENTACIÓN Y DISTRIBUCIÓN DE COMIDAS, INCLUSO FUERA DE LAS OFICINAS DE LA EMPRESA (CATERING), PARA SUMINISTRO A TERCEROS. PRESTACIÓN DE SERVICIOS DE AYUDA DOMICILIARIA A TODAS AQUELLAS PERSONAS QUE, BIEN POR SU EDAD, CONDICIÓN FÍSICA, MENTAL, O DISMINUCIÓN D E TODAS AQUELLAS EN GENERAL, NO PUEDEN VALERSE POR SI MISMAS Y PRECISEN DE ESTE SERVICIO. ADMINISTRACIÓN  Y GESTIÓN DE SERVICIOS SOCIALES DE BASE INCLUIDOS EN INSTITUCIONES PÚBLICAS MUNICIPALES, PROVINCIALES, AUTONÓMICAS Y ESTATALES O DE CUALQUIER OTRA ÍNDOLE. PRESTACIÓN DE SERVICIOS DEPORTIVOS Y ORGANIZACIÓN DE ACTIVIDADES DEPORTIVAS, TANTO EN LOCALES O INFRAESTRUCTURAS DEPORTIVAS (POLIDEPORTIVOS, PATIOS ESCOLARES Y OTRAS INSTALACIONES), COMO AL AIRE LIBRE. CONSULTORÍA DEPORTIVA EN CUANTO A ORGANIZACIÓN A PLANES DE FORMACIÓN, CHARLAS, CONFERENCIAS, ASESORAMIENTO SOBRE DISEÑO DE INSTALACIONES DEPORTIVAS Y PREVENCIÓN DE RIESGOS EN LOCALES DEPORTIVOS",
      "mainEntityOfPage": "https://www.contratacion.euskadi.eus/webkpe00-kperoc/es/ac71aBusquedaRegistrosWar/empresa/05841",
      "_links": {
        "self": {
          "name": "BABESTEN, S.L.",
          "href": "https://api.euskadi.eus/procurements/companies/05841"
        }
      }
    },
    {
      "name": "TELEGESTIÓN INTEGRAL DE INSTALACIONES TÉCNICAS, S.L.",
      "registrationNumber": "05838",
      "identificationNumber": "B20826236",
      "address": "De acuerdo con lo previsto en el Art. 6 de la Ley Orgánica 15/ 1999 de Protecció",
      "location": {
        "postalCode": "20014",
        "municipality": "Donostia / San Sebastián",
        "county": "Gipuzkoa",
        "municipalityId": "069",
        "countyId": "20"
      },
      "economicActivities": [
        {
          "id": "1.843.1",
          "name": "Servicios técnicos de ingeniería",
          "_links": {
            "self": {
              "name": "Servicios técnicos de ingeniería",
              "href": "https://api.euskadi.eus/procurements/companies/economic-activities/1.843.1"
            }
          }
        }
      ],
      "certificateStartDate": "2018-09-10",
      "certificateEndDate": "2018-12-28",
      "object": "LA INSTALACIÓN DE AUTÓMATAS PROGRAMABLES PARA LA INDUSTRIA Y COMERCIALIZACIÓN DE SUS COMPONENTES",
      "mainEntityOfPage": "https://www.contratacion.euskadi.eus/webkpe00-kperoc/es/ac71aBusquedaRegistrosWar/empresa/05838",
      "_links": {
        "self": {
          "name": "TELEGESTIÓN INTEGRAL DE INSTALACIONES TÉCNICAS, S.L.",
          "href": "https://api.euskadi.eus/procurements/companies/05838"
        }
      }
    },
    {
      "name": "ORTOPEDIA SUMISAN, S.L.",
      "registrationNumber": "05836",
      "identificationNumber": "B20459277",
      "address": "Paseo de Colón, 5",
      "location": {
        "postalCode": "20001",
        "municipality": "Donostia / San Sebastián",
        "county": "Gipuzkoa",
        "municipalityId": "069",
        "countyId": "20"
      },
      "economicActivities": [
        {
          "id": "1.392.2",
          "name": "Fabricación de aparatos de prótesis y ortopedia",
          "_links": {
            "self": {
              "name": "Fabricación de aparatos de prótesis y ortopedia",
              "href": "https://api.euskadi.eus/procurements/companies/economic-activities/1.392.2"
            }
          }
        },
        {
          "id": "1.659.3",
          "name": "Venta al por menor de aparatos médicos, ortopédicos, ópticos y fotográficos",
          "_links": {
            "self": {
              "name": "Venta al por menor de aparatos médicos, ortopédicos, ópticos y fotográficos",
              "href": "https://api.euskadi.eus/procurements/companies/economic-activities/1.659.3"
            }
          }
        }
      ],
      "certificateStartDate": "2018-09-07",
      "certificateEndDate": "2018-12-14",
      "object": "LA MANUFACTURA , EL COMERCIO, LA IMPORTACIÓN Y EXPORTAICÓN AL POR MAYOR DE TODA CLASE DE PRODUCTOS PARA LA CIRUGÍA Y ORTOPEDIA",
      "mainEntityOfPage": "https://www.contratacion.euskadi.eus/webkpe00-kperoc/es/ac71aBusquedaRegistrosWar/empresa/05836",
      "_links": {
        "self": {
          "name": "ORTOPEDIA SUMISAN, S.L.",
          "href": "https://api.euskadi.eus/procurements/companies/05836"
        }
      }
    },
    {
      "name": "LINDE MEDICA, S.L.",
      "registrationNumber": "03845",
      "identificationNumber": "B82479387",
      "address": "Camino de Liria, s/nº",
      "location": {
        "postalCode": "46530",
        "municipality": "Puçol",
        "county": "Valencia/València",
        "municipalityId": "205",
        "countyId": "46"
      },
      "economicActivities": [
        {
          "id": "1.619.2",
          "name": "Venta al por mayor de aparatos e instrumentos médicos, ortopédicos, ópticos",
          "_links": {
            "self": {
              "name": "Venta al por mayor de aparatos e instrumentos médicos, ortopédicos, ópticos",
              "href": "https://api.euskadi.eus/procurements/companies/economic-activities/1.619.2"
            }
          }
        },
        {
          "id": "1.754.1",
          "name": "Depósitos y almacenes generales",
          "_links": {
            "self": {
              "name": "Depósitos y almacenes generales",
              "href": "https://api.euskadi.eus/procurements/companies/economic-activities/1.754.1"
            }
          }
        },
        {
          "id": "1.942.9",
          "name": "Otros servicios sanitarios sin internados, no clasificados",
          "_links": {
            "self": {
              "name": "Otros servicios sanitarios sin internados, no clasificados",
              "href": "https://api.euskadi.eus/procurements/companies/economic-activities/1.942.9"
            }
          }
        }
      ],
      "certificateStartDate": "2018-08-24",
      "certificateEndDate": "2019-02-10",
      "object": "1. LA PRODUCCIÓN, COMERCIALIZACIÓN, VENTA Y APROVECHAMIENTO DE PRODUCTOS QUÍMICOS Y ESPECIALMENTE DE TODO TIPO DE GASES INDUSTRIALES, MEDICINALES O DE OTRA NATURALEZA, PARA TODAS SUS APLICACIONES, TANTO EN LA INDUSTRIA COMO EN EL MERCADO DOMÉSTICO, EN EL MEDICINAL Y EN CUALQUIERA OTRO EN QUE RESULTEN DE UTILIDAD, EN CUALQUIERA DE SUS ESTADOS, ASÍ COMO LA PRODUCCIÓN, COMERCIALIZACIÓN, VENTA, CESIÓN DEL DISFRUTE, EL ARRENDAMIENTO O CUALQUIER OTRA FORMA LEGAL DE CESIÓN DEL USO, Y EL APROVECHAMIENTO DE TODO TIPO DE MAQUINARIA, EQUIPO, MATERIA PRIMA, PRODUCTO, SUBPRODUCTO Y OTRO MATERIAL USADO EN LA PRODUCCIÓN, COMERCIALIZACIÓN, VENTA O APROVECHAMIENTO DE DICHOS PRODUCTOS QUÍMICOS Y GASES.\r\n2. LA PRESTACIÓN DE SERVICIOS DE TERAPIAS RESPIRATORIAS DOMICILIARIAS BAJO CONTRATOS DE GESTIÓN DE SERVICIO PÚBLICO CON LAS DISTINTAS ADMINISTRACIONES SANITARIAS Y OTROS OPERADORES Y LA PRESTACIÓN DE TODO TIPO DE SERVICIOS, CUIDADOS Y TRATAMIENTOS MEDICINALES O DE BIENESTAR PERSONAL, A DOMICILIO O EN GABINETES U OTROS LOCALES ADECUADOS PARA EL EFECTO, ASÍ COMO LA PRODUCCIÓN, COMERCIALIZACIÓN, VENTA, CESIÓN DEL DISFRUTE, EL ARRENDAMIENTO O CUALQUIER OTRA FORMA LEGAL DE CESIÓN DEL USO, Y EL APROVECHAMIENTO DE TODO TIPO DE MAQUINARIA, EQUIPO, MATERIA PRIMA, PRODUCTO, SUBPRODUCTO Y OTRO MATERIAL USADO EN LA PRESTACIÓN DE DICHOS SERVICIOS.\r\n3. LA ADMINISTRACIÓN, GESTIÓN Y OPERACIÓN DE EDIFICIOS, CENTROS Y LOCALES DE RESIDENCIA, DE SERVICIOS, DE CUIDADOS O DE TRATAMIENTOS, INCLUIDOS LOS GERIÁTRICOS, DE REHABILITACIÓN O DE DIAGNÓSTICO, LA INSTALACIÓN, EQUIPAMIENTO Y APROVISIONAMIENTO DE LOS MISMOS, ASÍ COMO LA PRODUCCIÓN, COMERCIALIZACIÓN, VENTA, CESIÓN DEL DISFRUTE, EL ARRENDAMIENTO O CUALQUIER OTRA FORMA LEGAL DE CESIÓN DEL USO, Y EL APROVECHAMIENTO DE TODO TIPO DE MAQUINARIA, EQUIPO, MATERIA PRIMA, PRODUCTO, SUBPRODUCTO Y OTRO MATERIAL USADO PARA DICHOS FINES.\r\n4. LA PRODUCCIÓN, COMERCIALIZACIÓN, VENTA DE PRODUCTOS DE SOLDADURA ASÍ COMO LA PRODUCCIÓN, COMERCIALIZACIÓN, VENTA, CESIÓN DEL DISFRUTE, EL ARRENDAMIENTO O CUALQUIER OTRA FORMA LEGAL DE CESIÓN DEL USO, Y EL APROVECHAMIENTO DE TODO TIPO DE MAQUINARIA, EQUIPO, MATERIA PRIMA, PRODUCTO, SUBPRODUCTO Y OTRO MATERIAL USADO PARA DICHOS FINES.\r\n5. LA PRODUCCIÓN DE TODO TIPO DE ENERGÍA ELÉCTRICA PARA SU UTILIZACIÓN TOTAL O PARCIAL EN LAS INSTALACIONES PRODUCTIVAS DE LA COMPAÑÍA, ASÍ COMO LA COMERCIALIZACIÓN, VENTA, EXPLOTACIÓN Y APROVECHAMIENTO DE LOS EXCEDENTES NO AUTOCONSUMIDOS.\r\n6. LA PRODUCCIÓN, COMERCIALIZACIÓN, VENTA, CESIÓN DEL DISFRUTE, EL ARRENDAMIENTO O CUALQUIER OTRA FORMA LEGAL DE CESIÓN DEL USO, Y EL APROVECHAMIENTO Y EXPLOTACIÓN DE TODO TIPO DE PRODUCTOS INFORMÁTICOS, DE COMUNICACIONES Y DE NUEVAS TECNOLOGÍAS, INCLUYENDO EQUIPOS Y ELEMENTOS DE \"HARDWARE\" ASÍ COMO PROGRAMAS, APLICACIONES Y ELEMENTOS DE \"SOFTWARE\".\r\n7. LA PRESTACIÓN DE TODO TIPO DE SERVICIOS INFORMÁTICOS, DE APLICACIÓN DE NUEVAS TECNOLOGÍAS O DE COMUNICACIONES ASÍ COMO LOS RELACIONADOS CON ELLOS, CON EXCLUSIÓN DE AQUELLOS SERVICIOS DE COMUNICACIONES CUYA PRESTACIÓN REQUIERA AUTORIZACIÓN ESPECIAL, MIENTRAS NO CUENTE CON LAS AUTORIZACIONES REQUERIDAS PARA PRESTARLOS.\r\n8. LA PRESTACIÓN DE SERVICIOS Y LA COMERCIALIZACIÓN, VENTA, EXPLOTACIÓN Y APROVECHAMIENTO DE LAS TECNOLOGÍAS RELATIVAS A LOS PROCESOS PRODUCTIVOS, USOS Y APLICACIONES RELACIONADOS CON LAS ACTIVIDADES A QUE SE REFIEREN LOS PUNTOS ANTERIORES.\r\n9. LA PROPIEDAD, ARRENDAMIENTO O CUALQUIER OTRA FORMA DE ADQUISICIÓN DEL USO Y DEL DISFRUTE DE BIENES INMUEBLES, EL ARRENDAMIENTO O CUALQUIER OTRA FORMA DE CESIÓN DEL USO ASÍ COMO LA CESIÓN DEL DISFRUTE, LA EXPLOTACIÓN Y EL APROVECHAMIENTO DE BIENES INMUEBLES, Y LA CONSTRUCCIÓN DE EDIFICIOS, NAVES Y LOCALES, TODO ELLO ESPECIALMENTE CUANDO SE TRATE DE LOS EDIFICIOS, NAVES Y LOCALES Y DE LOS DEMÁS BIENES INMUEBLES DESTINADOS A LA PRODUCCIÓN DE LOS BIENES, A LA PRESTACIÓN DE LOS SERVICIOS O A LA REALIZACIÓN DE LAS DEMÁS ACTIVIDADES A QUE SE REFIEREN LOS PUNTOS ANTERIORES",
      "mainEntityOfPage": "https://www.contratacion.euskadi.eus/webkpe00-kperoc/es/ac71aBusquedaRegistrosWar/empresa/03845",
      "_links": {
        "self": {
          "name": "LINDE MEDICA, S.L.",
          "href": "https://api.euskadi.eus/procurements/companies/03845"
        }
      }
    },
    {
      "name": "GASTEIZ IRRATIA-RADIO VITORIA, S.A.",
      "registrationNumber": "02416",
      "identificationNumber": "A01026699",
      "address": "PASAJE DE POSTAS, S/N",
      "location": {
        "postalCode": "01001",
        "municipality": "Vitoria-Gasteiz",
        "county": "Araba/Álava",
        "municipalityId": "059",
        "countyId": "01"
      },
      "economicActivities": [
        {
          "id": "1.476.1",
          "name": "Edición de libros",
          "_links": {
            "self": {
              "name": "Edición de libros",
              "href": "https://api.euskadi.eus/procurements/companies/economic-activities/1.476.1"
            }
          }
        },
        {
          "id": "1.964.1",
          "name": "Servicios de radiodifusión",
          "_links": {
            "self": {
              "name": "Servicios de radiodifusión",
              "href": "https://api.euskadi.eus/procurements/companies/economic-activities/1.964.1"
            }
          }
        }
      ],
      "certificateStartDate": "2018-08-14",
      "certificateEndDate": "2018-11-07",
      "object": "a) LA PRODUCCIÓN Y DIFUSIÓN DE SONIDOS MEDIANTE EMISIONES RADIO-ELECTRICAS A TRAVES DE ONDAS O MEDIANTE CABLES DESTINADOS, MEDIATA O INMEDIATAMENTE, AL PÚBLICO EN GENERAL, CON FINES INFORMATIVOS, CULTURALES, ARTÍSTICOS, COMERCIALES, RECREATIVOS, PUBLICITARIOS, DE COOPERACIÓN CON EL SISTEMA EDUCATIVO, FOMENTO Y DIFUSIÓN DE LA CULTURA VASCA Y EN ESPECIAL EL FOMENTO Y DESARROLLO DEL EUSKERA.\r\n\r\nb) LA GESTIÓN, COMO SERVICIO PÚBLICO, DE LA EMISORA DE RADIODIFUSIÓN DENOMINADA \"RADIO VITORIA\" E.A.J.-62, CON TODAS SUS INSTALACIONES, PROPIEDADES Y CONCESIONES, ASÍ COMO DE CUALQUIER OTRA CONCESIÓN DE EMISORA RADIOFÓNICA QUE EN EL FUTURO PUEDA ASUMIR, PREVIOS LOS CORRESPONDIENTES TRÁMITES ADMINISTRATIVOS",
      "mainEntityOfPage": "https://www.contratacion.euskadi.eus/webkpe00-kperoc/es/ac71aBusquedaRegistrosWar/empresa/02416",
      "_links": {
        "self": {
          "name": "GASTEIZ IRRATIA-RADIO VITORIA, S.A.",
          "href": "https://api.euskadi.eus/procurements/companies/02416"
        }
      }
    },
    {
      "name": "RAZKIN ERAIKUNTZAK, S.L.",
      "registrationNumber": "03241",
      "identificationNumber": "B20842688",
      "address": "GASTAÑADUI, 15 BJ.",
      "location": {
        "postalCode": "20540",
        "municipality": "Eskoriatza",
        "county": "Gipuzkoa",
        "municipalityId": "034",
        "countyId": "20"
      },
      "economicActivities": [
        {
          "id": "1.501.2",
          "name": "Construcción completa, reparación y conservación obras civiles",
          "_links": {
            "self": {
              "name": "Construcción completa, reparación y conservación obras civiles",
              "href": "https://api.euskadi.eus/procurements/companies/economic-activities/1.501.2"
            }
          }
        },
        {
          "id": "1.833.2",
          "name": "Promoción de edificaciones",
          "_links": {
            "self": {
              "name": "Promoción de edificaciones",
              "href": "https://api.euskadi.eus/procurements/companies/economic-activities/1.833.2"
            }
          }
        }
      ],
      "certificateStartDate": "2018-08-13",
      "certificateEndDate": "2018-12-12",
      "object": "LA PROMOCIÓN, CONSTRUCCIÓN, REPARACIÓN Y CONSERVACIÓN DE EDIFICIOS Y OBRA CIVIL, LA ALBAÑILERÍA Y PEQUEÑOS TRABAJOS DE CONSTRUCCIÓN EN GENERAL, LA COMPRA Y VENTA DE EDIFICACIONES Y TERRENOS QUE TENGAN LA CONSIDERACIÓN DE SUELO Y OBRA PÚBLICA",
      "mainEntityOfPage": "https://www.contratacion.euskadi.eus/webkpe00-kperoc/es/ac71aBusquedaRegistrosWar/empresa/03241",
      "_links": {
        "self": {
          "name": "RAZKIN ERAIKUNTZAK, S.L.",
          "href": "https://api.euskadi.eus/procurements/companies/03241"
        }
      }
    }
  ]
}