{
  "totalItems": 9042,
  "totalPages": 905,
  "currentPage": 419,
  "itemsOfPage": 10,
  "items": [
    {
      "name": "SANDOZ FARMACÉUTICA, S.A",
      "registrationNumber": "07152",
      "identificationNumber": "A08233801",
      "address": "C/SERRANO GALVACHE, 56",
      "location": {
        "postalCode": "28033",
        "municipality": "Madrid",
        "county": "Madrid",
        "municipalityId": "079",
        "countyId": "28"
      },
      "economicActivities": [
        {
          "id": "1.614.1",
          "name": "Venta al por mayor de productos farmacéuticos y medicamentos",
          "_links": {
            "self": {
              "name": "Venta al por mayor de productos farmacéuticos y medicamentos",
              "href": "https://api.euskadi.eus/procurements/companies/economic-activities/1.614.1"
            }
          }
        }
      ],
      "certificateStartDate": "2024-06-04",
      "certificateEndDate": "2024-12-04",
      "object": "LA FABRICACIÓN DE TODA CLASE DE ESPECIALIDADES FARMACÉUTICAS, DAR Y RECIBIR LICENCIAS Y DERECHOS PARA LA FABRICACIÓN, ENVASADO Y VENTA DE TODA CLASE DE PRODUCTOS FARMACÉUTICOS",
      "mainEntityOfPage": "https://www.contratacion.euskadi.eus/webkpe00-kperoc/es/ac71aBusquedaRegistrosWar/empresa/07152",
      "_links": {
        "self": {
          "name": "SANDOZ FARMACÉUTICA, S.A",
          "href": "https://api.euskadi.eus/procurements/companies/07152"
        }
      }
    },
    {
      "name": "BASQUE DESTINATION SL",
      "registrationNumber": "08190",
      "identificationNumber": "B75096891",
      "address": "Camino Mundaiz, 50",
      "location": {
        "postalCode": "20012",
        "municipality": "Donostia / San Sebastián",
        "county": "Gipuzkoa",
        "municipalityId": "069",
        "countyId": "20"
      },
      "economicActivities": [
        {
          "id": "1.755",
          "name": "Agencias de viajes",
          "_links": {
            "self": {
              "name": "Agencias de viajes",
              "href": "https://api.euskadi.eus/procurements/companies/economic-activities/1.755"
            }
          }
        }
      ],
      "certificateStartDate": "2024-06-03",
      "certificateEndDate": "2024-12-03",
      "object": "Turismo, hostelería y restauración; prestación de servicios; actividades de gestión y administración; servicios educativos, sanitarios, de ocio y entretenimiento.",
      "mainEntityOfPage": "https://www.contratacion.euskadi.eus/webkpe00-kperoc/es/ac71aBusquedaRegistrosWar/empresa/08190",
      "_links": {
        "self": {
          "name": "BASQUE DESTINATION SL",
          "href": "https://api.euskadi.eus/procurements/companies/08190"
        }
      }
    },
    {
      "name": "CINTRATEC COMERCIAL DE SUMINISTROS INDUSTRIALES, S.L.",
      "registrationNumber": "09633",
      "identificationNumber": "B10944130",
      "address": "Polígono Industrial Proni C/D Nave 4",
      "location": {
        "postalCode": "33199",
        "municipality": "Siero",
        "county": "Asturias",
        "municipalityId": "066",
        "countyId": "33"
      },
      "economicActivities": [
        {
          "id": "1.617.9",
          "name": "Venta al por mayor interindustrial de otros productos n.c.o.p",
          "_links": {
            "self": {
              "name": "Venta al por mayor interindustrial de otros productos n.c.o.p",
              "href": "https://api.euskadi.eus/procurements/companies/economic-activities/1.617.9"
            }
          }
        }
      ],
      "certificateStartDate": "2024-06-03",
      "certificateEndDate": "2024-12-03",
      "object": "a)\tLA COMERCIALIZACIÓN DE REPUESTOS Y SUMINISTROS AL POR MAYOR PARA SECTOR INDUSTRIAL Y SECTOR DEL TRANSPORTE DE MERCANCÍAS Y PASAJEROS. B) COMERCIO AL POR MENOR DE ACCESORIOS Y PIEZAS DE RECAMBIO PARA VEHÍCULOS TERRESTRES. C) COMERCIO AL POR MENOR DE TODA CLASE DE MAQUINARIA (EXCEPTO APARATOS DE HOGAR, DE OFICINA, MÉDICOS, ORTOPÉDICOS, ÓPTICOS Y FOTOGRÁFICOS).",
      "mainEntityOfPage": "https://www.contratacion.euskadi.eus/webkpe00-kperoc/es/ac71aBusquedaRegistrosWar/empresa/09633",
      "_links": {
        "self": {
          "name": "CINTRATEC COMERCIAL DE SUMINISTROS INDUSTRIALES, S.L.",
          "href": "https://api.euskadi.eus/procurements/companies/09633"
        }
      }
    },
    {
      "name": "GESTION Y ORGANIZACION DE SERVICIOS Y PERSONAL PARA EMPRESAS, S.L.",
      "registrationNumber": "08071",
      "identificationNumber": "B20960548",
      "address": "CALLE BASO-TXIKI, 19 bajo",
      "location": {
        "postalCode": "20015",
        "municipality": "Donostia / San Sebastián",
        "county": "Gipuzkoa",
        "municipalityId": "069",
        "countyId": "20"
      },
      "economicActivities": [
        {
          "id": "1.849.8",
          "name": "Multiservicios intensivos en personal",
          "_links": {
            "self": {
              "name": "Multiservicios intensivos en personal",
              "href": "https://api.euskadi.eus/procurements/companies/economic-activities/1.849.8"
            }
          }
        },
        {
          "id": "1.965.1",
          "name": "Espectáculos en salas y locales (excepto los taurinos)",
          "_links": {
            "self": {
              "name": "Espectáculos en salas y locales (excepto los taurinos)",
              "href": "https://api.euskadi.eus/procurements/companies/economic-activities/1.965.1"
            }
          }
        }
      ],
      "certificateStartDate": "2024-06-02",
      "certificateEndDate": "2024-12-02",
      "object": "SERVICIOS DE SELECCIÓN, COLOCACIÓN Y SUMINISTRO DE PERSONAL. SERVICIOS DE LIMPIEZA, MANTENIMIENTO, CONTROL Y VIGILANCIA DE TODO TIPO DE INSTALACIONES PARA EMPRESAS, PARTICULARES Y COMUNIDADES CON O SIN APORTACIÓN DE MATERIALES Y/O MAQUINARIA. SERVICIOS DE RECOGIDA, ENTREGA Y TRANSPORTE DE TODO TIPO DE BIENES MUEBLES REALIZADOS POR O PARA EMPRESAS Y/O PARTICULARES CON LA UTILIZACIÓN DE MEDIOS PROPIOS O AJENOS. SERVICIOS DE RECADERÍA O REPARTO. ASÍ COMO TODOS LO RELACIONADO CON LOS SERVICIOS INTENSIVOS DE GESTIÓN DE PERSONAL.",
      "mainEntityOfPage": "https://www.contratacion.euskadi.eus/webkpe00-kperoc/es/ac71aBusquedaRegistrosWar/empresa/08071",
      "_links": {
        "self": {
          "name": "GESTION Y ORGANIZACION DE SERVICIOS Y PERSONAL PARA EMPRESAS, S.L.",
          "href": "https://api.euskadi.eus/procurements/companies/08071"
        }
      }
    },
    {
      "name": "IOANA FLORENTINA",
      "registrationNumber": "09125",
      "identificationNumber": "79491319F",
      "address": "CALLE NAFARROA NUMERO 3",
      "location": {
        "postalCode": "48901",
        "municipality": "Barakaldo",
        "county": "Bizkaia",
        "municipalityId": "013",
        "countyId": "48"
      },
      "economicActivities": [
        {
          "id": "2.731",
          "name": "Abogados",
          "_links": {
            "self": {
              "name": "Abogados",
              "href": "https://api.euskadi.eus/procurements/companies/economic-activities/2.731"
            }
          }
        }
      ],
      "certificateStartDate": "2024-05-31",
      "certificateEndDate": "2024-11-30",
      "mainEntityOfPage": "https://www.contratacion.euskadi.eus/webkpe00-kperoc/es/ac71aBusquedaRegistrosWar/empresa/09125",
      "_links": {
        "self": {
          "name": "IOANA FLORENTINA",
          "href": "https://api.euskadi.eus/procurements/companies/09125"
        }
      }
    },
    {
      "name": "GESTIÓN URBANÍSTICA ALAVA 2000, S.L.",
      "registrationNumber": "02698",
      "identificationNumber": "B01307065",
      "address": "C/ SAN ANTONIO, 2 BAJO",
      "location": {
        "postalCode": "01005",
        "municipality": "Vitoria-Gasteiz",
        "county": "Araba/Álava",
        "municipalityId": "059",
        "countyId": "01"
      },
      "economicActivities": [
        {
          "id": "1.834",
          "name": "Servicios relativos a la propiedad inmobiliaria e industrial",
          "_links": {
            "self": {
              "name": "Servicios relativos a la propiedad inmobiliaria e industrial",
              "href": "https://api.euskadi.eus/procurements/companies/economic-activities/1.834"
            }
          }
        }
      ],
      "certificateStartDate": "2024-05-31",
      "certificateEndDate": "2024-11-28",
      "object": "LA GESTIÓN INTEGRAL DE URBANISMO, ENTENDIÉNDOSE EN ELLO COMPRENDIDO TODO TIPO DE ACTIVIDADES QUE TENGAN RELACIÓN CON LA MATERIA URBANÍSTICA COMO ESTUDIOS, ASESORAMIENTO, GESTIÓN, DESARROLLO, PLANIFICACIÓN, EJECUCIÓN EN TODO LO SUSCEPTIBLE Y RELACIONADO CON ESA MATERIA, EXCLUÍDAS LAS ACTIVIDADES DE COMPETENCIA PÚBLICA ADMINISTRATIVA Y AQUÉLLAS QUE LA LEGISLACIÓN EXIJA UNA TITULACIÓN ESPECÍFICA. LA ORDENACIÓN, URBANIZACIÓN, PARCELACIÓN, GESTIÓN, CONTROL, CONSTRUCCIÓN, MANTENIMIENTO Y CONSERVACIÓN, PROMOCIÓN, ADQUISICIÓN, TENENCIA, ENAJENACIÓN, VENTA, ARRENDAMIENTO, ADMINISTRACIÓN, CONTRATACIÓN DE TODA CLASE DE INMUEBLES, INFRAESTRUCTURAS, OBRAS, TERRENOS Y FINCAS RÚSTICAS O URBANAS, SOLARES, OBRAS, VIVIENDAS, LOCALES, GARAJES Y PABELLONES, Y DE DERECHOS SOBRE LOS MISMOS, COMO DERECHOS DE SUPERFICIE Y CONCESIONES ADMINISTRATIVAS EN CUALQUIERA DE SUS MODALIDADES. Y PARTICIPAR EN OTRAS SOCIEDADES Y AGRUPACIONES DE CARÁCTER MERCANTIL, EN PARTICULAR EN UNIONES TEMPORALES DE EMPRESAS, A TRAVÉS DE LAS CUALES PUEDA DESARROLLAR EL ANTERIOR OBJETO.",
      "mainEntityOfPage": "https://www.contratacion.euskadi.eus/webkpe00-kperoc/es/ac71aBusquedaRegistrosWar/empresa/02698",
      "_links": {
        "self": {
          "name": "GESTIÓN URBANÍSTICA ALAVA 2000, S.L.",
          "href": "https://api.euskadi.eus/procurements/companies/02698"
        }
      }
    },
    {
      "name": "EIS MARITIMO, S.A.",
      "registrationNumber": "08057",
      "identificationNumber": "A83192336",
      "address": "calle oquendo 23 - 4 planta",
      "location": {
        "postalCode": "28006",
        "municipality": "Madrid",
        "county": "Madrid",
        "municipalityId": "079",
        "countyId": "28"
      },
      "economicActivities": [
        {
          "id": "1.612.1",
          "name": "Venta al por mayor de toda clase de productos alimenticios, bebidas, tabaco",
          "_links": {
            "self": {
              "name": "Venta al por mayor de toda clase de productos alimenticios, bebidas, tabaco",
              "href": "https://api.euskadi.eus/procurements/companies/economic-activities/1.612.1"
            }
          }
        },
        {
          "id": "1.849.7",
          "name": "Servicios de gestión administrativa",
          "_links": {
            "self": {
              "name": "Servicios de gestión administrativa",
              "href": "https://api.euskadi.eus/procurements/companies/economic-activities/1.849.7"
            }
          }
        }
      ],
      "certificateStartDate": "2024-05-31",
      "certificateEndDate": "2024-11-30",
      "object": "A) LA GESTIÓN INTEGRAL DE PRESTACIÓN DE SERVICIOS Y SUMINISTROS A BUQUES. B) COMERCIO AL POR MAYOR, COMPRA Y VENTA, EJERCIDO DIRECTAMENTE O POR CUENTA DE TERCEROS, DE TODO TIPO DE PRODUCTOS DE ALIMENTACIÓN, BEBIDAS PERFUMERÍA, COMPLEMENTOS Y TABACOS CON ENTIDADES DE CARÁCTER PÚBLICO Y PRIVADO DE CUALQUIER CLASE.",
      "mainEntityOfPage": "https://www.contratacion.euskadi.eus/webkpe00-kperoc/es/ac71aBusquedaRegistrosWar/empresa/08057",
      "_links": {
        "self": {
          "name": "EIS MARITIMO, S.A.",
          "href": "https://api.euskadi.eus/procurements/companies/08057"
        }
      }
    },
    {
      "name": "2MAS2 PUBLICIDAD INTEGRAL S.L.",
      "registrationNumber": "06103",
      "identificationNumber": "B01313600",
      "address": "Florida 17 1º Izda",
      "location": {
        "postalCode": "01005",
        "municipality": "Vitoria-Gasteiz",
        "county": "Araba/Álava",
        "municipalityId": "059",
        "countyId": "01"
      },
      "economicActivities": [
        {
          "id": "1.844",
          "name": "Servicios de publicidad, relaciones públicas y similares",
          "_links": {
            "self": {
              "name": "Servicios de publicidad, relaciones públicas y similares",
              "href": "https://api.euskadi.eus/procurements/companies/economic-activities/1.844"
            }
          }
        },
        {
          "id": "1.964.1",
          "name": "Servicios de radiodifusión",
          "_links": {
            "self": {
              "name": "Servicios de radiodifusión",
              "href": "https://api.euskadi.eus/procurements/companies/economic-activities/1.964.1"
            }
          }
        }
      ],
      "certificateStartDate": "2024-05-30",
      "certificateEndDate": "2024-11-30",
      "object": "REALIZACIÓN DE TRABAJOS DE PUBLICIDAD, IMAGEN Y RELACIONES PÚBLICAS DE INTERÉS PÚBLICO Y PRIVADO EN TODO TIPO DE SOPORTES. PRESTAR SERVICIOS CULTURALES, RECREATIVOS, EDUCATIVOS, COMUNICACIONES Y TÉCNICOS EN EL CAMPO DE LA INDUSTRIA CINEMATOGRÁFICA Y LAS ARTES AUDIOVISUALES; PROMOCIÓN, DIFUSIÓN Y DISTRIBUCIÓN DE PELÍCULAS. LA PRESTACIÓN DEL SERVICIO PÚBLICO DE RADIODIFUSIÓN SONORA POR ONDAS MÉTRICAS CON MODULACIÓN DE FRECUENCIA A TRAVÉS DE LA GESTIÓN INDIRECTA TANTO DEL SERVICIO RADIODIFUSIÓN CON TECNOLOGÍA ANALÓGICA, COMO EL PRESTADO CON TECNOLOGÍA DIGITAL (DAB) EN LOS ÁMBITOS DE COBERTURA LOCAL QUE LA ADMINISTRACIÓN COMPETENTE AUTORICE MEDIANTE EL OTORGAMIENTO DEL PERTINENTE TÍTULO HABILITANTE, DE CONFORMIDAD CON LO ESTABLECIDO EN EL PLAN TÉCNICO NACIONAL DE RADIODIFUSIÓN SONORA DIGITAL TERRENAL. EN CONCRETO, LA EXPLOTACIÓN, EN GESTIÓN INDIRECTA, DEL SERVICIO PÚBLICO DE RADIODIFUSIÓN SONORA POR ONDAS MÉTRICAS CON MODULACIÓN DE FRECUENCIA, DE EMISORAS RADIOFÓNICAS DE CARÁCTER COMERCIAL, DE ÁMBITO LOCAL, PROVINCIAL, AUTONÓMICO Y ESTATAL. ASIMISMO TAMBIÉN PRESTARÁ SERVICIOS DE DIFUSIÓN, ENLACE Y TRANSMISIÓN DE SEÑALES CON RADIODIFUSIÓN SONORA EN ONDAS MÉTRICAS CON MODULACIÓN DE FRECUENCIA EN LAS TECNOLOGÍAS ANALÓGICA Y DIGITAL, MEDIANTE EL SISTEMA DE GESTIÓN INDIRECTA DE DICHOS SERVICIOS PÚBLICOS. LA CONSTRUCCIÓN, REHABILITACIÓN Y REALIZACIÓN DE TODO TIPO DE REFORMAS, POR CUENTA PROPIA O POR ENCARGO DE TERCEROS, DE VIVIENDAS, APARTAMENTOS, INSTALACIONES HOTELERAS, LOCALES COMERCIALES, PABELLONES INDUSTRIALES Y EN GENERAL BIENES INMUEBLES Y MUEBLES MÓVILES Y/O FIJOS. LA PROMOCIÓN, ADQUISICIÓN, VENTA Y EXPLOTACIÓN, MEDIANTE ARRENDAMIENTO O CUALQUIER OTRA FORMA JURÍDICA DE TODO TIPO DE SOLARES, VIVIENDAS, APARTAMENTOS, LOCALES COMERCIALES, PABELLONES INDUSTRIALES, Y EN GENERAL BIENES INMUEBLES Y MUEBLES MÓVILES Y/O FIJOS PROPIOS O AJENOS A LA SOCIEDAD. PRESTACIÓN DE SERVICIOS DE ASISTENCIA TÉCNICA, ASESORAMIENTO, GESTIÓN Y OTROS SIMILARES QUE GUARDEN RELACIÓN CON LA ADMINISTRACIÓN DE SOCIEDADES, ASOCIACIONES, AGRUPACIONES Y CUALQUIER OTRA ENTIDAD TANTO PÚBLICA O PRIVADA, SU ESTRUCTURA FINANCIERA, LEGAL, DE SUS PROCESOS PRODUCTIVOS O COMERCIALES, PRINCIPALMENTE LIGADAS AL MERCADO TURÍSTICO. REALIZACIÓN DE ACTIVIDADES DIRIGIDAS A UN CONOCIMIENTO INTEGRAL DEL MERCADO TURÍSTICO DESARROLLANDO PROYECTOS PARA SÍ O PARA EMPRESAS PRIVADAS APLICANDO HERRAMIENTAS DE PLANIFICACIÓN Y GESTIÓN PARA LA CREACIÓN DE PRODUCTO, COMERCIALIZACIÓN, FORMACIÓN DE PROFESIONALES, DESARROLLOS DE PLAN DE MARKETING, IMPLANTACIÓN Y GESTIÓN DE PÁGINAS WEB, DESARROLLO E IMPLANTACIÓN DE PROGRAMAS DE CALIDAD, ASÍ COMO LA REALIZACIÓN DE ESTUDIOS Y DESARROLLOS DE CONGRESOS, EVENTOS, CONVENCIONES RELACIONADAS CON ACTIVIDADES TURÍSTICAS PARA SÍ O EN RELACIÓN DE SERVICIOS PARA OTROS. LA PROMOCIÓN, EL FOMENTO DE EMPRESAS MEDIANTE LA PARTICIPACIÓN TEMPORAL O NO EN SU CAPITAL, MEDIANTE LA SUSCRIPCIÓN O ADQUISICIÓN DE ACCIONES O PARTICIPACIONES DE SOCIEDADES O AGRUPACIONES DEDICADAS A ACTIVIDADES DE CARÁCTER EMPRESARIAL. SUSCRIPCIÓN DE TÍTULOS DE RENTA FIJA EMITIDOS POR LAS ENTIDADES O AGRUPACIONES EN LAS QUE PARTICIPE, ASÍ COMO LA CONCESIÓN DE PRÉSTAMOS PARTICIPATIVOS Y CUENTAS EN PARTICIPACIÓN A LAS MISMAS",
      "mainEntityOfPage": "https://www.contratacion.euskadi.eus/webkpe00-kperoc/es/ac71aBusquedaRegistrosWar/empresa/06103",
      "_links": {
        "self": {
          "name": "2MAS2 PUBLICIDAD INTEGRAL S.L.",
          "href": "https://api.euskadi.eus/procurements/companies/06103"
        }
      }
    },
    {
      "name": "BERGARA MARGOAK, S.L.",
      "registrationNumber": "02931",
      "identificationNumber": "B20729760",
      "address": "AMILLAGA, 1-PL.1-PAB. 1. APDO. 162",
      "location": {
        "postalCode": "20570",
        "municipality": "Bergara",
        "county": "Gipuzkoa",
        "municipalityId": "074",
        "countyId": "20"
      },
      "economicActivities": [
        {
          "id": "1.468.5",
          "name": "Actividades anexas a la industria del mueble (acabado, barnizado,...)",
          "_links": {
            "self": {
              "name": "Actividades anexas a la industria del mueble (acabado, barnizado,...)",
              "href": "https://api.euskadi.eus/procurements/companies/economic-activities/1.468.5"
            }
          }
        },
        {
          "id": "1.505.1",
          "name": "Revestimientos exteriores e interiores de todas clases",
          "_links": {
            "self": {
              "name": "Revestimientos exteriores e interiores de todas clases",
              "href": "https://api.euskadi.eus/procurements/companies/economic-activities/1.505.1"
            }
          }
        }
      ],
      "certificateStartDate": "2024-05-30",
      "certificateEndDate": "2024-11-30",
      "object": "LAS ACTIVIDADES QUE SEGUIDAMENTE SE DETALLAN, QUE PODRÁN SER REALIZADAS POR LA SOCIEDAD, YA DIRECTAMENTE, YA INDIRECTAMENTE, INCLUSO MEDIANTE SU PARTICIPACIÓN EN OTRAS SOCIEDADES DE OBJETO IDÉNTICO O ANÁLOGO: \" AISLAMIENTOS TÉRMICOS Y ACÚSTICOS. TRATAMIENTO INTEGRAL DE PAVIMENTOS. RESTAURACIÓN. PINTURA INDUSTRIAL Y DECORATIVA. DECORACIÓN\"",
      "mainEntityOfPage": "https://www.contratacion.euskadi.eus/webkpe00-kperoc/es/ac71aBusquedaRegistrosWar/empresa/02931",
      "_links": {
        "self": {
          "name": "BERGARA MARGOAK, S.L.",
          "href": "https://api.euskadi.eus/procurements/companies/02931"
        }
      }
    },
    {
      "name": "JON GANZARAIN EPELDE",
      "registrationNumber": "08639",
      "identificationNumber": "15990063A",
      "address": "Pablo vi nº20-2i",
      "location": {
        "postalCode": "20730",
        "municipality": "Azpeitia",
        "county": "Gipuzkoa",
        "municipalityId": "018",
        "countyId": "20"
      },
      "economicActivities": [
        {
          "id": "2.411",
          "name": "Arquitectos",
          "_links": {
            "self": {
              "name": "Arquitectos",
              "href": "https://api.euskadi.eus/procurements/companies/economic-activities/2.411"
            }
          }
        }
      ],
      "certificateStartDate": "2024-05-30",
      "certificateEndDate": "2024-11-29",
      "object": "ARQUITECTOS.",
      "mainEntityOfPage": "https://www.contratacion.euskadi.eus/webkpe00-kperoc/es/ac71aBusquedaRegistrosWar/empresa/08639",
      "_links": {
        "self": {
          "name": "JON GANZARAIN EPELDE",
          "href": "https://api.euskadi.eus/procurements/companies/08639"
        }
      }
    }
  ]
}