{
  "totalItems": 9042,
  "totalPages": 905,
  "currentPage": 449,
  "itemsOfPage": 10,
  "items": [
    {
      "name": "BERKOA, S.COOP. PEQUEÑA",
      "registrationNumber": "05957",
      "identificationNumber": "F75150169",
      "address": "Ibaitarte, 20",
      "location": {
        "postalCode": "20870",
        "municipality": "Elgoibar",
        "county": "Gipuzkoa",
        "municipalityId": "032",
        "countyId": "20"
      },
      "economicActivities": [
        {
          "id": "1.322.1",
          "name": "Construcción de máquinas para trabajar los metales",
          "_links": {
            "self": {
              "name": "Construcción de máquinas para trabajar los metales",
              "href": "https://api.euskadi.eus/procurements/companies/economic-activities/1.322.1"
            }
          }
        }
      ],
      "certificateStartDate": "2023-09-05",
      "certificateEndDate": "2024-03-05",
      "object": "LA REPARACIÓN, FABRICACIÓN, COMERCIALIZACIÓN Y TRANSFORMACIÓN DE TODO TIPO DE MAQUINARIA: MAQUINARIA INDUSTRIAL, MAQUINA HERRAMIENTA, MAQUINARIA PARA CENTROS FORMATIVOS. COMPRA VENTA DE TODOS SUS ACCESORIOS. COMISIONES SOBRE COMPRAVENTAS DE MAQUINARIA",
      "mainEntityOfPage": "https://www.contratacion.euskadi.eus/webkpe00-kperoc/es/ac71aBusquedaRegistrosWar/empresa/05957",
      "_links": {
        "self": {
          "name": "BERKOA, S.COOP. PEQUEÑA",
          "href": "https://api.euskadi.eus/procurements/companies/05957"
        }
      }
    },
    {
      "name": "KOMALINGUA,S.L.",
      "registrationNumber": "06268",
      "identificationNumber": "B01341619",
      "address": "SIERRA DE ANDIA, 2 - OF.26D",
      "location": {
        "postalCode": "01010",
        "municipality": "Vitoria-Gasteiz",
        "county": "Araba/Álava",
        "municipalityId": "059",
        "countyId": "01"
      },
      "economicActivities": [
        {
          "id": "1.933.9",
          "name": "Otras actividades de enseñanza tales como idiomas, mecanografía",
          "_links": {
            "self": {
              "name": "Otras actividades de enseñanza tales como idiomas, mecanografía",
              "href": "https://api.euskadi.eus/procurements/companies/economic-activities/1.933.9"
            }
          }
        }
      ],
      "certificateStartDate": "2023-09-05",
      "certificateEndDate": "2024-03-05",
      "object": "LA ENSEÑANZA DE IDIOMAS, LA PRESTACIÓN DE SERVICOS DE TRADUCCIÓN, SERVICIO DE INTÉRPRETES Y AUDITORÍA LINGÜÍSTICA A PARTICULARES, EMPRESAS Y ENTES PÚBLICOS, LA FORMACIÓN Y ENSEÑANZA DE DIFERENTES MATERIAS COMO INFORMÁTICA, SANIDAD, NUEVAS TECNOLOGÍAS, AUDITORÍAS Y SISTEMAS DE CALIDAD, ASÍ COMO ACTIVIDADES AUXILIARES Y COMPLEMENTARIAS A LAS ANTERIORMENTE DESCRITAS",
      "mainEntityOfPage": "https://www.contratacion.euskadi.eus/webkpe00-kperoc/es/ac71aBusquedaRegistrosWar/empresa/06268",
      "_links": {
        "self": {
          "name": "KOMALINGUA,S.L.",
          "href": "https://api.euskadi.eus/procurements/companies/06268"
        }
      }
    },
    {
      "name": "TECMARIN 1990, S.L.",
      "registrationNumber": "08637",
      "identificationNumber": "B45646890",
      "address": "CALLE LAREDO 500",
      "location": {
        "postalCode": "45950",
        "municipality": "Casarrubios del Monte",
        "county": "Toledo",
        "municipalityId": "041",
        "countyId": "45"
      },
      "economicActivities": [
        {
          "id": "1.843.9",
          "name": "Otros servicios técnicos n.c.o.p",
          "_links": {
            "self": {
              "name": "Otros servicios técnicos n.c.o.p",
              "href": "https://api.euskadi.eus/procurements/companies/economic-activities/1.843.9"
            }
          }
        }
      ],
      "certificateStartDate": "2023-09-04",
      "certificateEndDate": "2024-03-04",
      "object": "LA PRESTACIÓN DE SERVICIOS TÉCNICOS DE ARQUITECTURA E INGENIERÍA, ASÍ COMO LA REALIZACIÓN DE TODO TIPO DE TRABAJOS, PROYECTOS Y ESTUDIOS RELACIONADOS CON EL MEDIO AMBIENTE, GEOLOGÍA, SONDEOS, ARQUEOLOGÍA, BIOLOGÍA Y COMUNICACIONES EN TODAS SUS MODALIDADES Y TÉCNICAS, INCLUSO ARRENDAMIENTO, NO FINANCIERO, VENTA, IMPORTACIÓN Y EXPORTACIÓN DE EQUIPOS, DISEÑO Y FABRICACIÓN DE LOS MISMOS.",
      "mainEntityOfPage": "https://www.contratacion.euskadi.eus/webkpe00-kperoc/es/ac71aBusquedaRegistrosWar/empresa/08637",
      "_links": {
        "self": {
          "name": "TECMARIN 1990, S.L.",
          "href": "https://api.euskadi.eus/procurements/companies/08637"
        }
      }
    },
    {
      "name": "ACEV INTEGRAL GESTION SL",
      "registrationNumber": "08644",
      "identificationNumber": "B95554739",
      "address": "SABINO ARANA 47 BAJO",
      "location": {
        "postalCode": "48013",
        "municipality": "Bilbao",
        "county": "Bizkaia",
        "municipalityId": "020",
        "countyId": "48"
      },
      "economicActivities": [
        {
          "id": "1.834",
          "name": "Servicios relativos a la propiedad inmobiliaria e industrial",
          "_links": {
            "self": {
              "name": "Servicios relativos a la propiedad inmobiliaria e industrial",
              "href": "https://api.euskadi.eus/procurements/companies/economic-activities/1.834"
            }
          }
        }
      ],
      "certificateStartDate": "2023-09-04",
      "certificateEndDate": "2024-03-04",
      "object": "A) LA ADQUISICIÓN Y TENENCIA DE VALORES MOBILIARIOS CON LA FINALIDAD DE DIRIGIR, GESTIONAR Y ADMINISTRAR DICHAS PARTICIPACIONES FILIALES, DISPONIENDO A TAL EFECTO DE LA ADECUADA ORGANIZACIÓN DE MEDIOS MATERIALES Y PERSONALES QUE PERMITA ADOPTAR LAS DECISIONES NECESARIAS DE CARA A LA CORRECTA ADMINISTRACIÓN DE LAS MISMAS Y DEL CUMPLIMIENTO DE LAS OBLIGACIONES DERIVADAS DE SU CONDICIÓN DE SOCIO. B) LA INTERVENCIÓN EN LA DIRECCIÓN Y GESTIÓN DEL CONJUNTO DE ACTIVIDADES EMPRESARIALES DESARROLLADAS POR LAS SOCIEDADES PARTICIPADAS, DIRECTA O INDIRECTAMENTE ACTUANDO EN SUS ÓRGANOS DE ADMINSITRACIÓN, DIRECCIÓN Y GESTIÓN, EN SU ASESORAMIENTO Y ASISTENCIA TÉCNICA. C) LA PRESTACIÓN DE SERVICIOS DE APOYO A LA GESTIÓN, AO LAS SOCIEDADES PARITICPADAS EN EL ÁMBITO CONTABLE, ECONÓMICO, FINANCIERO, JURÍDICO, MERCANTIL Y ADMINISTRATIVO. D) LA SOCIEDAD PODRÁ REALIZAR LAS ACTIVIDADES QUE CONSITTUYEN SU OBJETO TOTAL O PARCIALMENTE DE UNA FORMA DIRECTA O MEDIANTE LA PARTICIPACIÓN EN OTRAS SOCIEDDES O ENTIDADES CON O SIN PERSONALIDAD JUR´DICIA. E) LA SOCIEDAD NO REALIZARÁ NINGUNA DE LAS ACTIVIDADES SUJETAS A RÉGIMEN DE AUTORIZACIÓN ESPECIAL Y LEGISLACIÓN ESPECIAL. F) CONSTRUCCIÓN, MONTAJE, DESMANTELAMIENTO Y DESGUACE DE TODA CLASE DE EQUIPOS, INSTALACIONES, PLANTAS INDUSTRIALES Y EDIFICIOS DE CUALQUIER TIPO, ASÍ COMO LA PRESTACIÓN DE SERVICIOS VARIOS, ESPECIALMENTE LOS DE OPERACIÓN, GESTIÓN Y MANTENIMIENTO DE INSTALACIONES O PLANTAS. G) ASESORÍA Y CONSULTORÍA. H) PRESTACIÓN DE SERVICIOS DE ASESORAMIENTO CONTABLE, ECONÓMICO, FINANCIERO, COMERCIAL, ADMINISTRATIVO Y TRIBUTARIO. I) LA PRMOCIÓN, CONSTRUCCIÓN, COMPRA, VENTA, ARRENDAMIENTO Y COMERCIALIZACIÓN EN GENERAL DE TODA CLASE DE EDIFICACIONES, TERRENOS, SOLARES, FINCAS RÚSTICAS Y URBANAS; LA EDIFICACIÓN, URBANIZACIÓN, EXCAVACIÓN, CIMENTACIÓN Y DERRIBO, BIEN POR CUENTA PROPIA COMO AJENA, ASÍ COMO LA ENAJENACIÓN, VENTA, ARRIENDO O EXPLOTACIÓN, EN CUALQUIER FORMA DE TODA CLASE DE INMUEBLES, EDIFICIOS, PISOS, APARTAMENTOS, LOCALES COMERCIALES O INDUSTRIALES, OFICINAS Y HOTELES OESTABLEICMIENTOS DE HOSTELERÍA EN GENERAL. J)TODA CLASE DE OPERACIONES INMOBILIARIAS SOBRE FINCAS RÚSTICAS Y URBANAS, PROMOCIÓN DE CONTRATOS O REALIZACIONES DE PARCELACIONES, URBANIZACIONES, CONSTRUCCIONES Y OBRAS PRIVADS O PÚBLICAS, LA VENTA, HIPOTECA, ARRENDAMIENTO, TRANSFORMACIÓN, MEJORA, ADMINISTRACIÓN, PUESTA EN EXPLOTACIÓN Y LA EXPLOTACIÓN MISMA, DE FINCAS RÚSTICAS Y URBANAS, LA ORGANIZACIÓN, PROMOCIÓN, ASESORAMIENTO, GESTIÓN EN SUCASO DE SOCIEDADES, COOPERATIVAS, COMUNIDADES, ENTIDADES, GRUPOS O EMPRESAS PARTICULARES ORIENTADAS A LA CONSTRUCCIÓN O URBANIZACIÓN, LA PLANIFICACIÓN Y ESTUDIO DE MERCADOS EN MATERIA INMOBILIARIA. K) LA GESTIÓN, DIRECCÓN Y EJECUCIÓN POR CUENTA PROPIA O AJENA DE TODA CLASE DE CONSTRUCCIONES, INSTALACIONES, REFORMAS, REHABILITACIONES, DECORACIONES Y OBRAS DE RESTAURACIÓN EXTERNA E INTERNA DE ESTRUCTURAS Y REVESTIMIENTOS DE EDIFICIOS Y MONUMENTOS, LIMPIEZA, IMPERMEABILIZACIÓN, TRATAMIENTO, PINTURA, RECONSTRUCCIÓN Y LA IMPLANTACIÓN, CUIDADO Y MANTENIMIENTO DE JARDINES Y EXPLOTACIONES FORESTALES. LA SUPERVISIÓN Y CONTROL DE OBRAS, ASÍ COMO LA COORDINACIÓN DE GREMIOS, EL ASESORAMIENTO Y LA ASISTENCIA TÉCNICA EN TODO CUANTO SE RELACIONE CON EL CAMPO DE LA CONSTRUCCIÓN DE EDIFICIOS Y DE LAS OBRAS PÚBLICAS O CIVILES. L) ADQUISICIÓN, TENENCIA, DISFRUTE, ADMINISTRACIÓN Y ENAJENACIÓN DE VALORES MOBILIARIOS DE RENTA FIJA O VARIABLE, EMITIDOS POR TODA CLASE DE EMPRESAS, POR CUENTA PROPIA Y CON EXCEPCIÓN DE LA INTERMEDIACIÓN, QUEDANDO FUERA LAS ACTIVIDADES OBJETO DE LA LEGISLACIÓN DE INSTITUCIONES DE INVERSIÓN COLECTIVA Y DE MERCADO DE VALORES. M)ESTAS ACTIVIDADES TAMBIÉN PODRÁN SER DESARROLLADAS, DE MODO INDIRECTO, MEDIANTE LA PARTICIPACIÓN EN SOCIEDADES CON ANÁLOGO OBJETO. N) ACUMULAR LOS EXCEDENTES DE LAS SOCIEDADES PARTICIPADAS Y DECIDIR SOBRE LA POLÍTICA DE INVERSIONES DEL GRUPO FAMILIAR.",
      "mainEntityOfPage": "https://www.contratacion.euskadi.eus/webkpe00-kperoc/es/ac71aBusquedaRegistrosWar/empresa/08644",
      "_links": {
        "self": {
          "name": "ACEV INTEGRAL GESTION SL",
          "href": "https://api.euskadi.eus/procurements/companies/08644"
        }
      }
    },
    {
      "name": "MALICAR, S.A.",
      "registrationNumber": "06333",
      "identificationNumber": "A48266886",
      "address": "PASEO CAMPO VOLANTIN, 24",
      "location": {
        "postalCode": "48007",
        "municipality": "Bilbao",
        "county": "Bizkaia",
        "municipalityId": "020",
        "countyId": "48"
      },
      "economicActivities": [
        {
          "id": "1.861.2",
          "name": "Alquiler de locales industriales y otros alquileres n.c.o.p",
          "_links": {
            "self": {
              "name": "Alquiler de locales industriales y otros alquileres n.c.o.p",
              "href": "https://api.euskadi.eus/procurements/companies/economic-activities/1.861.2"
            }
          }
        },
        {
          "id": "1.911",
          "name": "Servicios agrícolas y ganaderos",
          "_links": {
            "self": {
              "name": "Servicios agrícolas y ganaderos",
              "href": "https://api.euskadi.eus/procurements/companies/economic-activities/1.911"
            }
          }
        },
        {
          "id": "1.912",
          "name": "Servicios forestales",
          "_links": {
            "self": {
              "name": "Servicios forestales",
              "href": "https://api.euskadi.eus/procurements/companies/economic-activities/1.912"
            }
          }
        },
        {
          "id": "1.921.1",
          "name": "Servicios de limpieza en calles, vías públicas y jardines",
          "_links": {
            "self": {
              "name": "Servicios de limpieza en calles, vías públicas y jardines",
              "href": "https://api.euskadi.eus/procurements/companies/economic-activities/1.921.1"
            }
          }
        }
      ],
      "certificateStartDate": "2023-08-31",
      "certificateEndDate": "2024-02-29",
      "object": "LA REALIZACIÓN DE TRABAJOS DE REPARACIÓN, CONSERVACIÓN, LIMPIEZA Y CONSTRUCCIÓN DE CARRETERAS; LA ADQUISICIÓN, VENTA Y ARRENDAMIENTO DE BIENES MUEBLES E INMUEBLES. LA REALIZACIÓN DE TODO TIPO DE TRABAJOS FORESTALES, AGRÍCOLAS, GANADEROS Y DE JARDINERÍA, ASI COMO DE SU EXPLOTACIÓN Y LA COMPRAVENTA DE ARTÍCULOS Y PRODUCTOS RELACIONADOS CON LO ANTERIOR\n",
      "mainEntityOfPage": "https://www.contratacion.euskadi.eus/webkpe00-kperoc/es/ac71aBusquedaRegistrosWar/empresa/06333",
      "_links": {
        "self": {
          "name": "MALICAR, S.A.",
          "href": "https://api.euskadi.eus/procurements/companies/06333"
        }
      }
    },
    {
      "name": "WAVECOM INGENIERIA DE COMUNICACIONES, S.L.",
      "registrationNumber": "08596",
      "identificationNumber": "B87237731",
      "address": "PLAZA DE LAS CORTES 4, 2ºD",
      "location": {
        "postalCode": "28014",
        "municipality": "Madrid",
        "county": "Madrid",
        "municipalityId": "079",
        "countyId": "28"
      },
      "economicActivities": [
        {
          "id": "1.769",
          "name": "Otros servicios de telecomunicaciones",
          "_links": {
            "self": {
              "name": "Otros servicios de telecomunicaciones",
              "href": "https://api.euskadi.eus/procurements/companies/economic-activities/1.769"
            }
          }
        },
        {
          "id": "1.849.7",
          "name": "Servicios de gestión administrativa",
          "_links": {
            "self": {
              "name": "Servicios de gestión administrativa",
              "href": "https://api.euskadi.eus/procurements/companies/economic-activities/1.849.7"
            }
          }
        }
      ],
      "certificateStartDate": "2023-08-30",
      "certificateEndDate": "2024-02-29",
      "object": "COMERCIALIZACIÓN, REPRESENTACIÓN, IMPORTACIÓN Y EXPORTACIÓN, MONTAJE, INSTALACIÓN Y ASISTENCIA DE EQUIPOS DE TELECOMUNICACIONES; ALQUILER DE SOLUCIONES DE TELECOMUNICACIONES. ELABORACIÓN DE PROYECTOS, CONSULTORÍA, DESARROLLO DE SOLUCIONES DE TELECOMUNICACIONES Y CORRESPONDIENTES OBRAS DE CONSTRUCCIÓN CIVIL.",
      "mainEntityOfPage": "https://www.contratacion.euskadi.eus/webkpe00-kperoc/es/ac71aBusquedaRegistrosWar/empresa/08596",
      "_links": {
        "self": {
          "name": "WAVECOM INGENIERIA DE COMUNICACIONES, S.L.",
          "href": "https://api.euskadi.eus/procurements/companies/08596"
        }
      }
    },
    {
      "name": "PAGORRA HONDALANAK, S.L.",
      "registrationNumber": "07522",
      "identificationNumber": "B75054726",
      "address": "gudarien etorbidea 43",
      "location": {
        "postalCode": "20140",
        "municipality": "Andoain",
        "county": "Gipuzkoa",
        "municipalityId": "009",
        "countyId": "20"
      },
      "economicActivities": [
        {
          "id": "1.501.2",
          "name": "Construcción completa, reparación y conservación obras civiles",
          "_links": {
            "self": {
              "name": "Construcción completa, reparación y conservación obras civiles",
              "href": "https://api.euskadi.eus/procurements/companies/economic-activities/1.501.2"
            }
          }
        },
        {
          "id": "1.617.9",
          "name": "Venta al por mayor interindustrial de otros productos n.c.o.p",
          "_links": {
            "self": {
              "name": "Venta al por mayor interindustrial de otros productos n.c.o.p",
              "href": "https://api.euskadi.eus/procurements/companies/economic-activities/1.617.9"
            }
          }
        },
        {
          "id": "1.722",
          "name": "Transporte de mercancías por carretera",
          "_links": {
            "self": {
              "name": "Transporte de mercancías por carretera",
              "href": "https://api.euskadi.eus/procurements/companies/economic-activities/1.722"
            }
          }
        },
        {
          "id": "1.852",
          "name": "Alquiler de maquinaria y equipo para la construcción",
          "_links": {
            "self": {
              "name": "Alquiler de maquinaria y equipo para la construcción",
              "href": "https://api.euskadi.eus/procurements/companies/economic-activities/1.852"
            }
          }
        },
        {
          "id": "1.855.9",
          "name": "Alquiler de otros medios de transporte n.c.o.p",
          "_links": {
            "self": {
              "name": "Alquiler de otros medios de transporte n.c.o.p",
              "href": "https://api.euskadi.eus/procurements/companies/economic-activities/1.855.9"
            }
          }
        }
      ],
      "certificateStartDate": "2023-08-30",
      "certificateEndDate": "2024-02-29",
      "object": "LA EXCAVACIÓN, DEMOLICIÓN, DERRIBO, EXTRACCIÓN, CONSOLIDACIÓN, RELLENO Y PREPARACIÓN DE TERRENOS Y FINCAS, TRATAMIENTO DE RESIDUOS SÓLIDOS DE OBRA, LA PROMOCIÓN Y URBANIZACIÓN DE TERRENOS Y FINCAS PARA SU CONVERSIÓN Y DESARROLLO COMO POLÍGONOS INDUSTRIALES O EDIFICACIÓN URBANA QUE EN LOS MISMOS SE PERMITA POR LEY Y ORDENANZA; TRANSPORTE DE LOS PRODUCTOS EXTRAÍDOS, SU COMERCIALIZACIÓN Y TRANSPORTE DE MERCANCÍA POR CARRETERA NACIONAL E INTERNACIONAL DE CUALQUIER TIPO DE PRODUCTO",
      "mainEntityOfPage": "https://www.contratacion.euskadi.eus/webkpe00-kperoc/es/ac71aBusquedaRegistrosWar/empresa/07522",
      "_links": {
        "self": {
          "name": "PAGORRA HONDALANAK, S.L.",
          "href": "https://api.euskadi.eus/procurements/companies/07522"
        }
      }
    },
    {
      "name": "G2 GOBIERNO Y GESTION DE TI SL",
      "registrationNumber": "08605",
      "identificationNumber": "B64916729",
      "address": "Pasaje Antoni Macia Fonoll, 23c, Local 2.11.1",
      "location": {
        "postalCode": "08302",
        "municipality": "Mataró",
        "county": "Barcelona",
        "municipalityId": "121",
        "countyId": "08"
      },
      "economicActivities": [
        {
          "id": "1.845",
          "name": "Explotación electrónica por cuenta de terceros",
          "_links": {
            "self": {
              "name": "Explotación electrónica por cuenta de terceros",
              "href": "https://api.euskadi.eus/procurements/companies/economic-activities/1.845"
            }
          }
        }
      ],
      "certificateStartDate": "2023-08-29",
      "certificateEndDate": "2024-02-29",
      "object": "A) LA PRESTACIÓN DE SERVICIOS DE ANÁLISIS, AUDITORÍA, CONSULTORÍA Y DISEÑO DE INFRAESTRUCTURAS, PROCESOS Y ACTIVIDADES RELACIONADOS CON LAS TECNOLOGÍAS DC LA INFORMACIÓN Y LAS COMUNICACIONES.\nB) LA INSTALACIÓN Y CONFIGURACIÓN DE SISTEMAS INFORMÁTICOS Y DE COMUNICACIONES, INFRAESTRUCTURAS TELEMÁTICAS PARA EL SOPORTE DE APLICACIONES, EQUIPOS HARDWARE Y HERRAMIENTAS SOFTWARE PARA LA GESTIÓN Y CONTROL DE LOS SISTEMAS Y SERVICIOS INFORMÁTICOS.\nC) SERVICIOS DE SOPORTE PREVENTIVO Y EVOLUTIVO DE LAS INFRAESTRUCTURAS INFORMÁTICAS, OFIMÁTICAS, DE COMUNICACIONES Y TELEMÁTICAS, ASÍ COMO SERVICIOS DE REPARACIÓN Y SUSTITUCIÓN DE LAS MISMAS.\nD) DESARROLLO, DIRECCIÓN E IMPLANTACIÓN DE PROYECTOS A MEDIDA REFERENTES A LAS TECNOLOGÍAS DE LA INFORMACIÓN Y LAS COMUNICACIONES.\nE) SERVICIOS DE FORMACIÓN Y CAPACITACIÓN RELACIONADOS CON PRODUCTOS, HERRAMIENTAS, METODOLOGÍAS Y NORMAS PROPIAS DE LAS TECNOLOGÍAS DE LA INFORMACIÓN Y LAS COMUNICACIONES\nF) LA DISTRIBUCIÓN, COMERCIALIZACIÓN IMPORTACIÓN Y EXPOLIACIÓN DE PRODUCTOS, APLICACIONES Y EQUIPOS DE INFORMÁTICA Y COMUNICACIONES.\nG) EL ALQUILER DE LOCALES COMERCIALES O INDUSTRIALES POR CUENTA PROPIA.",
      "mainEntityOfPage": "https://www.contratacion.euskadi.eus/webkpe00-kperoc/es/ac71aBusquedaRegistrosWar/empresa/08605",
      "_links": {
        "self": {
          "name": "G2 GOBIERNO Y GESTION DE TI SL",
          "href": "https://api.euskadi.eus/procurements/companies/08605"
        }
      }
    },
    {
      "name": "GRUPO SIFU EUSKADI, S.L.",
      "registrationNumber": "04295",
      "identificationNumber": "B95351250",
      "address": "LANGILERIA 190",
      "location": {
        "postalCode": "48940",
        "municipality": "Leioa",
        "county": "Bizkaia",
        "municipalityId": "054",
        "countyId": "48"
      },
      "economicActivities": [
        {
          "id": "1.911",
          "name": "Servicios agrícolas y ganaderos",
          "_links": {
            "self": {
              "name": "Servicios agrícolas y ganaderos",
              "href": "https://api.euskadi.eus/procurements/companies/economic-activities/1.911"
            }
          }
        },
        {
          "id": "1.922",
          "name": "Servicios de limpieza",
          "_links": {
            "self": {
              "name": "Servicios de limpieza",
              "href": "https://api.euskadi.eus/procurements/companies/economic-activities/1.922"
            }
          }
        },
        {
          "id": "1.952",
          "name": "Asistencia y servicios sociales en centros no residenciales",
          "_links": {
            "self": {
              "name": "Asistencia y servicios sociales en centros no residenciales",
              "href": "https://api.euskadi.eus/procurements/companies/economic-activities/1.952"
            }
          }
        }
      ],
      "certificateStartDate": "2023-08-28",
      "certificateEndDate": "2024-02-28",
      "object": "REALIZAR UN TRABAJO PRODUCTIVO, PARTICPANDO REGULARMENTE EN LAS OPERACIONES DE MERCADO, Y TENIENDO COMO FINALIDAD EL ASEGURAR UN EMPLEO REMUNERADO Y LA PRESTACIÓN DE SERVICIOS DE AJUSTE PEROSNAL Y SOCIAL QUE REGUQUIERAN LOS TRABAJADORES MINUSVÁLIDOS; A LA VEZ QUE SEA UN MEDIO DE INTEGRACIÓN DE LOS MISMOS AL RÉGIMEN DE TRABAJO NORMAL; CONSTITUYENDO A ESTE FIN; UN CENTRO ESPECIAL DE EMPLEO. EL OBJETO SOCIAL ANTERIOMENTE DESCRITO SE LLEVARÁ A TÉRMINO A TRAVÉS DE LA PRESTACIÓN DE LOS SERVICIOS QUE A CONTINUACIÓN SE DETALLAN: - PRESTACIÓN DE SERVICIOS DE LIMPIEZA, TANTO EXTERIOR COMO INTERIOR, DE BIENES MUEBLES E INMUEBLES. ASÍ COMO LA RECOGIDA SELECTIVA Y RECUPERACIÓN DE RESIDUOS. -PRESTACIÓN DE SERVICIOS DE CONSERJE, PORTERO, ATENCIÓN AL PÚBLICO, RECEPCIONISTA, TELEFONISTA, ORDENANZAS, CONTROL DE ACCESOS EXPENDEDORES DE GASOLINA, CONTROL Y MANTENIMIENTO DE GARAJES, REVISORES DE ZONA AZUL, SERVICIOS AUXILIARES EN INSTALACIONES MUNICIPALES, AUTONÓMICAS Y ESTATALES Y OTROS SERVICIOS AUXILIARES VINCULADOS. - MANTENIMIENTO Y CONSERVACIÓN, ASÍ COMO APERTURA Y CIERRE Y CONTROL DE FINCAS, EMPRESAS, CONJUNTOS RESIDENCIALES, URBANIZACIONES, JARDINES, PARQUES Y DOMICILIOS PARTICULARES. -SERVICIOS DE GESTIÓN DE COBRO, TAQUILLAJE, COBRADORES DE PARKING, GASOLINERAS, CINES, TEATROS, ETC..- PRESTACIÓN DE SERVICIOS DE JARDINERÍA; MATENIMIENTO Y REALIZACIÓN DE OBRAS. DESRATIZACIÓN, DESINSECTAC IÓN Y DESINFECCIÓN. - REALIZACIÓN DE TRABAJOS EN EL SECTOR DE LAS ARTES GRÁFICAS; DESDE EL DISEÑO HASTA LA IMPRESIÓN, ASÍ COMO LA EDIFICIÓN DE PÁGINAS WEB. - EN GENERAL REALIZACIÓN DE CONTROLES DE CALIDAD EN PROCESOS PRODUCTIVOS. CONCRETAMENTE, EN LA FABRICAICÓN Y COMERCIALIZACIÓN DE TORNILLOS, TUERCAS, ARTÍCULOS DE FERRETERÍA, MAQUINARIA Y PRODUCTOS METALÚRGICOS, ASÍ COMO SUS PROCESOS COMPLEMENTARIOS. -PRESTACIÓN DE SERVICIOS DE MANIPULADOS, MOZOS DE ALMACEN Y TRABAJOS ADMINISTRATIVOS, DE CONTABILIDAD, DE GESTIÓN Y CONTROL POR CUENTA AJENA, EN EL PROPIO CENTRO DE TRABAJO O EN EL DOMICILIO DEL CLIENTE. -REALIZACIÓN DE SERVICIOS DE HOSTELERÍA; PRODUCCIÓN Y VENTA DE PRODUCTOS, RECEPCIÓN, LIMPIEZA, CONSERJERÍA Y MANTENIMIENTO DE INSTALACIONE Y MAQUINARIA. - SERVICIOS DE BUZONEO, ENSOBRADO, PROMOCIONEES Y COLGADA DE CARTELES, RECEPCIÓN DE LLAMADAS, TELEMARKETING Y TELEVENTA. -INTERMEDIACIÓN COMERCIAL DE MERCANCÍAS DE TODO TIPO. - DOCENCIA Y FORMACIÓN DE PERSONAS DISCAPACITADAS O NO, Y LA OBTENCIÓN DE SU CONTRATACIÓN LABORAL POR TERCEROS EMPLEADORES, ASÍ COMO EL EJERCICIO DE AQUELLAS ACTIVIDADES DIRIGIDAS A LA INSERCIÓN SOCIO-LABORAL DE DICHAS PERSONAS. - GESTIÓN DE ENCLAVES LABORALES DE PERSONAS CON DISCAPACIDAD SEVERA EN EMPRESAS, DE CONFORMIDAD A LO ESTABLECIDO EN LA LEY DE INSERCIÓN LABORAL REAL DECRETO 290/2004. - ARRIENDO Y SUBARRIENDO DE INMUEBLES. -GESTIÓN DE CENTROS OCUPACIONALES PARA PERSONAS CON DISCAPACIDADES SEVERAS. -GESTIÓN DE PISOS TUTELADOS Y RESIDENCIAS PARA PERSONAS CON DISCAPACIDAD. DE ACUERDO CON LO PREVISTO EN EL ARTÍCULO, APARTADO B) DEL REAL DECRETO 2273/1985, QUE REGULA LOS CENTROS ESPECIALES DE TRABAJO PARA MINUSVÁLIDOS, LOS POSIBLES BENEFICIOS DE LA SOCIEDAD REPERCUTIRÁN EN SU TOTALIDAD EN LA PROPIA INSTITUCIÓN",
      "mainEntityOfPage": "https://www.contratacion.euskadi.eus/webkpe00-kperoc/es/ac71aBusquedaRegistrosWar/empresa/04295",
      "_links": {
        "self": {
          "name": "GRUPO SIFU EUSKADI, S.L.",
          "href": "https://api.euskadi.eus/procurements/companies/04295"
        }
      }
    },
    {
      "name": "LAUMEVAS 2015, S.L.",
      "registrationNumber": "06712",
      "identificationNumber": "B95801163",
      "address": "POLIGO INDUSTRIAL EL ARBOL PABELLON 10",
      "location": {
        "postalCode": "48980",
        "municipality": "Santurtzi",
        "county": "Bizkaia",
        "municipalityId": "082",
        "countyId": "48"
      },
      "economicActivities": [
        {
          "id": "1.314.2",
          "name": "Fabricación de estructuras metálicas",
          "_links": {
            "self": {
              "name": "Fabricación de estructuras metálicas",
              "href": "https://api.euskadi.eus/procurements/companies/economic-activities/1.314.2"
            }
          }
        },
        {
          "id": "1.501.1",
          "name": "Construcción completa, reparación y conservación de edificaciones",
          "_links": {
            "self": {
              "name": "Construcción completa, reparación y conservación de edificaciones",
              "href": "https://api.euskadi.eus/procurements/companies/economic-activities/1.501.1"
            }
          }
        }
      ],
      "certificateStartDate": "2023-08-26",
      "certificateEndDate": "2024-02-26",
      "object": "A.- MECÁNICA EN GENERAL, TRANSFORMACIÓN, TRATAMIENTO DE METALES, MONTAJES Y RECUBRIMIENTOS METÁLICOS, FABRICACIÓN E INSTALACIÓN DE ESTRUCTURAS METÁLICAS Y DE ARTÍCULOS DE CARPINTERÍA METÁLICA. B.-LA CONSTRUCCIÓN COMPLETA, REPARACIÓN Y CONSERVACIÓN DE EDIFICACIONES, INCLUYENDO LA ALBAÑILERÍA, LA CONSOLIDACIÓN Y PREPARACIÓN DE TERRENOS, DEMOLICIONES, PERFORACIONES, CIMENTACIONES Y PAVIMENTACIONES. C.- PREPARACIÓN Y MONTAJE DE ESTRUCTURAS Y CUBIERTAS Y CUBRICIONES EN EDIFICACIONES. D.- INSTALACIONES ELÉCTRICAS EN GENERAL, INSTALACIONES DE REDES TELEGRÁFICAS, TELEFÓNICAS, TELEFONÍA SIN HILOS Y TELEVISIÓN EN EDIFICIOS Y CONSTRUCCIONES DE CUALQUIER CLASE. E.-INSTALACIONES DE FONTANERÍA, DE FIO CALOR ACONDICIONAMIENTO DE AIRE. F.-REVESTIMIENTOS EXTERIORES E INTERIORES DE TODAS CLASES Y EN TODO TIPO DE OBRAS, INCLUYENDO LA PREPARACIÓN Y COLOCACIÓN DE SOLADOS Y PAVIMENTOS DE CUALQUIER CLASE, AISLAMIENTOS FÓNICOS, TÉRMICOS, ACÚSTICOS, IMPERMEABILIZACIÓN DE TODOS TIPO DE EDIFICIOS Y CONSTRUCCIONES POR CUALQUIER PROCEDIMIENTO. G.- CARPINTERÍA, CERRAJERÍA Y TERMINACIÓN Y DECORACIÓN DE EDIFICIOS Y LOCALES, INCLUYENDO LA PINTURA Y ESCAYOLA. H.- ALQUILER DE BIENES INMUEBLES DE NATURALEZA URBANA Y RÚSTICA INCLUIDO EL ALQUILER DE VIVIENDAS, CON Y SIN OPCIÓN DE COMPRA, EL ALQUILER DE LOCALES INDUSTRIALES, DE NEGOCIOS Y DE TERRENOS",
      "mainEntityOfPage": "https://www.contratacion.euskadi.eus/webkpe00-kperoc/es/ac71aBusquedaRegistrosWar/empresa/06712",
      "_links": {
        "self": {
          "name": "LAUMEVAS 2015, S.L.",
          "href": "https://api.euskadi.eus/procurements/companies/06712"
        }
      }
    }
  ]
}