{
  "totalItems": 9042,
  "totalPages": 905,
  "currentPage": 775,
  "itemsOfPage": 10,
  "items": [
    {
      "name": "CONSTRUCCIONES AUGUSTO DIÉGUEZ, S.L.",
      "registrationNumber": "03298",
      "identificationNumber": "B95384608",
      "address": "C/ NUEVA, 4 -2º",
      "location": {
        "postalCode": "48550",
        "municipality": "Muskiz",
        "county": "Bizkaia",
        "municipalityId": "071",
        "countyId": "48"
      },
      "economicActivities": [
        {
          "id": "1.501.2",
          "name": "Construcción completa, reparación y conservación obras civiles",
          "_links": {
            "self": {
              "name": "Construcción completa, reparación y conservación obras civiles",
              "href": "https://api.euskadi.eus/procurements/companies/economic-activities/1.501.2"
            }
          }
        }
      ],
      "certificateStartDate": "2007-01-11",
      "certificateEndDate": "2007-06-05",
      "object": "1-PROMOCIÓN, CONSTRUCCIÓN, COMPRA, VENTA, ARRENDAMIENTO Y EXPLOTACIÓN EN CUALQUIER OTRA FORMA DE TODA CLASE DE EDIFICACIONES, SOLARES E INMUEBLES EN GENERAL, TANTO POR CUENTA PROPIA COMO AJENA.\r\n2-LA ADMINISTRACIÓN DE FINCAS Y COMUNIDADES, TANTO DE PROPIETARIOS COMO DE AUTOPROMOTORES, ASÍ COMO LA PRESTACIÓN DE TODA CLASE DE SERVICIOS RELACIONADOS CON EL ÁMBITO INMOBILIARIO, ARQUITECTÓNICO, DE TÉCNICA DE LA CONSTRUCCIÓN E INGENIERÍA EN GENERAL, POR MEDIO DE LA FORMULACIÓN, DESARROLLO Y PUESTA EN MARCHA DE ESTUDIOS, ACTUACIONES Y PROYECTOS. \r\n3-LA REALIZACIÓN POR CUENTA PROPIA O AJENA DE TODA CLASE DE CONSTRUCCIONES, INSTALACIONES, REFORMAS, REHABILITACIONES Y DECORACIONES.\r\nLA SUPERVISIÓN Y CONTROL DE OBRAS, ASÍ COMO LA COORDINACIÓN DE GREMIOS, EL ASESORAMIENTO Y LA ASISTENCIA TÉCNICA EN TODO CUANTO SE RELACIONE, DIRECTA O INDIRECTAMENTE, CON EL CAMPO DE LA CONSTRUCCIÓN DE EDIFICIOS Y DE LAS OBRAS PÚBLICAS O CIVILES  ",
      "mainEntityOfPage": "https://www.contratacion.euskadi.eus/webkpe00-kperoc/es/ac71aBusquedaRegistrosWar/empresa/03298",
      "_links": {
        "self": {
          "name": "CONSTRUCCIONES AUGUSTO DIÉGUEZ, S.L.",
          "href": "https://api.euskadi.eus/procurements/companies/03298"
        }
      }
    },
    {
      "name": "AUVOL, S.A.",
      "registrationNumber": "02868",
      "identificationNumber": "A48466478",
      "address": "CTRA. BILBAO GALDAKAO, KM. 8",
      "location": {
        "postalCode": "48960",
        "municipality": "Galdakao",
        "county": "Bizkaia",
        "municipalityId": "036",
        "countyId": "48"
      },
      "economicActivities": [
        {
          "id": "1.654.1",
          "name": "Venta al por menor de vehículos terrestres",
          "_links": {
            "self": {
              "name": "Venta al por menor de vehículos terrestres",
              "href": "https://api.euskadi.eus/procurements/companies/economic-activities/1.654.1"
            }
          }
        },
        {
          "id": "1.691.2",
          "name": "Reparación de vehículos automóviles, bicicletas y otros vehículos",
          "_links": {
            "self": {
              "name": "Reparación de vehículos automóviles, bicicletas y otros vehículos",
              "href": "https://api.euskadi.eus/procurements/companies/economic-activities/1.691.2"
            }
          }
        }
      ],
      "certificateStartDate": "2007-01-04",
      "certificateEndDate": "2007-05-28",
      "object": "LA COMPRAVENTA, IMPORTACIÓN Y EXPORTACIÓN DE CUALESQUIERA CLASE DE VEHÍCULOS A MOTOR O MECÁNICOS, SEAN NUEVOS O USADOS; DE SUS ACCESORIOS, RECAMBIOS Y REPUESTOS, ASÍ COMO LA SUSTITUCIÓN DE PIEZAS; LAVADO, ENGRASE, CUSTODIA Y REPARACIÓN DE TALES VEHÍCULOS, INCLUSO DE SU CARROCERÍA, TANTO EN TALLERES PROPIOS  COMO AJENOS.  ",
      "mainEntityOfPage": "https://www.contratacion.euskadi.eus/webkpe00-kperoc/es/ac71aBusquedaRegistrosWar/empresa/02868",
      "_links": {
        "self": {
          "name": "AUVOL, S.A.",
          "href": "https://api.euskadi.eus/procurements/companies/02868"
        }
      }
    },
    {
      "name": "COMPANYIES ASSOCIADES DE SERVEIS TECNICS, S.A.",
      "registrationNumber": "00866",
      "identificationNumber": "A08683179",
      "address": "C/ VÍA AUGUSTA, 4",
      "location": {
        "postalCode": "08006",
        "municipality": "Barcelona",
        "county": "Barcelona",
        "municipalityId": "019",
        "countyId": "08"
      },
      "economicActivities": [
        {
          "id": "1.843.1",
          "name": "Servicios técnicos de ingeniería",
          "_links": {
            "self": {
              "name": "Servicios técnicos de ingeniería",
              "href": "https://api.euskadi.eus/procurements/companies/economic-activities/1.843.1"
            }
          }
        }
      ],
      "certificateStartDate": "2007-01-03",
      "certificateEndDate": "2007-05-16",
      "object": "\r\n\r\na) LA REDACCIÓN Y LA COMERCIALIZACIÓN, TANTO EN ESPAÑA COMO EN EL EXTRANJERO, DE TODA CLASE DE ANTEPROYECTOS, INFORMES Y ESTUDIOS TÉCNICOS DE INGENIERÍA, DE ARQUITECTURA, DE MÁRKETING, DE ECONOMÍA Y DE FINANZAS, EN TODA SU VARIEDAD Y EXTENSIÓN, YA SEA EN INTERÉS PROPIO O ENCARGADOS POR TERCERAS PERSONAS.\r\n\r\nb) LA CONSTRUCCIÓN, TANTO EN ESPAÑA COMO EN EL EXTRANJERO, DE TODA CLASE DE OBRAS BAJO CUALQUIER MODALIDAD, ENTRE ELLAS LA DENOMINADA \"LLAVES EN MANO\", LA DIRECCIÓN Y EL EJERCICIO DE LAS OBRAS, LA PROMOCIÓN DE NUEVAS INDUSTRIAS Y LAS PROMOCIONES INMOBILIARIAS, EL MONTAJE DE INSTALACIONES, ASÍ COMO LA PRESENTACIÓN DE TODA CLASE DE SERVICIOS DE CONTRATACIÓN DE OBRAS Y LA GESTIÓN DE CONCURSOS Y OFERTAS, YA SEA EN INTERÉS PROPIO O ENCARGADO POR TERCERAS PERSONAS.\r\n\r\nc) LA COMERCIALIZACIÓN Y LA EXPLOTACIÓN DE CUALQUIER CLASE DE PATENTES, MARCAS, NOMBRES COMERCIALES Y OTRAS MODALIDADES DE PROPIEDAD INDUSTRIAL, SEAN NACIONALES O EXTRANJERAS, ASÍ COMO DE PROCESOS Y DE MÉTODOS INDUSTRIALES O COMERCIALES, YA SEAN DE CREACIÓN PROPIA O DE TERCEROS.\r\n\r\nd) ACTUAR COMO COMISIONISTA O COMITENTE EN ACTOS U OPERACIONES DE COMERCIO, RELACIONADAS CON LA ACTUACIÓN NORMAL DE LA SOCIEDAD",
      "mainEntityOfPage": "https://www.contratacion.euskadi.eus/webkpe00-kperoc/es/ac71aBusquedaRegistrosWar/empresa/00866",
      "_links": {
        "self": {
          "name": "COMPANYIES ASSOCIADES DE SERVEIS TECNICS, S.A.",
          "href": "https://api.euskadi.eus/procurements/companies/00866"
        }
      }
    },
    {
      "name": "ELPA GESTIÓN, S.A.",
      "registrationNumber": "02804",
      "identificationNumber": "A01274927",
      "address": "C/GEREZPEA, 15",
      "location": {
        "postalCode": "01015",
        "municipality": "Vitoria-Gasteiz",
        "county": "Araba/Álava",
        "municipalityId": "059",
        "countyId": "01"
      },
      "economicActivities": [
        {
          "id": "1.845",
          "name": "Explotación electrónica por cuenta de terceros",
          "_links": {
            "self": {
              "name": "Explotación electrónica por cuenta de terceros",
              "href": "https://api.euskadi.eus/procurements/companies/economic-activities/1.845"
            }
          }
        }
      ],
      "certificateStartDate": "2006-12-29",
      "certificateEndDate": "2007-05-03",
      "object": "LA PRESTACIÓN DE SERVICIOS DE ASESORAMIENTO Y CONSULTORÍA INFORMÁTICA. EL DESARROLLO DE PROGRAMAS INFORMÁTICOS. LA COMPRAVENTA DE PROGRAMAS Y EQUIPOS INFORMÁTICOS. LAS ACTIVIDADES ENUMERADAS PODRÁN TAMBIÉN SER DESARROLLADAS POR LA SOCIEDAD, TOTAL O PARCIALMENTE DE MODO INDIRECTO, MEDIANTE LA PARTICIPACIÓN EN OTRAS SOCIEDADES CON OBJETO ANÁLOGO",
      "mainEntityOfPage": "https://www.contratacion.euskadi.eus/webkpe00-kperoc/es/ac71aBusquedaRegistrosWar/empresa/02804",
      "_links": {
        "self": {
          "name": "ELPA GESTIÓN, S.A.",
          "href": "https://api.euskadi.eus/procurements/companies/02804"
        }
      }
    },
    {
      "name": "GARBIBERRI GARBIKETAK, S.KOOP.",
      "registrationNumber": "03008",
      "identificationNumber": "F20620241",
      "address": "UROLA, 8. PAB. 6",
      "location": {
        "postalCode": "20230",
        "municipality": "Legazpi",
        "county": "Gipuzkoa",
        "municipalityId": "051",
        "countyId": "20"
      },
      "economicActivities": [
        {
          "id": "1.922.1",
          "name": "Servicios de limpieza de interiores",
          "_links": {
            "self": {
              "name": "Servicios de limpieza de interiores",
              "href": "https://api.euskadi.eus/procurements/companies/economic-activities/1.922.1"
            }
          }
        }
      ],
      "certificateStartDate": "2006-12-28",
      "certificateEndDate": "2007-05-17",
      "object": "LA DE CUALQUIER ACTIVIDAD RELACIONADA CON LA LIMPIEZA, TANTO INDUSTRIAL COMO A PARTICULARES, ASÍ COMO LA COMERCIALIZACIÓN DE MATERIALES Y PRODUCTOS DE LIMPIEZA",
      "mainEntityOfPage": "https://www.contratacion.euskadi.eus/webkpe00-kperoc/es/ac71aBusquedaRegistrosWar/empresa/03008",
      "_links": {
        "self": {
          "name": "GARBIBERRI GARBIKETAK, S.KOOP.",
          "href": "https://api.euskadi.eus/procurements/companies/03008"
        }
      }
    },
    {
      "name": "AZSE, S.A.",
      "registrationNumber": "01048",
      "identificationNumber": "A20077996",
      "address": "C/ AVDA. GALICIA, Nº 35 - BAJO.",
      "location": {
        "postalCode": "20015",
        "municipality": "Donostia / San Sebastián",
        "county": "Gipuzkoa",
        "municipalityId": "069",
        "countyId": "20"
      },
      "economicActivities": [
        {
          "id": "1.501.1",
          "name": "Construcción completa, reparación y conservación de edificaciones",
          "_links": {
            "self": {
              "name": "Construcción completa, reparación y conservación de edificaciones",
              "href": "https://api.euskadi.eus/procurements/companies/economic-activities/1.501.1"
            }
          }
        },
        {
          "id": "1.501.2",
          "name": "Construcción completa, reparación y conservación obras civiles",
          "_links": {
            "self": {
              "name": "Construcción completa, reparación y conservación obras civiles",
              "href": "https://api.euskadi.eus/procurements/companies/economic-activities/1.501.2"
            }
          }
        }
      ],
      "certificateStartDate": "2006-12-20",
      "certificateEndDate": "2007-06-13",
      "object": "LA CONSTRUCCIÓN EN GENERAL DE TODO TIPO DE OBRAS, TANTO CIVILES COMO PÚBLICAS; LA COMPRA Y VENTA DE TERRENOS E INMUEBLES, Y EN GENERAL TODO CUANTO PUEDA RELACIONARSE CON LO ANTERIOR ",
      "mainEntityOfPage": "https://www.contratacion.euskadi.eus/webkpe00-kperoc/es/ac71aBusquedaRegistrosWar/empresa/01048",
      "_links": {
        "self": {
          "name": "AZSE, S.A.",
          "href": "https://api.euskadi.eus/procurements/companies/01048"
        }
      }
    },
    {
      "name": "APLITEK, SERVICIOS INTEGRALES, S.L.",
      "registrationNumber": "02972",
      "identificationNumber": "B95300513",
      "address": "IRUÑA, 1 BIS PLANTA 1ª DPTO. 4",
      "location": {
        "postalCode": "48014",
        "municipality": "Bilbao",
        "county": "Bizkaia",
        "municipalityId": "020",
        "countyId": "48"
      },
      "economicActivities": [
        {
          "id": "1.501.1",
          "name": "Construcción completa, reparación y conservación de edificaciones",
          "_links": {
            "self": {
              "name": "Construcción completa, reparación y conservación de edificaciones",
              "href": "https://api.euskadi.eus/procurements/companies/economic-activities/1.501.1"
            }
          }
        }
      ],
      "certificateStartDate": "2006-12-15",
      "certificateEndDate": "2007-06-05",
      "object": "A) LA PROMOCIÓN, CONSTRUCCIÓN, REHABILITACIÓN Y REPARACIÓN, POR CUENTA PROPIA O AJENA, DE TODA CLASE DE OBRAS, URBANIZACIONES, EDIFICIOS Y CONSTRUCCIONES, TANTO PÚBLICOS COMO PRIVADOS. B) LA ADQUISICIÓN, TENENCIA, DISFRUTE, EXPLOTACIÓN Y ENAJENACIÓN DE TODA CLASE DE FINCAS RÚSTICAS O URBANAS, CUALQUIERA QUE FUERA SU NATURALEZA. C) LA COORDINACIÓN DE MEDIOS PERSONALES, GREMIOS, INSTALACIONES Y MAQUINARIA CORRESPONDIENTES PARA LA EJECUCIÓN MATERIAL DE LAS OBRAS CONTRATADAS. D) LA ADMINISTRACIÓN, ASESORAMIENTO, GESTIÓN DE ACTUACIONES URBANÍSTICAS Y PRESTACIÓN DE SERVICIOS DE TODO TIPO CON RELACIÓN A BIENES INMUEBLES, SEGÚN CONVENGA A SU APROVECHAMIENTO AGRÍCOLA, FORESTAL, URBANO, INDUSTRIAL O DE CUALQUIER NATURALEZA. E) LA ELABORACIÓN POR EL GABINETE TÉCNICO DE ESTUDIOS Y PROYECTOS DE OBRAS. F) LA EJECUCIÓN DE OBRAS PÚBLICAS Y PRIVADAS, INCLUYENDO TODAS LAS ACTIVIDADES NECESARIAS PARA ELLO, POR CUENTA PROPIA O AJENA. G) EL ALMACENAMIENTO, DISTRIBUCIÓN, COMERCIALIZACIÓN Y VENTA DE MAQUINARIA Y MATERIALES PARA LA CONSTRUCCIÓN. ",
      "mainEntityOfPage": "https://www.contratacion.euskadi.eus/webkpe00-kperoc/es/ac71aBusquedaRegistrosWar/empresa/02972",
      "_links": {
        "self": {
          "name": "APLITEK, SERVICIOS INTEGRALES, S.L.",
          "href": "https://api.euskadi.eus/procurements/companies/02972"
        }
      }
    },
    {
      "name": "CODE INTEGRAL, S.L.",
      "registrationNumber": "03288",
      "identificationNumber": "B95416780",
      "address": "BUENAVISTA, 8",
      "location": {
        "postalCode": "48910",
        "municipality": "Sestao",
        "county": "Bizkaia",
        "municipalityId": "084",
        "countyId": "48"
      },
      "economicActivities": [
        {
          "id": "1.501.1",
          "name": "Construcción completa, reparación y conservación de edificaciones",
          "_links": {
            "self": {
              "name": "Construcción completa, reparación y conservación de edificaciones",
              "href": "https://api.euskadi.eus/procurements/companies/economic-activities/1.501.1"
            }
          }
        }
      ],
      "certificateStartDate": "2006-12-14",
      "certificateEndDate": "2007-05-14",
      "object": "A) LA REALIZACIÓN Y EJECUCIÓN DE PROYECTOS DE DECORACIÓN, REFORMAS INTEGRALES DE VIVIENDAS Y LOCALES COMERCIALES, Y LA COORDINACIÓN DE GREMIOS.\r\nB) LA VENTA Y FABRICACIÓN DE MOBILIARIO DE COCINA, BAÑO, SALONES, DORMITORIOS, ARMARIOS EMPOTRADOS, Y LA VENTA DE ELECTRODOMÉSTICOS DE LÍNEA BLANCA Y MARRÓN, ASÍ COMO LA GESTIÓN Y TRAMITACIÓN DE PERMISOS PARA LA REALIZACIÓN DE OBRAS EN VIVIENDAS, COMUNIDADES DE VECINOS Y LOCALES COMERCIALES",
      "mainEntityOfPage": "https://www.contratacion.euskadi.eus/webkpe00-kperoc/es/ac71aBusquedaRegistrosWar/empresa/03288",
      "_links": {
        "self": {
          "name": "CODE INTEGRAL, S.L.",
          "href": "https://api.euskadi.eus/procurements/companies/03288"
        }
      }
    },
    {
      "name": "ELÉCTRICAS ASMOTUR URIARTE, S.A.L.",
      "registrationNumber": "02152",
      "identificationNumber": "A48833412",
      "address": "C/ VILLAMONTE, B - 2, LONJA.",
      "location": {
        "postalCode": "48990",
        "municipality": "Getxo",
        "county": "Bizkaia",
        "municipalityId": "044",
        "countyId": "48"
      },
      "economicActivities": [
        {
          "id": "1.504.1",
          "name": "Instalaciones eléctricas en general",
          "_links": {
            "self": {
              "name": "Instalaciones eléctricas en general",
              "href": "https://api.euskadi.eus/procurements/companies/economic-activities/1.504.1"
            }
          }
        }
      ],
      "certificateStartDate": "2006-12-04",
      "certificateEndDate": "2006-10-05",
      "object": "LA REALIZACIÓN DE PROYECTOS, MONTAJES, MANTENIMIENTO Y DIRECCIÓN DE INSTALACIONES ELÉCTRICAS DE BAJA Y MEDIA TENSIÓN",
      "mainEntityOfPage": "https://www.contratacion.euskadi.eus/webkpe00-kperoc/es/ac71aBusquedaRegistrosWar/empresa/02152",
      "_links": {
        "self": {
          "name": "ELÉCTRICAS ASMOTUR URIARTE, S.A.L.",
          "href": "https://api.euskadi.eus/procurements/companies/02152"
        }
      }
    },
    {
      "name": "TRESER CONTROL DE PLAGAS, S.L.",
      "registrationNumber": "01761",
      "identificationNumber": "B48792287",
      "address": "POLÍGONO INDUSTRIAL IGELTZERA. NAVE D-10 ",
      "location": {
        "postalCode": "48610",
        "municipality": "Urduliz",
        "county": "Bizkaia",
        "municipalityId": "089",
        "countyId": "48"
      },
      "economicActivities": [
        {
          "id": "1.921.3",
          "name": "Exterminio de animales dañinos y desinfección",
          "_links": {
            "self": {
              "name": "Exterminio de animales dañinos y desinfección",
              "href": "https://api.euskadi.eus/procurements/companies/economic-activities/1.921.3"
            }
          }
        }
      ],
      "certificateStartDate": "2006-12-01",
      "certificateEndDate": "2007-05-08",
      "object": "LOS SERVICIOS DE DESINFECCIÓN, DESINSECTACIÓN Y DESRATIZACIÓN, EL CONTROL DE PLAGAS Y EL TRATAMIENTO DE LA MADERA",
      "mainEntityOfPage": "https://www.contratacion.euskadi.eus/webkpe00-kperoc/es/ac71aBusquedaRegistrosWar/empresa/01761",
      "_links": {
        "self": {
          "name": "TRESER CONTROL DE PLAGAS, S.L.",
          "href": "https://api.euskadi.eus/procurements/companies/01761"
        }
      }
    }
  ]
}