{
  "totalItems": 9042,
  "totalPages": 905,
  "currentPage": 677,
  "itemsOfPage": 10,
  "items": [
    {
      "name": "AKROPOST ARABA, S.L.",
      "registrationNumber": "03961",
      "identificationNumber": "B01453851",
      "address": "ALBERTIA, 18",
      "location": {
        "postalCode": "01006",
        "municipality": "Vitoria-Gasteiz",
        "county": "Araba/Álava",
        "municipalityId": "059",
        "countyId": "01"
      },
      "economicActivities": [
        {
          "id": "1.849.5",
          "name": "Servicios de recadería y reparto y manipulación de correspondencia",
          "_links": {
            "self": {
              "name": "Servicios de recadería y reparto y manipulación de correspondencia",
              "href": "https://api.euskadi.eus/procurements/companies/economic-activities/1.849.5"
            }
          }
        }
      ],
      "certificateStartDate": "2013-11-05",
      "certificateEndDate": "2014-04-07",
      "object": "LA DISTRIBUCIÓN DE TODO TIPO DE CARTAS Y PUBLICIDAD Y LA ADQUISICIÓN, VENTA Y EXPLOTACIÓN, MEDIANTE ARRENDAMIENTO O CUALQUIER OTRA FORMA JURÍDICA, DE BIENES INMUEBLES, PROPIOS Y AJENOS A LA SOCIEDAD",
      "mainEntityOfPage": "https://www.contratacion.euskadi.eus/webkpe00-kperoc/es/ac71aBusquedaRegistrosWar/empresa/03961",
      "_links": {
        "self": {
          "name": "AKROPOST ARABA, S.L.",
          "href": "https://api.euskadi.eus/procurements/companies/03961"
        }
      }
    },
    {
      "name": "BELABIA, S.L. EMPRESA CONSTRUCTORA",
      "registrationNumber": "02363",
      "identificationNumber": "B01256023",
      "address": "C/ MIRAVALLES, 6 - C. PAB.2",
      "location": {
        "postalCode": "01013",
        "municipality": "Vitoria-Gasteiz",
        "county": "Araba/Álava",
        "municipalityId": "059",
        "countyId": "01"
      },
      "economicActivities": [
        {
          "id": "1.501.1",
          "name": "Construcción completa, reparación y conservación de edificaciones",
          "_links": {
            "self": {
              "name": "Construcción completa, reparación y conservación de edificaciones",
              "href": "https://api.euskadi.eus/procurements/companies/economic-activities/1.501.1"
            }
          }
        }
      ],
      "certificateStartDate": "2013-10-30",
      "certificateEndDate": "2014-04-16",
      "object": "LA CONSTRUCCIÓN, REHABILITACIÓN Y PROMOCIÓN DE EDIFICACIONES Y OBRAS PÚBLICAS",
      "mainEntityOfPage": "https://www.contratacion.euskadi.eus/webkpe00-kperoc/es/ac71aBusquedaRegistrosWar/empresa/02363",
      "_links": {
        "self": {
          "name": "BELABIA, S.L. EMPRESA CONSTRUCTORA",
          "href": "https://api.euskadi.eus/procurements/companies/02363"
        }
      }
    },
    {
      "name": "GRUPO APLICA SOLUCIONES, S.L.U",
      "registrationNumber": "04989",
      "identificationNumber": "B01407816",
      "address": "CARRETERA VITORIA KM.21 PAB7",
      "location": {
        "postalCode": "01400",
        "municipality": "Laudio/Llodio",
        "county": "Araba/Álava",
        "municipalityId": "036",
        "countyId": "01"
      },
      "economicActivities": [
        {
          "id": "1.501.2",
          "name": "Construcción completa, reparación y conservación obras civiles",
          "_links": {
            "self": {
              "name": "Construcción completa, reparación y conservación obras civiles",
              "href": "https://api.euskadi.eus/procurements/companies/economic-activities/1.501.2"
            }
          }
        },
        {
          "id": "1.504.1",
          "name": "Instalaciones eléctricas en general",
          "_links": {
            "self": {
              "name": "Instalaciones eléctricas en general",
              "href": "https://api.euskadi.eus/procurements/companies/economic-activities/1.504.1"
            }
          }
        },
        {
          "id": "1.504.7",
          "name": "Instalaciones telefónicas, telegráficas, televisión, etc",
          "_links": {
            "self": {
              "name": "Instalaciones telefónicas, telegráficas, televisión, etc",
              "href": "https://api.euskadi.eus/procurements/companies/economic-activities/1.504.7"
            }
          }
        },
        {
          "id": "1.847",
          "name": "Servicios de consultoría",
          "_links": {
            "self": {
              "name": "Servicios de consultoría",
              "href": "https://api.euskadi.eus/procurements/companies/economic-activities/1.847"
            }
          }
        },
        {
          "id": "1.921.7",
          "name": "Servicios de protección contra incendios y accidentes",
          "_links": {
            "self": {
              "name": "Servicios de protección contra incendios y accidentes",
              "href": "https://api.euskadi.eus/procurements/companies/economic-activities/1.921.7"
            }
          }
        }
      ],
      "certificateStartDate": "2013-10-30",
      "certificateEndDate": "2014-04-30",
      "object": "A) LA ADQUISICIÓN, TENENCIA, DISFRUTE, ADMINISTRACIÓN, GESTIÓN Y DISPOSICIÓN, POR CUALQUIER TITULO, DE TODA CLASE DE BIENES MUEBLES, INMUEBLES Y DERECHOS DE CUALQUIER NATURALEZA. TANTO SEAN DERECHOS REALES O DE CRÉDITOS, BIENES MATERIALES O INMATERIALES O CUALESQUIERA OTROS. B) LA ADQUISICIÓN, TENENCIA, DISFRUTE, ADMINISTRACIÓN, GESTIÓN Y DISPOSICIÓN, POR CUALQUIER TITULO, DE TODA CLASE DE EFECTOS DE COMERCIO, PARTICIPACIONES, TÍTULOS VALORES, VALORES MOBILIARIOS Y VALORES NEGOCIABLES, ESTÉN O NO ADMITIDOS A NEGOCIACIÓN EN MERCADOS ORGANIZADOS. C) LA PRESTACIÓN DE FORMA DIRECTA A SOCIEDADES DE SERVICIOS DE ADMINISTRACIÓN, ASESORAMIENTO, ASISTENCIA TÉCNICA, Y GESTIÓN EMPRESARIAL, EN LOS ÁMBITOS ECONÓMICO, ADMINISTRATIVO, FINANCIERO, CONTABLE Y FISCAL. D) LA PRESTACIÓN DE SERVICIOS, COMERCIALIZACIÓN, INSTALACIÓN, DISTRIBUCIÓN, REPARACIÓN, PROYECTO Y MANTENIMIENTO DE INSTALACIONES, MATERIAL, EQUIPOS Y SISTEMAS DE: TELECOMUNICACIONES, INFORMÁTICOS, ELÉCTRICOS, CONTRA INCENDIOS, ELECTRÓNICOS Y  DE COMUNICACIONES VÍA RADIO, SATELITE Y OTROS MEDIOS; EL ASESORAMIENTO Y GESTIÓN EN LA UTILIZACIÓN DE ENERGÍA, LA INGENIERÍA Y CONSULTORÍA ENERGÉTICA, ELÉCTRICA Y ELECTRÓNICA; LA FORMACIÓN EN LOS CAMPOS ANTERIORMENTE CITADOS, LA COMERCIALIZACIÓN DE ARTÍCULOS MATERIALES E INMATERIALES RELACIONADOS DIRECTA O INDIRECTAMENTE  CON LAS ACTIVIDADES CITADAS, LA PRESTACIÓN DE LOS SERVICIOS Y ACTIVIDADES INDICADAS CON ANTERIORIDAD A TRAVÉS DE INTERNET; LA INSTALACIÓN Y MANTENIMIENTO DE LÍNEAS TELEFÓNICAS, FIBRA OPTICA Y CENTRALITAS; LA CONSTRUCCIÓN COMPLETA, REPARACIÓN Y CONSERVACIÓN DE EDIFICACIONES Y OBRAS CIVILES; LA CONSOLIDACIÓN Y PREPARACIÓN DE TERRENOS, REDES DE ABASTECIMIENTO DE AGUAS Y DE SANEAMIENTO, CONDUCCIONES PARA SUMINISTRO DE GAS, CIMENTACIONES Y PAVIMENTACIONES; LA REALIZACIÓN DE OBRAS DE FERROCARRILES, VIALES, HIDRÁULICAS, SEÑALIZACIÓN Y BALIZAMIENTOS VIALES, ALUMBRADOS, ILUMINACIÓN Y BALIZAMIENTOS LUMINOSOS",
      "mainEntityOfPage": "https://www.contratacion.euskadi.eus/webkpe00-kperoc/es/ac71aBusquedaRegistrosWar/empresa/04989",
      "_links": {
        "self": {
          "name": "GRUPO APLICA SOLUCIONES, S.L.U",
          "href": "https://api.euskadi.eus/procurements/companies/04989"
        }
      }
    },
    {
      "name": "ONDASUNEGI S.L.",
      "registrationNumber": "05082",
      "identificationNumber": "B95300489",
      "address": "ETXE ARGI S/N",
      "location": {
        "postalCode": "48498",
        "municipality": "Arakaldo",
        "county": "Bizkaia",
        "municipalityId": "005",
        "countyId": "48"
      },
      "economicActivities": [
        {
          "id": "1.501.1",
          "name": "Construcción completa, reparación y conservación de edificaciones",
          "_links": {
            "self": {
              "name": "Construcción completa, reparación y conservación de edificaciones",
              "href": "https://api.euskadi.eus/procurements/companies/economic-activities/1.501.1"
            }
          }
        },
        {
          "id": "1.833.2",
          "name": "Promoción de edificaciones",
          "_links": {
            "self": {
              "name": "Promoción de edificaciones",
              "href": "https://api.euskadi.eus/procurements/companies/economic-activities/1.833.2"
            }
          }
        }
      ],
      "certificateStartDate": "2013-10-23",
      "certificateEndDate": "2014-04-14",
      "object": "A) LA PROMOCIÓN, CONSTRUCCIÓN, COMPRAVENTA, ALQUILER, REALQUILER, PARCELACIÓN Y URBANIZACIÓN DE SOLARES,TERRENOS Y FINCAS,DE CUALQUIER NATURALEZA,PUDIENDO PROCEDER A LA EDIFICACIÓN DE LAS MISMAS Y A SU ENAJENACIÓN INTEGRA O EN RÉGIMEN DE PROPIEDAD HORIZONTAL. B) LA ADQUISICIÓN POR CUALQUIER TITULO DE FINCAS RÚSTICAS O URBANAS,LA CONSTRUCCIÓN DE ESTAS Y LA ADMINISTRACIÓN, TENENCIA, EXPLOTACIÓN Y ARRENDAMIENTO DE TALES BIENES Y SU VENTA TOTAL O PARCIAL, SEGÚN CONVENGA PARA SU APROVECHAMIENTO AGRÍCOLA, FORESTAL, URBANO, INDUSTRIAL O CUALQUIER OTRO. C) LA ADJUDICACIÓN, CESIÓN, INVERSION, TENENCIA, DISFRUTE, ADMINISTRACIÓN, GESTIÓN Y NEGOCIACIÓN EN GENERAL DE TODA CLASE DE TÍTULOS Y VALORES MOBILIARIOS, COTIZADOS EN BOLSA, O NO, SIN INCIDIR EN LAS OPERACIONES A QUE SE REFIERE LA LEY 46/84 DE INVERSIONES COLECTIVAS. D) LA COMPRAVENTA, ALMACENAMIENTO, DEPÓSITO, DISTRIBUCIÓN, IMPORTACIÓN, EXPORTACIÓN DE TODA CLASE DE MERCANCÍAS, PRODUCTOS, ARTÍCULOS Y MATERIAS DE TODAS CLASES Y EN GENERAL DE BIENES MUEBLES. E) EL ASESORAMIENTO DE EMPRESAS TANTO FISCAL COMO JURÍDICO FINANCIERO O DE CUALQUIER OTRO OTIPO; EL ESTUDIO, INVESTIGACIÓN, PROMOCIÓN Y PRESTACIÓN DE TODA CLASE DE SERVICIOS DE ASISTENCIA Y GESTIÓN, TÉCNICA ADMINISTRATIVA, COMERCIAL Y CONTABLE, BAJO PERSONAL TITULADO. F) LA EXPLOTACIÓN DEL NEGOCIO DE TRANSPORTES MARÍTIMOS, ADQUISICIÓN, VENTA, FLETAMENTOS Y CONSIGNACIÓN Y, EN GENERAL, EXPLOTACIÓN DE BUQUES HASTA SU DESGUACE, COMPRAVENTA DE CHATARRAS FÉRRICAS Y NO FÉRRICAS Y PRODUCTOS SIDEROMETALÚRGICOS",
      "mainEntityOfPage": "https://www.contratacion.euskadi.eus/webkpe00-kperoc/es/ac71aBusquedaRegistrosWar/empresa/05082",
      "_links": {
        "self": {
          "name": "ONDASUNEGI S.L.",
          "href": "https://api.euskadi.eus/procurements/companies/05082"
        }
      }
    },
    {
      "name": "J.R. ZAPATA GARBIKETAK, S.L.",
      "registrationNumber": "04920",
      "identificationNumber": "B20683553",
      "address": "Paseo Ulia Pasalekua,  106",
      "location": {
        "postalCode": "20013",
        "municipality": "Donostia / San Sebastián",
        "county": "Gipuzkoa",
        "municipalityId": "069",
        "countyId": "20"
      },
      "economicActivities": [
        {
          "id": "1.922",
          "name": "Servicios de limpieza",
          "_links": {
            "self": {
              "name": "Servicios de limpieza",
              "href": "https://api.euskadi.eus/procurements/companies/economic-activities/1.922"
            }
          }
        }
      ],
      "certificateStartDate": "2013-10-22",
      "certificateEndDate": "2014-04-22",
      "object": "LA REALIZACIÓN DE SERVICIOS DE LIMPIEZA Y MANTENIMIENTO DE TODO TIPO DE EDIFICIOS PÚBLICOS O PRIVADOS, OFICINAS, ESTABLECIMIENTOS COMERCIALES, RESIDENCIAS, CENTROS SANITARIOS Y ESTABLECIMIENTOS INDUSTRIALES. LIMIPIEZAS GENERALES DE FIN DE OBRA, RETIRADA DE ESCOMBROS Y MOBILIARIO, HIGIENIZACIÓN Y DESINFECCIÓN, ASÍ COMO TODOS AQUELLOS SERVICIOS COMPLEMENTARIOS DESTINADOS AL MISMO FIN",
      "mainEntityOfPage": "https://www.contratacion.euskadi.eus/webkpe00-kperoc/es/ac71aBusquedaRegistrosWar/empresa/04920",
      "_links": {
        "self": {
          "name": "J.R. ZAPATA GARBIKETAK, S.L.",
          "href": "https://api.euskadi.eus/procurements/companies/04920"
        }
      }
    },
    {
      "name": "YOR, S.A.",
      "registrationNumber": "01581",
      "identificationNumber": "A01025774",
      "address": "C/  PORTAL DE BERGARA, Nº 5.",
      "location": {
        "postalCode": "01013",
        "municipality": "Vitoria-Gasteiz",
        "county": "Araba/Álava",
        "municipalityId": "059",
        "countyId": "01"
      },
      "economicActivities": [
        {
          "id": "1.316.6",
          "name": "Fabricación de mobiliario metálico",
          "_links": {
            "self": {
              "name": "Fabricación de mobiliario metálico",
              "href": "https://api.euskadi.eus/procurements/companies/economic-activities/1.316.6"
            }
          }
        }
      ],
      "certificateStartDate": "2013-10-21",
      "certificateEndDate": "2014-04-15",
      "object": "LA FABRICACIÓN DE MOBILIARIO URBANO DE TODO TIPO, EQUIPAMIENTO DE PARQUES INFANTILES Y JARDINES; ARTÍCULOS DEPORTIVOS O EQUIPAMIENTO DE USO EXTERIOR, ASÍ COMO LA REALIZACIÓN DE PROYECTOS, PRODUCCIÓN, COMERCIALIZACIÓN, MONTAJE, INSTALACIÓN, MANTENIMIENTO Y CONSERVACIÓN DE LOS MISMOS\r\n",
      "mainEntityOfPage": "https://www.contratacion.euskadi.eus/webkpe00-kperoc/es/ac71aBusquedaRegistrosWar/empresa/01581",
      "_links": {
        "self": {
          "name": "YOR, S.A.",
          "href": "https://api.euskadi.eus/procurements/companies/01581"
        }
      }
    },
    {
      "name": "ALENTIA BIOTECH, S.L.",
      "registrationNumber": "04827",
      "identificationNumber": "B18941641",
      "address": "AVDA. DE LA ILUSTRACIÓN, 110",
      "location": {
        "postalCode": "18007",
        "municipality": "Granada",
        "county": "Granada",
        "municipalityId": "087",
        "countyId": "18"
      },
      "economicActivities": [
        {
          "id": "1.254.2",
          "name": "Fabricación de especialidades y otros productos farmacéuticos",
          "_links": {
            "self": {
              "name": "Fabricación de especialidades y otros productos farmacéuticos",
              "href": "https://api.euskadi.eus/procurements/companies/economic-activities/1.254.2"
            }
          }
        }
      ],
      "certificateStartDate": "2013-10-21",
      "certificateEndDate": "2014-03-20",
      "object": "A) LA COMPRA, FABRICACIÓN, ALMACENAMIENTO, COMERCIALIZACIÓN Y MEDIACIÓN EN LA VENTA DE TODA CLASE DE MEDICAMENTOS, VACUNAS, PRODUCTOS SANITARIOS Y PRODUCTOS FARMACÉUTICOS Y DE TODO TIPO DE MATERIAS PRIMAS EMPLEADAS EN LA ELABORACIÓN DE DICHOS MEDICAMENTOS, VACUNAS, PRODUCTOS SANITARIOS Y FARMACÉUTICOS, INCLUYENDO CUALQUIER OTRA ACTIVIDAD COMPLEMENTARIA, SUBSIDIARIA, DERIVADAS O CONDUCENTE A ESAS ACTIVIDADES. B) LA COMPRA, FABRICACIÓN, ALMACENAMIENTO, COMERCIALIZACIÓN Y MEDIACIÓN EN LA VENTA DE COSMÉTICOS, PRODUCTOS QUÍMICOS, BIOTECNOLÓGICOS, ALIMENTICIOS Y DE DIAGNÓSTICO PARA USO HUMANO, VETERINARIO, AGROQUÍMICO Y ALIMENTICIO, ASÍ COMO DE TODA CLASE DE UTENSILIOS, COMPLEMENTOS Y ACCESORIOS PARA LA INDUSTRIA QUÍMICA, FARMACÉUTICA Y CLÍNICA, INCLUYENDO CUALQUIER OTRA ACTIVIDAD COMPLEMENTARIA, SUBSIDIARIA, DERIVADA O CONDUCENTE A ESAS ACTIVIDADES. C) LA INVESTIGACIÓN DE PRINCIPIOS Y PRODUCTOS REFERIDOS EN LOS APARTADAS A) Y B) ANTERIORES. D) LA IMPORTACIÓN, EXPORTACIÓN, REPRESENTACIÓN, ELABORACIÓN Y VENTA, DE TODA CLASE DE PRODUCTOS QUÍMICOS, FARMACÉUTICOS, ESPECIALIDADES FARMACÉUTICAS, HERBORISTERÍA, DIETÉTICOS, LECHES, HARINAS Y SIMILARES, DROGAS Y COLONIAS, JABONES Y PRODUCTOS DE PERFUMERÍA EN GENERAL. E) EL REGISTRO, PROMOCIÓN, DISTRIBUCIÓN Y VENTA DE ESPECIALIDADES FARMACÉUTICAS Y PRODUCTOS SANITARIOS Y CUALQUIER OTRA ACTIVIDAD RELACIONADA CON EL CUIDADO DE LA SALUD. F) LA COMPRA, VENTA, ALQUILER, PARCELACIÓN Y URBANIZACIÓN DE SOLARES, TERRENOS Y FINCAS DE CUALQUIER NATURALEZA, PUDIENDO PROCEDER A LA EDIFICACIÓN DE LOS MISMOS Y LA ENAJENACIÓN, ÍNTEGRAMENTEM EN FORMA PARCIAL O EN RÉGIMEN DE PROPIEDAD HORIZONTAL. G) DIRIGIR Y GESTIONAR LA PARTICIPACIÓN DE LA SOCIEDAD EN EL CAPITAL SOCIAL DE OTRAS ENTIDADES, MEDIANTE LA CORRESPONDIENTE ORGANIZACIÓN DE MEDIOS PERSONALES Y MATERIALES. SI LAS DISPOSICIONES LEGALES EXIGIESEN PARA EL EJERCICIO DE ALGUNA DE LAS ACTIVIDADES COMPRENDIDAS EN EL OBJETO SOCIAL, ALGÚN TÍTULO PROFESIONAL O AUTORIZACIÓN ADMINISTRATIVA, DICHAS ACTIVIDADES DEBERÁN REALIZARSE POR MEDIO DE PERSONA QUE OSTENTE LA REQUERIDA TITULACIÓN Y, EN SU CASO, NO PODRÁN INICIARSE ANTES DE QUE SE HAYAN CUMPLIDO LOS REQUISITOS ADMINISTRATIVOS EXIGIDOS.TODO ELLO PREVIO CUMPLIMIENTO DE LOS REQUISITOS QUE LEGALMENTE SE EXIJAN PARA CADA SUPUESTO",
      "mainEntityOfPage": "https://www.contratacion.euskadi.eus/webkpe00-kperoc/es/ac71aBusquedaRegistrosWar/empresa/04827",
      "_links": {
        "self": {
          "name": "ALENTIA BIOTECH, S.L.",
          "href": "https://api.euskadi.eus/procurements/companies/04827"
        }
      }
    },
    {
      "name": "VERBAX COMUNICACIÓN, S.L.",
      "registrationNumber": "02511",
      "identificationNumber": "B20672622",
      "address": "SAN ANDRES AUZOA, 14",
      "location": {
        "postalCode": "25500",
        "municipality": "Arrasate / Mondragón",
        "county": "Gipuzkoa",
        "municipalityId": "055",
        "countyId": "20"
      },
      "economicActivities": [
        {
          "id": "1.844",
          "name": "Servicios de publicidad, relaciones públicas y similares",
          "_links": {
            "self": {
              "name": "Servicios de publicidad, relaciones públicas y similares",
              "href": "https://api.euskadi.eus/procurements/companies/economic-activities/1.844"
            }
          }
        }
      ],
      "certificateStartDate": "2013-10-18",
      "certificateEndDate": "2014-04-18",
      "object": "EL FOMENTO DE LA COMUNICACIÓN DE LAS PERSONAS, EMPRESAS O INSTITUCIONES EN SUS DIFERENTES ASPECTOS:  PUBLICIDAD, RELACIONES PÚBLICAS, DISEÑO Y PROYECCIÓN EXTERIOR DEL OBJETO TRATADO, ABARCANDO LA ASESORÍA, MARKETING, LA CREACIÓN DE MENSAJES, LA COMPRAVENTA DE MEDIOS Y ELEMENTOS NECESARIOS PARA DESEMPEÑAR LA LABOR COMUNICATIVA Y EL DESARROLLO DEL DISEÑO EN TODOS SUS ASPECTOS.",
      "mainEntityOfPage": "https://www.contratacion.euskadi.eus/webkpe00-kperoc/es/ac71aBusquedaRegistrosWar/empresa/02511",
      "_links": {
        "self": {
          "name": "VERBAX COMUNICACIÓN, S.L.",
          "href": "https://api.euskadi.eus/procurements/companies/02511"
        }
      }
    },
    {
      "name": "KERTAR ARABA, S.L.",
      "registrationNumber": "01022",
      "identificationNumber": "B01112564",
      "address": "C/ OÑATE, 7 BAJO",
      "location": {
        "postalCode": "01013",
        "municipality": "Vitoria-Gasteiz",
        "county": "Araba/Álava",
        "municipalityId": "059",
        "countyId": "01"
      },
      "economicActivities": [
        {
          "id": "1.844",
          "name": "Servicios de publicidad, relaciones públicas y similares",
          "_links": {
            "self": {
              "name": "Servicios de publicidad, relaciones públicas y similares",
              "href": "https://api.euskadi.eus/procurements/companies/economic-activities/1.844"
            }
          }
        },
        {
          "id": "1.849.5",
          "name": "Servicios de recadería y reparto y manipulación de correspondencia",
          "_links": {
            "self": {
              "name": "Servicios de recadería y reparto y manipulación de correspondencia",
              "href": "https://api.euskadi.eus/procurements/companies/economic-activities/1.849.5"
            }
          }
        }
      ],
      "certificateStartDate": "2013-10-17",
      "certificateEndDate": "2014-03-16",
      "object": "ACTIVIDAD PROPIA DE AGENCIA DE PUBLICIDAD DE SERVICIOS PLENOS, MARKETING DIRECTO, DISEÑO E IMPRESIÓN DE SOPORTES COMERCIALES Y PUBLICITARIOS, DISTRIBUCIÓN Y COMERCIALIZACIÓN DE SOBRES, PRENSA Y PUBLICACIONES Y TRATAMIENTOS INFORMÁTICOS\r\n",
      "mainEntityOfPage": "https://www.contratacion.euskadi.eus/webkpe00-kperoc/es/ac71aBusquedaRegistrosWar/empresa/01022",
      "_links": {
        "self": {
          "name": "KERTAR ARABA, S.L.",
          "href": "https://api.euskadi.eus/procurements/companies/01022"
        }
      }
    },
    {
      "name": "VITORIA-GASTEIZ T.I., S.L.",
      "registrationNumber": "03884",
      "identificationNumber": "B31696693",
      "address": "C/VENTA DE LA ESTRELLA, Nº 2. PAB. 6. POL.IND.URITIASOLO",
      "location": {
        "postalCode": "01006",
        "municipality": "Vitoria-Gasteiz",
        "county": "Araba/Álava",
        "municipalityId": "059",
        "countyId": "01"
      },
      "economicActivities": [
        {
          "id": "1.722",
          "name": "Transporte de mercancías por carretera",
          "_links": {
            "self": {
              "name": "Transporte de mercancías por carretera",
              "href": "https://api.euskadi.eus/procurements/companies/economic-activities/1.722"
            }
          }
        },
        {
          "id": "1.849.5",
          "name": "Servicios de recadería y reparto y manipulación de correspondencia",
          "_links": {
            "self": {
              "name": "Servicios de recadería y reparto y manipulación de correspondencia",
              "href": "https://api.euskadi.eus/procurements/companies/economic-activities/1.849.5"
            }
          }
        }
      ],
      "certificateStartDate": "2013-10-15",
      "certificateEndDate": "2014-03-23",
      "object": "-) LA REALIZACIÓN E INTERMEDIACIÓN EN TODA CLASE DE ACTIVIDADES RELACIONADAS CON EL TRANSPORTE DE MERCANCÍAS. -) MONTAJE Y DESMONTAJE DE MOBILIARIO",
      "mainEntityOfPage": "https://www.contratacion.euskadi.eus/webkpe00-kperoc/es/ac71aBusquedaRegistrosWar/empresa/03884",
      "_links": {
        "self": {
          "name": "VITORIA-GASTEIZ T.I., S.L.",
          "href": "https://api.euskadi.eus/procurements/companies/03884"
        }
      }
    }
  ]
}