{
  "totalItems": 9042,
  "totalPages": 905,
  "currentPage": 471,
  "itemsOfPage": 10,
  "items": [
    {
      "name": "EDITORIAL IPARRAGUIRRE, S.A.",
      "registrationNumber": "03813",
      "identificationNumber": "A48082440",
      "address": "CAMINO DE CAPUCHINOS, 6-5º C",
      "location": {
        "postalCode": "48013",
        "municipality": "Bilbao",
        "county": "Bizkaia",
        "municipalityId": "020",
        "countyId": "48"
      },
      "economicActivities": [
        {
          "id": "1.476.2",
          "name": "Edición de periódicos y revistas",
          "_links": {
            "self": {
              "name": "Edición de periódicos y revistas",
              "href": "https://api.euskadi.eus/procurements/companies/economic-activities/1.476.2"
            }
          }
        },
        {
          "id": "1.844",
          "name": "Servicios de publicidad, relaciones públicas y similares",
          "_links": {
            "self": {
              "name": "Servicios de publicidad, relaciones públicas y similares",
              "href": "https://api.euskadi.eus/procurements/companies/economic-activities/1.844"
            }
          }
        }
      ],
      "certificateStartDate": "2023-01-18",
      "certificateEndDate": "2023-07-12",
      "object": "A) LA GESTIÓN Y EXPLOTACIÓN DE TODA CLASE DE MEDIOS DE INFORMACIÓN Y COMUNICACIÓN, PROPIOS O AJENOS, SEA CUAL FUERE SU SUPORTE TÉCNICO, INCLUIDOS ENTRE ELLOS LA PUBLICACIÓN DE PERIÓDICOS IMPRESOS Y CUALQUIER ACTIVIDAD AUDIOVISUAL, ASÍ COMO LA IMPRESIÓN DE LOS MISMOS, Y LA EXPLOTACIÓN DE TALLERES DE IMPRIMIR, Y EN GENERAL LA GESTIÓN Y EXPLOTACIÓN DE CUALQUIER OTRA ACTIVIDAD RELACIONADA, CON LA INDUSTRIA DE INFORMACIÓN, COMUJNICACIÓN, AUDIOVISUAL, RADIO, TELEVISIÓN, INTERNET, EDITORIAL Y DE ARTES GRÁFICAS Y EL DESARROLLO DE TODO TIPO DE ACTIVIDADES DE COMERCIO ELECTRÓNICO, SU PROMOCIÓN Y EXPLOTACIÓN, INCLUIDA LA COMERCIALIZACIÓN DE PRODUCTOS Y SERVICIOS COMO PROMOCIÓN  O COMPLEMENTARIAS DE DICHAS ACTIVIDADES. B) LA PROMOCIÓN, PLANEAMIENTO Y EJECUCIÓN, POR CUENTA PROPIA O AJENA, DIRECTAMENTE O A TRAVÉS DE TERCEROS, DE TODA CLASE DE PROYECTOS, NEGOCIOS O EMPRESAS DE MEDIOS DE COMUNICACIÓN, INDUSTRIALES, COMERCIALES Y DE SERVICIOS. C) LA CONSTITUCIÓN DE EMPRESAS Y SOCIEDADES, LA PARTICIPACIÓN, INCLUSO MAYORITARIA, EN OTRAS EXISTENTES Y LA ASOCIACIÓN CON TERCEROS EN OPERACIONES Y NEGOCIOS, MEDIANTE FÓRMULAS DE COLABORACIÓN. D) LA CONTRATACIÓN Y PRESTACIÓN DE SERVICIOS DE ASESORAMIENTO, ADQUISICIÓN Y GESTIÓN DE INTERÉS DE TERCEROS, YA SEA A TRAVÉS DE INTERMEDIACIÓN, REPRESENTACIÓN, O CUALQUIER OTRO MEDIO DE COLABORACIÓN, POR CUENTA PROPIA O AJENA. INCLUYENDO TODO TIPO DE INTERMEDIACIÓN EN PRODUCTOS Y SOPORTES AUDIOVISUALES O CUALQUIER TIPO DE ACTIVIDAD CONEXA O ACCESORIA",
      "mainEntityOfPage": "https://www.contratacion.euskadi.eus/webkpe00-kperoc/es/ac71aBusquedaRegistrosWar/empresa/03813",
      "_links": {
        "self": {
          "name": "EDITORIAL IPARRAGUIRRE, S.A.",
          "href": "https://api.euskadi.eus/procurements/companies/03813"
        }
      }
    },
    {
      "name": "JOSE ANGEL BENITO RONDA",
      "registrationNumber": "08818",
      "identificationNumber": "30682865Z",
      "address": "Calle Madalenoste Nº7, 3ºC",
      "location": {
        "postalCode": "48200",
        "municipality": "Durango",
        "county": "Bizkaia",
        "municipalityId": "027",
        "countyId": "48"
      },
      "economicActivities": [
        {
          "id": "1.722",
          "name": "Transporte de mercancías por carretera",
          "_links": {
            "self": {
              "name": "Transporte de mercancías por carretera",
              "href": "https://api.euskadi.eus/procurements/companies/economic-activities/1.722"
            }
          }
        }
      ],
      "certificateStartDate": "2023-01-18",
      "certificateEndDate": "2023-07-18",
      "object": "TRANSPORTE DE MERCANCÍAS POR CARRETERA.",
      "mainEntityOfPage": "https://www.contratacion.euskadi.eus/webkpe00-kperoc/es/ac71aBusquedaRegistrosWar/empresa/08818",
      "_links": {
        "self": {
          "name": "JOSE ANGEL BENITO RONDA",
          "href": "https://api.euskadi.eus/procurements/companies/08818"
        }
      }
    },
    {
      "name": "MARIA ESTHER ZARRABEITIA PEÑALBA",
      "registrationNumber": "08816",
      "identificationNumber": "30579531L",
      "address": "Calle Jose Maria de Iparragirre",
      "location": {
        "postalCode": "48200",
        "municipality": "Durango",
        "county": "Bizkaia",
        "municipalityId": "027",
        "countyId": "48"
      },
      "economicActivities": [
        {
          "id": "2.411",
          "name": "Arquitectos",
          "_links": {
            "self": {
              "name": "Arquitectos",
              "href": "https://api.euskadi.eus/procurements/companies/economic-activities/2.411"
            }
          }
        }
      ],
      "certificateStartDate": "2023-01-17",
      "certificateEndDate": "2023-06-11",
      "object": "ARQUITECTOS.",
      "mainEntityOfPage": "https://www.contratacion.euskadi.eus/webkpe00-kperoc/es/ac71aBusquedaRegistrosWar/empresa/08816",
      "_links": {
        "self": {
          "name": "MARIA ESTHER ZARRABEITIA PEÑALBA",
          "href": "https://api.euskadi.eus/procurements/companies/08816"
        }
      }
    },
    {
      "name": "RAQUEL GOMEZ ARNAIZ",
      "registrationNumber": "08547",
      "identificationNumber": "45624646Y",
      "address": "BARRIO OLABARRIETA 45, DCHA",
      "location": {
        "postalCode": "48960",
        "municipality": "Galdakao",
        "county": "Bizkaia",
        "municipalityId": "036",
        "countyId": "48"
      },
      "economicActivities": [
        {
          "id": "1.501.3",
          "name": "Albañilería y pequeños trabajos de construcción en general",
          "_links": {
            "self": {
              "name": "Albañilería y pequeños trabajos de construcción en general",
              "href": "https://api.euskadi.eus/procurements/companies/economic-activities/1.501.3"
            }
          }
        }
      ],
      "certificateStartDate": "2023-01-17",
      "certificateEndDate": "2023-07-17",
      "object": "ALBAÑILERÍA Y PEQUEÑOS TRABAJOS DE CONSTRUCCIÓN EN GENERAL.",
      "mainEntityOfPage": "https://www.contratacion.euskadi.eus/webkpe00-kperoc/es/ac71aBusquedaRegistrosWar/empresa/08547",
      "_links": {
        "self": {
          "name": "RAQUEL GOMEZ ARNAIZ",
          "href": "https://api.euskadi.eus/procurements/companies/08547"
        }
      }
    },
    {
      "name": "KRAPE, S.A.",
      "registrationNumber": "02855",
      "identificationNumber": "A28329704",
      "address": "EDUARDO TORROJA, Nº 31",
      "location": {
        "postalCode": "28914",
        "municipality": "Leganés",
        "county": "Madrid",
        "municipalityId": "074",
        "countyId": "28"
      },
      "economicActivities": [
        {
          "id": "1.619.9",
          "name": "Venta al por mayor de otros productos n.c.o.p",
          "_links": {
            "self": {
              "name": "Venta al por mayor de otros productos n.c.o.p",
              "href": "https://api.euskadi.eus/procurements/companies/economic-activities/1.619.9"
            }
          }
        }
      ],
      "certificateStartDate": "2023-01-17",
      "certificateEndDate": "2023-07-12",
      "object": "IMPORTACIÓN, COMERCIALIZACIÓN Y DISTRIBUCIÓN DE TODA CLASE DE PRODUCTOS QUÍMICOS Y FARMACÉUTICOS Y MATERIAL DE LABORATORIO EN GENERAL, AL POR MAYOR O POR MENOR; LA ADQUISICIÓN, EXPLOTACIÓN Y ENAJENACIÓN DE BIENES INMUEBLE; LA IMPORTACIÓN, COMERCIALIZACIÓN, DISTRIBUCIÓN COMPRA Y VENTA DE MATEIRAL DE PROTECCIÓN EN GENERAL, PRODUCTOS SANITARIOS, MATERIAL, EQUIPOS E INSTRUMENTAL SUSCEPTIBLES DE PODER SER UTILIZADOS PARA LA PREVENCIÓN, DIAGNOSIS, TRATAMIENTO, ALIVIO O CURACIÓN DE ENFERMEDADES O DOLENCIAS DEL HOMBRE O DE LOS ANIMALES",
      "mainEntityOfPage": "https://www.contratacion.euskadi.eus/webkpe00-kperoc/es/ac71aBusquedaRegistrosWar/empresa/02855",
      "_links": {
        "self": {
          "name": "KRAPE, S.A.",
          "href": "https://api.euskadi.eus/procurements/companies/02855"
        }
      }
    },
    {
      "name": "TRANSPORTES LIGEROS DIRECTOS, S.L.",
      "registrationNumber": "02376",
      "identificationNumber": "B48719488",
      "address": "ERREKA BASTERREAK, EJE-1 POL. ARTUNDUAGA, PARC. 21 PAB.8 ",
      "location": {
        "postalCode": "48970",
        "municipality": "Basauri",
        "county": "Bizkaia",
        "municipalityId": "015",
        "countyId": "48"
      },
      "economicActivities": [
        {
          "id": "1.722",
          "name": "Transporte de mercancías por carretera",
          "_links": {
            "self": {
              "name": "Transporte de mercancías por carretera",
              "href": "https://api.euskadi.eus/procurements/companies/economic-activities/1.722"
            }
          }
        },
        {
          "id": "1.754.6",
          "name": "Guardamuebles",
          "_links": {
            "self": {
              "name": "Guardamuebles",
              "href": "https://api.euskadi.eus/procurements/companies/economic-activities/1.754.6"
            }
          }
        },
        {
          "id": "1.756",
          "name": "Intermediarios del transporte",
          "_links": {
            "self": {
              "name": "Intermediarios del transporte",
              "href": "https://api.euskadi.eus/procurements/companies/economic-activities/1.756"
            }
          }
        },
        {
          "id": "1.757",
          "name": "Servicio de mudanzas",
          "_links": {
            "self": {
              "name": "Servicio de mudanzas",
              "href": "https://api.euskadi.eus/procurements/companies/economic-activities/1.757"
            }
          }
        }
      ],
      "certificateStartDate": "2023-01-16",
      "certificateEndDate": "2023-07-12",
      "object": "LA ACTIVIDAD DE TRANSPORTES EN GENERAL, PUDIENDO EXPLOTAR LÍNEAS REGULARES Y DISCRECIONALES DE ÁMBITO INTERNACIONAL, NACIONAL, COMARCAL, PROVINCIAL Y LOCAL, ASÍ COMO EL ESTABLECIMIENTO Y EXPLOTACIÓN DE AGENCIAS DE TRANSPORTE, APARCAMIENTOS, GARAJES, CENTROS DE ESTACIONES DE SERVICIOS O DE ASISTENCIA A VEHÍCULOS\r\n",
      "mainEntityOfPage": "https://www.contratacion.euskadi.eus/webkpe00-kperoc/es/ac71aBusquedaRegistrosWar/empresa/02376",
      "_links": {
        "self": {
          "name": "TRANSPORTES LIGEROS DIRECTOS, S.L.",
          "href": "https://api.euskadi.eus/procurements/companies/02376"
        }
      }
    },
    {
      "name": "DIVERSEY ESPAÑA, S.L.",
      "registrationNumber": "02676",
      "identificationNumber": "B28247849",
      "address": "AVDA.CONDE DUQUE Nº5-POL.IND.LA POSTURA",
      "location": {
        "postalCode": "28020",
        "municipality": "Madrid",
        "county": "Madrid",
        "municipalityId": "079",
        "countyId": "28"
      },
      "economicActivities": [
        {
          "id": "1.692",
          "name": "Reparación de maquinaria industrial",
          "_links": {
            "self": {
              "name": "Reparación de maquinaria industrial",
              "href": "https://api.euskadi.eus/procurements/companies/economic-activities/1.692"
            }
          }
        }
      ],
      "certificateStartDate": "2023-01-13",
      "certificateEndDate": "2023-06-22",
      "object": "LA FABRICACIÓN, VENTA, DISTRIBUCIÓN, IMPORTACIÓN Y EXPORTACIÓN DE MAQUINARIA INDUSTRIAL, ASÍ COMO DE LOS PRODUCTOS QUÍMICOS O DE OTRA NATURALEZA QUE SE UTILICEN, POR CUALQUIER MÉTODO, EN EL RAMO DE LA LIMPIEZA INDUSTRIAL; LA PRESTACION DE ASESORAMIENTO TÉCNICO, LA REALIZACIÓN DE ESTUDIOS Y PROYECTOS QUE TENGAN POR OBJETO LA RACIONALIZACIÓN DE NUEVAS INDUSTRIAS DEL RAMO.\r\n\r\nEL DISEÑO, IMPARTICIÓN Y EVALUACIÓN, EN GENERAL, DE CURSOS O PROGRAMAS DE FORMACIÓN DESTINADOS A LA CAPACITACIÓN DEL PERSONAL DE LOS CLIENTES Y, EN PARTICULAR, LOS CONCERNIENTES A SEGURIDAD ALIMENTARIA (MANIPULADORES DE ALIMENTOS), SEGURIDAD E HIGIENE EN EL TRABAJO, MEDIOAMBIENTE, CALIDAD Y PROCESOS DE HIGIENE Y LIMPIEZA.\r\n\r\nLA PRESTACIÓN  DE SERVICIOS DE CONSULTORÍA EN LAS MATERIAS RELACIONADAS EN LOS DOS APARTADOS ANTERIORES, INCLUYENDO EL DESARROLLO E IMPLANTACIÓN DE SISTEMAS  DE ANÁLISIS DE PELIGROS Y PUNTOS DE CONTROL CRÍTICO EN TODO TIPO DE ESTABLECIMIENTOS ALIMENTARIOS, DONDE SE REALICEN ACTIVIDADES DE PRODUCCIÓN, ALMACENAMIENTO, TRANSPORTE, MANIPULACIÓN Y VENTA DE ALIMENTOS, BEBIDAS Y OTROS PRODUCTOS RELACIONADOS DIRECTA O INDIRECTAMENTE CON LA ALIMENTACIÓN HUMANA.\r\n\r\nLA GESTIÓN Y ADMINISTRACIÓN  DE VALORES REPRESENTATIVOS DE LOS FONDOS PROPIOS DE ENTIDADES NO RESIDENTES EN TERRITORIO ESPAÑOL, MEDIANTE LA CORRESPONDIENTE ORGANIZACIÓN DE MEDIOS MATERIALES Y PERSONALES.",
      "mainEntityOfPage": "https://www.contratacion.euskadi.eus/webkpe00-kperoc/es/ac71aBusquedaRegistrosWar/empresa/02676",
      "_links": {
        "self": {
          "name": "DIVERSEY ESPAÑA, S.L.",
          "href": "https://api.euskadi.eus/procurements/companies/02676"
        }
      }
    },
    {
      "name": "VIAJES EROSKI, S.A.U",
      "registrationNumber": "01802",
      "identificationNumber": "A48115638",
      "address": "BARRIO SAN AGUSTIN S/N",
      "location": {
        "postalCode": "48230",
        "municipality": "Elorrio",
        "county": "Bizkaia",
        "municipalityId": "032",
        "countyId": "48"
      },
      "economicActivities": [
        {
          "id": "1.755",
          "name": "Agencias de viajes",
          "_links": {
            "self": {
              "name": "Agencias de viajes",
              "href": "https://api.euskadi.eus/procurements/companies/economic-activities/1.755"
            }
          }
        },
        {
          "id": "1.755.1",
          "name": "Servicios a otros agencias de viajes",
          "_links": {
            "self": {
              "name": "Servicios a otros agencias de viajes",
              "href": "https://api.euskadi.eus/procurements/companies/economic-activities/1.755.1"
            }
          }
        },
        {
          "id": "1.755.2",
          "name": "Servicios prestados al público por las agencias de viajes",
          "_links": {
            "self": {
              "name": "Servicios prestados al público por las agencias de viajes",
              "href": "https://api.euskadi.eus/procurements/companies/economic-activities/1.755.2"
            }
          }
        }
      ],
      "certificateStartDate": "2023-01-13",
      "certificateEndDate": "2023-06-27",
      "object": "EL DESARROLLLO DE LAS ACTIVIDADES PROPIAS DE UNA AGENCIA DE VIAJES",
      "mainEntityOfPage": "https://www.contratacion.euskadi.eus/webkpe00-kperoc/es/ac71aBusquedaRegistrosWar/empresa/01802",
      "_links": {
        "self": {
          "name": "VIAJES EROSKI, S.A.U",
          "href": "https://api.euskadi.eus/procurements/companies/01802"
        }
      }
    },
    {
      "name": "ROBERTO UGARTE LOPEZ",
      "registrationNumber": "08124",
      "identificationNumber": "16285750W",
      "address": "AVENIDA EXCELENTISIMA DIPUTACION 16 P01 B",
      "location": {
        "postalCode": "01300",
        "municipality": "Laguardia",
        "county": "Araba/Álava",
        "municipalityId": "031",
        "countyId": "01"
      },
      "economicActivities": [
        {
          "id": "1.673.2",
          "name": "Otros cafés y bares",
          "_links": {
            "self": {
              "name": "Otros cafés y bares",
              "href": "https://api.euskadi.eus/procurements/companies/economic-activities/1.673.2"
            }
          }
        }
      ],
      "certificateStartDate": "2023-01-12",
      "certificateEndDate": "2023-07-12",
      "object": "OTROS CAFÉS Y BARES.",
      "mainEntityOfPage": "https://www.contratacion.euskadi.eus/webkpe00-kperoc/es/ac71aBusquedaRegistrosWar/empresa/08124",
      "_links": {
        "self": {
          "name": "ROBERTO UGARTE LOPEZ",
          "href": "https://api.euskadi.eus/procurements/companies/08124"
        }
      }
    },
    {
      "name": "GESPORLAN, S.L.",
      "registrationNumber": "08806",
      "identificationNumber": "B95197505",
      "address": "c/ Simon Bolivar nº 22",
      "location": {
        "postalCode": "48013",
        "municipality": "Bilbao",
        "county": "Bizkaia",
        "municipalityId": "020",
        "countyId": "48"
      },
      "economicActivities": [
        {
          "id": "1.381",
          "name": "Construcción, reparación y mantenimiento de material ferroviario",
          "_links": {
            "self": {
              "name": "Construcción, reparación y mantenimiento de material ferroviario",
              "href": "https://api.euskadi.eus/procurements/companies/economic-activities/1.381"
            }
          }
        },
        {
          "id": "1.505.6",
          "name": "Pintura, revestimientos y terminación y decoración de locales",
          "_links": {
            "self": {
              "name": "Pintura, revestimientos y terminación y decoración de locales",
              "href": "https://api.euskadi.eus/procurements/companies/economic-activities/1.505.6"
            }
          }
        },
        {
          "id": "1.613.1",
          "name": "Venta al por mayor de productos textiles, confección calzado y artículos cuero",
          "_links": {
            "self": {
              "name": "Venta al por mayor de productos textiles, confección calzado y artículos cuero",
              "href": "https://api.euskadi.eus/procurements/companies/economic-activities/1.613.1"
            }
          }
        },
        {
          "id": "1.617.8",
          "name": "Venta al por mayor de máquinas y material de oficina",
          "_links": {
            "self": {
              "name": "Venta al por mayor de máquinas y material de oficina",
              "href": "https://api.euskadi.eus/procurements/companies/economic-activities/1.617.8"
            }
          }
        },
        {
          "id": "1.622",
          "name": "Venta al por mayor de otros productos de recuperación",
          "_links": {
            "self": {
              "name": "Venta al por mayor de otros productos de recuperación",
              "href": "https://api.euskadi.eus/procurements/companies/economic-activities/1.622"
            }
          }
        },
        {
          "id": "1.659.4",
          "name": "Venta al por menor de libros, periódicos y artículos de papelería y escritorio",
          "_links": {
            "self": {
              "name": "Venta al por menor de libros, periódicos y artículos de papelería y escritorio",
              "href": "https://api.euskadi.eus/procurements/companies/economic-activities/1.659.4"
            }
          }
        }
      ],
      "certificateStartDate": "2023-01-12",
      "certificateEndDate": "2023-06-21",
      "object": "REALIZAR UNA ACTIVIDAD PRODUCTIVA DE BIENES O SERVICIOS, PARTICIPANDO REGULARMENTE EN LAS OPERACIONES DEL MERCADO, Y TENIENDO COMO FIN SOCIAL ASEGURAR UN EMPLEO REMUNERADO Y DE CALIDAD PARA LAS PERSONAS CON DISCAPACIDAD, A LA VEZ QUE SON UN MEDIO DE INCLUSIÓN DEL MAYOR NÚMERO DE ESTAS PERSONAS EN EL RÉGIMEN DE EMPLEO ORDINARIO. CONSTITUYENDO A ESTE FIN UN CENTRO ESPECIAL DE EMPLEO, QUE PRESTARÁ LOS SERVICIOS DE AJUSTE PERSONAL Y SOCIAL A TRAVÉS DE LAS UNIDADES DE APOYO, SERVICIOS QUE PERMITAN AYUDAR A SUPERAR LAS BARRERAS, OBSTÁCULO O DIFICULTADES QUE LAS PERSONAS TRABAJADORAS CON DISCAPACIDAD TENGAN EN EL PROCESO DE INCORPORACIÓN A UN NUEVO PUESTO DE TRABAJO, ASÍ COMO EN LA PERMANENCIA Y PROGRESIÓN EN EL MISMO. IGUALMENTE SE ENCONTRARÁN COMPRENDIDOS LOS SERVICIOS DIRIGIDOS A LA INCLUSIÓN SOCIAL, DEPORTIVA Y CULTURAL. EL OBJETO SOCIAL ANTERIORMENTE DESCRITO SE LLEVARÁ A CABO A TRAVÉS DE LA PRESTACIÓN DE SERVICIOS QUE A CONTINUACIÓN SE DETALLAN; A.- DISTRIBUCIÓN Y VENTA DE CONSUMIBLES DE INFORMÁTICA, MATERIAL Y MOBILIARIO DE OFICINA. B.- COMERCIO AL POR MENOR DE LIBROS, ARTÍCULOS PAPELERÍA Y ESCRITORIO Y ARTÍCULOS DE DIBUJO, BELLAS ARTES Y JUGUETERÍA. C.- RECUPERACIÓN Y RECICLAJE DE CONSUMIBLES INFORMÁTICOS. D.- DISTRIBUCIÓN Y VENTA DE ROPA LABORAL Y EQUIPOS DE PROTECCIÓN INDIVIDUAL (EPIS). E.- REPARACIÓN DE ELEMENTOS FERROVIARIOS. F.- COMERCIO AL POR MENOR DE LIBROS, ARTÍCULOS PAPELERÍA Y ESCRITORIO Y ARTÍCULOS DE DIBUJO, BELLAS ARTES Y JUGUETERÍA.",
      "mainEntityOfPage": "https://www.contratacion.euskadi.eus/webkpe00-kperoc/es/ac71aBusquedaRegistrosWar/empresa/08806",
      "_links": {
        "self": {
          "name": "GESPORLAN, S.L.",
          "href": "https://api.euskadi.eus/procurements/companies/08806"
        }
      }
    }
  ]
}