{
  "totalItems": 9042,
  "totalPages": 905,
  "currentPage": 830,
  "itemsOfPage": 10,
  "items": [
    {
      "name": "OLASARRETA, S.A.L.",
      "registrationNumber": "01743",
      "identificationNumber": "A48552665",
      "address": "C/ JUAN SEBASTIÁN ELCANO, Nº 18.",
      "location": {
        "postalCode": "48960",
        "municipality": "Galdakao",
        "county": "Bizkaia",
        "municipalityId": "036",
        "countyId": "48"
      },
      "economicActivities": [
        {
          "id": "1.911",
          "name": "Servicios agrícolas y ganaderos",
          "_links": {
            "self": {
              "name": "Servicios agrícolas y ganaderos",
              "href": "https://api.euskadi.eus/procurements/companies/economic-activities/1.911"
            }
          }
        }
      ],
      "certificateStartDate": "1999-02-01",
      "certificateEndDate": "1999-07-11",
      "object": "LA EJECUCIÓN DE PROYECTOS Y OBRAS DE JARDINERÍA Y FORESTALES, ASÍ COMO LOS TRABAJOS DE MANTENIMIENTO Y CONSERVACIÓN DE PARQUES, ZONAS VERDES, ZONAS ARBOLADAS, TALUDES DE VÍAS PÚBLICA; COMPRAVENTA DE PLANTAS, SEMILLAS, VIVEROS, ABONOS Y OTROS ARTÍCULOS RELACIONADOS CON LA JARDINERÍA, INCLUSO MAQUINARIA Y ELEMENTOS PARA SU PLANTACIÓN CONSERVACIÓN Y MANTENIMIENTO; Y, LA REPRESENTACIÓN COMO AGENTE, DELEGADO, COMISIONISTA O CUALQUIER OTRA FORMA DE MEDIACIÓN MERCANTIL DE TODA CLASE DE EMPRESAS NACIONALES Y EXTRANJERAS RELACIONADAS CON EL RAMO DE LA JARDINERÍA, EXPLOTACIÓN FORESTAL Y MAQUINARIA PARA TODO ELLO. IGUALMENTE TIENE POR OBJETO LA ACTIVIDAD DE CREACIÓN DE VIVEROS E INVERNADEROS PARA SU EXPLOTACIÓN, VENTA Y COMERCIALIZACIÓN, ASÍ COMO LA PRODUCCIÓN DE SEMILLAS, FLORES, PLANTAS, ARBOLES, SETOS Y SUS DERIVADOS, ASÍ COMO DE TODO PRODUCTO RELACIONADO CON LA JARDINERÍA Y LA AGRICULTURA",
      "mainEntityOfPage": "https://www.contratacion.euskadi.eus/webkpe00-kperoc/es/ac71aBusquedaRegistrosWar/empresa/01743",
      "_links": {
        "self": {
          "name": "OLASARRETA, S.A.L.",
          "href": "https://api.euskadi.eus/procurements/companies/01743"
        }
      }
    },
    {
      "name": "INSTALADORA ALAVESA DE GAS, S.A.",
      "registrationNumber": "01609",
      "identificationNumber": "A01015015",
      "address": "C/ CANCILLER AYALA, Nº 6",
      "location": {
        "postalCode": "01004",
        "municipality": "Vitoria-Gasteiz",
        "county": "Araba/Álava",
        "municipalityId": "059",
        "countyId": "01"
      },
      "economicActivities": [
        {
          "id": "1.504.3",
          "name": "Instalaciones de frío, calor y acondicionamiento de aire",
          "_links": {
            "self": {
              "name": "Instalaciones de frío, calor y acondicionamiento de aire",
              "href": "https://api.euskadi.eus/procurements/companies/economic-activities/1.504.3"
            }
          }
        },
        {
          "id": "1.654.5",
          "name": "Venta al por menor de toda clase de maquinaría",
          "_links": {
            "self": {
              "name": "Venta al por menor de toda clase de maquinaría",
              "href": "https://api.euskadi.eus/procurements/companies/economic-activities/1.654.5"
            }
          }
        }
      ],
      "certificateStartDate": "1999-01-25",
      "certificateEndDate": "1999-06-09",
      "object": " LA VENTA DE TODA CLASE DE APARATOS Y ACCESORIOS DESTINADOS A TODA CLASE DE INSTALACIONES DE TIPO DOMÉSTICO E INDUSTRIAL QUE SE PUEDAN REALIZAR PARA CONSUMO Y UTILIZACIÓN DE GAS NATURAL, GASES BUTANO Y PROPANO O GASÓLEO, ASÍ COMO EL MONTAJE DE LOS MISMOS CON ARREGLO A LAS DIFERENTES TECNOLOGÍAS QUE EN CADA INSTALACIÓN PUDIERAN SER UTILIZADAS DENTRO DE LOS CAMPOS DE FONTANERÍA, CALEFACCIÓN, AGUA CALIENTE Y DEMÁS INSTALACIONES QUE PUDIERAN ALIMENTARSE POR CUALQUIER PRODUCTO ENERGÉTICO",
      "mainEntityOfPage": "https://www.contratacion.euskadi.eus/webkpe00-kperoc/es/ac71aBusquedaRegistrosWar/empresa/01609",
      "_links": {
        "self": {
          "name": "INSTALADORA ALAVESA DE GAS, S.A.",
          "href": "https://api.euskadi.eus/procurements/companies/01609"
        }
      }
    },
    {
      "name": "AGROMOTOR, AGRICULTURA Y MOTORIZACIÓN, S.A.",
      "registrationNumber": "00340",
      "identificationNumber": "A01001130",
      "address": "C/ ALTO DE ARMENTIA, Nº 7.",
      "location": {
        "postalCode": "01007",
        "municipality": "Vitoria-Gasteiz",
        "county": "Araba/Álava",
        "municipalityId": "059",
        "countyId": "01"
      },
      "economicActivities": [
        {
          "id": "1.615.1",
          "name": "Venta al por mayor de vehículos, motocicletas, bicicletas y sus accesorios",
          "_links": {
            "self": {
              "name": "Venta al por mayor de vehículos, motocicletas, bicicletas y sus accesorios",
              "href": "https://api.euskadi.eus/procurements/companies/economic-activities/1.615.1"
            }
          }
        },
        {
          "id": "1.691.2",
          "name": "Reparación de vehículos automóviles, bicicletas y otros vehículos",
          "_links": {
            "self": {
              "name": "Reparación de vehículos automóviles, bicicletas y otros vehículos",
              "href": "https://api.euskadi.eus/procurements/companies/economic-activities/1.691.2"
            }
          }
        }
      ],
      "certificateStartDate": "1999-01-18",
      "certificateEndDate": "1999-07-08",
      "object": "LA COMPRA, FABRICACIÓN, DISTRIBUCIÓN Y VENTA DE TODA CLASE DE VEHÍCULOS, MAQUINARIA, ACCESORIOS Y REPUESTOS, LA REPRESENTACIÓN O EXPORTACIÓN DE PRODUCTOS DE TODO TIPO Y EN GENERAL CUALQUIER OTRA CLASE DE ACTIVIDADES QUE SE RELACIONEN CON LO ANTERIORMENTE EXPRESADO ",
      "mainEntityOfPage": "https://www.contratacion.euskadi.eus/webkpe00-kperoc/es/ac71aBusquedaRegistrosWar/empresa/00340",
      "_links": {
        "self": {
          "name": "AGROMOTOR, AGRICULTURA Y MOTORIZACIÓN, S.A.",
          "href": "https://api.euskadi.eus/procurements/companies/00340"
        }
      }
    },
    {
      "name": "AGENCIA DE COMUNICACIÓN CREATIVA Y MARKETING ESTRATÉGICO, S.A.",
      "registrationNumber": "01160",
      "identificationNumber": "A79857470",
      "address": "C/ REINA MERCEDES, Nº 20 - ESC. IZDA. - 4º A.",
      "location": {
        "postalCode": "28020",
        "municipality": "Madrid",
        "county": "Madrid",
        "municipalityId": "079",
        "countyId": "28"
      },
      "economicActivities": [
        {
          "id": "1.844",
          "name": "Servicios de publicidad, relaciones públicas y similares",
          "_links": {
            "self": {
              "name": "Servicios de publicidad, relaciones públicas y similares",
              "href": "https://api.euskadi.eus/procurements/companies/economic-activities/1.844"
            }
          }
        }
      ],
      "certificateStartDate": "1999-01-18",
      "certificateEndDate": "1999-07-07",
      "object": "LA PUBLICIDAD Y SU COMERCIALIZACIÓN, RELACIONES PÚBLICAS, PROMOCIÓN DE VENTAS, INVESTIGACIÓN DE MERCADOS, MARKETING, PUBLICIDAD EXTERIOR Y AGENCIA DE SERVICIOS PLENOS. LAS ACTIVIDADES INTEGRANTES DEL OBJETO SOCIAL PODRÁN SER DESARROLLADAS POR LA SOCIEDAD, TOTAL O PARCIALMENTE, DE MODO INDIRECTO MEDIANTE SU PARTICIPACIÓN EN SOCIEDAD CON IDÉNTICO O ANÁLOGO OBJETO. LA SOCIEDAD NO DESARROLLARÁ NINGUNA ACTIVIDAD PARA LA QUE LAS LEYES EXIJAN CONDICIONES O LIMITACIONES ESPECÍFICAS, EN TANTO NO DE EXACTO CUMPLIMIENTO A LAS MISMAS",
      "mainEntityOfPage": "https://www.contratacion.euskadi.eus/webkpe00-kperoc/es/ac71aBusquedaRegistrosWar/empresa/01160",
      "_links": {
        "self": {
          "name": "AGENCIA DE COMUNICACIÓN CREATIVA Y MARKETING ESTRATÉGICO, S.A.",
          "href": "https://api.euskadi.eus/procurements/companies/01160"
        }
      }
    },
    {
      "name": "ANTOR MÉDICA, S.A.",
      "registrationNumber": "01778",
      "identificationNumber": "A61020798",
      "address": "C/ CÓRCEGA, Nº 329 - 5º A.",
      "location": {
        "postalCode": "08037",
        "municipality": "Barcelona",
        "county": "Barcelona",
        "municipalityId": "019",
        "countyId": "08"
      },
      "economicActivities": [
        {
          "id": "1.619.2",
          "name": "Venta al por mayor de aparatos e instrumentos médicos, ortopédicos, ópticos",
          "_links": {
            "self": {
              "name": "Venta al por mayor de aparatos e instrumentos médicos, ortopédicos, ópticos",
              "href": "https://api.euskadi.eus/procurements/companies/economic-activities/1.619.2"
            }
          }
        }
      ],
      "certificateStartDate": "1999-01-11",
      "certificateEndDate": "1999-06-01",
      "object": "EL COMERCIO, DISTRIBUCIÓN, IMPORTACIÓN Y EXPORTACIÓN DE MATERIAL CLÍNICO, MÉDICO O DE USO SANITARIO",
      "mainEntityOfPage": "https://www.contratacion.euskadi.eus/webkpe00-kperoc/es/ac71aBusquedaRegistrosWar/empresa/01778",
      "_links": {
        "self": {
          "name": "ANTOR MÉDICA, S.A.",
          "href": "https://api.euskadi.eus/procurements/companies/01778"
        }
      }
    },
    {
      "name": "ASTECO, PLANIFICACIONES Y ESTUDIOS TÉCNICOS COMUNITARIOS, S.L.",
      "registrationNumber": "02084",
      "identificationNumber": "B48904445",
      "address": "C/ LUTXANA, Nº 4 - 4º DCHA. DPTO.: 6.",
      "location": {
        "postalCode": "48008",
        "municipality": "Bilbao",
        "county": "Bizkaia",
        "municipalityId": "020",
        "countyId": "48"
      },
      "economicActivities": [
        {
          "id": "1.846",
          "name": "Empresas de estudios de mercado",
          "_links": {
            "self": {
              "name": "Empresas de estudios de mercado",
              "href": "https://api.euskadi.eus/procurements/companies/economic-activities/1.846"
            }
          }
        }
      ],
      "certificateStartDate": "1999-01-11",
      "certificateEndDate": "1999-05-30",
      "object": "CONSULTORÍA Y PROYECTOS DE ESTUDIOS DE MERCADO, ESTUDIOS DE OPINIÓN, DE HÁBITOS DE COMPRA Y OTROS SERVICIOS INDEPENDIENTES DE INFORMACIÓN E INVESTIGACIÓN COMERCIAL",
      "mainEntityOfPage": "https://www.contratacion.euskadi.eus/webkpe00-kperoc/es/ac71aBusquedaRegistrosWar/empresa/02084",
      "_links": {
        "self": {
          "name": "ASTECO, PLANIFICACIONES Y ESTUDIOS TÉCNICOS COMUNITARIOS, S.L.",
          "href": "https://api.euskadi.eus/procurements/companies/02084"
        }
      }
    },
    {
      "name": "SERVICIOS Y TRADUCCIONES AIXE, S.L.",
      "registrationNumber": "02085",
      "identificationNumber": "B01265461",
      "address": "C/ DOMINGO BELTRÁN DE OTALORA, Nº 5 - 4º IZDA.",
      "location": {
        "postalCode": "01012",
        "municipality": "Vitoria-Gasteiz",
        "county": "Araba/Álava",
        "municipalityId": "059",
        "countyId": "01"
      },
      "economicActivities": [
        {
          "id": "1.849.3",
          "name": "Servicios de traducción y similares",
          "_links": {
            "self": {
              "name": "Servicios de traducción y similares",
              "href": "https://api.euskadi.eus/procurements/companies/economic-activities/1.849.3"
            }
          }
        }
      ],
      "certificateStartDate": "1999-01-11",
      "certificateEndDate": "1999-06-18",
      "object": "SERVICIOS DE TRADUCCIÓN, INTERPRETACIÓN, ENSEÑANZA DE FORMACIÓN Y PERFECCIONAMIENTO DE IDIOMAS, ASÍ COMO DE TODA CLASE DE PROGRAMAS Y APLICACIONES INFORMÁTICAS, ASESORAMIENTO, CONSULTA E INFORMACIÓN SOBRE TEMAS DE INFORMÁTICA. COMERCIALIZACIÓN Y DESARROLLO DE APLICACIONES INFORMÁTICAS. CONSULTORÍA LINGÜÍSTICA, ASESORAMIENTO Y PRESTACIÓN DE TODA CLASE DE SERVICIOS LINGÜÍSTICOS MEDIANTE LA APLICACIÓN DE MÉTODOS INFORMÁTICOS. LA PRESTACIÓN DE SERVICIOS DE ESTUDIO Y ANÁLISIS DE PROCESOS PARA SU TRATAMIENTO MECÁNICO, DE PROGRAMACIÓN PARA EQUIPOS ELECTRÓNICOS DE REGISTRO DE DATOS EN SOPORTES DE ENTRADA PARA ORDENADORES, ASÍ COMO LA VENTA DE PROGRAMAAS, EL PROCESO DE DATOS POR CUENTA DE TERCEROS Y OTROS SERVICIOS DE ELABORACIÓN DE DATOS Y TABULACIÓN",
      "mainEntityOfPage": "https://www.contratacion.euskadi.eus/webkpe00-kperoc/es/ac71aBusquedaRegistrosWar/empresa/02085",
      "_links": {
        "self": {
          "name": "SERVICIOS Y TRADUCCIONES AIXE, S.L.",
          "href": "https://api.euskadi.eus/procurements/companies/02085"
        }
      }
    },
    {
      "name": "BOSCH TELECOM SEGURIDAD, S.L.",
      "registrationNumber": "01588",
      "identificationNumber": "B81037467",
      "address": "CTRA. NACIONAL VI, KM. 18,500",
      "location": {
        "postalCode": "28230",
        "municipality": "Rozas de Madrid, Las",
        "county": "Madrid",
        "municipalityId": "127",
        "countyId": "28"
      },
      "economicActivities": [
        {
          "id": "1.504.1",
          "name": "Instalaciones eléctricas en general",
          "_links": {
            "self": {
              "name": "Instalaciones eléctricas en general",
              "href": "https://api.euskadi.eus/procurements/companies/economic-activities/1.504.1"
            }
          }
        },
        {
          "id": "1.699",
          "name": "Otras reparaciones n.c.o.p",
          "_links": {
            "self": {
              "name": "Otras reparaciones n.c.o.p",
              "href": "https://api.euskadi.eus/procurements/companies/economic-activities/1.699"
            }
          }
        }
      ],
      "certificateStartDate": "1999-01-08",
      "certificateEndDate": "1999-05-25",
      "object": "\r\na) LA INSTALACIÓN Y MANTENIMIENTO DE APARATOS, DISPOSITIVOS Y SISTEMAS DE SEGURIDAD ELECTRÓNICA CONTRA ROBO E INTRUSIÓN Y CONTRA INCENDIOS.\r\n\r\nb) LA EXPLOTACIÓN DE CENTRALES PARA LA RECEPCIÓN, VERIFICACIÓN Y TRANSMISIÓN DE LAS SEÑALES DE ALARMA Y SU COMUNICACIÓN A LAS FUERZAS Y CUERPOS DE SEGURIDAD, ASÍ COMO PRESTACIÓN DE SERVICIOS DE RESPUESTA CUYA REALIZACIÓN NO SEA DE LA COMPETENCIA DE DICHAS FUERZAS Y CUERPOS.\r\n\r\nc) LA PLANIFICACIÓN Y ASESORAMIENTO DE LAS ACTIVIDADES DE SEGURIDAD",
      "mainEntityOfPage": "https://www.contratacion.euskadi.eus/webkpe00-kperoc/es/ac71aBusquedaRegistrosWar/empresa/01588",
      "_links": {
        "self": {
          "name": "BOSCH TELECOM SEGURIDAD, S.L.",
          "href": "https://api.euskadi.eus/procurements/companies/01588"
        }
      }
    },
    {
      "name": "ADRIANO VI - CORREDURÍA DE SEGUROS, S.L.",
      "registrationNumber": "02047",
      "identificationNumber": "B01048925",
      "address": "C/ ANTONIO DE SUCRE, Nº 1 - BAJO",
      "location": {
        "postalCode": "01003",
        "municipality": "Vitoria-Gasteiz",
        "county": "Araba/Álava",
        "municipalityId": "059",
        "countyId": "01"
      },
      "economicActivities": [
        {
          "id": "1.832.1",
          "name": "Agencias de seguros y corredurías de seguros",
          "_links": {
            "self": {
              "name": "Agencias de seguros y corredurías de seguros",
              "href": "https://api.euskadi.eus/procurements/companies/economic-activities/1.832.1"
            }
          }
        }
      ],
      "certificateStartDate": "1999-01-07",
      "certificateEndDate": "1999-06-21",
      "object": "LA PROMOCIÓN, MEDIACIÓN Y ASESORAMIENTO, PREPARATORIA DE FORMALIZACIÓN DE CONTRATOS DE SEGUROS PRIVADOS ENTRE PERSONAS FÍSICAS O JURÍDICAS Y ENTIDADES ASEGURADORAS LEGALMENTE AUTORIZADAS. ASÍ COMO, TENDRÁ POR OBJETO ACTUAR HABITUALMENTE EN LA NEGOCIACIÓN O FORMALIZACIÓN DE OPERACIONES TÍPICAS DE LA ACTIVIDAD DE UNA ENTIDAD DE CRÉDITO, EN NOMBRE Y POR CUENTA DE ÉSTA, CON EL CARÁCTER DE AGENTE DE LA ENTIDAD DE CRÉDITO, EN LAS CONDICIONES Y CON LOS REQUISITOS ESTABLECIDOS EN EL ARTÍCULO 22 DEL REAL DECRETO 1245/1995 DE 14 DE JULIO Y EN LAS NORMAS QUE LO DESARROLLEN, O EN SU CASO LO SUSTITUYAN     ",
      "mainEntityOfPage": "https://www.contratacion.euskadi.eus/webkpe00-kperoc/es/ac71aBusquedaRegistrosWar/empresa/02047",
      "_links": {
        "self": {
          "name": "ADRIANO VI - CORREDURÍA DE SEGUROS, S.L.",
          "href": "https://api.euskadi.eus/procurements/companies/02047"
        }
      }
    },
    {
      "name": "JOSÉ LUIS ALBIZUA ITURRINO",
      "registrationNumber": "02079",
      "identificationNumber": "72711839F",
      "address": "C/ ORÚE, Nº 1",
      "location": {
        "postalCode": "01470",
        "municipality": "Amurrio",
        "county": "Araba/Álava",
        "municipalityId": "002",
        "countyId": "01"
      },
      "economicActivities": [
        {
          "id": "1.504.1",
          "name": "Instalaciones eléctricas en general",
          "_links": {
            "self": {
              "name": "Instalaciones eléctricas en general",
              "href": "https://api.euskadi.eus/procurements/companies/economic-activities/1.504.1"
            }
          }
        }
      ],
      "certificateStartDate": "1998-12-22",
      "certificateEndDate": "1999-05-06",
      "object": "INSTALACIONES Y REPARACIONES ELÉCTRICAS EN GENERAL Y REDES DE TELEFÓNICA",
      "mainEntityOfPage": "https://www.contratacion.euskadi.eus/webkpe00-kperoc/es/ac71aBusquedaRegistrosWar/empresa/02079",
      "_links": {
        "self": {
          "name": "JOSÉ LUIS ALBIZUA ITURRINO",
          "href": "https://api.euskadi.eus/procurements/companies/02079"
        }
      }
    }
  ]
}