{
  "totalItems": 9042,
  "totalPages": 905,
  "currentPage": 445,
  "itemsOfPage": 10,
  "items": [
    {
      "name": "DROSOPHILA EDICIONES, S.L.",
      "registrationNumber": "08668",
      "identificationNumber": "B86831880",
      "address": "c/ Elfo, 52 5ºB",
      "location": {
        "postalCode": "28037",
        "municipality": "Madrid",
        "county": "Madrid",
        "municipalityId": "079",
        "countyId": "28"
      },
      "economicActivities": [
        {
          "id": "1.476.2",
          "name": "Edición de periódicos y revistas",
          "_links": {
            "self": {
              "name": "Edición de periódicos y revistas",
              "href": "https://api.euskadi.eus/procurements/companies/economic-activities/1.476.2"
            }
          }
        },
        {
          "id": "1.659.4",
          "name": "Venta al por menor de libros, periódicos y artículos de papelería y escritorio",
          "_links": {
            "self": {
              "name": "Venta al por menor de libros, periódicos y artículos de papelería y escritorio",
              "href": "https://api.euskadi.eus/procurements/companies/economic-activities/1.659.4"
            }
          }
        },
        {
          "id": "1.665",
          "name": "Venta al por menor por correo o catálogo de productos diversos",
          "_links": {
            "self": {
              "name": "Venta al por menor por correo o catálogo de productos diversos",
              "href": "https://api.euskadi.eus/procurements/companies/economic-activities/1.665"
            }
          }
        }
      ],
      "certificateStartDate": "2023-09-27",
      "certificateEndDate": "2024-03-27",
      "object": "- LA EDICIÓN, PRODUCCIÓN Y VENTA DE PUBLICACIONES (IMPRESAS, DIGITALES, AUDIOVISUALES, ETC.), TANTO DE INFORMACIÓN GENERAL COMO ESPECIALIZADA, ASÍ COMO FOLLETOS, INFORMES, BOLETINES, REVISTAS, CATÁLOGOS, SUPLEMENTOS, APLICACIONES INFORMÁTICAS, SOPORTES MULTIPLATAFORMA Y PROGRAMAS DE CUALQUIER ÍNDOLE. PLANIFICACIÓN, EJECUCIÓN Y COMERCIALIZACIÓN DE TODA ACTIVIDAD DE CARÁCTER INFORMATIVO, DIVULGATIVO Y CORPORATIVO, EN CUALQUIER TIPO DE SOPORTE Y MEDIO. SERVICIOS DE COMUNICACIÓN, ORGANIZACIÓN Y EJECUCIÓN DE CURSOS (PRESENCIALES Y A DISTANCIA), FORMACIÓN E-LEARNING (DOCENCIA ON-LINE), ASESORÍA Y SOPORTE LOGÍSTICO. - LA ORGANIZACIÓN DE CUALQUIER TIPO DE EVENTOS SOBRE NATURALEZA Y TURISMO. CONVOCATORIA DE PREMIOS, INCENTIVOS Y BECAS. SOPORTE A CUALQUIER ACTIVIDAD AL AIRE LIBRE RELACIONADA CON LA NATURALEZA Y EL TURISMO. CREACIÓN, COMERCIALIZACIÓN, SUMINISTRO, DISTRIBUCIÓN Y VENTA DE CUALESQUIERA PRODUCTOS (COMO PUBLICACIONES, MATERIAL DIDÁCTICO, JUGUETES, COLECCIONISMO, INSTRUMENTOS DE ÓPTICA Y FOTOGRAFÍA, UTILLAJE, VESTUARIO) RELACIONADOS CON LA NATURALEZA, LA ECOLOGÍA Y EL TURISMO. CAPTACIÓN E INSERCIÓN DE ESPACIOS PUBLICITARIOS EN CUALQUIER FORMATO Y SOPORTE, FÍSICO O DIGITAL, TANTO DE FIRMAS PARTICULARES COMO DE FUNDACIONES, ORGANIZACIONES NO GUBERNAMENTALES, ESTAMENTOS PÚBLICOS O PRIVADOS, ETC. ",
      "mainEntityOfPage": "https://www.contratacion.euskadi.eus/webkpe00-kperoc/es/ac71aBusquedaRegistrosWar/empresa/08668",
      "_links": {
        "self": {
          "name": "DROSOPHILA EDICIONES, S.L.",
          "href": "https://api.euskadi.eus/procurements/companies/08668"
        }
      }
    },
    {
      "name": "ZERKI KOOP. ELK. TXIKIA",
      "registrationNumber": "08357",
      "identificationNumber": "F75042309",
      "address": "LABEAGA 24 BAJO",
      "location": {
        "postalCode": "20700",
        "municipality": "Urretxu",
        "county": "Gipuzkoa",
        "municipalityId": "077",
        "countyId": "20"
      },
      "economicActivities": [
        {
          "id": "1.673.2",
          "name": "Otros cafés y bares",
          "_links": {
            "self": {
              "name": "Otros cafés y bares",
              "href": "https://api.euskadi.eus/procurements/companies/economic-activities/1.673.2"
            }
          }
        },
        {
          "id": "1.967.2",
          "name": "Escuelas y servicios de perfeccionamiento del deporte",
          "_links": {
            "self": {
              "name": "Escuelas y servicios de perfeccionamiento del deporte",
              "href": "https://api.euskadi.eus/procurements/companies/economic-activities/1.967.2"
            }
          }
        }
      ],
      "certificateStartDate": "2023-09-26",
      "certificateEndDate": "2024-03-26",
      "object": "A) ORGANIZACIÓN DE ACTIVIDADES DEPORTIVAS, INCLUYENDO LA ORGANIZACIÓN, GESTIÓN Y DESARROLLO DE EVENTOS Y COMPETICIONES; B) PUESTA EN MARCHA Y/O GESTIÓN DE INSTALACIONES DEPORTIVAS TANTO PRIVADAS COMO PÚBLICAS; C) ORGANIZACIÓN Y GESTIÓN DE ACTIVIDADES PARA ALUMNOS EN HORARIO EXTRAESCOLAR; D) ORGANIZACIÓN E IMPARTICIÓN DE CURSOS DEPORTIVOS; E) ASESORAMIENTO Y/O AYUDA TANTO EN EL ÁMBITO DEPORTIVO COMO EN ACTIVIDADES LÚDICO-RECREATIVAS; F) REALIZACIÓN DE ACTIVIDADES CONEXAS A LAS ANTERIORMENTE ENUNCIADAS.",
      "mainEntityOfPage": "https://www.contratacion.euskadi.eus/webkpe00-kperoc/es/ac71aBusquedaRegistrosWar/empresa/08357",
      "_links": {
        "self": {
          "name": "ZERKI KOOP. ELK. TXIKIA",
          "href": "https://api.euskadi.eus/procurements/companies/08357"
        }
      }
    },
    {
      "name": "EMARALDA S.COOP PEQUEÑA",
      "registrationNumber": "05817",
      "identificationNumber": "F95878179",
      "address": " C/ Cortes 10, bajo",
      "location": {
        "postalCode": "48003",
        "municipality": "Bilbao",
        "county": "Bizkaia",
        "municipalityId": "020",
        "countyId": "48"
      },
      "economicActivities": [
        {
          "id": "1.934",
          "name": "Enseñanza fuera de establecimiento permanente",
          "_links": {
            "self": {
              "name": "Enseñanza fuera de establecimiento permanente",
              "href": "https://api.euskadi.eus/procurements/companies/economic-activities/1.934"
            }
          }
        },
        {
          "id": "1.936",
          "name": "Investigación científica y técnica",
          "_links": {
            "self": {
              "name": "Investigación científica y técnica",
              "href": "https://api.euskadi.eus/procurements/companies/economic-activities/1.936"
            }
          }
        },
        {
          "id": "1.952",
          "name": "Asistencia y servicios sociales en centros no residenciales",
          "_links": {
            "self": {
              "name": "Asistencia y servicios sociales en centros no residenciales",
              "href": "https://api.euskadi.eus/procurements/companies/economic-activities/1.952"
            }
          }
        }
      ],
      "certificateStartDate": "2023-09-26",
      "certificateEndDate": "2024-03-26",
      "object": "PRESTACIÓN DE SERVICIOS Y ACTIVIDADES DESTINADAS A CONTRIBUIR EN LA ERRADICACIÓN DE LA SUBORDINACIÓN Y DISCRIMINACIÓN QUE VIVEN LAS MUJERES EN UN CONTEXTO ECONÓMICO, LABORAL, SOCIAL Y CULTURAL A TRAVÉS DEL EMPODERAMIENTO, LA AUTONOMÍA, EL LIDERAZGO Y LA PROMOCIÓN DE LA EQUIDAD DE GÉNERO",
      "mainEntityOfPage": "https://www.contratacion.euskadi.eus/webkpe00-kperoc/es/ac71aBusquedaRegistrosWar/empresa/05817",
      "_links": {
        "self": {
          "name": "EMARALDA S.COOP PEQUEÑA",
          "href": "https://api.euskadi.eus/procurements/companies/05817"
        }
      }
    },
    {
      "name": "SISTEMAS DE RIEGO SOLAR, S.L.",
      "registrationNumber": "08659",
      "identificationNumber": "B47713862",
      "address": "C/Roble N1 Nave 1",
      "location": {
        "postalCode": "47193",
        "municipality": "Cistérniga",
        "county": "Valladolid",
        "municipalityId": "052",
        "countyId": "47"
      },
      "economicActivities": [
        {
          "id": "1.504.1",
          "name": "Instalaciones eléctricas en general",
          "_links": {
            "self": {
              "name": "Instalaciones eléctricas en general",
              "href": "https://api.euskadi.eus/procurements/companies/economic-activities/1.504.1"
            }
          }
        },
        {
          "id": "1.843.1",
          "name": "Servicios técnicos de ingeniería",
          "_links": {
            "self": {
              "name": "Servicios técnicos de ingeniería",
              "href": "https://api.euskadi.eus/procurements/companies/economic-activities/1.843.1"
            }
          }
        }
      ],
      "certificateStartDate": "2023-09-26",
      "certificateEndDate": "2024-03-26",
      "object": "1. CONSTRUCCIÓN, INSTALACIONES Y MANTENIMIENTO. \n2. COMERCIO AL POR MAYOR Y AL POR MENOR. DISTRIBUCIÓN COMERCIAL, IMPORTACIÓN Y EXPORTACIÓN.\n3. ACTIVIDADES INMOBILIARIAS.\n4. ACTIVIDADES PROFESIONALES.\n5. INDUSTRIAS MANUFACTURERAS Y TEXTILES.\n6. TURISMO, HOSTELERÍA Y RESTAURACIÓN.\n7. PRESTACIÓN DE SERVICIOS. ACTIVIDADES DE GESTIÓN Y ADMINISTRACIÓN. SERVICIOS EDUCATIVOS, SANITARIOS, DE OCIO Y ENTRETENIMIENTO.\n8. TRANSPORTE Y ALMACENAMIENTO.\n9.- INFORMACIÓN Y COMUNICACIONES.\n10. AGRICULTURA, GANADERÍA Y PESCA.\n11. INFORMÁTICA, TELECOMUNICACIONES Y OFIMÁTICA.\n12. ENERGÍAS ALTERNATIVAS.\n13. COMPRAVENTA Y REPARACIÓN DE VEHÍCULOS. REPARACIÓN Y MANTENIMIENTO DE INSTALACIONES Y MAQUINARIA.\n14. INVESTIGACIÓN, DESARROLLO E INNOVACIÓN.\n15. ACTIVIDADES CIENTÍFICAS Y TÉCNICAS.\n",
      "mainEntityOfPage": "https://www.contratacion.euskadi.eus/webkpe00-kperoc/es/ac71aBusquedaRegistrosWar/empresa/08659",
      "_links": {
        "self": {
          "name": "SISTEMAS DE RIEGO SOLAR, S.L.",
          "href": "https://api.euskadi.eus/procurements/companies/08659"
        }
      }
    },
    {
      "name": "CAPACITIES AND SKILLS ADVANCED BUSINESS SCHOOL, S.L.",
      "registrationNumber": "08323",
      "identificationNumber": "B87925772",
      "address": "C/ TURIA 7",
      "location": {
        "postalCode": "28002",
        "municipality": "Madrid",
        "county": "Madrid",
        "municipalityId": "079",
        "countyId": "28"
      },
      "economicActivities": [
        {
          "id": "1.476.1",
          "name": "Edición de libros",
          "_links": {
            "self": {
              "name": "Edición de libros",
              "href": "https://api.euskadi.eus/procurements/companies/economic-activities/1.476.1"
            }
          }
        },
        {
          "id": "1.849.9",
          "name": "Otros servicios independientes n.c.o.p",
          "_links": {
            "self": {
              "name": "Otros servicios independientes n.c.o.p",
              "href": "https://api.euskadi.eus/procurements/companies/economic-activities/1.849.9"
            }
          }
        },
        {
          "id": "1.861.2",
          "name": "Alquiler de locales industriales y otros alquileres n.c.o.p",
          "_links": {
            "self": {
              "name": "Alquiler de locales industriales y otros alquileres n.c.o.p",
              "href": "https://api.euskadi.eus/procurements/companies/economic-activities/1.861.2"
            }
          }
        },
        {
          "id": "1.933.9",
          "name": "Otras actividades de enseñanza tales como idiomas, mecanografía",
          "_links": {
            "self": {
              "name": "Otras actividades de enseñanza tales como idiomas, mecanografía",
              "href": "https://api.euskadi.eus/procurements/companies/economic-activities/1.933.9"
            }
          }
        }
      ],
      "certificateStartDate": "2023-09-26",
      "certificateEndDate": "2024-03-26",
      "object": "A) LA ENSEÑANZA SUPERIOR UNIVERSITARIA Y DE POSTGRADO DE CUALQUIER RAMA O ESPECIALIDAD, MÁSTER PARA COMPLEMENTAR LA FORMACIÓN UNIVERSITARIA DE CUALQUIER TIPO Y LA FORMACIÓN DE MÓDULOS SUPERIORES DE FORMACIÓN PROFESIONAL. LA REALIZACIÓN DE CARÁCTER EDUCATIVO, CULTURAL, CIENTÍFICO E INVESTIGADOR POR SÍ MISMA COMO TAMBIÉN EN COLABORACIÓN CON OTRAS SOCIEDADES, ENTIDADES U ORGANISMOS O IGUALMENTE POR ENCARGO DE PERSONAS FÍSICAS O JURÍDICAS, PÚBLICAS O PRIVADAS. CORRESPONDE A ESTE OBJETO SOCIAL EL CNAE 855 EDUCACIÓN. B) LA EDICIÓN, PUBLICACIÓN, DISTRIBUCIÓN Y VENTA DE TODO TIPO DE LIBROS, PUBLICACIONES DE CARÁCTER EDUCATIVO, CULTURAL, CIENTÍFICO E INVESTIGADOR POR SÍ MISMA Y, EN GENERAL, CUALQUIER MATERIAL FORMATIVO, EN CUALQUIER TIPO DE FORMATO, ASÍ COMO REALIZAR LAS OPERACIONES INDUSTRIALES Y COMERCIALES QUE ESTÉN RELACIONADAS CON DICHO OBJETO. CORRESPONDE A ESTE OBJETO SOCIAL EL CNAE 5811 EDICIÓN DE LIBROS. C) LA CONSULTORÍA ESTRATÉGICA EN LA DOCENCIA Y FORMACIÓN. CORRESPONDE A ESTE OBJETO SOCIAL EL CNAE 7022 OTRAS ACTIVIDADES DE CONSULTORÍA DE GESTIÓN EMPRESARIAL. D) EL ALQUILER DE ESPACIOS, AULAS Y MEDIOS TÉCNICOS PARA ACTIVIDADES DE FORMACIÓN DE TODO TIPO, REUNIONES DE EMPRESA, CURSOS, SEMINARIOS. CORRESPONDE A ESTE OBJETO SOCIAL EL CNAE 6820 ALQUILER BIENES INMOBILIARIOS POR CUENTA PROPIA.",
      "mainEntityOfPage": "https://www.contratacion.euskadi.eus/webkpe00-kperoc/es/ac71aBusquedaRegistrosWar/empresa/08323",
      "_links": {
        "self": {
          "name": "CAPACITIES AND SKILLS ADVANCED BUSINESS SCHOOL, S.L.",
          "href": "https://api.euskadi.eus/procurements/companies/08323"
        }
      }
    },
    {
      "name": "PROSEGUR CIBERSEGURIDAD, S.L.",
      "registrationNumber": "08676",
      "identificationNumber": "B87602173",
      "address": "QU",
      "location": {
        "postalCode": "28007",
        "municipality": "Madrid",
        "county": "Madrid",
        "municipalityId": "079",
        "countyId": "28"
      },
      "economicActivities": [
        {
          "id": "1.845",
          "name": "Explotación electrónica por cuenta de terceros",
          "_links": {
            "self": {
              "name": "Explotación electrónica por cuenta de terceros",
              "href": "https://api.euskadi.eus/procurements/companies/economic-activities/1.845"
            }
          }
        }
      ],
      "certificateStartDate": "2023-09-26",
      "certificateEndDate": "2024-03-26",
      "object": "1) PRESTACIÓN DE SERVICIOS DE ASESORAMIENTO, CONSULTORÍA Y AUDITORÍA RELACIONADOS CON LA SEGURIDAD DIGITAL. 2) ELABORACIÓN DE PLANES DE CONTINUIDAD DE NEGOCIO. 3) PRESTACIÓN DE SERVICIOS DE FORMACIÓN RELACIONADOS CON LA SEGURIDAD DIGITAL. 3) PRESTACIÓN DE SERVICIOS DE FORMACIÓN RELACIONADOS CON LA SEGURIDAD DIGITAL. 4) PRESTACIÓN DE SERVICIOS DE MONITORIZACIÓN, ESTUDIO Y ANÁLISIS DE LA SEGURIDAD FÍSICA Y SEGURIDAD DE LA INFORMACIÓN, SISTEMAS INFORMÁTICOS, REDES INTERNAS Y EXTERNAS, EQUIPOS, DISPOSITIVOS Y CUALQUIER OTRO ELEMENTO RELACIONADO. 5) PRESTACIÓN DE SERVICIOS DE IMPLANTACIÓN Y DESARROLLO DE SOLUCIONES DE SEGURIDAD DE LA INFORMACIÓN. 6) PRESTACIÓN DE SERVICIOS DE MONITORIZACIÓN, ESTUDIO Y ANÁLISIS DE LA SEGURIDAD DE INFRAESTRUCTURAS CRÍTICAS. 7) PRESTACIÓN DE SERVICIOS DE GESTIÓN, ADMINISTRACIÓN E IMPLANTACIÓN DE SOLUCIONES DE SEGURIDAD DE LA INFORMACIÓN EN INFRAESTRUCTURAS. 8) PRESTACIÓN DE SERVICIOS DE MONITORIZACIÓN, ESTUDIO Y ANÁLISIS DE LAS AMENAZAS EXISTENTES EN EL MUNDO DIGITAL PARA LAS ORGANIZACIONES QUE AFECTAN A LA REPUTACIÓN CORPORATIVA DE ÁESTAS, A LA DE CUALQUIERA DE SUS MIEMBROS, O A LA DE OTROS AGENTES RELACIONADOS. 9) PRESTACIÓN DE SERVICIOS DE DETECCIÓN DE CUALQUIER FUGA DE INFORMACIÓN A TRAVÉS DE INTERNET EN LOS EQUIPOS INFORMÁTICOS DE SUS CLIENTES Y SU SUBSANACIÓN. 10) PRESTACIÓN DE SERVICIOS DE PROTECCIÓN FRENTE AL FRAUDE DIGITAL. 11) PRESTACIÓN DE SERVICIOS DE PROTECCIÓN FRENTE A LA USURPACIÓN DE DOMINIOS EN INTERNET, USO NO AUTORIZADO DE INFORMACIÓN, FALSIFICACIONES, ABUSO DE IDENTIDADES DIGITALES, ASÍ COMO LA DETECCIÓN DE CUALQUIER USO O ACCIÓN NO AUTORIZADA O ILÍCITA QUE ATENTE CONTRA DERECHOS DE CLIENTES O TERCEROS EN EL MUNDO DIGITAL. 12) PRESTACIÓN DE SERVICIOS DE CONFIANZA DIGITAL, CONSISTENTE EN LA CUSTODIA DE LAS DECLARACIONES DE VOLUNTAD SUSCRITAS ENTRE TERCEROS POR VÍA TELEMÁTICA (TERCERO DE CONFIANZA). 13) PRESTACIÓN DE SERVICIOS DE DISEÑO, DESARROLLO E IMPLANTACIÓN DE SOLUCIONES DE FIRMA DIGITAL. 14) PRESTACIÓN DE SERVICIOS DE MONITORIZACIÓN DE FUENTES ABIERTAS EN INTERNET (WEB, REDES SOCIALES, FOROS, ETC.). 15) ELABORACIÓN DE INFORMES TÉCNICOS Y PERICIALES SOBRE LA SEGURIDAD DIGITAL. 16) PRESTACIÓN DE SERVICIOS DE TASACIÓN DE BIENES INFORMÁTICOS Y TELEMÁTICOS. 17) PRESTACIÓN DE SERVICIOS RELACIONADOS CON LA OFERTA Y DISTRIBUCIÓN DE CUALQUIER TIPO DE PRODUCTO POR VÍA INFORMÁTICA, INCLUYENDO LA FABRICACIÓN, VENTA Y DISTRIBUCIÓN DE SOFTWARE, HARDWARE Y ACCESORIOS DE CUALQUIER CLASE. 18) INSTALACIÓN Y MANTENIMIENTO DE APARATOS, DISPOSITIVOS Y SISTEMAS DE SEGURIDAD, PROTECCIÓN END-POINT Y DE CONTROL DE ACCESO. 19) PRESTACIÓIN DE SERVICIOS DE AUDITORÍA DE INFRAESTRUCTURAS Y DE APLICACIONES (WEB, MÓVILES). 20) PRESTACIÓN DE SERVICIOS BORRADO SEGURO DE DATOS EN APARATOS ELECTRÓNICOS. 21) RECUPERACIÓN Y EXTRACCIÓN DE DATOS EN APARATOS ELECTRÓNICOS. 22) INVESTIGACIÓN, DISEÑO, DESARROLLO, FABRICACIÓN, EXPLOTACIÓN, COMPRA, VENTA AL POR MAYOR Y AL POR MENOR, EXPOETACIÓN E IMPORTACIÓN, DISTRIBUCIÓN, ALMACENAMIENTO Y CESIÓN DE PROGRAMAS INFORMÁTICOS, ORDENADORES Y DE PRODUCTOS Y SUMINISTROS INFORMÁTICOS, DE TELECOMUNICACIÓN, PRODUCTOS DE SOPORTES AUDIOVISUALES, EQUIPOS Y APARATOS ELÉCTRICOS, ELECTRÓNICOS Y ELECTRODOMÉSTICOS, ARTÍCULOS DE TELEFONÍA Y COMUNICACIÓN. 23) LA ORGANIZACIÓN Y PARTICIPACIÓN COMO SOCIO O ACCIONISTA EN ASOCIACIONES, COMPAÑIAS, ENTIDADES Y EMPRESAS DEDICADAS AL DESARROLLO, MARKETING, COMERCIALIZACIÓN  Y DISTRIBUCIÓN DE SERVICIOS Y PRODUCTOS A TRAVÉS DE SISTEMAS INFORMÁTICOS, EN CUALQUIERA DE SUS FORMAS, EN CUALQUIER PAÍS DE MUNDO, ASÍ COMO LA SUSCRIPCIÓN, ADMINISTRACIÓN, VENTA, ASIGNACIÓN, DISPOSICIÓN O TRANSFERENCIA DE PARTICIPACIONES, ACCIONES O INTERESES EN OTRAS COMPAÑIAS O ENTIDADES.",
      "mainEntityOfPage": "https://www.contratacion.euskadi.eus/webkpe00-kperoc/es/ac71aBusquedaRegistrosWar/empresa/08676",
      "_links": {
        "self": {
          "name": "PROSEGUR CIBERSEGURIDAD, S.L.",
          "href": "https://api.euskadi.eus/procurements/companies/08676"
        }
      }
    },
    {
      "name": "BILBAO TRADING PARTNERSHIP, S.L.",
      "registrationNumber": "08652",
      "identificationNumber": "B86952983",
      "address": "Plaza de Francisco Morano, 3",
      "location": {
        "postalCode": "28005",
        "municipality": "Madrid",
        "county": "Madrid",
        "municipalityId": "079",
        "countyId": "28"
      },
      "economicActivities": [
        {
          "id": "1.615.4",
          "name": "Venta al por mayor de aparatos y material radioeléctrico y electrónico",
          "_links": {
            "self": {
              "name": "Venta al por mayor de aparatos y material radioeléctrico y electrónico",
              "href": "https://api.euskadi.eus/procurements/companies/economic-activities/1.615.4"
            }
          }
        }
      ],
      "certificateStartDate": "2023-09-26",
      "certificateEndDate": "2024-03-26",
      "object": "EL DESARROLLO DE UN NEGOCIO DEDICADO A LA FABRICACIÓN, COMERCIALIZACIÓN AL POR MAYOR Y AL DETALLE, IMPORTACIÓN Y EXPORTACIÓN, VENTA, ALQUILER, REPARACIÓN Y TRANSPORTE DE CUALQUIER INSTRUMENTO MUSICAL Y SUS ACCESORIOS, INCLUYENDO APARATOS DE ALTA FIDELIDAD, MEGAFONÍA, DISCOGRÁFICA, APARATOS DE REGISTRO REPRODUCCIÓN Y AMPLIFICACIÓN DEL SONIDO Y LA IMAGEN Y SUS RESPECTIVOS ACCESORIOS ASÍ COMO LAS EDICIONES Y PUBLICACIONES DE TODA CLASE RELACIONADAS CON LA MÚSICA. DE LA MISMA FORMA SE INCLUYEN EN EL OBJETO SOCIAL CUALESQUIERA ACTIVIDADES ACCESORIAS A LA ACTIVIDAD PRINCIPAL DE LA SOCIEDAD INDICANDO EN EL PÁRRAFO ANTERIOR DE FORMA QUE ÉSTA PUEDA, A TÍTULO MERAMENTE INDICATIVO, ORGANIZAR CURSOS, CONCURSOS, FESTIVALES U OTRO TIPO DE ACTIVIDADES RELACIONADAS CON LA MÚSICA.",
      "mainEntityOfPage": "https://www.contratacion.euskadi.eus/webkpe00-kperoc/es/ac71aBusquedaRegistrosWar/empresa/08652",
      "_links": {
        "self": {
          "name": "BILBAO TRADING PARTNERSHIP, S.L.",
          "href": "https://api.euskadi.eus/procurements/companies/08652"
        }
      }
    },
    {
      "name": "BEGIRA PRODUKZIOAK, S.L.",
      "registrationNumber": "08344",
      "identificationNumber": "B04974218",
      "address": "Calle Lotería nº 2 - 5º izquierda-derecha",
      "location": {
        "postalCode": "48005",
        "municipality": "Bilbao",
        "county": "Bizkaia",
        "municipalityId": "020",
        "countyId": "48"
      },
      "economicActivities": [
        {
          "id": "1.961.1",
          "name": "Producción de películas cinematográficas (incluso vídeos)",
          "_links": {
            "self": {
              "name": "Producción de películas cinematográficas (incluso vídeos)",
              "href": "https://api.euskadi.eus/procurements/companies/economic-activities/1.961.1"
            }
          }
        },
        {
          "id": "1.964.2",
          "name": "Servicios de televisión",
          "_links": {
            "self": {
              "name": "Servicios de televisión",
              "href": "https://api.euskadi.eus/procurements/companies/economic-activities/1.964.2"
            }
          }
        }
      ],
      "certificateStartDate": "2023-09-26",
      "certificateEndDate": "2024-03-26",
      "object": "ACTIVIDAD PRINCIPAL - 5916 ACTIVIDADES DE PRODUCCIÓN DE PROGRAMAS DE TELEVISIÓN; OTRAS ACTIVIDADES - 5912 ACTIVIDADES DE POSTPRODUCCIÓN CINEMATOGRÁFICA, DE VÍDEO Y PROGRAMAS DE TELEVISIÓN; 5914 ACTIVIDADES DE EXHIBICIÓN CINEMATOGRÁFICA; 5915 ACTIVIDADES DE PRODUCCIÓN CINEMATOGRÁFICA Y DE VÍDEO; 5917 ACTIVIDADES DE DISTRIBUCIÓN CINEMATOGRÁFICA Y DE VÍDEO; 5918 ACTIVIDADES DE DISTRIBUCIÓN DE PROGRAMAS DE TELEVISIÓN; 5920 ACTIVIDADES DE GRABACIÓN DE SONIDO Y EDICIÓN MUSICAL; 6020 ACTIVIDADES DE PROGRAMACIÓN Y EMISIÓN DE TELEVISIÓN.",
      "mainEntityOfPage": "https://www.contratacion.euskadi.eus/webkpe00-kperoc/es/ac71aBusquedaRegistrosWar/empresa/08344",
      "_links": {
        "self": {
          "name": "BEGIRA PRODUKZIOAK, S.L.",
          "href": "https://api.euskadi.eus/procurements/companies/08344"
        }
      }
    },
    {
      "name": "DERMALASER INTERNACIONAL, S.L.",
      "registrationNumber": "08651",
      "identificationNumber": "B67967323",
      "address": "AV. Padre Isla, 127, bajo",
      "location": {
        "postalCode": "24008",
        "municipality": "León",
        "county": "León",
        "municipalityId": "089",
        "countyId": "24"
      },
      "economicActivities": [
        {
          "id": "1.617.9",
          "name": "Venta al por mayor interindustrial de otros productos n.c.o.p",
          "_links": {
            "self": {
              "name": "Venta al por mayor interindustrial de otros productos n.c.o.p",
              "href": "https://api.euskadi.eus/procurements/companies/economic-activities/1.617.9"
            }
          }
        },
        {
          "id": "1.859",
          "name": "Alquiler de otros bienes muebles n.c.o.p. (sin personal permanente)",
          "_links": {
            "self": {
              "name": "Alquiler de otros bienes muebles n.c.o.p. (sin personal permanente)",
              "href": "https://api.euskadi.eus/procurements/companies/economic-activities/1.859"
            }
          }
        }
      ],
      "certificateStartDate": "2023-09-26",
      "certificateEndDate": "2024-03-26",
      "object": "EL DESARROLLO DE LAS ACTIVIDADES CORRESPONDIENTES A LOS SIGUIENTES CÓDIGOS Y DESCRIPCIONES DE CLASIFICACIÓN NACIONAL DE ACTIVIDADES ECONÓMICAS: ACTIVIDAD PRINCIPAL ; 77.39 / ALQUILER DE OTRA MAQUINARIA, EQUIPOS Y BIENES TANGIBLES.",
      "mainEntityOfPage": "https://www.contratacion.euskadi.eus/webkpe00-kperoc/es/ac71aBusquedaRegistrosWar/empresa/08651",
      "_links": {
        "self": {
          "name": "DERMALASER INTERNACIONAL, S.L.",
          "href": "https://api.euskadi.eus/procurements/companies/08651"
        }
      }
    },
    {
      "name": "CARDINAL HEALTH SPAIN 511, S.L.",
      "registrationNumber": "05533",
      "identificationNumber": "B87334017",
      "address": "Avenida de Europa 14 ¿ 1º - Parque Empresarial La Moraleja",
      "location": {
        "postalCode": "28108",
        "municipality": "Alcobendas",
        "county": "Madrid",
        "municipalityId": "006",
        "countyId": "28"
      },
      "economicActivities": [
        {
          "id": "1.614.1",
          "name": "Venta al por mayor de productos farmacéuticos y medicamentos",
          "_links": {
            "self": {
              "name": "Venta al por mayor de productos farmacéuticos y medicamentos",
              "href": "https://api.euskadi.eus/procurements/companies/economic-activities/1.614.1"
            }
          }
        }
      ],
      "certificateStartDate": "2023-09-25",
      "certificateEndDate": "2024-03-19",
      "object": "1. EL DESARROLLO, FABRICACIÓN, COMPRAVENTA, IMPORTACIÓN, COMERCIALIZACIÓN, DISTRIBUCIÓN, ARRENDAMIENTO Y PROMOCIÓN DE TODO TIPO DE PRODUCTOS SANITARIOS, EQUIPAMIENTO MÉDICO, MEDICAMENTOS Y PRODUCTOS FARMACÉUTICOS Y MÉDICOS EN SU MÁS AMPLIO SENTIDO, ASÍ COMO LA PRESTACIÓN DE SERVICIOS DE INFORMACIÓN, ASISTENCIA TÉCNICA, FORMACIÓN, SERVICIOS POST VENTA Y TODAS LAS ACTIVIDADES DE LA PRÁCTICA COMERCIAL RELACIONADAS CON LOS MENCIONADOS PRODUCTOS. 2. LA PRESTACIÓN DE SERVICIOS DE CONSULTORÍA, GESTIÓN E IMPLEMENTACIÓN DE PROYECTOS EN TODO LO RELACIONADO CON EL CUIDADO DE LA SALUD, EN PARTICULAR TODOS AQUELLOS SERVICIOS CON EL OBJETIVO DE PROPORCIONAR SOLUCIONES, AUMENTAR LA EFICIENCIA EN EL USO DE LAS TECNOLOGÍAS SANITARIAS Y MÉDICAS Y MEJORAR LA OFERTA DE SERVICIOS Y FUNCIONAMIENTO DE LAS ORGANIZACIONES EN EL ÁREA DEL CUIDADO DE LA SALUD; Y 3. CUALESQUIERA OTRAS ACTIVIDADES NO PROHIBIDAS POR LEY RELACIONADAS DIRECTA O INDIRECTAMENTE CON EL CUIDADO DE LA SALUD O CON LAS ORGANIZACIONES EN EL ÁREA DEL CUIDADO DE LA SALUD.\n",
      "mainEntityOfPage": "https://www.contratacion.euskadi.eus/webkpe00-kperoc/es/ac71aBusquedaRegistrosWar/empresa/05533",
      "_links": {
        "self": {
          "name": "CARDINAL HEALTH SPAIN 511, S.L.",
          "href": "https://api.euskadi.eus/procurements/companies/05533"
        }
      }
    }
  ]
}