{
  "totalItems": 9042,
  "totalPages": 905,
  "currentPage": 340,
  "itemsOfPage": 10,
  "items": [
    {
      "name": "INFINIA INGENIERIA, S.L.",
      "registrationNumber": "09979",
      "identificationNumber": "B39850441",
      "address": "FERNANDO ARCE 27",
      "location": {
        "postalCode": "39300",
        "municipality": "Torrelavega",
        "county": "Cantabria",
        "municipalityId": "087",
        "countyId": "39"
      },
      "economicActivities": [
        {
          "id": "1.843.1",
          "name": "Servicios técnicos de ingeniería",
          "_links": {
            "self": {
              "name": "Servicios técnicos de ingeniería",
              "href": "https://api.euskadi.eus/procurements/companies/economic-activities/1.843.1"
            }
          }
        },
        {
          "id": "1.843.9",
          "name": "Otros servicios técnicos n.c.o.p",
          "_links": {
            "self": {
              "name": "Otros servicios técnicos n.c.o.p",
              "href": "https://api.euskadi.eus/procurements/companies/economic-activities/1.843.9"
            }
          }
        },
        {
          "id": "1.991",
          "name": "Prestación de servicios por sociedades de desarrollo industrial",
          "_links": {
            "self": {
              "name": "Prestación de servicios por sociedades de desarrollo industrial",
              "href": "https://api.euskadi.eus/procurements/companies/economic-activities/1.991"
            }
          }
        }
      ],
      "certificateStartDate": "2025-07-15",
      "certificateEndDate": "2026-01-15",
      "object": "1. SERVICIOS TÉCNICOS DE INGENIERÍA, INGENIERÍA MEDIOAMBIENTAL, ARQUITECTURA, URBANISMO, TOPOGRAFÍA, PROSPECCIONES Y ESTUDIOS GEOLÓGICOS Y MINEROS. 2. CONSTRUCCIÓN COMPLETA, CONTROL Y DIRECCIÓN, DISEÑO, REPARACIÓN Y CONSERVACIÓN DE OBRAS CIVILES, INSTALACIONES DEPORTIVAS, POLIDEPORTIVOS, PARQUES ACUÁTICOS, PARQUES ZOOLÓGICOS, PARQUES DE ATRACCIONES, PARQUES Y RECINTOS FERIALES, PARQUES DE RECREO, JARDINES BOTÁNICOS, JARDINES INFANTILES, Y SIMILARES. 3. SERVICIOS DE INSPECCIÓN Y DE SISTEMAS DE SEGURIDAD, MANTENIMIENTO, INSPECCIÓN, REPARACIÓN, INSTALACIÓN, AUDITORÍA, CERTIFICACIÓN, ELABORACIÓN DE INFORMES DE ZONAS DE INSTALACIONES DEPORTIVAS, POLIDEPORTIVOS, PISTAS DE PATINAJE, PARQUES ACUÁTICOS, PARQUES ZOOLÓGICOS, PARQUES DE ATRACCIONES, PARQUES Y RECINTOS FERIALES, PARQUES DE RECREO, JARDINES BOTÁNICOS, JARDINES INFANTILES, Y SIMILARES. 4. SERVICIOS DE PROTECCIÓN Y ACONDICIONAMIENTO AMBIENTAL, CONTRA RUIDOS, VIBRACIONES, CONTAMINACIÓN, EFICIENCIA ENERGÉTICA, ENERGÍAS RENOVABLES Y OTROS ANÁLOGOS. ESTUDIOS DE IMPACTO AMBIENTAL DE OBRAS DE CUALQUIER CLASE Y PLANES DE RESTAURACIÓN. REALIZACIÓN DE ESTUDIOS DE SEGURIDAD Y SALUD Y COORDINACIÓN DE SEGURIDAD EN OBRAS. 5. REDACCIÓN DE PROYECTOS, INGENIERÍA, AUDITORÍAS, PERITAJES, CONSULTORÍA, INFORMES TÉCNICOS, MEMORIAS VALORADAS, PLANES DIRECTORES, DIRECCIONES FACULTATIVAS, MANTENIMIENTO DE GESTIÓN DE RESIDUOS, LEGALIZACIONES DE POZOS. 6. REDACCIÓN Y REALIZACIÓN DE ESTUDIOS DE VIABILIDAD, PLANES DE NEGOCIO Y DESARROLLO DE TODO TIPO DE PROYECTOS EMPRESARIALES, INDUSTRIALES, COMERCIALES Y DE SERVICIOS. 7. REDACCIÓN Y REALIZACIÓN DE PROYECTOS DE INVESTIGACIÓN, DESARROLLO E INNOVACIÓN TECNOLÓGICA Y DE PROYECTOS FORMATIVOS Y DE RECURSOS HUMANOS, Y TODOS LOS RELACIONADOS CON LA INVESTIGACIÓN, DESARROLLO E INNOVACIÓN TECNOLÓGICA Y EMPRESARIAL. 8. REDACCIÓN DE PROYECTOS, INGENIERÍA, AUDITORÍAS, PERITAJES, CONSULTORÍA, INFORMES TÉCNICOS, MEMORIAS VALORADAS, DISEÑO PLANES DIRECTORES, DIRECCIONES FACULTATIVAS DE OBRAS Y TRABAJOS AGRÍCOLAS DE CUALQUIER CLASE Y TIPO, ASÍ COMO CUALQUIER OTRA ACTIVIDAD RELACIONADA CON LA OBRA CIVIL DE PARQUES Y JARDINES. 9. REDACCIÓN DE PROYECTOS, DIRECCIÓN DE OBRA, ASESORAMIENTO Y EJECUCIÓN TOTAL DE EDIFICIOS O VIVIENDAS, INCLUSO LAS CONSTRUCCIONES EFICIENTES Y PASIVAS (PASSIVHAUS).",
      "mainEntityOfPage": "https://www.contratacion.euskadi.eus/webkpe00-kperoc/es/ac71aBusquedaRegistrosWar/empresa/09979",
      "_links": {
        "self": {
          "name": "INFINIA INGENIERIA, S.L.",
          "href": "https://api.euskadi.eus/procurements/companies/09979"
        }
      }
    },
    {
      "name": "EVERYWHERE FILMS, S.L.",
      "registrationNumber": "09634",
      "identificationNumber": "B01554922",
      "address": "Paseo de Salvador de Azpiazu 2 ",
      "location": {
        "postalCode": "01008",
        "municipality": "Vitoria-Gasteiz",
        "county": "Araba/Álava",
        "municipalityId": "059",
        "countyId": "01"
      },
      "economicActivities": [
        {
          "id": "1.961.1",
          "name": "Producción de películas cinematográficas (incluso vídeos)",
          "_links": {
            "self": {
              "name": "Producción de películas cinematográficas (incluso vídeos)",
              "href": "https://api.euskadi.eus/procurements/companies/economic-activities/1.961.1"
            }
          }
        }
      ],
      "certificateStartDate": "2025-07-15",
      "certificateEndDate": "2026-01-14",
      "object": "LA PRODUCCIÓN CINEMATOGRÁFICA; LA IMPORTACIÓN Y/O DISTRIBUCIÓN CINEMATOGRÁFICA; EL USO Y DISPOSICIÓN DE ESTUDIOS DE RODAJE PROPIOS. LA EXPORTACIÓN Y/O DIFUSIÓN DE OBRAS CINEMATOGRÁFICAS. LA APORTACIÓN DE MEDIOS MATERIALES O TÉCNICOS PARA LA PRODUCCIÓN DE OBRAS CINEMATOGRÁFICAS. LA PRODUCCIÓN, IMPORTACIÓN O DISTRIBUCIÓN DE OBRAS AUDIOVISUALES EN SOPORTE NO CINEMATOGRÁFICO, DESTINADAS A COMERCIALIZACIÓN NO CINEMATOGRÁFICA.",
      "mainEntityOfPage": "https://www.contratacion.euskadi.eus/webkpe00-kperoc/es/ac71aBusquedaRegistrosWar/empresa/09634",
      "_links": {
        "self": {
          "name": "EVERYWHERE FILMS, S.L.",
          "href": "https://api.euskadi.eus/procurements/companies/09634"
        }
      }
    },
    {
      "name": "DIGWIND, S.L",
      "registrationNumber": "02999",
      "identificationNumber": "B95338372",
      "address": "RIBERA DE AXPE 11, C2 109",
      "location": {
        "postalCode": "48950",
        "municipality": "Erandio",
        "county": "Bizkaia",
        "municipalityId": "902",
        "countyId": "48"
      },
      "economicActivities": [
        {
          "id": "1.653.2",
          "name": "Venta al por menor de material y aparatos eléctricos, electrodomésticos y cocina",
          "_links": {
            "self": {
              "name": "Venta al por menor de material y aparatos eléctricos, electrodomésticos y cocina",
              "href": "https://api.euskadi.eus/procurements/companies/economic-activities/1.653.2"
            }
          }
        }
      ],
      "certificateStartDate": "2025-07-14",
      "certificateEndDate": "2026-01-13",
      "object": "A) LA IMPORTACIÓN, EXPORTACIÓN, COMPRA, VENTA, INSTALACIÓN, SUMINISTRO Y ARRENDAMIENTO NO FINANCIERO O REPARACIÓN DE TODA CLASE DE ARTÍCULOS INFORMÁTICOS, PUDIENDO, ADEMÁS REALIZAR CUANTO LE SEA PREPARATORIO, AUXILIAR, ACCESORIO O COMPLEMENTARIO.\n\nB) LA FABRICACIÓN Y COMERCIALIZACIÓN DE PRODUCTOS INFORMÁTICOS, VENTA Y CREACIÓN DE SOFTWARE O PROGRAMAS INFORMÁTICOS, INSTALACIÓN, CONFIGURACIÓN, REPARACIÓN Y ACTUALIZACIÓN DE EQUIPOS INFORMÁTICOS, EL ASESORAMIENTO GENERAL A EMPRESAS Y PARTICULARES SOBARE TODO TIPO DE TEMAS RELACIONADOS CON LA INFORMÁTICA.\n\nC) EL MONTAJE, PRODUCCIÓN Y/O COMERCIALIZACIÓN DE TODA CLASE DE HARDWARE Y/O EQUIPOS INFORMÁTICOS O ELECTRÓNICOS, ASÍ COMO DE CUALQUIER TIPO DE SOPORTE INFORMÁTICO, MULTIMEDIA O AUDIOVISUAL QUE EN EL FUTURO PUIDERA APARECER EN EL MERCADO.\n\nD) ADQUIRIR, ENAJENAR Y ARRENDAR BIENES INMUEBLES, ACCIONES, PARTICIPACIONES SOCIALES, OBLIGACIONES, BONOS DE CAJA, CERTIFICADOS DE DEPÓSITO Y PAGARÉS DE TODA CLAES DE EMPRESAS O NEGOCIOS  ",
      "mainEntityOfPage": "https://www.contratacion.euskadi.eus/webkpe00-kperoc/es/ac71aBusquedaRegistrosWar/empresa/02999",
      "_links": {
        "self": {
          "name": "DIGWIND, S.L",
          "href": "https://api.euskadi.eus/procurements/companies/02999"
        }
      }
    },
    {
      "name": "ALFA FORMACIÓN Y CONSULTORÍA, S.L.",
      "registrationNumber": "07043",
      "identificationNumber": "B95738241",
      "address": "Calle Islas Canarias 21 4º Iz.",
      "location": {
        "postalCode": "48015",
        "municipality": "Bilbao",
        "county": "Bizkaia",
        "municipalityId": "020",
        "countyId": "48"
      },
      "economicActivities": [
        {
          "id": "1.932.1",
          "name": "Enseñanza de formación y perfeccionamiento profesional no superior",
          "_links": {
            "self": {
              "name": "Enseñanza de formación y perfeccionamiento profesional no superior",
              "href": "https://api.euskadi.eus/procurements/companies/economic-activities/1.932.1"
            }
          }
        }
      ],
      "certificateStartDate": "2025-07-14",
      "certificateEndDate": "2026-01-13",
      "object": "LA EDUCACIÓN NO REGLADA DE CURSOS DE FORMACIÓN Y ORIENTACIÓN.",
      "mainEntityOfPage": "https://www.contratacion.euskadi.eus/webkpe00-kperoc/es/ac71aBusquedaRegistrosWar/empresa/07043",
      "_links": {
        "self": {
          "name": "ALFA FORMACIÓN Y CONSULTORÍA, S.L.",
          "href": "https://api.euskadi.eus/procurements/companies/07043"
        }
      }
    },
    {
      "name": "IRABIUR AHOLKULARITZA, S.L.",
      "registrationNumber": "10011",
      "identificationNumber": "B95658126",
      "address": "ALBOBIDE 17",
      "location": {
        "postalCode": "48130",
        "municipality": "Bakio",
        "county": "Bizkaia",
        "municipalityId": "012",
        "countyId": "48"
      },
      "economicActivities": [
        {
          "id": "1.847",
          "name": "Servicios de consultoría",
          "_links": {
            "self": {
              "name": "Servicios de consultoría",
              "href": "https://api.euskadi.eus/procurements/companies/economic-activities/1.847"
            }
          }
        }
      ],
      "certificateStartDate": "2025-07-14",
      "certificateEndDate": "2025-08-04",
      "object": "4. ACTIVIDADES PROFESIONALES. 7. PRESTACIÓN DE SERVICIOS ACTIVIDADES DE GESTIÓN Y ADMINISTRACIÓN. SERVICIOS EDUCATIVOS, SANITARIOS, DE OCIO Y ENTRETENIMIENTO.",
      "mainEntityOfPage": "https://www.contratacion.euskadi.eus/webkpe00-kperoc/es/ac71aBusquedaRegistrosWar/empresa/10011",
      "_links": {
        "self": {
          "name": "IRABIUR AHOLKULARITZA, S.L.",
          "href": "https://api.euskadi.eus/procurements/companies/10011"
        }
      }
    },
    {
      "name": "GOIKOETXEA ELEKTRIZITATE INSTALAKUNTZAK, S.L.",
      "registrationNumber": "06431",
      "identificationNumber": "B20346987",
      "address": "Poligono Ergoien , Pabellón 530, Apartado 72",
      "location": {
        "postalCode": "20130",
        "municipality": "Urnieta",
        "county": "Gipuzkoa",
        "municipalityId": "072",
        "countyId": "20"
      },
      "economicActivities": [
        {
          "id": "1.504.1",
          "name": "Instalaciones eléctricas en general",
          "_links": {
            "self": {
              "name": "Instalaciones eléctricas en general",
              "href": "https://api.euskadi.eus/procurements/companies/economic-activities/1.504.1"
            }
          }
        }
      ],
      "certificateStartDate": "2025-07-14",
      "certificateEndDate": "2025-07-28",
      "object": "TODO TIPO DE INSTALACIONES ELÉCTRICAS, QUE EN GENERAL SERÁN DE BAJA TENSIÓN, AUNQUE PUDIERA REALIZARSE EN ALTA; LA REPRESENTACIÓN, DISTRIBUCIÓN Y COMPRA-VENTA AL DETALLE DE APARATOS Y MATERIAL ELÉCTRICO, Y ELECTRODOMÉSTICOS DE TODO TIPO",
      "mainEntityOfPage": "https://www.contratacion.euskadi.eus/webkpe00-kperoc/es/ac71aBusquedaRegistrosWar/empresa/06431",
      "_links": {
        "self": {
          "name": "GOIKOETXEA ELEKTRIZITATE INSTALAKUNTZAK, S.L.",
          "href": "https://api.euskadi.eus/procurements/companies/06431"
        }
      }
    },
    {
      "name": "ELECTRONICA EMBAJADORES, S.L.",
      "registrationNumber": "09409",
      "identificationNumber": "B80082365",
      "address": "Embajadores, 138",
      "location": {
        "postalCode": "28045",
        "municipality": "Madrid",
        "county": "Madrid",
        "municipalityId": "079",
        "countyId": "28"
      },
      "economicActivities": [
        {
          "id": "1.615.4",
          "name": "Venta al por mayor de aparatos y material radioeléctrico y electrónico",
          "_links": {
            "self": {
              "name": "Venta al por mayor de aparatos y material radioeléctrico y electrónico",
              "href": "https://api.euskadi.eus/procurements/companies/economic-activities/1.615.4"
            }
          }
        }
      ],
      "certificateStartDate": "2025-07-14",
      "certificateEndDate": "2025-07-28",
      "object": "A) . LA COMPRA, VENTA, FABRICACIÓN, COMERCIALIZACIÓN, DISTRIBUCIÓN, IMPORTACIÓN Y EXPORTACIÓN DE EQUIPOS ELECTRÓNICOS, ELÉCTRICOS Y ELECTROMECÁNICOS, INSTRUMENTOS, MAQUINARIA, ACCESORIOS, HERRAMIENTAS Y UTILLAJES PARA LA ELECTRÓNICA E INFORMÁTICA. B) . LA ADQUISICIÓN, EXPLOTACIÓN Y ENAJENACIÓN DE TODO TIPO DE BIENES INMUEBLES Y LA REALIZACIÓN DE TODA CLASE DE OBRAS Y CONSTRUCCIONES.",
      "mainEntityOfPage": "https://www.contratacion.euskadi.eus/webkpe00-kperoc/es/ac71aBusquedaRegistrosWar/empresa/09409",
      "_links": {
        "self": {
          "name": "ELECTRONICA EMBAJADORES, S.L.",
          "href": "https://api.euskadi.eus/procurements/companies/09409"
        }
      }
    },
    {
      "name": "LAKUBARRO, S.L.",
      "registrationNumber": "05843",
      "identificationNumber": "B01523661",
      "address": "C/ VITORIALANDA 12",
      "location": {
        "postalCode": "01010",
        "municipality": "Vitoria-Gasteiz",
        "county": "Araba/Álava",
        "municipalityId": "059",
        "countyId": "01"
      },
      "economicActivities": [
        {
          "id": "1.501.1",
          "name": "Construcción completa, reparación y conservación de edificaciones",
          "_links": {
            "self": {
              "name": "Construcción completa, reparación y conservación de edificaciones",
              "href": "https://api.euskadi.eus/procurements/companies/economic-activities/1.501.1"
            }
          }
        },
        {
          "id": "1.911",
          "name": "Servicios agrícolas y ganaderos",
          "_links": {
            "self": {
              "name": "Servicios agrícolas y ganaderos",
              "href": "https://api.euskadi.eus/procurements/companies/economic-activities/1.911"
            }
          }
        },
        {
          "id": "1.912",
          "name": "Servicios forestales",
          "_links": {
            "self": {
              "name": "Servicios forestales",
              "href": "https://api.euskadi.eus/procurements/companies/economic-activities/1.912"
            }
          }
        },
        {
          "id": "1.922",
          "name": "Servicios de limpieza",
          "_links": {
            "self": {
              "name": "Servicios de limpieza",
              "href": "https://api.euskadi.eus/procurements/companies/economic-activities/1.922"
            }
          }
        }
      ],
      "certificateStartDate": "2025-07-14",
      "certificateEndDate": "2026-01-13",
      "object": "- SERVICIOS INTEGRALES FORESTALES Y MEDIO AMBIENTALES. SERVICIOS DE PLANTACIÓN Y MANTENIMIENTO DE JARDINES Y PARQUES. SERVICIOS AGRÍCOLAS Y GANADEROS, CON O SIN MAQUINARIA, ASÍ COMO PRODUCCIÓN DE CULTIVOS Y GANADO; COMO PREPARACIÓN DE TIERRA, PODA, RIEGO, APLICACIÓN DE PRODUCTOS SANITARIOS, INSEMINACIÓN, ETC. - SERVICIOS DE RECOLECCIÓN Y PREPARACIÓN DE COSECHAS; - SERVICIO DE LIMPIEZA INTEGRAL, COMUNIDADES, GARAJES, EMPRESAS Y PARTICULARES. - SERVICIO DE COORDINACIÓN DE GREMIOS, PARA OBRAS CIVILES, PARTICULARES, ENTIDADES PÚBLICAS Y PRIVADAS. - LA PRESTACIÓN DE SERVICIOS DE LIMPIEZA DE INTERIORES Y EXTERIORES TALES COMO EDIFICIOS, CALLES, OFICINAS, ESTABLECIMIENTOS COMERCIALES, RESIDENCIAS, VÍAS PÚBLICAS, CENTROS SANITARIOS, ESTABLECIMIENTOS INDUSTRIALES, JARDINES. - LA PRESTACIÓN DE SERVICIOS DE LIMPIEZA DE TODO TIPO DE LOCALES, COMUNIDADES, ESTABLECIMIENTOS COMERCIALES O INDUSTRIALES, RESIDENCIAS Y EDIFICIOS PÚBLICOS Y PRIVADOS. - LA TENENCIA, PROMOCIÓN, CONSTRUCCIÓN COMPRA, VENTA ARRENDAMIENTO Y COMERCIALIZACIÓN EN GENERAL DE TODA CLASE DE EFICIACIONES, TERRENOS, SOLARES, FINCAS RÚSTICAS Y URBANAS",
      "mainEntityOfPage": "https://www.contratacion.euskadi.eus/webkpe00-kperoc/es/ac71aBusquedaRegistrosWar/empresa/05843",
      "_links": {
        "self": {
          "name": "LAKUBARRO, S.L.",
          "href": "https://api.euskadi.eus/procurements/companies/05843"
        }
      }
    },
    {
      "name": "NIRE STREAM, S.L.",
      "registrationNumber": "09988",
      "identificationNumber": "B95829958",
      "address": "C/ Santiago de Compostela, 12 - 3º D",
      "location": {
        "postalCode": "48003",
        "municipality": "Bilbao",
        "county": "Bizkaia",
        "municipalityId": "020",
        "countyId": "48"
      },
      "economicActivities": [
        {
          "id": "1.845",
          "name": "Explotación electrónica por cuenta de terceros",
          "_links": {
            "self": {
              "name": "Explotación electrónica por cuenta de terceros",
              "href": "https://api.euskadi.eus/procurements/companies/economic-activities/1.845"
            }
          }
        },
        {
          "id": "1.961.1",
          "name": "Producción de películas cinematográficas (incluso vídeos)",
          "_links": {
            "self": {
              "name": "Producción de películas cinematográficas (incluso vídeos)",
              "href": "https://api.euskadi.eus/procurements/companies/economic-activities/1.961.1"
            }
          }
        }
      ],
      "certificateStartDate": "2025-07-14",
      "certificateEndDate": "2025-07-29",
      "object": "EL DESARROLLO DE SERVICIOS Y PRODUCTOS BASADAS EN TECNOLOGÍAS EN INTERACTIVIDAD, MOVILIDAD, TECNOLOGÍAS AUDIOVISUALES, E INTERNET. LA CREACIÓN, PRODUCCIÓN Y DISTRIBUCIÓN DE OBRAS AUDIOVISUALES; LA REPRODUCCIÓN Y COMUNICACIÓN PÚBLICA DE DICHAS OBRAS, EN CUALQUIER MEDIO CINEMATOGRÁFICO Y TELEVISIVO; LA DISTRIBUCIÓN EN CUALQUIER FORMATO, INCLUIDA LA EDICIÓN DE SOPORTES GRÁFICOS O LITERARIOS Y MEDIANTE CUALQUIER SISTEMA DE COMERCIALIZACIÓN, DE OBRAS DE TEATRO Y AUDIOVISUALES, INCLUIDO EL ALQUILER Y PRÉSTAMOS DE COPIAS; ADAPTACIÓN Y TRANSFORMACIÓN DE OBRAS, ESPECIALMENTE LA SINCRONIZACIÓN DE IMÁGENES, LA TRADUCCIÓN, EL SUBTITULADO Y EL DOBLAJE DE LAS MISMAS; LA FABRICACIÓN, COMPRAVENTA, IMPORTACIÓN, EXPORTACIÓN, ARRENDAMIENTO Y COMERCIALIZACIÓN EN GENERAL Y POR CUALQUIER MEDIO, DE PRODUCTOS RELACIONADOS CON LA IMAGEN Y EL SONIDO; LA COMPOSICIÓN, REPRODUCCIÓN Y GRABADOS DE TEXTOS E IMÁGENES, POR CUALQUIER SISTEMA O PROCEDIMIENTO; LA EDICIÓN Y PUBLICACIÓN DE PERIÓDICOS Y REVISTAS, LIBROS Y DISCOS; LA COMERCIALIZACIÓN DE TODA CLASE DE EQUIPOS Y MEDIOS AUDIOVISUALES. LA COMERCIALIZACIÓN, MANTENIMIENTO E INSTALACIONES DE EQUIPOS INFORMÁTICOS. LA CONSULTORÍA Y FORMACIÓN EN MATERIA INFORMÁTICA. INSTALACIONES DE REDES PARA VOZ Y DATOS. ",
      "mainEntityOfPage": "https://www.contratacion.euskadi.eus/webkpe00-kperoc/es/ac71aBusquedaRegistrosWar/empresa/09988",
      "_links": {
        "self": {
          "name": "NIRE STREAM, S.L.",
          "href": "https://api.euskadi.eus/procurements/companies/09988"
        }
      }
    },
    {
      "name": "PIA ALKAIN SORONDO",
      "registrationNumber": "09690",
      "identificationNumber": "15254195C",
      "address": "Beleztarren markes kalea, 2 1 ezk",
      "location": {
        "postalCode": "20280",
        "municipality": "Hondarribia",
        "county": "Gipuzkoa",
        "municipalityId": "036",
        "countyId": "20"
      },
      "economicActivities": [
        {
          "id": "1.966.9",
          "name": "Otros servicios culturales n.c.o.p",
          "_links": {
            "self": {
              "name": "Otros servicios culturales n.c.o.p",
              "href": "https://api.euskadi.eus/procurements/companies/economic-activities/1.966.9"
            }
          }
        },
        {
          "id": "2.883",
          "name": "Guías intérpretes de turismo",
          "_links": {
            "self": {
              "name": "Guías intérpretes de turismo",
              "href": "https://api.euskadi.eus/procurements/companies/economic-activities/2.883"
            }
          }
        }
      ],
      "certificateStartDate": "2025-07-14",
      "certificateEndDate": "2025-07-29",
      "object": "OTROS SERVICIOS CULTURALES N.C.O.P. GUÍAS INTÉRPRETES DE TURISMO.",
      "mainEntityOfPage": "https://www.contratacion.euskadi.eus/webkpe00-kperoc/es/ac71aBusquedaRegistrosWar/empresa/09690",
      "_links": {
        "self": {
          "name": "PIA ALKAIN SORONDO",
          "href": "https://api.euskadi.eus/procurements/companies/09690"
        }
      }
    }
  ]
}