{
  "totalItems": 9042,
  "totalPages": 905,
  "currentPage": 504,
  "itemsOfPage": 10,
  "items": [
    {
      "name": "MABINOR SOLUCIONES INFORMÁTICAS INTEGRALES, SL",
      "registrationNumber": "05153",
      "identificationNumber": "B86674942",
      "address": "POLÍGONO INDUSTRIAL UGALDEGUREN I, MONTORRE KALEA Nº 3",
      "location": {
        "postalCode": "48160",
        "municipality": "Derio",
        "county": "Bizkaia",
        "municipalityId": "901",
        "countyId": "48"
      },
      "economicActivities": [
        {
          "id": "1.617.8",
          "name": "Venta al por mayor de máquinas y material de oficina",
          "_links": {
            "self": {
              "name": "Venta al por mayor de máquinas y material de oficina",
              "href": "https://api.euskadi.eus/procurements/companies/economic-activities/1.617.8"
            }
          }
        }
      ],
      "certificateStartDate": "2022-04-12",
      "certificateEndDate": "2022-10-12",
      "object": "INSTALACIÓN, REPARACIÓN, ALQUILER Y COMERCIO AL POR MAYOR Y AL POR MENOR DE EQUIPOS EELCTRÓNICOS, AUDIOVISUALES Y DE TELECOMUNICACIONES Y SUS COMPONENTES; ORDENADORES, ACCESORIOS, PERIFÉRICOS, CONSUMIBLES ASÍ COMO PROGRAMAS INFORMÁTICOS, MUEBLES Y EQUIPOS DE OFICINA. PROGRAMACIÓN, CONSULTRÍA, INSTALACIÓN DE REDES DE COMUNICACIONES Y DATOS Y OTRAS ACTIVIDADES RELACIONADAS CON LA INFORMÁTICA, REPROGRAFÍA Y LAS TELECOMUNICACIONES",
      "mainEntityOfPage": "https://www.contratacion.euskadi.eus/webkpe00-kperoc/es/ac71aBusquedaRegistrosWar/empresa/05153",
      "_links": {
        "self": {
          "name": "MABINOR SOLUCIONES INFORMÁTICAS INTEGRALES, SL",
          "href": "https://api.euskadi.eus/procurements/companies/05153"
        }
      }
    },
    {
      "name": "RKL INTEGRAL, S.COOP. PEQUEÑA",
      "registrationNumber": "06513",
      "identificationNumber": "F95867123",
      "address": "Calle ANDRÉS ELISEO de MAÑARICUA, 13 - 7B",
      "location": {
        "postalCode": "48003",
        "municipality": "Bilbao",
        "county": "Bizkaia",
        "municipalityId": "020",
        "countyId": "48"
      },
      "economicActivities": [
        {
          "id": "1.843.1",
          "name": "Servicios técnicos de ingeniería",
          "_links": {
            "self": {
              "name": "Servicios técnicos de ingeniería",
              "href": "https://api.euskadi.eus/procurements/companies/economic-activities/1.843.1"
            }
          }
        },
        {
          "id": "1.847",
          "name": "Servicios de consultoría",
          "_links": {
            "self": {
              "name": "Servicios de consultoría",
              "href": "https://api.euskadi.eus/procurements/companies/economic-activities/1.847"
            }
          }
        }
      ],
      "certificateStartDate": "2022-04-12",
      "certificateEndDate": "2022-10-12",
      "object": "LA PRESTACIÓN DE SERVICIOS DE CONSULTORÍA, ASISTENCIA TÉCNICA Y DIRECCIÓN DE OBRAS, PROYECTOS DE DISEÑO DE SISTEMAS, DESARROLLOS INFORMÁTICOS, DISTRIBUCIÓN Y COMERCIALIZACIÓN DE SOLUCIONES TÉCNICAS HARDWARE O SOFTWARE Y FORMACIÓN ESPECIALIZADA, HACIENDO CONSTAR EXPRESAMENTE QUE NO SE REALIZARÁN ACTIVIDADES PROFESIONALES NI SE CONSTITUYE UNA SOCIEDAD COOPERATIVA PROFESIONAL",
      "mainEntityOfPage": "https://www.contratacion.euskadi.eus/webkpe00-kperoc/es/ac71aBusquedaRegistrosWar/empresa/06513",
      "_links": {
        "self": {
          "name": "RKL INTEGRAL, S.COOP. PEQUEÑA",
          "href": "https://api.euskadi.eus/procurements/companies/06513"
        }
      }
    },
    {
      "name": "BANUR SOLUCIONES COMERCIALES, S.L",
      "registrationNumber": "06773",
      "identificationNumber": "B71254288",
      "address": "AVDA. SAN IGNACIO Nº 6, 2ª PLANTA",
      "location": {
        "postalCode": "31002",
        "municipality": "Pamplona/Iruña",
        "county": "Navarra",
        "municipalityId": "201",
        "countyId": "31"
      },
      "economicActivities": [
        {
          "id": "1.501.1",
          "name": "Construcción completa, reparación y conservación de edificaciones",
          "_links": {
            "self": {
              "name": "Construcción completa, reparación y conservación de edificaciones",
              "href": "https://api.euskadi.eus/procurements/companies/economic-activities/1.501.1"
            }
          }
        }
      ],
      "certificateStartDate": "2022-04-06",
      "certificateEndDate": "2022-10-06",
      "object": "A) LAS ACTIVIDADES DE DISEÑO ESPECIALIZADO. C.N A.E: 7410:- TAMBIÉN TIENE POR OBJETO SOCIAL: B) LA PLANIFICACIÓN, DIRECCIÓN, DESARROLLO, COORDINACIÓN, CONTROL Y EJECUCIÓN DE TODO TIPO DE OBRAS EN ESTABLECIMIENTOS COMERCIALES, INCLUYENDO EL SUMINISTRO A LOS MISMOS DE TODA CLASE DE MATERIALES Y COMPLEMENTOS NECESARIOS PARA INICIAR SUS ACTIVIDADES. C) LA REHABILITACIÓN O REFORMA DE EDIFICIOS, ELEMENTOS COMUNES O VIVIENDAS INCLUYENDO LA CORRECCIÓN DE MEDIDAS ARQUITECTÓNICAS. D) LA ADQUISICIÓN, TENENCIA, ADMINISTRACIÓN, DISFRUTE Y ENAJENACIÓN DE VALORES MOBILIARIOS, ACCIONES Y PARTICIPACIONES SOCIALES, POR CUENTA PROPIA Y CON EXCEPCIÓN DE LA INTERMEDIACIÓN Y DEJANDO SIEMPRE FUERA LAS ACTIVIDADES OBJETO DE LA LEGISLACIÓN DE INSTITUCIONES DE INVERSIÓN COLECTIVA Y DEL MERCADO DE VALORES",
      "mainEntityOfPage": "https://www.contratacion.euskadi.eus/webkpe00-kperoc/es/ac71aBusquedaRegistrosWar/empresa/06773",
      "_links": {
        "self": {
          "name": "BANUR SOLUCIONES COMERCIALES, S.L",
          "href": "https://api.euskadi.eus/procurements/companies/06773"
        }
      }
    },
    {
      "name": "ULMA SERVICIOS DE MANUTENCION, S.COOP.",
      "registrationNumber": "07571",
      "identificationNumber": "F75037127",
      "address": "PASEO OTADUI N.8",
      "location": {
        "postalCode": "20560",
        "municipality": "Oñati",
        "county": "Gipuzkoa",
        "municipalityId": "059",
        "countyId": "20"
      },
      "economicActivities": [
        {
          "id": "1.325.4",
          "name": "Construcción de maquinaria de elevación y manipulación",
          "_links": {
            "self": {
              "name": "Construcción de maquinaria de elevación y manipulación",
              "href": "https://api.euskadi.eus/procurements/companies/economic-activities/1.325.4"
            }
          }
        },
        {
          "id": "1.617.9",
          "name": "Venta al por mayor interindustrial de otros productos n.c.o.p",
          "_links": {
            "self": {
              "name": "Venta al por mayor interindustrial de otros productos n.c.o.p",
              "href": "https://api.euskadi.eus/procurements/companies/economic-activities/1.617.9"
            }
          }
        },
        {
          "id": "1.692",
          "name": "Reparación de maquinaria industrial",
          "_links": {
            "self": {
              "name": "Reparación de maquinaria industrial",
              "href": "https://api.euskadi.eus/procurements/companies/economic-activities/1.692"
            }
          }
        }
      ],
      "certificateStartDate": "2022-04-01",
      "certificateEndDate": "2022-09-02",
      "object": "FABRICACIÓN, COMERCIALIZACIÓN Y SERVICIO DE ASISTENCIA TÉCNICA EN ELEMENTOS DE MANUTENCIÓN",
      "mainEntityOfPage": "https://www.contratacion.euskadi.eus/webkpe00-kperoc/es/ac71aBusquedaRegistrosWar/empresa/07571",
      "_links": {
        "self": {
          "name": "ULMA SERVICIOS DE MANUTENCION, S.COOP.",
          "href": "https://api.euskadi.eus/procurements/companies/07571"
        }
      }
    },
    {
      "name": "CLARO SOL CLEANING, S.L",
      "registrationNumber": "06389",
      "identificationNumber": "B87087847",
      "address": "C/ ULISES, Nº 87",
      "location": {
        "postalCode": "28403",
        "municipality": "Madrid",
        "county": "Madrid",
        "municipalityId": "079",
        "countyId": "28"
      },
      "economicActivities": [
        {
          "id": "1.922",
          "name": "Servicios de limpieza",
          "_links": {
            "self": {
              "name": "Servicios de limpieza",
              "href": "https://api.euskadi.eus/procurements/companies/economic-activities/1.922"
            }
          }
        }
      ],
      "certificateStartDate": "2022-03-31",
      "certificateEndDate": "2022-09-07",
      "object": "- LIMPIEZA Y MANTENIMIENTO DE VIVIENDAS, EDIFICIOS CONSTRUIDOS O EN CONSTRUCCIÓN, SOLARES, LOCALES COMERCIALES, FÁBRICAS, ALMACENES, OFICINAS, DESPACHOS, NAVES, BUQUES Y AERONAVES ASÍ COMO CUALQUIER ESTABLECIMIENTO MERCANTIL Y FACHADAS, PERTENECIENTES TANTO A ORGANISMOS PÚBLICOS COMO A PARTICULARES. - LIMPIEZA, MANTENIMIENTO, ARREGLO Y CONSERVACIÓN DE JARDINES, CLUBES DE RECREO Y CLUBES DE CAMPO. - EL ASESORAMIENTO Y ASISTENCIA TÉCNICA EN MATERIA DE LIMPIEZAS Y MANTENIMIENTO DE TODA CLASE DE LOCALES COMERCIALES, VIVIENDAS, EDIFICIOS CONSTRUIDOS O EN CONSTRUCCIÓN, ALMACENES, OFICINAS, DESPACHOS, JARDINES Y FACHADAS. - LA REPRESENTACIÓN DE EMPRESAS Y FIRMAS NACIONALES Y EXTRANJERAS, LA EXPLOTACIÓN DE PATENTES, EL EJERCICIO DE COMERCIO EXTERIOR Y EN CONSECUENCIA, LAS ACTIVIDADES DE IMPORTACIÓN Y EXPORTACIÓN, EN TODAS SUS FORMAS Y MODALIDADES, PARA PRODUCTOS, MAQUINARIA Y ARTILUGIOS DE LIMPIEZA. - LA ADQUISICIÓN, TENENCIA, USO Y DISPOSICIÓN DE CUALQUIER OTRA FORMA DE PATENTES, DERECHOS DE EDICIÓN, MARCAS REGISTRALES, NOMBRES REGISTRADOS Y CUALESQUIERA OTROS DERECHOS DE LA PROPIEDAD INDUSTRIAL O INTELECTUAL PREVIO CUMPLIMIENTO EN CADA CASO DE LOS NECESARIOS REQUISITOS LEGALES Y SIEMPRE PARA LA EXPLOTACIÓN DE PRODUCTOS, MAQUINARIA O ARTÍCULOS DE LIMPIEZA. - DESINSECTACIÓN, DESRATIZACIÓN Y DESINFECCIÓN DE VIVIENDAS, EDIFICIOS CONSTRUIDOS O EN CONSTRUCCIÓN, SOLARES, LOCALES COMERCIALES, FÁBRICAS, ALMACENES, OFICINAS, DESPACHOS, ASÍ COMO CUALQUIER ESTABLECIMIENTO MERCANTIL Y FACHADAS, PERTENECIENTES TANTO A ORGANISMOS PÚBLICOS COMO A PARTICULARES. - EL MANTENIMIENTO DE INSTALACIONES TÉCNICAS DE EDIFICIOS, TALES COMO CALDERAS DE FUEL-OIL Y OTROS ELEMENTOS. - ELECTRICIDAD, FONTANERÍA. - REPARACIÓN DE MÁQUINAS ELECTROMECÁNICAS. - JARDINERÍA Y MANTENIMIENTO DE PLANTAS Y FLORES. - PINTURA, TANTO EXTERIOR COMO INTERIOR DE INMUEBLES. - SERVICIOS DE CONSERJERÍA PARA INMUEBLES Y GARAJES. - SERVICIOS DE RESTAURACIÓN DE COCINA Y COMEDORES. - EL ESTUDIO, DESARROLLO Y CONTRATACIÓN DE TODO LO RELATIVO A LAS TÉCNICAS DE ALMACENAJE, CLASIFICACIÓN, EMPAQUETADO, CARGA Y DESCARGA Y, EN GENERAL, MANIPULACIÓN DE MERCANCÍAS DE CUALQUIER ÍNDOLE. - LA ENTREGA Y RECOGIDA DE MENSAJES, TRANSPORTE URBANO E INTERURBANO DE MERCANCÍAS Y PAQUETES VÍA TERRESTRE. - REPOSICIÓN Y DISTRIBUCIÓN DE TODA CLASE DE PRODUCTOS, MERCADERÍAS, PAQUETERÍA, CONTROL DE STOCK, PREPARACIÓN DE PEDIDOS, EMPAQUETADO Y TRASLADO DE ARTÍCULOS VARIOS. - SERVICIO DE MANTENIMIENTO Y RECOGIDA DE CARROS DE LA COMPRA EN CENTROS COMERCIALES. - PROMOCIÓN Y DEGUSTACIÓN DE PRODUCTOS, REPARTO DE PROPAGANDA O MUESTRAS. - ASISTENCIA TÉCNICA O COMERCIAL A ORGANISMOS PÚBLICOS Y PRIVADOS. - LECTURA DE CONTADORES MEDIDORES DE SERVICIOS DIVERSOS Y COBRO DE RECIBOS A OTRAS EMPRESAS. - AZAFATAS, SERVIVIOS DE ASISTENCIA EN CONGRESOS, CONVENCIONES, CENTROS O EVENTOS CULTURALES Y/O DEPORTIVOS, LOCALES DE ESPECTÁCULOS, INCLUSO TEATROS, TALES COMO GUARDARROPA, ACOMODADORES, SERVICIOS DE ORDENANZA, ASCENSORISTAS, CAMERINOS Y TAQUILLAS. - SERVICIOS DE VISITAS GUIADAS Y SERVICIOS DE ATENCIÓN E INFORMACIÓN TELEFÓNICA. - TODA CLASE DE SERVICIOS A CLIENTES EXTERNOS EN ACTIVIDADES PROPIAS DEL OBJETO SOCIAL",
      "mainEntityOfPage": "https://www.contratacion.euskadi.eus/webkpe00-kperoc/es/ac71aBusquedaRegistrosWar/empresa/06389",
      "_links": {
        "self": {
          "name": "CLARO SOL CLEANING, S.L",
          "href": "https://api.euskadi.eus/procurements/companies/06389"
        }
      }
    },
    {
      "name": "ALUMINIOS ALEMAN, S.L.",
      "registrationNumber": "08258",
      "identificationNumber": "B20343703",
      "address": "ELBARRENA AUZOA 11",
      "location": {
        "postalCode": "20230",
        "municipality": "Legazpi",
        "county": "Gipuzkoa",
        "municipalityId": "051",
        "countyId": "20"
      },
      "economicActivities": [
        {
          "id": "1.314.1",
          "name": "Carpintería metálica",
          "_links": {
            "self": {
              "name": "Carpintería metálica",
              "href": "https://api.euskadi.eus/procurements/companies/economic-activities/1.314.1"
            }
          }
        }
      ],
      "certificateStartDate": "2022-03-30",
      "certificateEndDate": "2022-09-21",
      "object": "LA PRODUCCIÓN, FABRICACIÓN, COMERCIALIZACIÓN, DISTRIBUCIÓN E INSTALACIÓN DE VENTANAS, PUERTAS Y MUEBLES METÁLICOS Y DE ALUMINIO.",
      "mainEntityOfPage": "https://www.contratacion.euskadi.eus/webkpe00-kperoc/es/ac71aBusquedaRegistrosWar/empresa/08258",
      "_links": {
        "self": {
          "name": "ALUMINIOS ALEMAN, S.L.",
          "href": "https://api.euskadi.eus/procurements/companies/08258"
        }
      }
    },
    {
      "name": "EUROHELP CONSULTING, S.L.U.",
      "registrationNumber": "02724",
      "identificationNumber": "B38472197",
      "address": "PLAZA PINARES, Nº1 - 3º",
      "location": {
        "postalCode": "20001",
        "municipality": "Donostia / San Sebastián",
        "county": "Gipuzkoa",
        "municipalityId": "069",
        "countyId": "20"
      },
      "economicActivities": [
        {
          "id": "1.845",
          "name": "Explotación electrónica por cuenta de terceros",
          "_links": {
            "self": {
              "name": "Explotación electrónica por cuenta de terceros",
              "href": "https://api.euskadi.eus/procurements/companies/economic-activities/1.845"
            }
          }
        },
        {
          "id": "1.932.1",
          "name": "Enseñanza de formación y perfeccionamiento profesional no superior",
          "_links": {
            "self": {
              "name": "Enseñanza de formación y perfeccionamiento profesional no superior",
              "href": "https://api.euskadi.eus/procurements/companies/economic-activities/1.932.1"
            }
          }
        }
      ],
      "certificateStartDate": "2022-03-30",
      "certificateEndDate": "2022-09-23",
      "object": "-SERVICIOS DE ASESORAMIENTO, TRADUCCIONES, TRABAJOS DE SECRETARÍA, LABORES DE INTERMEDIACIÓN, ORGANIZACIÓN DE REUNIONES, CONVENCIONES, CONGRESOS Y TRÁMITES CON ADMINISTRACIONES PÚBLICAS Y SUS ORGANISMOS AUTÓNOMOS, EN EL ÁMBITO LOCAL, AUTÓNOMICO, NACIONAL E INTERNACIONAL, ASÍ COMO A EMPRESAS Y PARTICULARES.\r\nLA PRESTACIÓN DE SERVICIOS ADMINISTRATIVOS, INFORMÁTICOS O DE GESTIÓN Y ASESORAMIENTO CONTABLE, JURÍDICO, MERCANTIL, LABORAL O FISCAL, A INSTITUCIONES, ORGANISMOS, EMPRESAS O PARTICULARES.\r\nLA PRESTACIÓN DE SERVICIOS ADMINISTRATIVOS, INFORMÁTICOS O DE GESTIÓN Y ASESORAMIENTO CONTABLE A INSTITUCIONES, ORGANISMOS, EMPRESAS O PARTICULARES.\r\nLA INFORMATIZACIÓN DE EMPRESAS, COMPRA Y VENTA DE EQUIPOS INFORMÁTICOS, ORDENADORES Y ACCESORIOS, HARDWARE Y SOFTWARE.\r\nSERVICIOS DE CAPTURA DE INFORMACIÓN POR MEDIOS ELECTRÓNICOS, INFORMÁTICOS Y TELEMÁTICOS.\r\nSERVICIOS DE DESARROLLO Y MANTENIMIENTO DE PROGRAMAS DE ORDENADOR.\r\nSERVICIOS DE MANTENIMIENTO Y REPARACIÓN DE EQUIPOS E INSTALACIONES INFORMÁTICOS Y TELECOMUNICACIONES.\r\nSERVICIOS DE TELECOMUNICACIONES\r\nSERVICIOS DE EXPLOTACIÓN Y CONTROL DE SISTEMAS DE INFORMÁTICOS E INFRAESTRUCTURAS TELEMÁTICAS.\r\nSERVICIOS DE CERTIFICACIÓN ELECTRÓNICA\r\nSERVICIOS DE EVALUACIÓN Y CERTIFICACIÓN TECNOLÓGICA\r\nOTROS SERVICIOS INFORMÁTICOS O DE TELECOMUNICACIONES\r\nSERVICIOS AUXILIARES PARA TRABAJOS ADMINISTRATIVOS DE ARCHIVO Y SIMILARES.\r\nSERVICIOS DE GESTIÓN DE COBROS (ENTRE OTROS, DE MULTAS, SANCIONES E IMPUESTOS DE LA ADMINISTRACIÓN PÚBLICA Y ENTIDADES LOCALES).\r\nENCUESTAS, TOMAS DE DATOS Y SERVICIOS ANÁLOGOS.\r\nLECTURAS DE CONTADORES\r\nORGANIZACIÓN Y PROMOCIÓN DE CONGRESOS, FERIAS Y EXPOSICIONES.\r\nSERVICIOS DE PORTERÍA, CONTROL DE ACCESOS E INFORMACIÓN AL PÚBLICO\r\nTALES ACTIVIDADES PODRÁN SER DESARROLLADAS, TOTAL O PARCIALMENTE, MEDIANTE LA TITULARIDAD, DE ACCIONES O PARTICIPACIONES DE SOCIEDADES CON OBJETO IDÉNTICO O ANÁLOGO.\r\n",
      "mainEntityOfPage": "https://www.contratacion.euskadi.eus/webkpe00-kperoc/es/ac71aBusquedaRegistrosWar/empresa/02724",
      "_links": {
        "self": {
          "name": "EUROHELP CONSULTING, S.L.U.",
          "href": "https://api.euskadi.eus/procurements/companies/02724"
        }
      }
    },
    {
      "name": "COMPUTADORES NAVARRA, S.A.",
      "registrationNumber": "04337",
      "identificationNumber": "A31107865",
      "address": "PASEO SANTXIKI 1 , EDIFICIO K BAJO",
      "location": {
        "postalCode": "31192",
        "municipality": "Aranguren",
        "county": "Navarra",
        "municipalityId": "023",
        "countyId": "31"
      },
      "economicActivities": [
        {
          "id": "1.659.2",
          "name": "Venta al por menor de muebles de oficina y máquinas y equipos de oficina",
          "_links": {
            "self": {
              "name": "Venta al por menor de muebles de oficina y máquinas y equipos de oficina",
              "href": "https://api.euskadi.eus/procurements/companies/economic-activities/1.659.2"
            }
          }
        },
        {
          "id": "1.699",
          "name": "Otras reparaciones n.c.o.p",
          "_links": {
            "self": {
              "name": "Otras reparaciones n.c.o.p",
              "href": "https://api.euskadi.eus/procurements/companies/economic-activities/1.699"
            }
          }
        },
        {
          "id": "1.845",
          "name": "Explotación electrónica por cuenta de terceros",
          "_links": {
            "self": {
              "name": "Explotación electrónica por cuenta de terceros",
              "href": "https://api.euskadi.eus/procurements/companies/economic-activities/1.845"
            }
          }
        }
      ],
      "certificateStartDate": "2022-03-25",
      "certificateEndDate": "2022-09-18",
      "object": "1.- LA FABRICACIÓN, COMERCIALIZACIÓN, REPRESENTACIÓN, ALMACENAMIENTO, EXPOSICIÓN, COMPRA, VENTA, EXPORTACIÓN, IMPORTACIÓN Y REPARACIÓN DE EQUIPOS DE OFICINA EN GENERAL; Y DE UNA MANERA ESPECIAL, ORDENADORES, FOTOCOPIADORAS, ARCHIVADORES, MÁQUINAS DE ESCRIBIR Y CALCULAR, Y TODOS SUS ELEMENTOS Y ACCESORIOS.   2- Y LA PRESTACIÓN DE SERVICIOS DE ESTUDIO Y ANÁLISIS DE PROCESOS PARA SU TRATAMIENTO MECÁNICO, DE PROGRAMACIÓN PARA EQUIPOS ELECTRÓNICOS, DE REGISTRO DE DATOS EN SOPORTES DE ENTRADA PARA ORDENADORES, ASÍ COMO LA VENTA DE PROGRAMAS, EL PROCESO DE DATOS POR CUENTA DE TERCEROS Y OTROS SERVICIOS INDEPENDIENETES DE ELABORACIÓN DE DATOS Y TABULACIÓN Y, EN GENERAL, TODAS LAS ACTIVIDADES Y SERVICIOS RELACIONADOS CON EL MANTENIMIENTO, INSTALACIÓN, REPARACIÓN Y ASISTENCIA TÉCNICA DE SOFWARE Y HARDWARE.",
      "mainEntityOfPage": "https://www.contratacion.euskadi.eus/webkpe00-kperoc/es/ac71aBusquedaRegistrosWar/empresa/04337",
      "_links": {
        "self": {
          "name": "COMPUTADORES NAVARRA, S.A.",
          "href": "https://api.euskadi.eus/procurements/companies/04337"
        }
      }
    },
    {
      "name": "PROFINSA Y SUMINISTROS, S.L.",
      "registrationNumber": "04784",
      "identificationNumber": "B95590808",
      "address": "AVDA. ENEKURI, POLIGONO INDUSTRIAL FATIMA",
      "location": {
        "postalCode": "48950",
        "municipality": "Erandio",
        "county": "Bizkaia",
        "municipalityId": "902",
        "countyId": "48"
      },
      "economicActivities": [
        {
          "id": "1.617.8",
          "name": "Venta al por mayor de máquinas y material de oficina",
          "_links": {
            "self": {
              "name": "Venta al por mayor de máquinas y material de oficina",
              "href": "https://api.euskadi.eus/procurements/companies/economic-activities/1.617.8"
            }
          }
        }
      ],
      "certificateStartDate": "2022-03-24",
      "certificateEndDate": "2022-09-24",
      "object": "LA CREACIÓN DE PUESTOS DE TRABAJO ESTABLES OARA LAS PERSONAS CON DISCAPACIDAD FÍSICA MEDIANTE PROMOCIÓN, COORDINACIÓN Y GESTIÓN DE UN CENTRO ESPECIAL DE EMPLEO Y A TRAVÉS DEL DESARROLLO DE ACTIVIDADES EMPRESARIALES. ATENDER LAS NECESIDADES Y CARENCIAS ESPECÍFICAS DE LAS PERSONAS CON DISCAPACIDAD, PRESTÁNDOLES SERVICIOS DE REHABILITACIÓN Y FISIOTERAPIA A LA VEZ QUE FACILITÁNDOLES UNAS ENSEÑANZAS QUE PERMITAN Y FACILITEN SU INSERCIÓN LABORAL. SERVICIO DE DISEÑO Y ARTES GRÁFICAS, FABRICACIÓN DE CARPETAS Y SUBCARPETAS, PRESENTACIONES, MEMORIAS, CATÁLOGOS, CARTELES, TRÍPTICOS Y TARJETAS, TRABAJOS COMERCIALES Y PUBLICITARIOS, ARTÍCULOS DE MERCHANDISING PROMOCIONAL Y SERVICIOS DE ENCUADERNACIÓN Y MANIPULADO DE PRODUCTOS. COMPRA Y VENTA DE MATERIAL DE OFICINA E INFORMÁTICA. PRESENTACIÓN DE SERVICIOS A EMPRESAS, COMO EL ALMACENAJE, LA PREPARACIÓN DE PEDIDOS Y LA DISTRIBUCIÓN DE LAS MERCANCIAS. CUALQUIER OTRA ACTIVIDAD QUE SIRVA PARA EL CUMPLIMIENTO DE LOS FINES DE LA SOCIEDAD",
      "mainEntityOfPage": "https://www.contratacion.euskadi.eus/webkpe00-kperoc/es/ac71aBusquedaRegistrosWar/empresa/04784",
      "_links": {
        "self": {
          "name": "PROFINSA Y SUMINISTROS, S.L.",
          "href": "https://api.euskadi.eus/procurements/companies/04784"
        }
      }
    },
    {
      "name": "SUMINISTROS KELONIK, S.A.",
      "registrationNumber": "08228",
      "identificationNumber": "A08842304",
      "address": "Badajoz 159 Bis",
      "location": {
        "postalCode": "08018",
        "municipality": "Barcelona",
        "county": "Barcelona",
        "municipalityId": "019",
        "countyId": "08"
      },
      "economicActivities": [
        {
          "id": "1.393.1",
          "name": "Instrumentos ópticos, material fotográfico y cinematográfico",
          "_links": {
            "self": {
              "name": "Instrumentos ópticos, material fotográfico y cinematográfico",
              "href": "https://api.euskadi.eus/procurements/companies/economic-activities/1.393.1"
            }
          }
        },
        {
          "id": "1.615.4",
          "name": "Venta al por mayor de aparatos y material radioeléctrico y electrónico",
          "_links": {
            "self": {
              "name": "Venta al por mayor de aparatos y material radioeléctrico y electrónico",
              "href": "https://api.euskadi.eus/procurements/companies/economic-activities/1.615.4"
            }
          }
        },
        {
          "id": "1.849.9",
          "name": "Otros servicios independientes n.c.o.p",
          "_links": {
            "self": {
              "name": "Otros servicios independientes n.c.o.p",
              "href": "https://api.euskadi.eus/procurements/companies/economic-activities/1.849.9"
            }
          }
        },
        {
          "id": "1.962.1",
          "name": "Distribución y venta de películas",
          "_links": {
            "self": {
              "name": "Distribución y venta de películas",
              "href": "https://api.euskadi.eus/procurements/companies/economic-activities/1.962.1"
            }
          }
        }
      ],
      "certificateStartDate": "2022-03-23",
      "certificateEndDate": "2022-09-22",
      "object": "LA INVESTIGACIÓN, FABRICACIÓN, IMPORTACIÓN, EXPORTACIÓN Y COMERCIALIZACIÓN DE MATERIALES AUDIOVISUALES.",
      "mainEntityOfPage": "https://www.contratacion.euskadi.eus/webkpe00-kperoc/es/ac71aBusquedaRegistrosWar/empresa/08228",
      "_links": {
        "self": {
          "name": "SUMINISTROS KELONIK, S.A.",
          "href": "https://api.euskadi.eus/procurements/companies/08228"
        }
      }
    }
  ]
}