{
  "totalItems": 9042,
  "totalPages": 905,
  "currentPage": 291,
  "itemsOfPage": 10,
  "items": [
    {
      "name": "EN CLAVE DE SOL COMUNICACIÓN Y EVENTOS, S.L.",
      "registrationNumber": "08657",
      "identificationNumber": "B02949378",
      "address": "Plaza Euskadi",
      "location": {
        "postalCode": "20002",
        "municipality": "Donostia / San Sebastián",
        "county": "Gipuzkoa",
        "municipalityId": "069",
        "countyId": "20"
      },
      "economicActivities": [
        {
          "id": "1.844",
          "name": "Servicios de publicidad, relaciones públicas y similares",
          "_links": {
            "self": {
              "name": "Servicios de publicidad, relaciones públicas y similares",
              "href": "https://api.euskadi.eus/procurements/companies/economic-activities/1.844"
            }
          }
        }
      ],
      "certificateStartDate": "2025-09-09",
      "certificateEndDate": "2026-03-09",
      "object": "LA REALIZACIÓN, POR CUENTA DE TERCEROS, DE ACTIVIDADES DE ASESORAMIENTO, CREACIÓN, PROYECCIÓN, EJECUCIÓN Y DISTRIBUCIÓN DE CAMPAÑAS DE PUBLICIDAD Y MARKETING DIRECTO, IMÁGENES DE MARCA Y CORPORATIVAS Y OTROS COMETIDOS RELACIONADOS CON EL MARKETING EMPRESARIAL, TODO ELLO EN CUALQUIER TIPO DE SOPORTE.",
      "mainEntityOfPage": "https://www.contratacion.euskadi.eus/webkpe00-kperoc/es/ac71aBusquedaRegistrosWar/empresa/08657",
      "_links": {
        "self": {
          "name": "EN CLAVE DE SOL COMUNICACIÓN Y EVENTOS, S.L.",
          "href": "https://api.euskadi.eus/procurements/companies/08657"
        }
      }
    },
    {
      "name": "INGENIERÍA Y VISIÓN ARTIFICIAL, S.L.",
      "registrationNumber": "07158",
      "identificationNumber": "B39752001",
      "address": "CENTRO DE NEGOCIOS SARDINERO. C/LUIS MARTÍNEZ 21",
      "location": {
        "postalCode": "39005",
        "municipality": "Santander",
        "county": "Cantabria",
        "municipalityId": "075",
        "countyId": "39"
      },
      "economicActivities": [
        {
          "id": "1.843.1",
          "name": "Servicios técnicos de ingeniería",
          "_links": {
            "self": {
              "name": "Servicios técnicos de ingeniería",
              "href": "https://api.euskadi.eus/procurements/companies/economic-activities/1.843.1"
            }
          }
        }
      ],
      "certificateStartDate": "2025-09-09",
      "certificateEndDate": "2026-03-09",
      "object": "LAS ACTIVIDADES CIENTÍFICO-TÉCNICAS, PROFESIONALES, DE INVESTIGACIÓN, DESARROLLO E INNOVACIÓN EN EL ÁMBITO DE LA INGENIERÍA; PRESTACIÓN DE SERVICIOS DE FORMACIÓN EN INGENIERÍA Y NUEVAS TECNOLOGÍAS; PRESTACIÓN DE SERVICIOS EN MATERIA INFORMÁTICA Y DESARROLLO DE SOFTWARE PROFESIONAL, DE TELECOMUNICACIONES Y DE GESTIÓN DE PRODUCTOS REGISTRADOS POR SATÉLITE, ASÍ COMO DESARROLLO DE TECNOLOGÍA BASADA EN ENERGÍAS RENOVABLES Y SOSTENIBLES. ACTIVIDAD PRINCIPAL/CNAE: 7112. SERVICIOS TÉCNICOS DE INGENIERÍA Y OTRAS ACTIVIDADES RELACIONADAS CON EL ASESORAMIENTO TÉCNICO",
      "mainEntityOfPage": "https://www.contratacion.euskadi.eus/webkpe00-kperoc/es/ac71aBusquedaRegistrosWar/empresa/07158",
      "_links": {
        "self": {
          "name": "INGENIERÍA Y VISIÓN ARTIFICIAL, S.L.",
          "href": "https://api.euskadi.eus/procurements/companies/07158"
        }
      }
    },
    {
      "name": "NEREA RUT GÓMEZ ARAMBARRI",
      "registrationNumber": "09048",
      "identificationNumber": "72740312Y",
      "address": "C/ PASEO BATAN 8, 3º IZDA.",
      "location": {
        "postalCode": "01007",
        "municipality": "Vitoria-Gasteiz",
        "county": "Araba/Álava",
        "municipalityId": "059",
        "countyId": "01"
      },
      "economicActivities": [
        {
          "id": "2.421",
          "name": "Arquitectos técnicos y aparejadores",
          "_links": {
            "self": {
              "name": "Arquitectos técnicos y aparejadores",
              "href": "https://api.euskadi.eus/procurements/companies/economic-activities/2.421"
            }
          }
        }
      ],
      "certificateStartDate": "2025-09-09",
      "certificateEndDate": "2026-03-09",
      "object": "ARQUITECTOS TÉCNICOS Y APAREJADORES.",
      "mainEntityOfPage": "https://www.contratacion.euskadi.eus/webkpe00-kperoc/es/ac71aBusquedaRegistrosWar/empresa/09048",
      "_links": {
        "self": {
          "name": "NEREA RUT GÓMEZ ARAMBARRI",
          "href": "https://api.euskadi.eus/procurements/companies/09048"
        }
      }
    },
    {
      "name": "MAIDER GARITAONAINDIA GUERRICAGOITIA",
      "registrationNumber": "09826",
      "identificationNumber": "78896062J",
      "address": "BARRIO SANTA MARIA 2, 2º C ",
      "location": {
        "postalCode": "48190",
        "municipality": "Sopuerta",
        "county": "Bizkaia",
        "municipalityId": "086",
        "countyId": "48"
      },
      "economicActivities": [
        {
          "id": "1.673.2",
          "name": "Otros cafés y bares",
          "_links": {
            "self": {
              "name": "Otros cafés y bares",
              "href": "https://api.euskadi.eus/procurements/companies/economic-activities/1.673.2"
            }
          }
        }
      ],
      "certificateStartDate": "2025-09-09",
      "certificateEndDate": "2026-02-27",
      "object": "OTROS CAFÉS Y BARES.",
      "mainEntityOfPage": "https://www.contratacion.euskadi.eus/webkpe00-kperoc/es/ac71aBusquedaRegistrosWar/empresa/09826",
      "_links": {
        "self": {
          "name": "MAIDER GARITAONAINDIA GUERRICAGOITIA",
          "href": "https://api.euskadi.eus/procurements/companies/09826"
        }
      }
    },
    {
      "name": "HEZI ZERB, S.L.",
      "registrationNumber": "10322",
      "identificationNumber": "B75097436",
      "address": "P Zubiaurre 30, bajo 1.",
      "location": {
        "postalCode": "20013",
        "municipality": "Donostia / San Sebastián",
        "county": "Gipuzkoa",
        "municipalityId": "069",
        "countyId": "20"
      },
      "economicActivities": [
        {
          "id": "1.952",
          "name": "Asistencia y servicios sociales en centros no residenciales",
          "_links": {
            "self": {
              "name": "Asistencia y servicios sociales en centros no residenciales",
              "href": "https://api.euskadi.eus/procurements/companies/economic-activities/1.952"
            }
          }
        }
      ],
      "certificateStartDate": "2025-09-09",
      "certificateEndDate": "2026-03-09",
      "object": "- PARTICIPAR EN ACTIVIDADES PARA LA PROTECCIÓN DE LA INFANCIA Y LA JUVENTUD. - PARTICIPAR EN LA ASISTENCIA DE LAS PERSONAS NECESITADAS (NIÑOS, MAYORES, MINORÍAS ÉTNICAS, REFUGIADOS, TRANSEÚNTES, PERSONAS CON CARGAS FAMILIARES NO COMPARTIDAS, EXRECLUSOS, AA.AA.,...) SEGÚN SE RECOGE EN EL ART. 20 N.º 1 APARTADO 8 DEL DECRETO FORAL 102/1992 DE 29 DE DICIEMBRE, POR EL QUE SE ADAPTA LA NORMATIVA FISCAL DEL TERRITORIO HISTÓRICO DE GIPUZKOA A LA LEY 37/92 DE 28 DE DICIEMBRE. - LLEVAR A CABO PROGRAMAS Y/O ACTIVIDADES QUE PROPICIEN LA ACCIÓN SOCIAL, COMUNITARIA Y FAMILIAR. - LLEVAR A CABO PROGRAMAS Y/O ACTIVIDADES DE REINSERCIÓN SOCIAL Y PREVENCIÓN DE LA DELINCUENCIA. - LLEVAR A CABO PROGRAMAS Y/O ACTIVIDADES DE REINSERCIÓN SOCIAL, COMUNITARIA Y FAMILIAR. - CUANTOS PROGRAMAS Y ACTIVIDADES SE DERIVEN DEL ART. 20 N.º 1 APARTADO 8 DEL CITADO DECRETO FORAL 102/92.",
      "mainEntityOfPage": "https://www.contratacion.euskadi.eus/webkpe00-kperoc/es/ac71aBusquedaRegistrosWar/empresa/10322",
      "_links": {
        "self": {
          "name": "HEZI ZERB, S.L.",
          "href": "https://api.euskadi.eus/procurements/companies/10322"
        }
      }
    },
    {
      "name": "EKOMODO SUSTAINABLE COMPANY, S.L.",
      "registrationNumber": "10097",
      "identificationNumber": "B75230383",
      "address": "Mundaiz 50, 1",
      "location": {
        "postalCode": "20012",
        "municipality": "Donostia / San Sebastián",
        "county": "Gipuzkoa",
        "municipalityId": "069",
        "countyId": "20"
      },
      "economicActivities": [
        {
          "id": "1.455.9",
          "name": "Confección de otros artículos con materias textiles n.c.o.p",
          "_links": {
            "self": {
              "name": "Confección de otros artículos con materias textiles n.c.o.p",
              "href": "https://api.euskadi.eus/procurements/companies/economic-activities/1.455.9"
            }
          }
        },
        {
          "id": "1.847",
          "name": "Servicios de consultoría",
          "_links": {
            "self": {
              "name": "Servicios de consultoría",
              "href": "https://api.euskadi.eus/procurements/companies/economic-activities/1.847"
            }
          }
        }
      ],
      "certificateStartDate": "2025-09-09",
      "certificateEndDate": "2026-03-05",
      "object": "1.- EL DISEÑO, FABRICACIÓN, IMPORTACIÓN, EXPORTACIÓN, LA INTERMEDIACIÓN, EL COMERCIO AL POR MAYOR Y POR MENOR DE ARTÍCULOS Y MATERIALES RELACIONADOS CON LA SOSTENIBILIDAD, EL RECICLAJE, LA ECONOMÍA CIRCULAR Y LA MEJORA DEL MEDIOAMBIENTE. 2.- EL DESARROLLO DE PROYECTOS DE CONSULTORÍA EN MATERIA DE LA SOSTENIBILIDAD, EL MEDIOAMBIENTE, EL RECICLAJE Y LA ECONOMÍA CIRCULAR ASÍ COMO LOS SERVICIOS DE INFORMACIÓN, COMUNICACIÓN, FORMACIÓN, REALIZACIÓN DE ESTUDIOS Y CUANTOS TRABAJOS SEAN NECESARIOS EN ESTA MATERIA.",
      "mainEntityOfPage": "https://www.contratacion.euskadi.eus/webkpe00-kperoc/es/ac71aBusquedaRegistrosWar/empresa/10097",
      "_links": {
        "self": {
          "name": "EKOMODO SUSTAINABLE COMPANY, S.L.",
          "href": "https://api.euskadi.eus/procurements/companies/10097"
        }
      }
    },
    {
      "name": "ALSE TECNOLOGIA, S.L.",
      "registrationNumber": "05918",
      "identificationNumber": "B95615258",
      "address": "C/FONTECHA Y SALAZAR, Nº9 - 2º",
      "location": {
        "postalCode": "48007",
        "municipality": "Bilbao",
        "county": "Bizkaia",
        "municipalityId": "020",
        "countyId": "48"
      },
      "economicActivities": [
        {
          "id": "1.504.11",
          "name": "Instalaciones eléctricas en general, redes telegráficas, telefonía, tv, etc",
          "_links": {
            "self": {
              "name": "Instalaciones eléctricas en general, redes telegráficas, telefonía, tv, etc",
              "href": "https://api.euskadi.eus/procurements/companies/economic-activities/1.504.11"
            }
          }
        }
      ],
      "certificateStartDate": "2025-09-09",
      "certificateEndDate": "2026-03-08",
      "classification": [
        {
          "id": "S",
          "name": "Servicios",
          "groups": [
            {
              "id": "P",
              "subgroups": [
                {
                  "id": "05",
                  "name": "Mtto. y reparación de equipos e instalaciones de de seguridad y contra incendios",
                  "categories": [
                    {
                      "id": "4",
                      "name": "Desde 600.001 Hasta 1.1200.000",
                      "_links": {
                        "self": {
                          "name": "Desde 600.001 Hasta 1.1200.000",
                          "href": "https://api.euskadi.eus/procurements/companies/types/S/categories/4"
                        }
                      }
                    }
                  ],
                  "_links": {
                    "self": {
                      "name": "Mtto. y reparación de equipos e instalaciones de de seguridad y contra incendios",
                      "href": "https://api.euskadi.eus/procurements/companies/types/S/groups/P/subgroups/05"
                    }
                  }
                }
              ],
              "_links": {
                "self": {
                  "href": "https://api.euskadi.eus/procurements/companies/types/S/groups/P"
                }
              }
            }
          ],
          "_links": {
            "self": {
              "name": "Servicios",
              "href": "https://api.euskadi.eus/procurements/companies/types/S"
            }
          }
        }
      ],
      "object": "LA INSTALACIÓN Y MANTENIMIENTO DE APARATOS, DISPOSITIVOS Y SISTEMAS DE SEGURIDAD CONECTADOS A CENTRALES DE ALARMA.",
      "mainEntityOfPage": "https://www.contratacion.euskadi.eus/webkpe00-kperoc/es/ac71aBusquedaRegistrosWar/empresa/05918",
      "_links": {
        "self": {
          "name": "ALSE TECNOLOGIA, S.L.",
          "href": "https://api.euskadi.eus/procurements/companies/05918"
        }
      }
    },
    {
      "name": "LA CAJA GRIS, S.L.",
      "registrationNumber": "06799",
      "identificationNumber": "B01446780",
      "address": "C/ MIRANDA DE EBRO 1 BAJO",
      "location": {
        "postalCode": "01003",
        "municipality": "Vitoria-Gasteiz",
        "county": "Araba/Álava",
        "municipalityId": "059",
        "countyId": "01"
      },
      "economicActivities": [
        {
          "id": "1.843.9",
          "name": "Otros servicios técnicos n.c.o.p",
          "_links": {
            "self": {
              "name": "Otros servicios técnicos n.c.o.p",
              "href": "https://api.euskadi.eus/procurements/companies/economic-activities/1.843.9"
            }
          }
        },
        {
          "id": "1.973.1",
          "name": "Servicios fotográficos",
          "_links": {
            "self": {
              "name": "Servicios fotográficos",
              "href": "https://api.euskadi.eus/procurements/companies/economic-activities/1.973.1"
            }
          }
        }
      ],
      "certificateStartDate": "2025-09-09",
      "certificateEndDate": "2026-03-08",
      "object": "LA PRESTACIÓN DE RETRATOS FOTOGRÁFICOS, LA PRODUCCIÓN DE FOTOGRAFÍAS COMERCIALES, LOS SERVICIOS DE FOTOGRAFÍA TÉCNICA; LOS SERVICIOS DE REVELADO, IMPRESIÓN Y AMPLIACIÓN DE FOTOGRAFÍAS, ASÍ COMO LOS SERVICIOS COMBINADOS DE VÍDEO Y FOTOGRAFÍA. RECEPCIÓN DE CARRETES FOTOGRÁFICOS Y POSTERIOR ENTREGA DE LAS CORRESPONDIENTES FOTOGRAFÍAS REVELADAS POR UN LABORATORIO AJENO.",
      "mainEntityOfPage": "https://www.contratacion.euskadi.eus/webkpe00-kperoc/es/ac71aBusquedaRegistrosWar/empresa/06799",
      "_links": {
        "self": {
          "name": "LA CAJA GRIS, S.L.",
          "href": "https://api.euskadi.eus/procurements/companies/06799"
        }
      }
    },
    {
      "name": "EFINER SERVICIOS ENERGETICOS, S.L.",
      "registrationNumber": "10321",
      "identificationNumber": "B20990404",
      "address": "paseo de Larratxo 94-15D",
      "location": {
        "postalCode": "20017",
        "municipality": "Donostia / San Sebastián",
        "county": "Gipuzkoa",
        "municipalityId": "069",
        "countyId": "20"
      },
      "economicActivities": [
        {
          "id": "1.843.9",
          "name": "Otros servicios técnicos n.c.o.p",
          "_links": {
            "self": {
              "name": "Otros servicios técnicos n.c.o.p",
              "href": "https://api.euskadi.eus/procurements/companies/economic-activities/1.843.9"
            }
          }
        }
      ],
      "certificateStartDate": "2025-09-09",
      "certificateEndDate": "2026-03-09",
      "object": "A) LA GESTIÓN ENERGÉTICA EN EDIFICIOS PÚBLICOS, PRIVADOS Y DE CUALQUIER OTRA ÍNDOLE, GESTIÓN DE FRIO, CALOR, CLIMATIZACIÓN, ELECTRICIDAD O CUALQUIER OTRA FUENTE DE ENERGÍA, RENOVABLE O SISTEMAS DE COGENERACIÓN, B) EXPLOTACIÓN DE PLANTAS Y EQUIPOS DE PRODUCCIÓN TÉRMICA Y FRIGORÍFICA INCLUYENDO LA REALIZACIÓN DE EXPORTACIÓN DE ENERGÍA A LA RED GENERAL PÚBLICA YA SEA DE CALOR; FRÍO O ELECTRICIDAD, C) GESTIÓN DE CONSUMOS ENERGÉTICOS INDIVIDUALIZADOS Y REALIZACIÓN DE RECIBOS DE CONSUMO DE ENERGÍA TÉRMICA, FRIGORÍFICA O ELÉCTRICA. D) ASESORAMIENTO Y REALIZACIÓN DE ESTUDIOS DE VIABILIDAD PARA LA IMPLANTACIÓN DE SISTEMAS DE DISTRIBUCIÓN TÉRMICA CENTRALIZADA, AUDITORIAS ENERGÉTICAS, TRAMITACIÓN DE SUBVENCIONES Y CONSULTORÍA ENERGÉTICA E INTERMEDIACIÓN ENERGÉTICA, ESTO ES, LA PROMOCIÓN Y, INSTALACIÓN DE EQUIPOS DE COGENERACIÓN ENERGÉTICA POR CUENTA PROPIA Y DISTRIBUCIÓN DE EQUIPOS, ASÍ COMO EL MANTENIMIENTO DE LOS MISMOS, DISPUESTOS PARA LA PRODUCCIÓN DE ENERGÍA, E) LA COMPRA Y VENTA DE EQUIPOS DE COGENERACIÓN ENERGÉTICA O DE CUALQUIER OTRA CLASE DE ENERGÍA.",
      "mainEntityOfPage": "https://www.contratacion.euskadi.eus/webkpe00-kperoc/es/ac71aBusquedaRegistrosWar/empresa/10321",
      "_links": {
        "self": {
          "name": "EFINER SERVICIOS ENERGETICOS, S.L.",
          "href": "https://api.euskadi.eus/procurements/companies/10321"
        }
      }
    },
    {
      "name": "MURBIDECOR URBANO S.L.",
      "registrationNumber": "06164",
      "identificationNumber": "B95367280",
      "address": "Ribera de Axpe Etorbidea, número 11, Edificio D, pabellón D005",
      "location": {
        "postalCode": "48950",
        "municipality": "Erandio",
        "county": "Bizkaia",
        "municipalityId": "902",
        "countyId": "48"
      },
      "economicActivities": [
        {
          "id": "1.501.1",
          "name": "Construcción completa, reparación y conservación de edificaciones",
          "_links": {
            "self": {
              "name": "Construcción completa, reparación y conservación de edificaciones",
              "href": "https://api.euskadi.eus/procurements/companies/economic-activities/1.501.1"
            }
          }
        },
        {
          "id": "1.614.1",
          "name": "Venta al por mayor de productos farmacéuticos y medicamentos",
          "_links": {
            "self": {
              "name": "Venta al por mayor de productos farmacéuticos y medicamentos",
              "href": "https://api.euskadi.eus/procurements/companies/economic-activities/1.614.1"
            }
          }
        },
        {
          "id": "1.614.2",
          "name": "Venta al por mayor de productos de perfumería, droguería, higiene y belleza",
          "_links": {
            "self": {
              "name": "Venta al por mayor de productos de perfumería, droguería, higiene y belleza",
              "href": "https://api.euskadi.eus/procurements/companies/economic-activities/1.614.2"
            }
          }
        },
        {
          "id": "1.653.3",
          "name": "Venta al por menor de artículos de menaje, ferretería, adorno, regalo",
          "_links": {
            "self": {
              "name": "Venta al por menor de artículos de menaje, ferretería, adorno, regalo",
              "href": "https://api.euskadi.eus/procurements/companies/economic-activities/1.653.3"
            }
          }
        },
        {
          "id": "1.659.6",
          "name": "Venta al por menor de juguetes, artículos de deporte",
          "_links": {
            "self": {
              "name": "Venta al por menor de juguetes, artículos de deporte",
              "href": "https://api.euskadi.eus/procurements/companies/economic-activities/1.659.6"
            }
          }
        }
      ],
      "certificateStartDate": "2025-09-09",
      "certificateEndDate": "2026-03-08",
      "object": "LA COMPRAVENTA AL POR MAYOR Y MENOR, LA REPARACIÓN, INSTALACIÓN Y MONTAJE DE MOBILIARIO DE PARQUES Y JARDINES E INDUSTRIAL URBANO; LA EDIFICACIÓN DE VIVIENDAS, PROMOCIÓN DE TERRENOS, SOLARES Y LA COMPRAVENTA DE SUELO URBANO",
      "mainEntityOfPage": "https://www.contratacion.euskadi.eus/webkpe00-kperoc/es/ac71aBusquedaRegistrosWar/empresa/06164",
      "_links": {
        "self": {
          "name": "MURBIDECOR URBANO S.L.",
          "href": "https://api.euskadi.eus/procurements/companies/06164"
        }
      }
    }
  ]
}