{
  "totalItems": 9042,
  "totalPages": 905,
  "currentPage": 817,
  "itemsOfPage": 10,
  "items": [
    {
      "name": "COMPAÑÍA INTERNACIONAL DE PLANTAS PAPELERAS, S.A.",
      "registrationNumber": "00752",
      "identificationNumber": "A48094866",
      "address": "C/ AMANN, Nº 2",
      "location": {
        "postalCode": "48990",
        "municipality": "Getxo",
        "county": "Bizkaia",
        "municipalityId": "044",
        "countyId": "48"
      },
      "economicActivities": [
        {
          "id": "1.843.1",
          "name": "Servicios técnicos de ingeniería",
          "_links": {
            "self": {
              "name": "Servicios técnicos de ingeniería",
              "href": "https://api.euskadi.eus/procurements/companies/economic-activities/1.843.1"
            }
          }
        },
        {
          "id": "1.847",
          "name": "Servicios de consultoría",
          "_links": {
            "self": {
              "name": "Servicios de consultoría",
              "href": "https://api.euskadi.eus/procurements/companies/economic-activities/1.847"
            }
          }
        }
      ],
      "certificateStartDate": "2001-02-02",
      "certificateEndDate": "2001-07-26",
      "object": "LA PROMOCIÓN, ESTUDIOS DE PROYECTOS, REALIZACIÓN DE INGENIERÍA BÁSICA Y DETALLE, DISEÑO Y CONSTRUCCIÓN DE MAQUINARIA, EJECUCIÓN DE OBRAS, PUESTA EN MARCHA Y FORMACIÓN DE PERSONAL, DE PLANTAS INDUSTRIALES EN GENERAL Y EN ESPECIAL LAS ACTIVIDADES QUE CONTEMPLEN LOS PROCESOS DE REPOBLACIÓN Y EXPLOTACIÓN FORESTAL, LA PRODUCCIÓN DE PASTAS PAPELERAS, CARTONES Y DERIVADOS DE LAS PASTAS, ASÍ COMO SU TRANSFORMACIÓN POSTERIOR, INCLUSO DE LA PROPIA MADERA; ASIMISMO LA DIRECCIÓN, ORGANIZACIÓN Y CONTROL DE TODA CLASE DE OBRAS Y CONSTRUCCIONES Y ESPECIALMENTE CUALQUIER ACTIVIDAD RELACIONADA CON LA INGENIERÍA TOPOGRÁFICA",
      "mainEntityOfPage": "https://www.contratacion.euskadi.eus/webkpe00-kperoc/es/ac71aBusquedaRegistrosWar/empresa/00752",
      "_links": {
        "self": {
          "name": "COMPAÑÍA INTERNACIONAL DE PLANTAS PAPELERAS, S.A.",
          "href": "https://api.euskadi.eus/procurements/companies/00752"
        }
      }
    },
    {
      "name": "INFORMACIÓN DE TERRITORIO Y SISTEMAS, S.L.",
      "registrationNumber": "02129",
      "identificationNumber": "B48785869",
      "address": "C/ AMANN, Nº 2.",
      "location": {
        "postalCode": "48990",
        "municipality": "Getxo",
        "county": "Bizkaia",
        "municipalityId": "044",
        "countyId": "48"
      },
      "economicActivities": [
        {
          "id": "1.843.1",
          "name": "Servicios técnicos de ingeniería",
          "_links": {
            "self": {
              "name": "Servicios técnicos de ingeniería",
              "href": "https://api.euskadi.eus/procurements/companies/economic-activities/1.843.1"
            }
          }
        },
        {
          "id": "1.845",
          "name": "Explotación electrónica por cuenta de terceros",
          "_links": {
            "self": {
              "name": "Explotación electrónica por cuenta de terceros",
              "href": "https://api.euskadi.eus/procurements/companies/economic-activities/1.845"
            }
          }
        },
        {
          "id": "1.847",
          "name": "Servicios de consultoría",
          "_links": {
            "self": {
              "name": "Servicios de consultoría",
              "href": "https://api.euskadi.eus/procurements/companies/economic-activities/1.847"
            }
          }
        }
      ],
      "certificateStartDate": "2001-02-01",
      "certificateEndDate": "2001-07-26",
      "object": "\r\n\r\n- LA PRESTACIÓN DE SERVICIOS DE INGENIERÍA Y CONSULTORÍA PARA TODA CLASE DE ACTIVIDADES RELACIONADAS CON LA EXPLOTACIÓN DE RECURSOS NATURALES, LA INDUSTRIA O LOS SERVICIOS.\r\n\r\n- EL ASESORAMIENTO Y LA GESTIÓN PARA LA IMPLANTACIÓN DE ACTIVIDADES INDUSTRIALES, COMERCIALES, O DE SERVICIOS, ASÍ COMO DE SISTEMAS DE CALIDAD.\r\n\r\n- LA REALIZACIÓN DE LEVANTAMIENTOS, ESTUDIOS, INFORMES, CÁLCULOS, PROYECTOS, PRESUPUESTOS, REPLANTEOS, PRESTACIÓN DE SERVICIOS TÉCNICO-ADMINISTRATIVOS PARA LLEVAR LA DIRECCIÓN, ORGANIZACIÓN Y CONTROL DE TODA CLASE DE OBRAS Y CONSTRUCCIONES Y CUALQUIER OTRA ACTIVIDAD DE INGENIERÍA EN GENERAL Y ESPECIALMENTE DE INGENIERÍA TOPOGRÁFICA Y FOTOGRAMETRÍA, INCLUYÉNDOSE TAMBIÉN CUANTAS ACTIVIDADES SE RELACIONEN CON LA FINALIDAD EXPRESADA. ASÍ MISMO, TRABAJOS CATASTRALES EN TODA SU EXTENSIÓN, INCLUYENDO VALORACIONES Y NOTIFICACIONES Y SERVICIOS Y DESARROLLOS INFORMÁTICOS.\r\n\r\n- LA VENTA DE EQUIPOS, APLICACIÓN DE SISTEMAS Y FORMACIÓN DE PERSONAL EN LAS ÁREAS DE MANTENIMIENTO INDUSTRIAL",
      "mainEntityOfPage": "https://www.contratacion.euskadi.eus/webkpe00-kperoc/es/ac71aBusquedaRegistrosWar/empresa/02129",
      "_links": {
        "self": {
          "name": "INFORMACIÓN DE TERRITORIO Y SISTEMAS, S.L.",
          "href": "https://api.euskadi.eus/procurements/companies/02129"
        }
      }
    },
    {
      "name": "GAU INGENIEROS, S.A.",
      "registrationNumber": "02303",
      "identificationNumber": "A20678108",
      "address": "PLAZA GIPUZKOA, 11-3º DCHA.",
      "location": {
        "postalCode": "20000",
        "municipality": "Donostia / San Sebastián",
        "county": "Gipuzkoa",
        "municipalityId": "069",
        "countyId": "20"
      },
      "economicActivities": [
        {
          "id": "1.843.1",
          "name": "Servicios técnicos de ingeniería",
          "_links": {
            "self": {
              "name": "Servicios técnicos de ingeniería",
              "href": "https://api.euskadi.eus/procurements/companies/economic-activities/1.843.1"
            }
          }
        }
      ],
      "certificateStartDate": "2001-01-26",
      "certificateEndDate": "2001-07-24",
      "object": "LA EXPLOTACIÓN DE UN NEGOCIO DEDICADO A: A) LA CONFECCIÓN Y REDACCIÓN DE ESTUDIOS, PROYECTOS Y SERVICIOS DE INGENIERÍA, ARQUITECTURA Y DISEÑO DE BIENES MUEBLES, ASÍ COMO EL DISEÑO Y DECORACIÓN DE INTERIORES; B) LA EJECUCIÓN DE OBRAS PÚBLICAS Y DE CONSTRUCCIÓN DE TODA CLASE DE EDIFICIOS U OBRAS, YA SEAN PARA LA PROPIA SOCIEDAD O POR ENCARGO O CONTRATO CON TERCERAS PERSONAS, INCLUSO ORGANISMOS OFICIALES, TANTO EN LO REFERENTE A OBRAS NUEVAS COMO DE REFORMA; C) COMPRAVENTA, ARRENDAMIENTO Y EXPLOTACIÓN DE SOLARES Y TERRENOS DE TODAS CLASES, EDIFICIOS, INMUEBLES EN GENERAL, BIEN EN EDIFICACIÓN O DE PROTECCIÓN OFICIAL, PARA ENAJENAR POR BLOQUES COMPLETOS O POR PISOS Y LOCALES; D) EXPLOTACIÓN DE FORMA DIRECTA O INDIRECTA DE LOS INMUEBLES EXPRESADOS ANTERIORMENTE, INCLUSO TOMANDO O DANDO EN ARRIENDO O EN CUALQUIER OTRA FORMA; E) EXPLOTACIÓN, ADQUISICIÓN Y ENAJENACIÓN POR CUALQUIER TÍTULO DE LICENCIAS, PERMISOS, MARCAS, PATENTES Y EXCLUSIVAS NACIONALES Y EXTRANJERAS, ASÍ COMO LA REPRESENTACIÓN DE EMPRESAS NACIONALES Y EXTRANJERAS; F) EL DESARROLLO DE APLICACIONES INFORMÁTICAS ",
      "mainEntityOfPage": "https://www.contratacion.euskadi.eus/webkpe00-kperoc/es/ac71aBusquedaRegistrosWar/empresa/02303",
      "_links": {
        "self": {
          "name": "GAU INGENIEROS, S.A.",
          "href": "https://api.euskadi.eus/procurements/companies/02303"
        }
      }
    },
    {
      "name": "COMPAÑÍA AUXILIAR DE VOLADURAS, S.A. (CAVOSA)",
      "registrationNumber": "01755",
      "identificationNumber": "A28178481",
      "address": "C/ AYALA, Nº 10.",
      "location": {
        "postalCode": "28001",
        "municipality": "Madrid",
        "county": "Madrid",
        "municipalityId": "079",
        "countyId": "28"
      },
      "economicActivities": [
        {
          "id": "1.501.2",
          "name": "Construcción completa, reparación y conservación obras civiles",
          "_links": {
            "self": {
              "name": "Construcción completa, reparación y conservación obras civiles",
              "href": "https://api.euskadi.eus/procurements/companies/economic-activities/1.501.2"
            }
          }
        },
        {
          "id": "1.502.1",
          "name": "Demoliciones y derribos en general",
          "_links": {
            "self": {
              "name": "Demoliciones y derribos en general",
              "href": "https://api.euskadi.eus/procurements/companies/economic-activities/1.502.1"
            }
          }
        }
      ],
      "certificateStartDate": "2001-01-25",
      "certificateEndDate": "2001-06-01",
      "object": "\r\na) LA REALIZACIÓN DE TRABAJOS DE PERFORACIÓN Y VOLADURA, DEMOLICIÓN DE EDIFICACIONES, EXCAVACIÓN, CONSOLIDACIÓN, SOSTENIMIENTO Y RESTAURACIÓN DE TERRENOS, ASÍ COMO LA REALIZACIÓN DE OBRAS SUBTERRÁNEAS, TANTO EN EL ÁMBITO DE LA MINERÍA COMO DE LA OBRA PÚBLICA.\r\nb) LA EXPLORACIÓN, INVESTIGACIÓN, EXPLOTACIÓN, COMERCIALIZACIÓN Y VENTA DE TODA CLASE DE RECURSOS MINERALES.\r\nc) LA ADQUISICIÓN, COMPRA, ENAJENACIÓN, INVERSIÓN, TENENCIA, DISFRUTE, ADMINISTRACIÓN, GESTIÓN, NEGOCIACIÓN Y ARRENDAMIENTO DE BIENES INMUEBLES.\r\nd) LA ADQUISICIÓN, COMPRA, ENAJENACIÓN, INVERSIÓN, TENENCIA, DISFRUTE, ADMINISTRACIÓN, GESTIÓN Y NEGOCIACIÓN DE SOCIEDADES, DE VALORES MOBILIARIOS, DE PATENTES, DE MARCAS, DE REGISTROS, DE CONCESIONES Y DE PARTICIPACIONES SOCIALES.\r\ne) LA EJECUCIÓN Y MANTENIMIENTO DE INSTALACIONES ELÉCTRICAS EN GENERAL, EN ALTA, BAJA Y MEDIA TENSIÓN, INSTALACIONES, INSTALACIONES DE TELECOMUNICACIÓN, INSTALACIONES ELECTRÓNICAS E INSTALACIONES DE SISTEMAS DE SEÑALIZACIÓN Y BALIZAMIENTO DE PUERTOS, AEROPUERTOS Y CARRETERAS, INSTALACIONES DE SEGURIDAD Y CONTRA INCENDIOS.\r\nf) LA EJECUCIÓN Y MANTENIMIENTO DE INSTALACIONES MECÁNICAS EN GENERAL, INSTALACIONES DE FONTANERÍA, INSTALACIONES FRIGORÍFICAS, INSTALACIONES DE CALEFACCIÓN, VENTILACIÓN, Y CLIMATIZACIÓN, INSTALACIONES ELEVADORAS Y TRANSPORTADORAS, E INSTALACIONES DE TRATAMIENTO DE AGUAS DE TODO TIPO.\r\ng) LA CONSTRUCCIÓN COMPLETA, REPARACIÓN Y CONSERVACIÓN DE EDIFICACIONES Y OBRAS CIVILES.\r\nh) LA CONTRATACIÓN DE OBRAS Y SERVICIOS CON CUALQUIER ORGANISMO DE LAS ADMINISTRACIONES PÚBLICAS Y CON TODA CLASE DE ENTIDADES Y PARTICULARES.\r\ni) LA CONFECCIÓN Y REDACCIÓN DE PROYECTOS TÉCNICOS DE TODO TIPO, DIRECCIÓN DE OBRA Y CONTROL DE CALIDAD, REALIZACIÓN DE ESTUDIOS E INFORMES Y ASESORAMIENTO TÉCNICO, TODO ELLO A TRAVÉS DE LOS CORRESPONDIENTES PROFESIONALES CON TITULACIÓN SUFICIENTE Y ADECUADA",
      "mainEntityOfPage": "https://www.contratacion.euskadi.eus/webkpe00-kperoc/es/ac71aBusquedaRegistrosWar/empresa/01755",
      "_links": {
        "self": {
          "name": "COMPAÑÍA AUXILIAR DE VOLADURAS, S.A. (CAVOSA)",
          "href": "https://api.euskadi.eus/procurements/companies/01755"
        }
      }
    },
    {
      "name": "COMERCIAL DISPOTEX, S.A.",
      "registrationNumber": "01462",
      "identificationNumber": "A29025988",
      "address": "C/ ROSA DE LOS VIENTOS, Nº 56.",
      "location": {
        "postalCode": "29006",
        "municipality": "Málaga",
        "county": "Málaga",
        "municipalityId": "067",
        "countyId": "29"
      },
      "economicActivities": [
        {
          "id": "1.453",
          "name": "Confección en serie de toda clase de prendas de vestir",
          "_links": {
            "self": {
              "name": "Confección en serie de toda clase de prendas de vestir",
              "href": "https://api.euskadi.eus/procurements/companies/economic-activities/1.453"
            }
          }
        }
      ],
      "certificateStartDate": "2001-01-22",
      "certificateEndDate": "2001-05-21",
      "object": "LA FABRICACIÓN, EXPLOTACIÓN, REPRESENTACIÓN Y COMERCIALIZACIÓN DE TEJIDOS E HILATURAS, LANAS Y SUS MEZCLAS, SEDAS Y FIBRAS ARTIFICIALES Y SINTÉTICAS, CONTINUAS, DISCONTINUAS O DE RECUPERACIÓN, CUALQUIERA QUE SEA LA FIBRA PREDOMINANTE Y LA PROPORCIÓN DE SUS MEZCLAS, CON INCLUSIÓN DE LAS FASES PREPARATORIAS DEL PROCESO DE FABRICACIÓN TEXTIL, COMO LAVADO, PEINADO, ACABADO, TEÑIDO, ESTAMPADO. LA FABRICACIÓN, EXPLOTACIÓN, REPRESENTACIÓN Y COMERCIALIZACIÓN DE ARTÍCULOS DE CONFECCIÓN, CALCETERÍA, CAMISERÍA Y LOS COMPRENDIDOS EN LA INDUSTRIA DEL VESTIDO, PRODUCIDOS CON LOS TEJIDOS, HILATURAS Y FIBRAS ANTES CITADOS. LA CONSTRUCCIÓN, COMPRA, ENAJENACIÓN Y EXPLOTACIÓN DE PLANTAS DE PRODUCCIÓN ELÉCTRICA, REDES DE DISTRIBUCIÓN Y TRANSPORTE E INSTALACIONES ESENCIALES, AUXILIARES O COMPLEMENTARIAS PRECISAS, DE ACUERDO CON LA FUERZA MOTRIZ UTILIZADA EN CADA CASO. LA COMPRA, VENTA, ADMINISTRACIÓN, ARRIENDO, EXPLOTACIÓN Y FINANCIACIÓN DE SOLARES, INSTALACIONES TURÍSTICAS, CONSTRUCCIONES, EDIFICACIONES, OBRAS Y VIVIENDAS, SUBVENCIONADAS Y ACOGIDAS O NO AL RÉGIMEN DE PROTECCIÓN OFICIAL; Y DE EXPLOTACIONES INDUSTRIALES, MINERAS, MERCANTILES, AGRÍCOLAS, PESQUERAS, PECUARIAS Y FORESTALES. LA CONSTRUCCIÓN, ADQUISICIÓN, ENAJENACIÓN, ARRIENDO, EXPLOTACIÓN Y FINANCIACIÓN DE MEDIOS DE TRANSPORTES MARÍTIMOS, AÉREOS Y TERRESTRES. LA COMPRA, TENENCIA, ENAJENACIÓN Y EXPLOTACIÓN,-INCLUSO EN EXCLUSIVA POR O A FAVOR DE LA SOCIEDAD-, DE TÍTULOS, VALORES, ACCIONES, BONOS, OBLIGACIONES, PATENTES, LICENCIAS, MARCAS, MODELOS, RÓTULOS, NOMBRES COMERCIALES Y PERTENENCIAS DE PROPIEDAD INDUSTRIAL E INTELECTUAL Y DE BIENES MUEBLES, TANTO ESPAÑOLES COMO EXTRANJEROS. LA COMPRA, VENTA, IMPORTACIÓN, EXPORTACIÓN, REPRESENTACIÓN, DISTRIBUCIÓN Y EXPLOTACIÓN DE PRODUCTOS DE PRIMERAS MATERIAS, PRODUCTOS ELABORADOS Y SEMIELABORADOS, ARTÍCULOS, BIENES, MERCADERÍAS, EQUIPOS INDUSTRIALES, MAQUINARIA, HERRAMIENTAS, UTILLAJES, REPUESTOS Y ACCESORIOS; ALIMENTOS DE CONSUMO HUMANO Y ANIMAL; PATENTES, LICENCIAS, SISTEMAS Y MARCAS. LA PROMOCIÓN, PARTICIPACIÓN, CREACIÓN, INTEGRACIÓN, FUSIÓN, ABSORCIÓN, CONCENTRACIÓN, AMPLIACIÓN, MODERNIZACIÓN, DESARROLLO, FINANCIACIÓN Y EXPLOTACIÓN DE NEGOCIOS, ACTIVIDADES Y EMPRESAS FINANCIERAS, INDUSTRIALES, MINERAS, ELÉCTRICAS, DE TRANSPORTE, INMOBILIARIAS, MERCANTILES, TURÍSTICAS Y DE SERVICIOS. LA FINANCIACIÓN DE VENTAS A PLAZOS DE BIENES, EL DESARROLLO Y EXPLOTACIÓN DE SISTEMAS DE ARRENDAMIENTO CON OPCIÓN DE COMPRA O \"LEASING\". EL ASESORAMIENTO, ASISTENCIA TÉCNICA Y FINANCIERA Y REPRESENTACIÓN DE EMPRESAS O FIRMAS INDUSTRIALES, COMERCIALES, DE SERVICIOS, FINANCIERAS, DE INGENIERÍA, DE ARQUITECTURA Y DE ORGANIZACIÓN, TANTO ESPAÑOLAS COMO EXTRANJERAS, Y LA PRESTACIÓN Y ARRENDAMIENTO DE SERVICIOS. LA REALIZACIÓN DE PROGRAMAS DE INVERSIÓN Y SU SELECCIÓN PREVIA; DE PLANES ECONÓMICOS, PROYECTOS INDUSTRIALES Y TÉCNICOS, MEMORIAS Y PRESUPUESTOS; ESTUDIOS DE PRODUCTIVIDAD; MEJORA DE MÉTODOS, GESTIÓN Y ADMINISTRACIÓN, RENTABILIDAD Y COSTOS, PROSPECCIÓN DE MERCADOS Y FUENTES DE FINANCIACIÓN. LA PROMOCIÓN Y DESARROLLO DE FINES COLECTIVOS EMPRESARIALES Y PRESTACIÓN DE SERVICIOS DE LA MISMA ÍNDOLE, TOTAL O PARCIALMENTE, COMO INVESTIGACIÓN TECNOLÓGICA, PRODUCTIVIDAD, GESTIÓN, COMPRA DE MATERIAS PRIMAS, INVESTIGACIÓN DE MERCADOS, ESPECIALIZACIÓN DE PRODUCCIONES Y COMERCIALES DE PRODUCTOS. LA GESTIÓN POR CUENTA PROPIA O DE TERCEROS, EN ESPAÑA Y EN EL EXTRANJERO, DE CRÉDITOS, LÍNEAS DE CRÉDITOS, PRÉSTAMOS Y FINANCIACIONES, COBROS Y CORRETAJES. EL OTORGAMIENTO, CONSTITUCIÓN Y FORMALIZACIÓN DE CRÉDITOS Y PRÉSTAMOS CON O SIN GARANTÍA SOBRE BIENES MUEBLES O INMUEBLES, SOBRE EFECTOS PÚBLICOS, ACCIONES Y OBLIGACIONES, DEL ESTADO O PARTICULARES. LA FINANCIACIÓN DE OPERACIONES DE COMERCIO EXTERIOR E INTERIOR Y LA INVERSIÓN DE CAPITALES ESPAÑOLES Y EXTRANJEROS. LA GESTIÓN Y APORTACIÓN DIRECTA A EMPRESAS ESPAÑOLAS O EXTRANJERAS, POR CUENTA PROPIA O DE TERCEROS, DE CAPITALES, EQUIPOS INDUSTRIALES, ASISTENCIA TÉCNICA, PATENTES, LICENCIAS, MARCAS, SISTEMAS Y PROCESOS. LA REPRESENTACIÓN DE ENTIDADES BANCARIAS, FINANCIERAS, DE CRÉDITO, DE SEGUROS Y DE EMPRESAS Y NEGOCIOS, TANTO ESPAÑOLES COMO EXTRANJEROS. LA INVESTIGACIÓN Y EXPLOTACIÓN DE YACIMIENTOS MINEROS Y CANTERAS; LA PREPARACIÓN, TRANSFORMACIÓN E INDUSTRIALIZACIÓN DE MINERALES Y ROCAS, ASÍ COMO DE SUS DERIVADOS, RESIDUOS Y SUBPRODUCTOS. LA CONTRATACIÓN Y EJECUCIÓN DE OBRAS PÚBLICAS Y PRIVADAS",
      "mainEntityOfPage": "https://www.contratacion.euskadi.eus/webkpe00-kperoc/es/ac71aBusquedaRegistrosWar/empresa/01462",
      "_links": {
        "self": {
          "name": "COMERCIAL DISPOTEX, S.A.",
          "href": "https://api.euskadi.eus/procurements/companies/01462"
        }
      }
    },
    {
      "name": "DAT-LAN, S.L.",
      "registrationNumber": "00602",
      "identificationNumber": "B48210413",
      "address": "C/ HURTADO DE AMÉZAGA, Nº 14 - 3º DCHA.",
      "location": {
        "postalCode": "48008",
        "municipality": "Bilbao",
        "county": "Bizkaia",
        "municipalityId": "020",
        "countyId": "48"
      },
      "economicActivities": [
        {
          "id": "1.846",
          "name": "Empresas de estudios de mercado",
          "_links": {
            "self": {
              "name": "Empresas de estudios de mercado",
              "href": "https://api.euskadi.eus/procurements/companies/economic-activities/1.846"
            }
          }
        }
      ],
      "certificateStartDate": "2001-01-10",
      "certificateEndDate": "2001-06-28",
      "object": "LA REALIZACIÓN DE ESTUDIOS SOCIO-ECONÓMICOS Y CONSULTORÍA EN EL ÁMBITO DE LA ECONOMÍA Y DE LA SOCIOLOGÍA APLICADA, EN PARTICULAR",
      "mainEntityOfPage": "https://www.contratacion.euskadi.eus/webkpe00-kperoc/es/ac71aBusquedaRegistrosWar/empresa/00602",
      "_links": {
        "self": {
          "name": "DAT-LAN, S.L.",
          "href": "https://api.euskadi.eus/procurements/companies/00602"
        }
      }
    },
    {
      "name": "MANIPULADOS DEL NORTE, S.L.",
      "registrationNumber": "02295",
      "identificationNumber": "B48480404",
      "address": "POLIGONO INDUSTRIAL TORRELARRAGOITI P5/A2",
      "location": {
        "postalCode": "48170",
        "municipality": "Zamudio",
        "county": "Bizkaia",
        "municipalityId": "905",
        "countyId": "48"
      },
      "economicActivities": [
        {
          "id": "1.844",
          "name": "Servicios de publicidad, relaciones públicas y similares",
          "_links": {
            "self": {
              "name": "Servicios de publicidad, relaciones públicas y similares",
              "href": "https://api.euskadi.eus/procurements/companies/economic-activities/1.844"
            }
          }
        }
      ],
      "certificateStartDate": "2001-01-09",
      "certificateEndDate": "2001-05-16",
      "object": "EL TRATAMIENTO, PROCESO, EMBUCHADO Y REPARTO DE TODO TIPO DE PROPAGANDA Y PORSPECTOS PUBLICITARIOS ",
      "mainEntityOfPage": "https://www.contratacion.euskadi.eus/webkpe00-kperoc/es/ac71aBusquedaRegistrosWar/empresa/02295",
      "_links": {
        "self": {
          "name": "MANIPULADOS DEL NORTE, S.L.",
          "href": "https://api.euskadi.eus/procurements/companies/02295"
        }
      }
    },
    {
      "name": "PROINTEC, S.A.",
      "registrationNumber": "02201",
      "identificationNumber": "A28246122",
      "address": "C/ AVENIDA DE BURGOS, Nº 12.",
      "location": {
        "postalCode": "28036",
        "municipality": "Madrid",
        "county": "Madrid",
        "municipalityId": "079",
        "countyId": "28"
      },
      "economicActivities": [
        {
          "id": "1.843.1",
          "name": "Servicios técnicos de ingeniería",
          "_links": {
            "self": {
              "name": "Servicios técnicos de ingeniería",
              "href": "https://api.euskadi.eus/procurements/companies/economic-activities/1.843.1"
            }
          }
        }
      ],
      "certificateStartDate": "2001-01-05",
      "certificateEndDate": "2001-06-12",
      "object": "\r\n\r\n1.- LA REALIZACIÓN DE ESTUDIOS E INFORMES DE CARÁCTER TÉCNICO, SOCIOECONÓMICO Y FINANCIERO EN EL ÁMBITO DE LA INGENIERÍA Y LA ARQUITECTURA, Y, EN PARTICULAR EN LOS CAMPOS DE: OBRAS PÚBLICAS, EDIFICACIÓN, URBANISMO, ORDENACIÓN DEL TERRITORIO, MEDIO AMBIENTE, AGRICULTURA, TURISMO, ENERGÍA Y TELECOMUNICACIONES.\r\n\r\n2.- LA REALIZACIÓN DE ESTUDIOS, INFORMES Y OTROS TRABAJOS TÉCNICOS DE CARTOGRAFÍA, CATASTRO, CENSOS, INVENTARIOS, GEOLOGÍA, GEOTECNIA, HIDROLOGÍA Y MEDIO AMBIENTE.\r\n\r\n3.- LA REALIZACIÓN DE PROYECTOS, DIRECCIÓN DE OBRAS, EL CONTROL DE CALIDAD, LA PROGRAMACIÓN Y COORDINACIÓN DE ACTIVIDADES EN LOS CAMPOS REFERIDOS EN LOS PUNTOS 1 y 2.\r\n\r\n4.- EL ANÁLISIS, LOS ENSAYOS Y EL CONTROL TÉCNICO DE PROYECTOS, MATERIALES, OBRAS E INSTALACIONES.\r\n\r\n5.- LA REALIZACIÓN DE ESTUDIOS, INFORMES, PROYECTOS Y DIRECCIÓN DE ACTUACIONES EN RELACIÓN CON EL MEDIO AMBIENTE Y LA NATURALEZA, LA REVISIÓN, INSPECCIÓN Y VERIFICACIÓN MEDIOAMBIENTALES, Y EN PARTICULAR LA REALIZACIÓN DE ESTUDIOS DE IMPACTO AMBIENTAL, Y CUANTAS ACTIVIDADES DE INGENIERÍA SE RELACIONEN CON EL MEDIO AMBIENTE Y LA NATURALEZA.\r\n\r\n6.- LA REALIZACIÓN DE ESTUDIOS TERRITORIALES, DE DESARROLLO REGIONAL Y LOCAL, Y DE DESARROLLO TURÍSTICO, EN EL MEDIO RURAL Y URBANO.\r\n\r\n7.- LA CONSULTORÍA DE CALIDAD EN LOS SECTORES DE LA CONSTRUCCIÓN, DE SERVICIOS Y DE LA INDUSTRIA. LA REALIZACIÓN DE TODO TIPO DE DIAGNÓSTICOS, ANÁLISIS, ESTUDIOS, INFORMES, PROYECTOS, ACCIONES DE FORMACIÓN, IMPLANTACIÓN DE SISTEMAS DE CALIDAD, ASÍ COMO LA VALIDACIÓN Y HOMOLOGACIÓN DE PROCESOS Y PRODUCTOS.\r\n\r\n8.- LA PROMOCIÓN, GESTIÓN E INTERMEDIACIÓN DE TODA CLASE DE INSTALACIONES, OBRAS, EDIFICIOS, INFRAESTRUCTURAS, Y EN GENERAL, DE TODO TIPO DE INMUEBLES.\r\n\r\n9.- LA GESTIÓN DE CONSERVACIÓN, MANTENIMIENTO Y EXPLOTACIÓN DE INFRAESTRUCTURAS, EDIFICIOS E INSTALACIONES.\r\n\r\n10.- EL TRATAMIENTO DE LA INFORMACIÓN Y PROCESO DE DATOS, EL DESARROLLO DE SISTEMAS DE INFORMACIÓN GEOGRÁFICA Y BASES DE DATOS.\r\n\r\n11.- LA INGENIERÍA Y CONSULTORÍA DE SEGURIDAD, SEÑALIZACIÓN, FUNCIONAMIENTO Y EXPLOTACIÓN DE LAS INFRAESTRUCTURAS DEL TRANSPORTE Y DEMÁS MEDIOS DE COMUNICACIÓN, ASÍ COMO LA CONCEPCIÓN, PROYECTO, SEGUIMIENTO Y CONTROL DE LAS OBRAS, EL DESARROLLO Y LA DIFUSIÓN DE SISTEMAS DE GESTIÓN Y CONTROL DE TRÁFICO",
      "mainEntityOfPage": "https://www.contratacion.euskadi.eus/webkpe00-kperoc/es/ac71aBusquedaRegistrosWar/empresa/02201",
      "_links": {
        "self": {
          "name": "PROINTEC, S.A.",
          "href": "https://api.euskadi.eus/procurements/companies/02201"
        }
      }
    },
    {
      "name": "COPISA CONSTRUCTORA PIRENAICA, S.A.",
      "registrationNumber": "02107",
      "identificationNumber": "A28124618",
      "address": "C/ JOSEP TARRADELLAS, Nº 8 - 10.",
      "location": {
        "postalCode": "08029",
        "municipality": "Barcelona",
        "county": "Barcelona",
        "municipalityId": "019",
        "countyId": "08"
      },
      "economicActivities": [
        {
          "id": "1.507",
          "name": "Construcción, reparación y conservación de toda clase obras",
          "_links": {
            "self": {
              "name": "Construcción, reparación y conservación de toda clase obras",
              "href": "https://api.euskadi.eus/procurements/companies/economic-activities/1.507"
            }
          }
        }
      ],
      "certificateStartDate": "2000-11-29",
      "certificateEndDate": "2001-04-24",
      "object": "EL COMERCIO Y LA INDUSTRIA DE CONSTRUCCIÓN EN GENERAL DE TODA CLASE DE OBRAS PÚBLICAS Y PRIVADAS Y DE MAQUINARIA, Y EN SU CONSECUENCIA:\r\n\r\na) LA CONSTRUCCIÓN, EL MONTAJE, EL MANTENIMIENTO, LA REPARACIÓN Y DEMÁS OPERACIONES AUXILIARES O SEMEJANTES POR CUENTA PROPIA O AJENA DE TODA CLASE DE OBRAS PÚBLICAS O PRIVADAS TERRESTRES O MARÍTIMAS E INSTALACIONES INDUSTRIALES DE TODO TIPO Y DEMÁS OBRAS SIMILARES, ASÍ COMO SU COMERCIALIZACIÓN O EXPLOTACIÓN.\r\n\r\nb) LA COMERCIALIZACIÓN O EXPLOTACIÓN DE TERRENOS Y DE OTROS BIENES INMUEBLES, SIN QUE SE ENTIENDA INCLUIDO EL ARRENDAMIENTO FINANCIERO COMO ARRENDADORA.\r\n\r\nc) LA FABRICACIÓN, SUMINISTRO Y COMERCIO DE TODA CLASE DE MATERIALES O MAQUINARIA PARA LA CONSTRUCCIÓN Y OBRAS EN GENERAL.\r\n\r\nd) LA EXPLOTACIÓN DE TODA CLASE DE CONTRATAS Y CONCESIONES CUYO OBJETO SEA ALGUNA DE LAS ACTIVIDADES DESCRITAS EN EL PRESENTE ARTÍCULO.\r\n\r\ne) ESTUDIAR, PROYECTAR O PRESUPUESTAR TODA CLASE DE CONSTRUCCIONES Y OBRAS.\r\n\r\nf) LA INVESTIGACIÓN, ESTUDIO Y REALIZACIÓN DE CUANTO SEA NECESARIO PARA CONOCER, ANALIZAR, PROYECTAR Y PRACTICAR LOS MEDIOS ÚTILES AL DESARROLLO, CONSECUCIÓN, INDUSTRIALIZACIÓN Y COMERCIO DE MATERIAS PRIMAS O COMPLEMENTARIAS Y MAQUINARIA PARA LA CONSTRUCCIÓN DE OBRAS EN GENERAL.\r\n\r\ng) REGISTRO Y EXPLOTACIÓN DE PATENTES QUE ESTÉN O PUEDAN ESTAR RELACIONADAS CON LA INDUSTRIAS Y COMERCIO QUE CONSTITUYEN EL OBJETO SOCIAL.\r\n\r\nh) LA REALIZACIÓN DE TODA CLASE DE TRANSPORTES TERRESTRES POR CUENTA PROPIA O AJENA",
      "mainEntityOfPage": "https://www.contratacion.euskadi.eus/webkpe00-kperoc/es/ac71aBusquedaRegistrosWar/empresa/02107",
      "_links": {
        "self": {
          "name": "COPISA CONSTRUCTORA PIRENAICA, S.A.",
          "href": "https://api.euskadi.eus/procurements/companies/02107"
        }
      }
    },
    {
      "name": "INGETEK SISTEMAS NORTE, S.L.",
      "registrationNumber": "01907",
      "identificationNumber": "B48841191",
      "address": "C/ RIBERA DE DEUSTO, 70",
      "location": {
        "postalCode": "48014",
        "municipality": "Bilbao",
        "county": "Bizkaia",
        "municipalityId": "020",
        "countyId": "48"
      },
      "economicActivities": [
        {
          "id": "1.615.4",
          "name": "Venta al por mayor de aparatos y material radioeléctrico y electrónico",
          "_links": {
            "self": {
              "name": "Venta al por mayor de aparatos y material radioeléctrico y electrónico",
              "href": "https://api.euskadi.eus/procurements/companies/economic-activities/1.615.4"
            }
          }
        }
      ],
      "certificateStartDate": "2000-11-21",
      "certificateEndDate": "2001-04-20",
      "object": "a) LA FABRICACIÓN, SUMINISTRO, DISEÑO, REPRESENTACIÓN, COMERCIALIZACIÓN E INSTALACIÓN DE: EQUIPOS Y SISTEMAS DE REGULACIÓN Y CONTROL DE PROCESOS TANTO INDUSTRIALES COMO EN EDIFICACIÓN, Y DE LOS PERTINENTES COMPONENTES, SISTEMAS DE SEGURIDAD, SISTEMAS DE INCENDIOS, CIRCUITO CERRADO DE TELEVISIÓN, CONTROL DE ACCESOS, Y SISTEMAS DE MEGAFONÍA E INTERFONÍA. b) IMPORTACIÓN Y EXPORTACIÓN DE PRODUCTOS INDUSTRIALES. ASÍ COMO LA ADQUISICIÓN, EXPLOTACIÓN Y ENAJENACIÓN DE BIENES INMUEBLES",
      "mainEntityOfPage": "https://www.contratacion.euskadi.eus/webkpe00-kperoc/es/ac71aBusquedaRegistrosWar/empresa/01907",
      "_links": {
        "self": {
          "name": "INGETEK SISTEMAS NORTE, S.L.",
          "href": "https://api.euskadi.eus/procurements/companies/01907"
        }
      }
    }
  ]
}