{
  "totalItems": 9042,
  "totalPages": 905,
  "currentPage": 728,
  "itemsOfPage": 10,
  "items": [
    {
      "name": "MINUARTIA, ESTUDIS AMBIENTALS, S.L.",
      "registrationNumber": "03176",
      "identificationNumber": "B58928656",
      "address": "PASSATGE DOMÉNECH, 3 - 1º ",
      "location": {
        "postalCode": "08470",
        "municipality": "Sant Celoni",
        "county": "Barcelona",
        "municipalityId": "202",
        "countyId": "08"
      },
      "economicActivities": [
        {
          "id": "1.936",
          "name": "Investigación científica y técnica",
          "_links": {
            "self": {
              "name": "Investigación científica y técnica",
              "href": "https://api.euskadi.eus/procurements/companies/economic-activities/1.936"
            }
          }
        }
      ],
      "certificateStartDate": "2010-06-07",
      "certificateEndDate": "2010-10-12",
      "object": "EL NEGOCIO DEDICACO A LA ENSEÑANZA E  INVESTIGACIÓN DE LA NATURALEZA Y SU PROTECCIÓN ASÍ COMO LA DEL MEDIO AMBIENTE, EN GENERAL.\r\nLA REALIZACIÓN DE ESTUDIOS, INCLUIDOS LOS DE IMPACTO AMBIENTAL, PROYECTOS, INFORMES, DICTÁMENES, AUDITORÍAS AMBIENTALES Y ASESORAMIENTO DE EMPRESAS, PARTICULARES Y ADMINISTRACIONES PÚBLICAS Y OTRAS ENTIDADES, RESPECTO DE TEMAS MEDIOAMBIENTALES.\r\nLA REALIZACIÓN DE CONFERENCIAS, EXPOSICIONES Y OTRAS ACTIVIDADES RELACIONADAS CON LA DIVULGACIÓN Y COMUNICACIÓN DE TEMAS AMBIENTALES.\r\nTODO ELLO SIN PERJUICIO DE LA TITULACIÓN ACADÉMICA Y AUTORIZACIONES ADMINISTRATIVAS PERTINENTES",
      "mainEntityOfPage": "https://www.contratacion.euskadi.eus/webkpe00-kperoc/es/ac71aBusquedaRegistrosWar/empresa/03176",
      "_links": {
        "self": {
          "name": "MINUARTIA, ESTUDIS AMBIENTALS, S.L.",
          "href": "https://api.euskadi.eus/procurements/companies/03176"
        }
      }
    },
    {
      "name": "ÁREA MÉDICA, S.L.",
      "registrationNumber": "03811",
      "identificationNumber": "B60589959",
      "address": "COMANDANT BENITEZ, 8",
      "location": {
        "postalCode": "08028",
        "municipality": "Barcelona",
        "county": "Barcelona",
        "municipalityId": "019",
        "countyId": "08"
      },
      "economicActivities": [
        {
          "id": "1.619.2",
          "name": "Venta al por mayor de aparatos e instrumentos médicos, ortopédicos, ópticos",
          "_links": {
            "self": {
              "name": "Venta al por mayor de aparatos e instrumentos médicos, ortopédicos, ópticos",
              "href": "https://api.euskadi.eus/procurements/companies/economic-activities/1.619.2"
            }
          }
        }
      ],
      "certificateStartDate": "2010-06-07",
      "certificateEndDate": "2010-11-21",
      "object": "LA COMPRA, VENTA, IMPORTACIÓN, EXPORTACIÓN Y DISTRIBUCIÓN E INTERMEDIACIÓN DE TODO TIPO DE PRODUCTOS, MATERIALES Y EQUIPAMIENTOS MÉDICO-QUIRÚRGICOS Y HOSPITALARIOS",
      "mainEntityOfPage": "https://www.contratacion.euskadi.eus/webkpe00-kperoc/es/ac71aBusquedaRegistrosWar/empresa/03811",
      "_links": {
        "self": {
          "name": "ÁREA MÉDICA, S.L.",
          "href": "https://api.euskadi.eus/procurements/companies/03811"
        }
      }
    },
    {
      "name": "ISSO, S.A.",
      "registrationNumber": "04438",
      "identificationNumber": "A28643732",
      "address": "SOR ÁNGELA DE LA CRUZ, 26",
      "location": {
        "postalCode": "28020",
        "municipality": "Madrid",
        "county": "Madrid",
        "municipalityId": "079",
        "countyId": "28"
      },
      "economicActivities": [
        {
          "id": "1.619.2",
          "name": "Venta al por mayor de aparatos e instrumentos médicos, ortopédicos, ópticos",
          "_links": {
            "self": {
              "name": "Venta al por mayor de aparatos e instrumentos médicos, ortopédicos, ópticos",
              "href": "https://api.euskadi.eus/procurements/companies/economic-activities/1.619.2"
            }
          }
        }
      ],
      "certificateStartDate": "2010-06-04",
      "certificateEndDate": "2010-10-09",
      "object": "a) LA EXPORTACIÓN E IMPORTACIÓN Y, EN GENERAL, TODA CLASE DE COMERCIO, DE ESPECIALIDADES FARMACÉUTICAS, DIETÉTICAS Y DE ALMENTACIÓN, PRODUCTOS QUÍMICOS, ORTOPÉDICOS, DROGAS, PERFUMERÍA, JUGUETERÍA Y ARTÍCULOS DE USO INFANTIL, INCLUSIVE DE LA MAQUINARIA PRECISA PARA SU FABRICACIÓN, ELABORACIÓN Y PREPARACIÓN; B) LA COMPRAVENTA DE TODA CLASE DE BIENES MUEBLES E INMUEBLES, MATERIAL E INSTRUMENTAL DESTINADOS A LA INSTALACIÓN Y EXPLOTACIÓN DE HOSPITALES Y LABORATORIOS, ASÍ COMO DE TODO TIPO DE PRODUCTOS TEXTILES, LENCERÍA, ROPA DE CAMA Y MESA Y, EN GENERAL, DE TODO TIPO DE VESTUARIO",
      "mainEntityOfPage": "https://www.contratacion.euskadi.eus/webkpe00-kperoc/es/ac71aBusquedaRegistrosWar/empresa/04438",
      "_links": {
        "self": {
          "name": "ISSO, S.A.",
          "href": "https://api.euskadi.eus/procurements/companies/04438"
        }
      }
    },
    {
      "name": "CONSTRUCCIONES Y REFORMAS MUGURU 2000",
      "registrationNumber": "04433",
      "identificationNumber": "B48944656",
      "address": "MUGURU, 6",
      "location": {
        "postalCode": "48960",
        "municipality": "Galdakao",
        "county": "Bizkaia",
        "municipalityId": "036",
        "countyId": "48"
      },
      "economicActivities": [
        {
          "id": "1.505.6",
          "name": "Pintura, revestimientos y terminación y decoración de locales",
          "_links": {
            "self": {
              "name": "Pintura, revestimientos y terminación y decoración de locales",
              "href": "https://api.euskadi.eus/procurements/companies/economic-activities/1.505.6"
            }
          }
        },
        {
          "id": "1.652.3",
          "name": "Venta al por menor de perfumería y cosmética y artículos de aseo personal",
          "_links": {
            "self": {
              "name": "Venta al por menor de perfumería y cosmética y artículos de aseo personal",
              "href": "https://api.euskadi.eus/procurements/companies/economic-activities/1.652.3"
            }
          }
        }
      ],
      "certificateStartDate": "2010-06-02",
      "certificateEndDate": "2010-10-20",
      "object": "a).- la adquisición, explotación y enajenación de toda calse de terrenos, solares, parcelas, naves industriales o de carácter agrario y edificios y pisos o planatas comerciales; la urbanizacióny parcelación de terrenos; la adquisición de derechos concesionales sobre terrenos o parcelas; la construcción de edificios en dichos terrenos o parcela; el uso, arrendamiento y venta de los terrenos, parcelas, pisos, naves y locales referidos; construcción, reparación y restauración de toda clase de edificios de promoción pública ya sean adjudicados en subasta o por enajenación directa.\r\nb) .- la realización de sutidios y proyecto para restaurar, decorar y amueblar todo tipo de edificios, lacales y viviendas.\r\nc) .- la representación, comercialización y venta de materiales destinados a la construcción de lo que se indica en el aprtado precedente, destinado a la carpintería, albañilería, fontanería, carpintería-metálica y de hormigón y electricidad, y, representaciones y actividades de mediación, tanto para la industria como para el comercio, incluidos los servicios, tanto técnicos como de asistencia, almacenista, mayorista, exclusivista, con su importaicón y exportación.\r\nd).- el estudio y resolución de todas cuantas cuestiones técnicas y de cualquier orden, relacionadas con el objeto y objetos principales puedan plantearse.\r\n",
      "mainEntityOfPage": "https://www.contratacion.euskadi.eus/webkpe00-kperoc/es/ac71aBusquedaRegistrosWar/empresa/04433",
      "_links": {
        "self": {
          "name": "CONSTRUCCIONES Y REFORMAS MUGURU 2000",
          "href": "https://api.euskadi.eus/procurements/companies/04433"
        }
      }
    },
    {
      "name": "DESTRUDATOS CONFIDENCIAL, S.L.",
      "registrationNumber": "04434",
      "identificationNumber": "B95559837",
      "address": "MAKOAGA BIDEA 8 B",
      "location": {
        "postalCode": "48100",
        "municipality": "Mungia",
        "county": "Bizkaia",
        "municipalityId": "069",
        "countyId": "48"
      },
      "economicActivities": [
        {
          "id": "1.622",
          "name": "Venta al por mayor de otros productos de recuperación",
          "_links": {
            "self": {
              "name": "Venta al por mayor de otros productos de recuperación",
              "href": "https://api.euskadi.eus/procurements/companies/economic-activities/1.622"
            }
          }
        }
      ],
      "certificateStartDate": "2010-06-02",
      "certificateEndDate": "2010-11-26",
      "object": "1º EL RECICLAJE Y RECUPERACIÓN DE TODO TIPO DE MATERIALES, INCLUSO LOS DERIVADOS DE LA CONSTRUCCIÓN Y DEMOLICIÓN; COMERCIAL AL POR MAYOR DE PRODUCTOS DE RECUPERACIÓN. 2º. DESTRUCCIÓN DE DOCUMENTOS CONFIDENCIALES. 3º CLASIFICACIÓN DE DESPERDICIOS DE PAPEL, CARTÓN Y TODO TIPO DE MATERIALES, PROCESO DE ADQUISICIÓN DE RECORTES DE PAPEL, CARTÓN Y TODO TIPO DE MATERIALES, ASÍ COMO PAPEL Y CARTÓN VIEJO; CLASIFICACIÓN, MANIPULACIÓN Y TROCEO EN SU CASO, ASÍ COMO LA FORMACIÓN DE PARTIDAS QUE HAYAN DE SUMINISTRARSE A LAS DISTINTAS INDUSTRIAS CONSUMIDORAS, SEGÚN LAS NECESIDADES DE CADA FABRICACIÓN",
      "mainEntityOfPage": "https://www.contratacion.euskadi.eus/webkpe00-kperoc/es/ac71aBusquedaRegistrosWar/empresa/04434",
      "_links": {
        "self": {
          "name": "DESTRUDATOS CONFIDENCIAL, S.L.",
          "href": "https://api.euskadi.eus/procurements/companies/04434"
        }
      }
    },
    {
      "name": "ALTAIR Y NIZAR, S.L.",
      "registrationNumber": "04435",
      "identificationNumber": "B95512091",
      "address": "P.B. INBISA, PAB. 23-33",
      "location": {
        "postalCode": "48950",
        "municipality": "Erandio",
        "county": "Bizkaia",
        "municipalityId": "902",
        "countyId": "48"
      },
      "economicActivities": [
        {
          "id": "1.504.1",
          "name": "Instalaciones eléctricas en general",
          "_links": {
            "self": {
              "name": "Instalaciones eléctricas en general",
              "href": "https://api.euskadi.eus/procurements/companies/economic-activities/1.504.1"
            }
          }
        }
      ],
      "certificateStartDate": "2010-06-02",
      "certificateEndDate": "2010-10-19",
      "object": "A). LA INSTALACIÓN, COMERCIALIZACIÓN DE SISTEMAS INTEGRALES DE VOZ, DATOS, FIBRA ÓPTICA, ELECTRICIDAD, COMPONENTES ELECTRÓNICOS Y OBRAS COMUNES. B). LA FABRICACION, VENTA, DISTRIBUCIÓN AL POR MAYOR Y MENOR DE TODA CLASE DE MATERIALES AUXILIARES O ANEJOS RELACIONADOS CON LA ELECTRICIDAD Y LA ELECTRÓNICA, CON PATENTES PROPIAS O AJENAS, NACIONALES O EXTRANJERAS DE ACUERDO CON LAS LEYES EN VIGOR. C) LA REPRESENTACIÓN DE EMPRESAS NACIONALES O EXTRANJERAS PRODUCTORAS DE ARTÍCULOS Y MERCANCÍAS A QUE SE REFIERE EL APARTADO ANTERIOR, ASÍ COMO SU IMPORTACIÓN Y EXPORTACIÓN",
      "mainEntityOfPage": "https://www.contratacion.euskadi.eus/webkpe00-kperoc/es/ac71aBusquedaRegistrosWar/empresa/04435",
      "_links": {
        "self": {
          "name": "ALTAIR Y NIZAR, S.L.",
          "href": "https://api.euskadi.eus/procurements/companies/04435"
        }
      }
    },
    {
      "name": "EUSKOIME, S.L.",
      "registrationNumber": "02949",
      "identificationNumber": "B95123444",
      "address": "POLG. INDUSTRIAL GRANADA, MANZANA N, PABELLÓN 7",
      "location": {
        "postalCode": "48530",
        "municipality": "Ortuella",
        "county": "Bizkaia",
        "municipalityId": "083",
        "countyId": "48"
      },
      "economicActivities": [
        {
          "id": "1.504.1",
          "name": "Instalaciones eléctricas en general",
          "_links": {
            "self": {
              "name": "Instalaciones eléctricas en general",
              "href": "https://api.euskadi.eus/procurements/companies/economic-activities/1.504.1"
            }
          }
        }
      ],
      "certificateStartDate": "2010-05-31",
      "certificateEndDate": "2010-11-07",
      "object": "TODO TIPO DE INSTALACIONES ELÉCTRICAS TANTO DE BAJA, MEDIA Y ALTA TENSIÓN, ASÍ COMO SUS REPARACIONES Y MANTENIMIENTO, MANTENIMIENTOS MECÁNICOS, JARDINERÍA, EN EDIFICIOS DE TODAS CLASES Y LOCALES COMERCIALES E INDUSTRIALES",
      "mainEntityOfPage": "https://www.contratacion.euskadi.eus/webkpe00-kperoc/es/ac71aBusquedaRegistrosWar/empresa/02949",
      "_links": {
        "self": {
          "name": "EUSKOIME, S.L.",
          "href": "https://api.euskadi.eus/procurements/companies/02949"
        }
      }
    },
    {
      "name": "ENTE DE APROVECHAMIENTO DE ENERGÍAS RENOVABLES, S.L.",
      "registrationNumber": "04427",
      "identificationNumber": "B01352806",
      "address": "CALLE VENTA DE LA ESTRELLA 6",
      "location": {
        "postalCode": "01006",
        "municipality": "Vitoria-Gasteiz",
        "county": "Araba/Álava",
        "municipalityId": "059",
        "countyId": "01"
      },
      "economicActivities": [
        {
          "id": "1.504.1",
          "name": "Instalaciones eléctricas en general",
          "_links": {
            "self": {
              "name": "Instalaciones eléctricas en general",
              "href": "https://api.euskadi.eus/procurements/companies/economic-activities/1.504.1"
            }
          }
        },
        {
          "id": "1.936",
          "name": "Investigación científica y técnica",
          "_links": {
            "self": {
              "name": "Investigación científica y técnica",
              "href": "https://api.euskadi.eus/procurements/companies/economic-activities/1.936"
            }
          }
        }
      ],
      "certificateStartDate": "2010-05-26",
      "certificateEndDate": "2010-09-30",
      "object": "PROYECTO, VENTA, INSTALACIÓN Y MANTENIMIENTO DE SISTEMAS DE ENERGÍAS RENOVABLES",
      "mainEntityOfPage": "https://www.contratacion.euskadi.eus/webkpe00-kperoc/es/ac71aBusquedaRegistrosWar/empresa/04427",
      "_links": {
        "self": {
          "name": "ENTE DE APROVECHAMIENTO DE ENERGÍAS RENOVABLES, S.L.",
          "href": "https://api.euskadi.eus/procurements/companies/04427"
        }
      }
    },
    {
      "name": "AIURDIN OBRAS, S.L.",
      "registrationNumber": "03712",
      "identificationNumber": "B01322684",
      "address": "PORTAL DE GAMARRA, 1 - OF. 124",
      "location": {
        "postalCode": "01013",
        "municipality": "Vitoria-Gasteiz",
        "county": "Araba/Álava",
        "municipalityId": "059",
        "countyId": "01"
      },
      "economicActivities": [
        {
          "id": "1.501.1",
          "name": "Construcción completa, reparación y conservación de edificaciones",
          "_links": {
            "self": {
              "name": "Construcción completa, reparación y conservación de edificaciones",
              "href": "https://api.euskadi.eus/procurements/companies/economic-activities/1.501.1"
            }
          }
        }
      ],
      "certificateStartDate": "2010-05-25",
      "certificateEndDate": "2010-10-19",
      "object": "A) LA PROMOCIÓN INMOBILIARIA, ENTENDIENDO POR TAL LA PRÁCTICA DE CUANTAS GESTIONES DESEMBOQUEN EN LA VENTA DE INMUEBLES, COMO POR EJEMPLO: LA GESTIÓN DE PROYECTOS, ADQUISICIÓN DE SOLARES, SUBCONTRATACIÓN DE OBRAS Y VENTA DE UNIDADES INMOBILIARIAS. B) LA TENENCIA, COMPRA, VENTA, ARRENDAMIENTO, CESIÓN Y EXPLOTACIÓN DE BIENES INMUEBLES. C) LA EJECUCIÓN DE OBRAS CIVILES, DE EDIFICACIÓN, INDUSTRIALES Y, EN GENERAL, LA CONSTRUCCIÓN PARA SI MISMA Y POR CUENTA DE TERCEROS",
      "mainEntityOfPage": "https://www.contratacion.euskadi.eus/webkpe00-kperoc/es/ac71aBusquedaRegistrosWar/empresa/03712",
      "_links": {
        "self": {
          "name": "AIURDIN OBRAS, S.L.",
          "href": "https://api.euskadi.eus/procurements/companies/03712"
        }
      }
    },
    {
      "name": "EREBEGI, S.A.",
      "registrationNumber": "01030",
      "identificationNumber": "A48408884",
      "address": "PGNO.ARTEAGOITI,PARCELA  II-NAVE 13. Bº S. MIGUEL",
      "location": {
        "postalCode": "48970",
        "municipality": "Basauri",
        "county": "Bizkaia",
        "municipalityId": "015",
        "countyId": "48"
      },
      "economicActivities": [
        {
          "id": "1.501.1",
          "name": "Construcción completa, reparación y conservación de edificaciones",
          "_links": {
            "self": {
              "name": "Construcción completa, reparación y conservación de edificaciones",
              "href": "https://api.euskadi.eus/procurements/companies/economic-activities/1.501.1"
            }
          }
        },
        {
          "id": "1.507",
          "name": "Construcción, reparación y conservación de toda clase obras",
          "_links": {
            "self": {
              "name": "Construcción, reparación y conservación de toda clase obras",
              "href": "https://api.euskadi.eus/procurements/companies/economic-activities/1.507"
            }
          }
        }
      ],
      "certificateStartDate": "2010-05-21",
      "certificateEndDate": "2010-11-11",
      "object": "LA PROMOCIÓN, CONSTRUCCIÓN, COMPRA, VENTA, ARRENDAMIENTO Y EXPLOTACIÓN EN CUALQUIER OTRA FORMA DE TODA CLASE DE EDIFICACIONES, SOLARES E INMUEBLES EN GENERAL, TANTO POR CUENTA PROPIA COMO AJENA. LA PROMOCIÓN, DESARROLLO, URBANIZACIÓN, PARCELACIÓN, EXCAVACIÓN, DERRIBO Y MEJORA DE TODA CLASE DE FINCAS URBANAS. LA REALIZACIÓN DE OBRAS PÚBLICAS O CIVILES, CUALQUIERA QUE SEA LA PERSONA O ENTIDAD, PÚBLICA O PRIVADA, CON LA QUE SE CONTRATEN Y SEA CUAL FUERE LA MODALIDAD DE CONTRATACIÓN. LA ADMINISTRACIÓN DE FINCAS Y COMUNIDADES, TANTO DE PROPIETARIOS COMO DE AUTOPROMOTORES, ASÍ COMO LA PRESTACIÓN DE TODA CLASE DE SERVICIOS RELACIONADOS CON EL ÁMBITO INMOBILIARIO, ARQUITECTÓNICO, DE TÉCNICA DE LA CONSTRUCCIÓN E INGENIERÍA EN GENERAL, POR MEDIO DE LA FORMULACIÓN, DESARROLLO Y PUESTA EN MARCHA DE ESTUDIOS, ACTUACIONES Y PROYECTOS. LA REALIZACIÓN POR CUENTA PROPIA O AJENA DE TODA CLASE DE CONSTRUCCIONES, INSTALACIONES, REFORMAS, REHABILITACIONES Y DECORACIONES. LA SUPERVISIÓN Y CONTROL DE OBRAS, ASÍ COMO LA COORDINACIÓN DE GREMIOS, EL ASESORAMIENTO Y LA ASISTENCIA TÉCNICA EN TODO CUANTO SE RELACIONE, DIRECTA O INDIRECTAMENTE, CON EL CAMPO DE LA CONSTRUCCIÓN DE EDIFICIOS Y DE LAS OBRAS PÚBLICAS O CIVILES. LA COMPRA, VENTA, IMPORTACIÓN, EXPORTACIÓN Y COMERCIALIZACIÓN EN GENERAL DE TODA CLASE DE MATERIALES DE CONSTRUCCIÓN Y/O COMPLEMENTARIOS Y/O DECORATIVOS, ASÍ COMO DE CUALESQUIERA INSTALACIONES, ELEMENTOS O SERVICIOS DE EDIFICACIONES. ASIMISMO PODRÁ REALIZAR PROYECTOS TÉCNICOS O INDUSTRIALES SOBRE TODO TIPO DE OBRA CIVIL EN TERRENOS URBANOS O RÚSTICOS. INVESTIGACIONES Y ENSAYOS DE CAMPO Y LABORATORIO, INFORMES GEOLÓGICOS, HIDROGEOLÓGICOS Y GEOTÉCNICOS. DRENAJES, ANCLAJES, BULONADOS, PILOTAJES, EXCAVACIONES, INYECCIONES, REVESTIMIENTOS, DEMOLICIONES, VOLADURAS, ASFALTADOS Y CUALESQUIERA OTRO TIPO DE INTERVENCIONES TÉCNICAS REFERENTES AL CAMPO DE LA CONSTRUCCIÓN Y PROMOCIÓN INMOBILIARIA. IGUALMENTES PODRÁN REALIZARSE ASESORAMIENTOS PREVIOS Y POSTERIORES DE TODO TIPO DE OBRA. LA REPRESENTACIÓN COMO AGENTE, COMISIONISTA, DELEGADO O CUALQUIER OTRA FORMA DE MEDIACIÓN MERCANTIL, DE TODA CLASE DE PRODUCTOS O BIENES Y DE SOCIEDADES NACIONALES O EXTRANJERAS, QUE ESTÉN DIRECTA O INDIRECTAMENTE RELACIONADOS CON EL OBJETO SOCIAL",
      "mainEntityOfPage": "https://www.contratacion.euskadi.eus/webkpe00-kperoc/es/ac71aBusquedaRegistrosWar/empresa/01030",
      "_links": {
        "self": {
          "name": "EREBEGI, S.A.",
          "href": "https://api.euskadi.eus/procurements/companies/01030"
        }
      }
    }
  ]
}