{
  "totalItems": 9042,
  "totalPages": 905,
  "currentPage": 443,
  "itemsOfPage": 10,
  "items": [
    {
      "name": "LIMPIEZA DARLING ARCE S.L.",
      "registrationNumber": "08750",
      "identificationNumber": "B72447212",
      "address": "Calle logroño 3, 4toA",
      "location": {
        "postalCode": "20018",
        "municipality": "Donostia / San Sebastián",
        "county": "Gipuzkoa",
        "municipalityId": "069",
        "countyId": "20"
      },
      "economicActivities": [
        {
          "id": "1.922.1",
          "name": "Servicios de limpieza de interiores",
          "_links": {
            "self": {
              "name": "Servicios de limpieza de interiores",
              "href": "https://api.euskadi.eus/procurements/companies/economic-activities/1.922.1"
            }
          }
        }
      ],
      "certificateStartDate": "2023-10-04",
      "certificateEndDate": "2024-04-04",
      "object": "Actividad principal: (CNAE 8121) Limpieza general de edificios. Actividad secundaria: (CNAE: 8130) Actividades de jardinería.",
      "mainEntityOfPage": "https://www.contratacion.euskadi.eus/webkpe00-kperoc/es/ac71aBusquedaRegistrosWar/empresa/08750",
      "_links": {
        "self": {
          "name": "LIMPIEZA DARLING ARCE S.L.",
          "href": "https://api.euskadi.eus/procurements/companies/08750"
        }
      }
    },
    {
      "name": "HORWATH ART CONSULTING SPAIN, S.L.",
      "registrationNumber": "08384",
      "identificationNumber": "B62265509",
      "address": "Diagonal, 429, planta 5",
      "location": {
        "postalCode": "08036",
        "municipality": "Barcelona",
        "county": "Barcelona",
        "municipalityId": "019",
        "countyId": "08"
      },
      "economicActivities": [
        {
          "id": "1.842",
          "name": "Servicios financieros y contables",
          "_links": {
            "self": {
              "name": "Servicios financieros y contables",
              "href": "https://api.euskadi.eus/procurements/companies/economic-activities/1.842"
            }
          }
        },
        {
          "id": "1.846",
          "name": "Empresas de estudios de mercado",
          "_links": {
            "self": {
              "name": "Empresas de estudios de mercado",
              "href": "https://api.euskadi.eus/procurements/companies/economic-activities/1.846"
            }
          }
        }
      ],
      "certificateStartDate": "2023-10-04",
      "certificateEndDate": "2024-04-04",
      "object": "A) LA PRESTACIÓN DE SERVICIOS PROFESIONALES COMPRENDIDOS EN EL ÁMBITO DE LA ASESORÍA EMPRESARIAL EN GENERAL Y EN ESPECIAL A LAS EMPRESAS DEDICADAS AL NEGOCIO DE LA HOSTELERÍA Y LA RESTAURACIÓN. B) LA CREACIÓN DE ESTRUCTURAS, EQUIPOS, PROCEDIMIENTOS, PROGRAMAS Y SERVICIOS DE SOPORTE A ESTAS ACTIVIDADES. C) LA SOCIEDAD PODRÁ INTERESAR CAPITAL EN OTRAS SOCIEDADES, CUYA ACTIVIDAD PRINCIPAL U OBJETO SOCIAL SEA SIMILAR AL COMPRENDIDO TOTAL O PARCIALMENTE EN ALGUNO O EN LA TOTALIDAD DE LOS APARTADOS QUE PRECEDEN, EN FORMA DE ACCIONES, PARTICIPACIONES SOCIALES, CUENTAS EN PARTICIPACIÓN O EN CUALQUIER OTRA FORMA JURÍDICA PREVISTA LEGALMENTE, PUDIENDO LA SOCIEDAD DESARROLLAR TOTAL O PARCIALMENTE LAS ACTIVIDADES INTEGRANTES DE SU OBJETO A TRAVÉS DE TALES SOCIEDADES.",
      "mainEntityOfPage": "https://www.contratacion.euskadi.eus/webkpe00-kperoc/es/ac71aBusquedaRegistrosWar/empresa/08384",
      "_links": {
        "self": {
          "name": "HORWATH ART CONSULTING SPAIN, S.L.",
          "href": "https://api.euskadi.eus/procurements/companies/08384"
        }
      }
    },
    {
      "name": "ARCOVENTI, S.L.",
      "registrationNumber": "08377",
      "identificationNumber": "B48295596",
      "address": "POLIGONO IND. ERLETXE  PTFMA. B  NAVE 4",
      "location": {
        "postalCode": "48960",
        "municipality": "Galdakao",
        "county": "Bizkaia",
        "municipalityId": "036",
        "countyId": "48"
      },
      "economicActivities": [
        {
          "id": "1.504.3",
          "name": "Instalaciones de frío, calor y acondicionamiento de aire",
          "_links": {
            "self": {
              "name": "Instalaciones de frío, calor y acondicionamiento de aire",
              "href": "https://api.euskadi.eus/procurements/companies/economic-activities/1.504.3"
            }
          }
        }
      ],
      "certificateStartDate": "2023-10-04",
      "certificateEndDate": "2024-04-02",
      "object": "LA INSTALACIÓN, REPARACIÓN Y MANTENIMIENTO DE EQUIPOS DE AIRE ACONDICIONADO, CALEFACCIÓN Y VENTILACIÓN, ASÍ COMO LA DE AISLANTES ACÚSTICOS DE TODO TIPO.",
      "mainEntityOfPage": "https://www.contratacion.euskadi.eus/webkpe00-kperoc/es/ac71aBusquedaRegistrosWar/empresa/08377",
      "_links": {
        "self": {
          "name": "ARCOVENTI, S.L.",
          "href": "https://api.euskadi.eus/procurements/companies/08377"
        }
      }
    },
    {
      "name": "RUBÉN RAMOS GONZÁLEZ",
      "registrationNumber": "08730",
      "identificationNumber": "72508304E",
      "address": "Virgen del Carmen 7, 6B",
      "location": {
        "postalCode": "20012",
        "municipality": "Donostia / San Sebastián",
        "county": "Gipuzkoa",
        "municipalityId": "069",
        "countyId": "20"
      },
      "economicActivities": [
        {
          "id": "2.322",
          "name": "Técnicos en artes gráficas",
          "_links": {
            "self": {
              "name": "Técnicos en artes gráficas",
              "href": "https://api.euskadi.eus/procurements/companies/economic-activities/2.322"
            }
          }
        }
      ],
      "certificateStartDate": "2023-10-04",
      "certificateEndDate": "2024-04-04",
      "object": "TÉCNICOS EN ARTES GRÁFICAS",
      "mainEntityOfPage": "https://www.contratacion.euskadi.eus/webkpe00-kperoc/es/ac71aBusquedaRegistrosWar/empresa/08730",
      "_links": {
        "self": {
          "name": "RUBÉN RAMOS GONZÁLEZ",
          "href": "https://api.euskadi.eus/procurements/companies/08730"
        }
      }
    },
    {
      "name": "LUMIRADX HEALTHCARE, S.L.",
      "registrationNumber": "08957",
      "identificationNumber": "B67494286",
      "address": "CALLE CHILE ,4 EDIFICIO 2 OFICINAS 18-19-20",
      "location": {
        "postalCode": "28290",
        "municipality": "Rozas de Madrid, Las",
        "county": "Madrid",
        "municipalityId": "127",
        "countyId": "28"
      },
      "economicActivities": [
        {
          "id": "1.614.1",
          "name": "Venta al por mayor de productos farmacéuticos y medicamentos",
          "_links": {
            "self": {
              "name": "Venta al por mayor de productos farmacéuticos y medicamentos",
              "href": "https://api.euskadi.eus/procurements/companies/economic-activities/1.614.1"
            }
          }
        }
      ],
      "certificateStartDate": "2023-10-04",
      "certificateEndDate": "2024-04-04",
      "object": "EL DESARROLLO DE LAS ACTIVIDADES CORRESPONDIENTES A LOS SIGUIENTES CÓDIGOS Y DESCRIPCIONES DE LA CLASIFICACIÓN NACIONAL DE ACTIVIDADES ECONÓMICAS: CNAE: 4646 - COMERCIO AL POR MAYOR DE PRODUCTOS FARMACÉUTICOS. LA PRINCIPAL ACTIVIDAD DE LA SOCIEDAD SERÁ LA VENTA AL POR MAYOR DE PRODUCTOS DIRIGIDOS A LA REALIZACIÓN DE DIAGNÓSTICO MÉDICOS A LOS CLIENTES QUE LO SOLICITEN. OTRAS ACTIVIDADES RELACIONADAS CON LA PRINCIPAL FORMA MÁS SUBSIDIARIA SERÁ LA INVESTIGACIÓN, DESARROLLO, MARKETING Y COMERCIALIZACIÓN DE DIAGNÓSTICOS MÉDICOS Y SERVICIOS DE TELECOMUNICACIÓN RELACIONADOS CON LA SALUD, INCLUIDA LA CONECTIVIDAD DE LOS DISPOSITIVOS A LOS SISTEMAS SANITARIOS Y LA PRESTACIÓN DE SOLUCIONES SANITARIAS (POR EJEMPLO, DIABETES, SOLUCIONES PARA EL CONTROL DE COAGULACIÓN).",
      "mainEntityOfPage": "https://www.contratacion.euskadi.eus/webkpe00-kperoc/es/ac71aBusquedaRegistrosWar/empresa/08957",
      "_links": {
        "self": {
          "name": "LUMIRADX HEALTHCARE, S.L.",
          "href": "https://api.euskadi.eus/procurements/companies/08957"
        }
      }
    },
    {
      "name": "GWER SOLAR, S.L.",
      "registrationNumber": "09238",
      "identificationNumber": "B13676010",
      "address": "C/ IBERRE 2 PAB.19",
      "location": {
        "postalCode": "48150",
        "municipality": "Sondika",
        "county": "Bizkaia",
        "municipalityId": "904",
        "countyId": "48"
      },
      "economicActivities": [
        {
          "id": "1.504.11",
          "name": "Instalaciones eléctricas en general, redes telegráficas, telefonía, tv, etc",
          "_links": {
            "self": {
              "name": "Instalaciones eléctricas en general, redes telegráficas, telefonía, tv, etc",
              "href": "https://api.euskadi.eus/procurements/companies/economic-activities/1.504.11"
            }
          }
        }
      ],
      "certificateStartDate": "2023-10-04",
      "certificateEndDate": "2024-03-27",
      "object": "LA COMPRA, VENTA, INSTALACIÓN Y MANTENIMIENTO DE PLACAS SOLARES DE ENERGÍA SOLAR, TÉRMICA O FOTOVOLTAICA, ASÍ COMO TODA CLASE DE ACCESORIOS O MECANISMOS RELACIONADOS CON ELLOS.",
      "mainEntityOfPage": "https://www.contratacion.euskadi.eus/webkpe00-kperoc/es/ac71aBusquedaRegistrosWar/empresa/09238",
      "_links": {
        "self": {
          "name": "GWER SOLAR, S.L.",
          "href": "https://api.euskadi.eus/procurements/companies/09238"
        }
      }
    },
    {
      "name": "IDOYA VIDAURRAZAGA VIDAL",
      "registrationNumber": "08717",
      "identificationNumber": "16057871F",
      "address": "Calle amistad 7-3izq",
      "location": {
        "postalCode": "48930",
        "municipality": "Getxo",
        "county": "Bizkaia",
        "municipalityId": "044",
        "countyId": "48"
      },
      "economicActivities": [
        {
          "id": "2.824",
          "name": "Profesores de formación y perfeccionamiento profesional",
          "_links": {
            "self": {
              "name": "Profesores de formación y perfeccionamiento profesional",
              "href": "https://api.euskadi.eus/procurements/companies/economic-activities/2.824"
            }
          }
        }
      ],
      "certificateStartDate": "2023-10-03",
      "certificateEndDate": "2024-04-03",
      "object": "PROFESORES DE FORMACIÓN Y PERFECCIONAMIENTO PROFESIONAL.",
      "mainEntityOfPage": "https://www.contratacion.euskadi.eus/webkpe00-kperoc/es/ac71aBusquedaRegistrosWar/empresa/08717",
      "_links": {
        "self": {
          "name": "IDOYA VIDAURRAZAGA VIDAL",
          "href": "https://api.euskadi.eus/procurements/companies/08717"
        }
      }
    },
    {
      "name": "URBIL ABOKATUAK, S.L.",
      "registrationNumber": "08686",
      "identificationNumber": "B95067849",
      "address": "VIUDA DE EPALZA 6, 1º",
      "location": {
        "postalCode": "48005",
        "municipality": "Bilbao",
        "county": "Bizkaia",
        "municipalityId": "020",
        "countyId": "48"
      },
      "economicActivities": [
        {
          "id": "1.841",
          "name": "Servicios jurídicos",
          "_links": {
            "self": {
              "name": "Servicios jurídicos",
              "href": "https://api.euskadi.eus/procurements/companies/economic-activities/1.841"
            }
          }
        }
      ],
      "certificateStartDate": "2023-10-03",
      "certificateEndDate": "2024-04-03",
      "object": "LA ACTIVIDAD PROPIA DE LAS/OS PROFESIONALES DE LA ABOGACÍA.",
      "mainEntityOfPage": "https://www.contratacion.euskadi.eus/webkpe00-kperoc/es/ac71aBusquedaRegistrosWar/empresa/08686",
      "_links": {
        "self": {
          "name": "URBIL ABOKATUAK, S.L.",
          "href": "https://api.euskadi.eus/procurements/companies/08686"
        }
      }
    },
    {
      "name": "TERESA EGUSQUIZA GONZALEZ GIL",
      "registrationNumber": "08738",
      "identificationNumber": "16067443B",
      "address": "Calle Arrontegi (48901) 7 4A",
      "location": {
        "postalCode": "48901",
        "municipality": "Barakaldo",
        "county": "Bizkaia",
        "municipalityId": "013",
        "countyId": "48"
      },
      "economicActivities": [
        {
          "id": "2.724",
          "name": "Intermediarios en la promoción de edificaciones",
          "_links": {
            "self": {
              "name": "Intermediarios en la promoción de edificaciones",
              "href": "https://api.euskadi.eus/procurements/companies/economic-activities/2.724"
            }
          }
        }
      ],
      "certificateStartDate": "2023-10-03",
      "certificateEndDate": "2024-04-03",
      "object": "INTERMEDIARIOS EN LA PROMOCIÓN DE EDIFICACIONES.",
      "mainEntityOfPage": "https://www.contratacion.euskadi.eus/webkpe00-kperoc/es/ac71aBusquedaRegistrosWar/empresa/08738",
      "_links": {
        "self": {
          "name": "TERESA EGUSQUIZA GONZALEZ GIL",
          "href": "https://api.euskadi.eus/procurements/companies/08738"
        }
      }
    },
    {
      "name": "MI EXTRALIMITATE, S.L.",
      "registrationNumber": "08005",
      "identificationNumber": "B02689636",
      "address": "Enkarterri 2 3º local 5",
      "location": {
        "postalCode": "48840",
        "municipality": "Güeñes",
        "county": "Bizkaia",
        "municipalityId": "045",
        "countyId": "48"
      },
      "economicActivities": [
        {
          "id": "1.844",
          "name": "Servicios de publicidad, relaciones públicas y similares",
          "_links": {
            "self": {
              "name": "Servicios de publicidad, relaciones públicas y similares",
              "href": "https://api.euskadi.eus/procurements/companies/economic-activities/1.844"
            }
          }
        },
        {
          "id": "1.847",
          "name": "Servicios de consultoría",
          "_links": {
            "self": {
              "name": "Servicios de consultoría",
              "href": "https://api.euskadi.eus/procurements/companies/economic-activities/1.847"
            }
          }
        },
        {
          "id": "1.934",
          "name": "Enseñanza fuera de establecimiento permanente",
          "_links": {
            "self": {
              "name": "Enseñanza fuera de establecimiento permanente",
              "href": "https://api.euskadi.eus/procurements/companies/economic-activities/1.934"
            }
          }
        }
      ],
      "certificateStartDate": "2023-10-03",
      "certificateEndDate": "2024-04-03",
      "object": "7022. OTRAS ACTIVIDADES DE CONSULTORÍA DE GESTIÓN EMPRESARIAL. OTRAS ACTIVIDADES. 7021. RELACIONES PÚBLICAS Y COMUNICACIÓN.  7022. OTRAS ACTIVIDADES DE CONSULTORÍA DE GESTIÓN EMPRESARIAL. 7311. AGENCIAS DE PUBLICIDAD. 7312. SERVICIOS DE REPRESENTACIÓN DE MEDIOS DE COMUNICACIÓN. 7410. ACTIVIDADES DE DISEÑO ESPECIALIZADO. 7420. ACTIVIDADES DE FOTOGRAFÍA. 7430. ACTIVIDADES DE TRADUCCIÓN E INTERPRETACIÓN. 7490. OTRAS ACTIVIDADES PROFESIONALES, CIENTÍFICAS Y TÉCNICAS N.C.O.P. 8541. EDUCACIÓN POSTSECUNDARIA NO TERCIARIA. 8544. EDUCACIÓN TERCIARIA NO UNIVERSITARIA. 8559. OTRA EDUCACIÓN N.C.O.P. 8560. ACTIVIDADES AUXILIARES EN LA EDUCACIÓN. 7010. ACTIVIDADES DE LAS SEDES CENTRALES. 6399. OTROS SERVICIOS DE INFORMACIÓN N.C.O.P. 6391. ACTIVIDADES DE LAS AGENCIAS DE NOTICIAS. 6312. PORTALES WEB. 6311. PROCESO DE DATOS, HOSTING Y ACTIVIDADES RELACIONADAS. 6209. OTROS SERVICIOS RELACIONADOS CON LAS TECNOLOGÍAS DE LA INFORMACIÓN Y LA INFORMÁTICA. 6203. GESTIÓN DE RECURSOS INFORMÁTICOS.6202. ACTIVIDADES DE CONSULTORÍA INFORMÁTICA. 6201. ACTIVIDADES DE PROGRAMACIÓN INFORMÁTICA. 5920. ACTIVIDADES DE GRABACIÓN DE SONIDO Y EDICIÓN MUSICAL. 5915. ACTIVIDADES DE PRODUCCIÓN CINEMATOGRÁFICA Y DE VÍDEO. 5829. EDICIÓN DE OTROS PROGRAMAS INFORMÁTICOS. 5821. EDICIÓN DE VIDEOJUEGOS. 5912. ACTIVIDADES DE POSTPRODUCCIÓN CINEMATOGRÁFICA, DE VÍDEO Y DE PROGRAMAS DE TELEVISIÓN. 5819. OTRAS ACTIVIDADES EDITORIALES.5814. EDICIÓN DE REVISTAS. 5813. EDICIÓN DE PERIÓDICOS. 5812. EDICIÓN DE DIRECTORIOS Y GUÍAS DE DIRECCIONES POSTALES. 5811. EDICIÓN DE LIBROS.",
      "mainEntityOfPage": "https://www.contratacion.euskadi.eus/webkpe00-kperoc/es/ac71aBusquedaRegistrosWar/empresa/08005",
      "_links": {
        "self": {
          "name": "MI EXTRALIMITATE, S.L.",
          "href": "https://api.euskadi.eus/procurements/companies/08005"
        }
      }
    }
  ]
}