{
  "totalItems": 9042,
  "totalPages": 905,
  "currentPage": 300,
  "itemsOfPage": 10,
  "items": [
    {
      "name": "INTERNATIONAL CONSULTING AND MOBILITY AGENCY, S.L.",
      "registrationNumber": "10315",
      "identificationNumber": "B91302695",
      "address": "Calle Madrid, 2 Bajo",
      "location": {
        "postalCode": "41001",
        "municipality": "Sevilla",
        "county": "Sevilla",
        "municipalityId": "091",
        "countyId": "41"
      },
      "economicActivities": [
        {
          "id": "1.849.7",
          "name": "Servicios de gestión administrativa",
          "_links": {
            "self": {
              "name": "Servicios de gestión administrativa",
              "href": "https://api.euskadi.eus/procurements/companies/economic-activities/1.849.7"
            }
          }
        },
        {
          "id": "1.932.1",
          "name": "Enseñanza de formación y perfeccionamiento profesional no superior",
          "_links": {
            "self": {
              "name": "Enseñanza de formación y perfeccionamiento profesional no superior",
              "href": "https://api.euskadi.eus/procurements/companies/economic-activities/1.932.1"
            }
          }
        }
      ],
      "certificateStartDate": "2025-09-04",
      "certificateEndDate": "2026-03-04",
      "object": "LA GESTIÓN Y DESARROLLO DE PROGRAMAS DE MOVILIDAD INTERNACIONAL DE ESTUDIANTES Y JÓVENES, PRINCIPALMENTE DENTRO DEL ÁMBITO DE LA UNIÓN EUROPEA, PRESTACIÓN EN SU MÁS AMPLIO SENTIDO DE ASESORAMIENTO Y CONSULTORÍA PARA LA CREACIÓN DE PROYECTOS PARA OTRAS ENTIDADES PÚBLICAS Y PRIVADAS ASÍ COMO EL DESARROLLO DE INICIATIVAS NACIONALES E INTERNACIONALES QUE FOMENTEN LA CALIDAD EN LOS ÁMBITOS DE LA EDUCACIÓN, LA FORMACIÓN PROFESIONAL, EL CONOCIMIENTO DE IDIOMAS Y EL EMPRENDIMIENTO. LA REALIZACIÓN DE PROGRAMAS, PROYECTOS Y CURSOS DE FORMACIÓN, INSERCIÓN LABORAL, MEJORA DE LA EMPLEABILIDAD, PROMOCIÓN DE LA CULTURA ESPAÑOLA Y MOVILIDAD INTERNACIONAL DIRIGIDOS A JÓVENES, PRINCIPALMENTE PERTENECIENTES A COLECTIVOS DESFAVORECIDOS, CON PROBLEMÁTICA DE INSERCIÓN SOCIAL, O EN RIESGO DE EXCLUSIÓN. LA ACOGIDA DE JÓVENES EN ESPAÑA ASÍ COMO DE AQUELLOS QUE DESEEN REALIZAR UNA ACTIVIDAD FORMATIVA EN OTRO PAÍS, LA GESTIÓN DEL ALOJAMIENTO Y ESTANCIA EN DESTINO. LA PRESTACIÓN DE SERVICIOS DE CONSULTORÍA Y ASESORAMIENTO EN EL ÁMBITO DE PROYECTOS INTERNACIONALES EN SU MÁS AMPLIO SENTIDO, ESPECIALMENTE PARA PROGRAMAS RELACIONADOS CON EL ÁMBITO DE LA FORMACIÓN Y PARA AQUELLOS ENCAMINADOS A PROMOVER LA INTERNACIONALIZACIÓN DE INSTITUCIONES EDUCATIVAS Y LA COOPERACIÓN INTERNACIONAL.",
      "mainEntityOfPage": "https://www.contratacion.euskadi.eus/webkpe00-kperoc/es/ac71aBusquedaRegistrosWar/empresa/10315",
      "_links": {
        "self": {
          "name": "INTERNATIONAL CONSULTING AND MOBILITY AGENCY, S.L.",
          "href": "https://api.euskadi.eus/procurements/companies/10315"
        }
      }
    },
    {
      "name": "PROTECCION RADIOLOGICA MEDICA, S.L.",
      "registrationNumber": "09017",
      "identificationNumber": "B50545524",
      "address": "Martín Cortés, 18, Local",
      "location": {
        "postalCode": "50005",
        "municipality": "Zaragoza",
        "county": "Zaragoza",
        "municipalityId": "297",
        "countyId": "50"
      },
      "economicActivities": [
        {
          "id": "1.843.9",
          "name": "Otros servicios técnicos n.c.o.p",
          "_links": {
            "self": {
              "name": "Otros servicios técnicos n.c.o.p",
              "href": "https://api.euskadi.eus/procurements/companies/economic-activities/1.843.9"
            }
          }
        }
      ],
      "certificateStartDate": "2025-09-04",
      "certificateEndDate": "2026-03-04",
      "object": "LA PRESTACIÓN DE SERVICIOS DE ASISTENCIA TÉCNICA A INSTALACIONES RADIACTIVAS, CON LAS FUNCIONES QUE SON PROPIAS DE LAS UNIDADES TÉCNICAS DE PROTECCIÓN RADIOLÓGICA (U.T.P.R.), DE ACUERDO CON LA NORMATIVA ESTABLECIDA AL RESPECTO POR EL CONSEJO DE SEGURIDAD NUCLEAR (C.S.N.) Y EN PARTICULAR: LA CERTIFICACIONES DE INSTALACIONES RADIACTIVAS NUEVAS Y EN FUNCIONAMIENTO; LA VIGILANCIA Y CONTROL DE NIVELES DE RADIACIÓN DE TODO TIPO DE INSTALACIONES; EL CONTROL DE CALIDAD DE EQUIPOS Y SALAS; GESTIÓN DOSIMETRÍA PERSONAL, SUPERVISIÓN Y CONTROL DEL CUMPLIMIENTO DEL REGLAMENTO SOBRE PROTECCIÓN SANITARIA SOBRE RADIACIONES IONIZANTES, ELABORACIÓN DE PROYECTOS DE RADIOPROTECCIÓN; PRESTACIÓN DE SERVICIOS DE ASESORAMIENTO EN MATERIA DE RADIOPROTECCIÓN; PRESTACIÓN DE SERVICIOS DE GESTIÓN ADMINISTRATIVA EN RELACIÓN CON LAS MATERIAS ANTERIORES, FORMACIÓN DE PERSONAL EN MATERIA DE PROTECCIÓN RADIOLÓGICA, GESTIÓN DE RESIDUOS Y OTROS MATERIALES Y UTENSILIOS RELACIONADOS CON LA PROTECCIÓN RADIOLÓGICA.",
      "mainEntityOfPage": "https://www.contratacion.euskadi.eus/webkpe00-kperoc/es/ac71aBusquedaRegistrosWar/empresa/09017",
      "_links": {
        "self": {
          "name": "PROTECCION RADIOLOGICA MEDICA, S.L.",
          "href": "https://api.euskadi.eus/procurements/companies/09017"
        }
      }
    },
    {
      "name": "ENTECSA BILBAO, S.L.",
      "registrationNumber": "10095",
      "identificationNumber": "B95200549",
      "address": "POLIGONO INDUSTRIAL ERLETXE CALLE D NAVE 4",
      "location": {
        "postalCode": "48960",
        "municipality": "Galdakao",
        "county": "Bizkaia",
        "municipalityId": "036",
        "countyId": "48"
      },
      "economicActivities": [
        {
          "id": "1.843.3",
          "name": "Servicios técnicos de prospecciones y estudios geológicos",
          "_links": {
            "self": {
              "name": "Servicios técnicos de prospecciones y estudios geológicos",
              "href": "https://api.euskadi.eus/procurements/companies/economic-activities/1.843.3"
            }
          }
        }
      ],
      "certificateStartDate": "2025-09-04",
      "certificateEndDate": "2026-03-04",
      "object": "EL EXAMEN, ANÁLISIS, INVESTIGACIÓN, SEGUIMIENTO Y CONTROL DE PROYECTOS Y EJECUCIÓN DE OBRAS CIVILES Y DE EDIFICACIÓN Y DE LOS MATERIALES QUE INTERVIENEN EN ELLOS. ESTUDIOS GEOFÍSICOS E HIDROLÓGICOS. INFORMES TÉCNICOS DE TODA CLASE, INCLUSO PERICIALES. CÁLCULOS DE ESTRUCTURAS Y CIMENTACIONES Y CENTRO DE CÁLCULO EN GENERAL. TODA CLASE DE ANÁLISIS Y CONTROL DE CALIDAD DE PRODUCTOS Y MATERIAS PRIMAS, INCLUIDOS BROMATOLÓGICOS Y CLÍNICOS. ELABORACIÓN DE DICTÁMENES Y ESTUDIOS EN RELACIÓN CON LO ANTERIORMENTE EXPRESADO. ASESORAMIENTO Y ESTUDIOS TÉCNICOS A ENTES PÚBLICOS Y PRIVADOS EN GENERAL, INCLUYENDO LOS CAMPOS SANITARIO Y ALIMENTICIO.",
      "mainEntityOfPage": "https://www.contratacion.euskadi.eus/webkpe00-kperoc/es/ac71aBusquedaRegistrosWar/empresa/10095",
      "_links": {
        "self": {
          "name": "ENTECSA BILBAO, S.L.",
          "href": "https://api.euskadi.eus/procurements/companies/10095"
        }
      }
    },
    {
      "name": "ARQUITECTURA E INGENIERIA SEMENDIA, S.L.P",
      "registrationNumber": "04422",
      "identificationNumber": "B01387307",
      "address": "C/PADULETA, 55. OFICINA 302",
      "location": {
        "postalCode": "01015",
        "municipality": "Vitoria-Gasteiz",
        "county": "Araba/Álava",
        "municipalityId": "059",
        "countyId": "01"
      },
      "economicActivities": [
        {
          "id": "1.843.2",
          "name": "Servicios técnicos de arquitectura y urbanismo",
          "_links": {
            "self": {
              "name": "Servicios técnicos de arquitectura y urbanismo",
              "href": "https://api.euskadi.eus/procurements/companies/economic-activities/1.843.2"
            }
          }
        }
      ],
      "certificateStartDate": "2025-09-04",
      "certificateEndDate": "2026-03-04",
      "object": "LA ACTIVIDAD PROPIA DE LOS PROFESIONALES DE LA ARQUITECTURA",
      "mainEntityOfPage": "https://www.contratacion.euskadi.eus/webkpe00-kperoc/es/ac71aBusquedaRegistrosWar/empresa/04422",
      "_links": {
        "self": {
          "name": "ARQUITECTURA E INGENIERIA SEMENDIA, S.L.P",
          "href": "https://api.euskadi.eus/procurements/companies/04422"
        }
      }
    },
    {
      "name": "REPROGRAFIA INDUSTRIAL DE CATALUNYA, S.L.",
      "registrationNumber": "09834",
      "identificationNumber": "B58430380",
      "address": "Pagesia, 22 bjs",
      "location": {
        "postalCode": "08191",
        "municipality": "Rubí",
        "county": "Barcelona",
        "municipalityId": "184",
        "countyId": "08"
      },
      "economicActivities": [
        {
          "id": "1.659.2",
          "name": "Venta al por menor de muebles de oficina y máquinas y equipos de oficina",
          "_links": {
            "self": {
              "name": "Venta al por menor de muebles de oficina y máquinas y equipos de oficina",
              "href": "https://api.euskadi.eus/procurements/companies/economic-activities/1.659.2"
            }
          }
        },
        {
          "id": "1.699",
          "name": "Otras reparaciones n.c.o.p",
          "_links": {
            "self": {
              "name": "Otras reparaciones n.c.o.p",
              "href": "https://api.euskadi.eus/procurements/companies/economic-activities/1.699"
            }
          }
        },
        {
          "id": "1.845",
          "name": "Explotación electrónica por cuenta de terceros",
          "_links": {
            "self": {
              "name": "Explotación electrónica por cuenta de terceros",
              "href": "https://api.euskadi.eus/procurements/companies/economic-activities/1.845"
            }
          }
        }
      ],
      "certificateStartDate": "2025-09-04",
      "certificateEndDate": "2026-03-04",
      "object": "LA VENTA Y REPARACIÓN DE MATERIAL DE OFICINA DE CUALQUIER CLASE, INCLUSO PRODUCTOS DE INFORMÁTICA, REPROGRAFÍA Y ANÁLOGOS; LA PRESTACIÓN DE SERVICIOS DE TECNOLOGÍAS DE LA INFORMACIÓN Y LAS COMUNICACIONES; SERVICIOS DE CAPTACIÓN DE INFORMACIÓN PARA MEDIOS ELECTRÓNICOS, INFORMÁTICOS Y TELEMÁTICOS; EL DESARROLLO, MANTENIMIENTO Y REPARACIÓN DE EQUIPOS E INSTALACIONES INFORMÁTICAS Y DE TELECOMUNICACIONES; ASÍ COMO LA PRESTACIÓN DE SERVICIOS DE FINANCIACIÓN (PRÉSTAMOS, CRÉDITOS Y SIMILARES) A LAS SOCIEDADES DEL GRUPO O VINCULADAS AL MISMO.",
      "mainEntityOfPage": "https://www.contratacion.euskadi.eus/webkpe00-kperoc/es/ac71aBusquedaRegistrosWar/empresa/09834",
      "_links": {
        "self": {
          "name": "REPROGRAFIA INDUSTRIAL DE CATALUNYA, S.L.",
          "href": "https://api.euskadi.eus/procurements/companies/09834"
        }
      }
    },
    {
      "name": "FUNDACION LARRATXO",
      "registrationNumber": "08734",
      "identificationNumber": "G20087151",
      "address": "PASEO DE LARRATXO 17, BAJO",
      "location": {
        "postalCode": "20017",
        "municipality": "Donostia / San Sebastián",
        "county": "Gipuzkoa",
        "municipalityId": "069",
        "countyId": "20"
      },
      "economicActivities": [
        {
          "id": "1.966.9",
          "name": "Otros servicios culturales n.c.o.p",
          "_links": {
            "self": {
              "name": "Otros servicios culturales n.c.o.p",
              "href": "https://api.euskadi.eus/procurements/companies/economic-activities/1.966.9"
            }
          }
        }
      ],
      "certificateStartDate": "2025-09-04",
      "certificateEndDate": "2026-03-04",
      "object": "LA PROMOCIÓN Y/O PRESTACIÓN DE SERVICIOS DE ATENCIÓN A FAVOR DE AQUELLAS PERSONAS QUE POR CIRCUNSTANCIAS DE LA VIDA, SEAN DE ÍNDOLE FAMILIAR O BIEN DERIVADAS DEL ALCOHOL, LAS DROGAS, LA MISERIA, ETC., VIVAN EN CONDICIONES INHUMANAS. LA FUNDACIÓN TENDRÁ COMO ÁMBITO LA ACTUACIÓN LA CIUDAD DE DONOSTIA-SAN SEBASTIÁN, PUDIENDO PROMOVER ADEMÁS PROYECTOS, ACORDES CON SU OBJETO SOCIAL, EN OTROS ÁMBITOS, ESPECIALMENTE LATINOAMÉRICA Y ÁFRICA, CONTANDO PARA LA REALIZACIÓN DE SU OBJETO FUNDACIONAL CON PERSONAL PREFERENTEMENTE VOLUNTARIO Y DE INSPIRACIÓN CRISTIANA.",
      "mainEntityOfPage": "https://www.contratacion.euskadi.eus/webkpe00-kperoc/es/ac71aBusquedaRegistrosWar/empresa/08734",
      "_links": {
        "self": {
          "name": "FUNDACION LARRATXO",
          "href": "https://api.euskadi.eus/procurements/companies/08734"
        }
      }
    },
    {
      "name": "BIODIVERISTY SOSTENIBILITY PESTCONTROL SERVICES & CONSULTING, S.L.",
      "registrationNumber": "10094",
      "identificationNumber": "B55422323",
      "address": "Elcano 13 1º izda",
      "location": {
        "postalCode": "48008",
        "municipality": "Bilbao",
        "county": "Bizkaia",
        "municipalityId": "020",
        "countyId": "48"
      },
      "economicActivities": [
        {
          "id": "1.921.3",
          "name": "Exterminio de animales dañinos y desinfección",
          "_links": {
            "self": {
              "name": "Exterminio de animales dañinos y desinfección",
              "href": "https://api.euskadi.eus/procurements/companies/economic-activities/1.921.3"
            }
          }
        }
      ],
      "certificateStartDate": "2025-09-04",
      "certificateEndDate": "2026-03-04",
      "object": "- CONTROL Y TRATAMIENTO DE PLAGAS, DESINSECTACIÓN, DESRATIZACIÓN Y DESINFECCIÓN AMBIENTAL, ASÍ COMO CONTROL DE ANIMALES DAÑINOS EN TODA CLASE DE SUPERFICIES Y DE EDIFICACIONES. - TRATAMIENTOS FITOSANITARIOS, TRATAMIENTOS DE AGUA Y CONTROL DE LEGIONELOSIS, Y MANTENIMIENTO DE PISCINAS E INSTALACIONES DEPORTIVAS, DESBROCE Y LIMPIEZA, CALIDAD DE AMBIENTE INTERIOR. - ASESORAMIENTO Y PRESTACIÓN DE SERVICIOS DE CONSULTORÍA MEDIOAMBIENTAL.",
      "mainEntityOfPage": "https://www.contratacion.euskadi.eus/webkpe00-kperoc/es/ac71aBusquedaRegistrosWar/empresa/10094",
      "_links": {
        "self": {
          "name": "BIODIVERISTY SOSTENIBILITY PESTCONTROL SERVICES & CONSULTING, S.L.",
          "href": "https://api.euskadi.eus/procurements/companies/10094"
        }
      }
    },
    {
      "name": "RESIDENCIA LEZEAGA BASURTO, S.L.",
      "registrationNumber": "08522",
      "identificationNumber": "B95576450",
      "address": "C/ Lezeaga 32-C",
      "location": {
        "postalCode": "48002",
        "municipality": "Bilbao",
        "county": "Bizkaia",
        "municipalityId": "020",
        "countyId": "48"
      },
      "economicActivities": [
        {
          "id": "1.951",
          "name": "Asistencia y servicios sociales en centros residenciales",
          "_links": {
            "self": {
              "name": "Asistencia y servicios sociales en centros residenciales",
              "href": "https://api.euskadi.eus/procurements/companies/economic-activities/1.951"
            }
          }
        }
      ],
      "certificateStartDate": "2025-09-04",
      "certificateEndDate": "2026-02-21",
      "object": "LA GESTIÓN Y PRESTACIÓN DE ASISTENCIA Y CUIDADOS A ANCIANOS Y NECESITADOS, MEDIANTE LA FACILITACIÓN DE COMPAÑÍA A LOS MISMOS Y BAJO SU SUPERVISIÓN Y VIGILANCIA, YA SEA EN RESIDENCIAS, HOSPITALES O CENTROS SIMILARES E INCLUSO A DOMICILIO; EL FAVORECIMIENTO DE ACTIVIDADES LÚDICAS A DICHAS PERSONAS; LA DINAMIZACIÓN DE LAS MISMAS; LA AYUDA EN LAS TAREAS DIARIAS DE AUTOHIGIENE, VESTIMENTA Y CUALQUIER OTRA RELACIONADA CON SU FALTA DE HABILIDAD PARA VALERSE POR SI MISMA, ASÍ COMO EL FAVORECIMIENTO DE SU INTEGRACIÓN SOCIAL. IGUALMENTE PODRÁ LA SOCIEDAD REALIZAR ACTOS JURÍDICOS EN NOMBRE DE DICHAS PERSONAS, TALES COMO EL COBRO DE SU PENSIÓN U OTRAS INDEMNIZACIONES, LA APERTURA, CANCELACIÓN Y MODIFICACIÓN DE DEPÓSITOS, CUENTAS CORRIENTES Y OTROS NEGOCIOS BANCARIOS Y LA REPRESENTACIÓN, DEFENSA Y GESTIÓN DE ASUNTOS E INTERESES DE LOS ANCIANOS ANTE ORGANISMOS PÚBLICOS O PRIVADOS, SALVO QUE ALGUNA DE ESTAS ACTIVIDADES ESTUVIERA PROHIBIDA POR LEY O SUJETA A REGULACIÓN ESPECIAL.",
      "mainEntityOfPage": "https://www.contratacion.euskadi.eus/webkpe00-kperoc/es/ac71aBusquedaRegistrosWar/empresa/08522",
      "_links": {
        "self": {
          "name": "RESIDENCIA LEZEAGA BASURTO, S.L.",
          "href": "https://api.euskadi.eus/procurements/companies/08522"
        }
      }
    },
    {
      "name": "AXIA INTELLIGENT LEARNING S.L.",
      "registrationNumber": "06495",
      "identificationNumber": "B95800348",
      "address": "San Vicente, nº 8 6º, Dpto. 8",
      "location": {
        "postalCode": "48001",
        "municipality": "Bilbao",
        "county": "Bizkaia",
        "municipalityId": "020",
        "countyId": "48"
      },
      "economicActivities": [
        {
          "id": "1.933.9",
          "name": "Otras actividades de enseñanza tales como idiomas, mecanografía",
          "_links": {
            "self": {
              "name": "Otras actividades de enseñanza tales como idiomas, mecanografía",
              "href": "https://api.euskadi.eus/procurements/companies/economic-activities/1.933.9"
            }
          }
        }
      ],
      "certificateStartDate": "2025-09-04",
      "certificateEndDate": "2026-02-26",
      "object": "- LA PRESTACIÓN DE SERVICIOS DE GESTIÓN, CONSULTORÍA Y FORMACIÓN EMPRESARIAL. - DISEÑO, DESARROLLO, COMPRAVENTA Y GESTIÓN DE PRODUCTOS, SERVICIOS Y SOLUCIONES DE FORMACIÓN EN TODAS SUS MODALIDADES (PRESENCIAL Y ONLINE), ASÍ COMO DE TODOS LOS RECURSOS DIDÁCTICOS NECESARIOS PARA LLEVARLA A CABO (EDITORIALES, AUDIOVISUALES Y MULTIMEDIA). - LA PRESTACIÓN DE SERVICIOS RELACIONADOS CON LA INFORMÁTICA. - LA VENTA AL MAYOR Y AL DETALLE Y EL ALQUILER DE TODA CLASE DE EQUIPOS INFORMÁTICOS, SOFTWARE Y HARDWARE. - LA VENTA AL MAYOR Y AL DETALLE DE TODA CLASE DE DOCUMENTACIÓN TÉCNICA, MANUALES Y LIBROS",
      "mainEntityOfPage": "https://www.contratacion.euskadi.eus/webkpe00-kperoc/es/ac71aBusquedaRegistrosWar/empresa/06495",
      "_links": {
        "self": {
          "name": "AXIA INTELLIGENT LEARNING S.L.",
          "href": "https://api.euskadi.eus/procurements/companies/06495"
        }
      }
    },
    {
      "name": "LIMIA & MARTIN, S.L.",
      "registrationNumber": "02807",
      "identificationNumber": "B48551980",
      "address": "C/ MUELLE TOMÁS OLABARRI 3, bajo",
      "location": {
        "postalCode": "48930",
        "municipality": "Getxo",
        "county": "Bizkaia",
        "municipalityId": "044",
        "countyId": "48"
      },
      "economicActivities": [
        {
          "id": "1.847",
          "name": "Servicios de consultoría",
          "_links": {
            "self": {
              "name": "Servicios de consultoría",
              "href": "https://api.euskadi.eus/procurements/companies/economic-activities/1.847"
            }
          }
        }
      ],
      "certificateStartDate": "2025-09-04",
      "certificateEndDate": "2026-02-25",
      "object": "LA ASESORÍA Y CONSULTORÍA AMBIENTAL A LA INDUSTIA Y A LA ADMINISTRACIÓN EN MATERIA MEDIO AMBIENTAL; AUDITORÍAS AMBIENTALES; ECOAUDITORÍAS; SISTEMAS DE GESTIÓN AMBIENTAL; ECOLABEL; ESTUDIOS DE IMPACTO AMBIENTAL; E IMPLANTACIÓN DE PROCESOS PRODUCTIVOS Y/O ELEMENTOS ORIENTADOS A LA MINIMIZACIÓN O ELIMINACIÓN DEL IMPACTO AMBIENTAL PRODUCIDO POR LA INDUSTRIA. DICHAS ACTIVIDADES SE EJERCERÁN SIEMPRE QUE, CUANDO SEA NECESARIO, SE CUMPLAN LOS REQUISITOS LEGALES  Y SE OBSERVEN LAS AUTORIZACIONES ADMINISTRATIVAS QUE, EN SU CASO SE PRECISEN.",
      "mainEntityOfPage": "https://www.contratacion.euskadi.eus/webkpe00-kperoc/es/ac71aBusquedaRegistrosWar/empresa/02807",
      "_links": {
        "self": {
          "name": "LIMIA & MARTIN, S.L.",
          "href": "https://api.euskadi.eus/procurements/companies/02807"
        }
      }
    }
  ]
}