{
  "totalItems": 9042,
  "totalPages": 905,
  "currentPage": 522,
  "itemsOfPage": 10,
  "items": [
    {
      "name": "MADERPLAY, S.L.",
      "registrationNumber": "06840",
      "identificationNumber": "B31601156",
      "address": "Poligono Industrial Comarca II, c/a nº 25",
      "location": {
        "postalCode": "31191",
        "municipality": "Galar",
        "county": "Navarra",
        "municipalityId": "109",
        "countyId": "31"
      },
      "economicActivities": [
        {
          "id": "1.494.2",
          "name": "Fabricación de artículos de deporte",
          "_links": {
            "self": {
              "name": "Fabricación de artículos de deporte",
              "href": "https://api.euskadi.eus/procurements/companies/economic-activities/1.494.2"
            }
          }
        },
        {
          "id": "1.699",
          "name": "Otras reparaciones n.c.o.p",
          "_links": {
            "self": {
              "name": "Otras reparaciones n.c.o.p",
              "href": "https://api.euskadi.eus/procurements/companies/economic-activities/1.699"
            }
          }
        }
      ],
      "certificateStartDate": "2021-07-12",
      "certificateEndDate": "2021-12-02",
      "object": "LA FABRICACIÓN DE ARTÍCULOS DE DEPORTE Y DE MOBILIARIO PARA PARQUES INFANTILES",
      "mainEntityOfPage": "https://www.contratacion.euskadi.eus/webkpe00-kperoc/es/ac71aBusquedaRegistrosWar/empresa/06840",
      "_links": {
        "self": {
          "name": "MADERPLAY, S.L.",
          "href": "https://api.euskadi.eus/procurements/companies/06840"
        }
      }
    },
    {
      "name": "MONTAJES INTEGRALES LANKOR, S.L.",
      "registrationNumber": "01997",
      "identificationNumber": "B20389201",
      "address": "P.EMPRESARIAL ZUATZU EDIF. ZURRIOLA, P. BAJA LOCAL 5",
      "location": {
        "postalCode": "20018",
        "municipality": "Donostia / San Sebastián",
        "county": "Gipuzkoa",
        "municipalityId": "069",
        "countyId": "20"
      },
      "economicActivities": [
        {
          "id": "1.849.9",
          "name": "Otros servicios independientes n.c.o.p",
          "_links": {
            "self": {
              "name": "Otros servicios independientes n.c.o.p",
              "href": "https://api.euskadi.eus/procurements/companies/economic-activities/1.849.9"
            }
          }
        },
        {
          "id": "1.989.2",
          "name": "Servicios de organización de congresos, asambleas y similares",
          "_links": {
            "self": {
              "name": "Servicios de organización de congresos, asambleas y similares",
              "href": "https://api.euskadi.eus/procurements/companies/economic-activities/1.989.2"
            }
          }
        }
      ],
      "certificateStartDate": "2021-07-09",
      "certificateEndDate": "2021-12-30",
      "object": "LA PRESTACIÓN DE SERVICIOS A OTRAS EMPRESAS Y PARTICULARES Y LA ORGANIZACIÓN Y REALIZACIÓN DE CONGRESOS Y REUNIONES EN SUS ASPECTOS TÉCNICOS, DECORACIÓN Y MONTAJE, CREACIÓN DE LOGOTIPOS, ANAGRAMAS, IMAGEN CORPORATIVA, GRÁFICAS, ALQUILER DE MOBILIARIO Y ALQUILER DE MATERIAL DE OFICINA",
      "mainEntityOfPage": "https://www.contratacion.euskadi.eus/webkpe00-kperoc/es/ac71aBusquedaRegistrosWar/empresa/01997",
      "_links": {
        "self": {
          "name": "MONTAJES INTEGRALES LANKOR, S.L.",
          "href": "https://api.euskadi.eus/procurements/companies/01997"
        }
      }
    },
    {
      "name": "GALLAZ JOMA, S.L.",
      "registrationNumber": "07560",
      "identificationNumber": "B20760518",
      "address": "SAN BARTOLOME, 11",
      "location": {
        "postalCode": "01170",
        "municipality": "Legutio",
        "county": "Araba/Álava",
        "municipalityId": "058",
        "countyId": "01"
      },
      "economicActivities": [
        {
          "id": "1.615.3",
          "name": "Venta al por mayor de aparatos electrodomésticos y ferretería",
          "_links": {
            "self": {
              "name": "Venta al por mayor de aparatos electrodomésticos y ferretería",
              "href": "https://api.euskadi.eus/procurements/companies/economic-activities/1.615.3"
            }
          }
        },
        {
          "id": "1.861.2",
          "name": "Alquiler de locales industriales y otros alquileres n.c.o.p",
          "_links": {
            "self": {
              "name": "Alquiler de locales industriales y otros alquileres n.c.o.p",
              "href": "https://api.euskadi.eus/procurements/companies/economic-activities/1.861.2"
            }
          }
        }
      ],
      "certificateStartDate": "2021-07-09",
      "certificateEndDate": "2021-12-30",
      "object": "LA ELABORACION DE COMPONENTES DE SEGURIDAD Y COMPRAVENTA DE ARTICULOS DE FERRETERIA",
      "mainEntityOfPage": "https://www.contratacion.euskadi.eus/webkpe00-kperoc/es/ac71aBusquedaRegistrosWar/empresa/07560",
      "_links": {
        "self": {
          "name": "GALLAZ JOMA, S.L.",
          "href": "https://api.euskadi.eus/procurements/companies/07560"
        }
      }
    },
    {
      "name": "MIM ARQUITECTOS ASOCIADOS-EDIFICACIONES Y URBANISMO, S.L.P.",
      "registrationNumber": "07801",
      "identificationNumber": "B01507771",
      "address": "c/PEDRO DE ASUA 53 BAJO",
      "location": {
        "postalCode": "01008",
        "municipality": "Vitoria-Gasteiz",
        "county": "Araba/Álava",
        "municipalityId": "059",
        "countyId": "01"
      },
      "economicActivities": [
        {
          "id": "1.843.2",
          "name": "Servicios técnicos de arquitectura y urbanismo",
          "_links": {
            "self": {
              "name": "Servicios técnicos de arquitectura y urbanismo",
              "href": "https://api.euskadi.eus/procurements/companies/economic-activities/1.843.2"
            }
          }
        }
      ],
      "certificateStartDate": "2021-07-09",
      "certificateEndDate": "2021-12-05",
      "object": "LA ACTIVIDAD PROPIA DE LOS PROFESIONALES DE LA ARQUITECTURA, ENTENDIÉNDOSE COMPRENDIDO DENTRO DEL MISMO ACTIVIDADES TALES COMO: LA PRESTACIÓN DE SERVICIOS, PROYECTOS, TRABAJOS DE PLANEAMIENTO, ASESORAMIENTO Y DIRECCIÓN DE OBRA Y CUALQUIER OTRO TRABAJO FACULTADO POR LA TITULACIÓN DE LOS SOCIOS, ARQUITECTOS, EN TEMAS RELACIONADOS CON LA ARQUITECTURA, URBANISMO, ORDENACIÓN DEL TERRITORIO, CONSTRUCCIÓN, DECORACIÓN E INGENIERÍA CIVIL VINCULADA A LA ARQUITECTURA Y EL URBANISMO ASÍ COMO LAS ACTIVIDADES DE GESTIÓN COORDINACIÓN Y ADMINISTRACIÓN DE LOS ASUNTOS RELACIONADOS CON EL OBJETO SOCIAL",
      "mainEntityOfPage": "https://www.contratacion.euskadi.eus/webkpe00-kperoc/es/ac71aBusquedaRegistrosWar/empresa/07801",
      "_links": {
        "self": {
          "name": "MIM ARQUITECTOS ASOCIADOS-EDIFICACIONES Y URBANISMO, S.L.P.",
          "href": "https://api.euskadi.eus/procurements/companies/07801"
        }
      }
    },
    {
      "name": "INIBSA HOSPITAL, S.L.",
      "registrationNumber": "04942",
      "identificationNumber": "B65743833",
      "address": "Ctra. Sabadell-Granollers, Km. 14,5",
      "location": {
        "postalCode": "08185",
        "municipality": "Lliçà de Vall",
        "county": "Barcelona",
        "municipalityId": "108",
        "countyId": "08"
      },
      "economicActivities": [
        {
          "id": "1.614.1",
          "name": "Venta al por mayor de productos farmacéuticos y medicamentos",
          "_links": {
            "self": {
              "name": "Venta al por mayor de productos farmacéuticos y medicamentos",
              "href": "https://api.euskadi.eus/procurements/companies/economic-activities/1.614.1"
            }
          }
        },
        {
          "id": "1.619.2",
          "name": "Venta al por mayor de aparatos e instrumentos médicos, ortopédicos, ópticos",
          "_links": {
            "self": {
              "name": "Venta al por mayor de aparatos e instrumentos médicos, ortopédicos, ópticos",
              "href": "https://api.euskadi.eus/procurements/companies/economic-activities/1.619.2"
            }
          }
        },
        {
          "id": "1.849.9",
          "name": "Otros servicios independientes n.c.o.p",
          "_links": {
            "self": {
              "name": "Otros servicios independientes n.c.o.p",
              "href": "https://api.euskadi.eus/procurements/companies/economic-activities/1.849.9"
            }
          }
        }
      ],
      "certificateStartDate": "2021-07-09",
      "certificateEndDate": "2021-12-30",
      "object": "LA FABRICACIÓN, EL COMERCIO, IMPORTACIÓN Y EXPORTACIÓN, DE ARTÍCULOS O PRODUCTOS MÉDICOS, FARMACÉUTICOS, SANITARIOS, QUÍMICOS Y DERIVADOS, LA ELABORACIÓN Y TRANSFORMACIÓN DE LOS MISMOS, ASÍ COMO LA INVESTIGACIÓN Y LA EXPLOTACIÓN DE TODA CLASE DE LICENCIAS O PATENTES",
      "mainEntityOfPage": "https://www.contratacion.euskadi.eus/webkpe00-kperoc/es/ac71aBusquedaRegistrosWar/empresa/04942",
      "_links": {
        "self": {
          "name": "INIBSA HOSPITAL, S.L.",
          "href": "https://api.euskadi.eus/procurements/companies/04942"
        }
      }
    },
    {
      "name": "CONGENIA INTEGRACIÓN, SOCIEDAD LIMITADA",
      "registrationNumber": "07799",
      "identificationNumber": "B20536215",
      "address": "Arturo Campion, 46 - Esc. 3 - Bajo A",
      "location": {
        "postalCode": "20018",
        "municipality": "Donostia / San Sebastián",
        "county": "Gipuzkoa",
        "municipalityId": "069",
        "countyId": "20"
      },
      "economicActivities": [
        {
          "id": "1.617.8",
          "name": "Venta al por mayor de máquinas y material de oficina",
          "_links": {
            "self": {
              "name": "Venta al por mayor de máquinas y material de oficina",
              "href": "https://api.euskadi.eus/procurements/companies/economic-activities/1.617.8"
            }
          }
        },
        {
          "id": "1.933.9",
          "name": "Otras actividades de enseñanza tales como idiomas, mecanografía",
          "_links": {
            "self": {
              "name": "Otras actividades de enseñanza tales como idiomas, mecanografía",
              "href": "https://api.euskadi.eus/procurements/companies/economic-activities/1.933.9"
            }
          }
        }
      ],
      "certificateStartDate": "2021-07-09",
      "certificateEndDate": "2021-12-27",
      "object": "LA COMERCIALIZACIÓN E INSTALACIÓN DE SOFTWARE Y CURSOS MULTIMEDIA, ASÍ COMO EL DESARROLLO DE PROYECTOS Y FORMACIÓN",
      "mainEntityOfPage": "https://www.contratacion.euskadi.eus/webkpe00-kperoc/es/ac71aBusquedaRegistrosWar/empresa/07799",
      "_links": {
        "self": {
          "name": "CONGENIA INTEGRACIÓN, SOCIEDAD LIMITADA",
          "href": "https://api.euskadi.eus/procurements/companies/07799"
        }
      }
    },
    {
      "name": "ASE DESARROLLO DE PROYECTOS, S.L.",
      "registrationNumber": "07793",
      "identificationNumber": "B95750147",
      "address": "C/ Gran Via de Don Diego Lopez de Haro 81, 6º-dpto. 2",
      "location": {
        "postalCode": "48011",
        "municipality": "Bilbao",
        "county": "Bizkaia",
        "municipalityId": "020",
        "countyId": "48"
      },
      "economicActivities": [
        {
          "id": "1.843.1",
          "name": "Servicios técnicos de ingeniería",
          "_links": {
            "self": {
              "name": "Servicios técnicos de ingeniería",
              "href": "https://api.euskadi.eus/procurements/companies/economic-activities/1.843.1"
            }
          }
        }
      ],
      "certificateStartDate": "2021-07-08",
      "certificateEndDate": "2021-11-29",
      "object": "LA PRESTACIÓN DE SERVICIOS, ELABORACIÓN DE ESTUDIOS, FORMACIÓN, ASESORAMIENTO, DIRECCIÓN, GESTIÓN DE PROYECTOS (PROJECT MANAGEMENT), Y PROYECTOS LLAVE EN MANO, EN MATERIA DE INFRAESTRUCTURAS, LOGÍSTICA, INSTALACIONES INDUSTRIALES, URBANAS, PORTUARIAS, AEROPORTUARIAS, ENERGÉTICAS, CONSTRUCCIÓN DE OBRA CIVIL Y OBRA PÚBLICA, EDIFICACIÓN, CARTOGRAFÍA, GEOTÉCNICA, Y PROMOCIÓN INMOBILIARIA. EL ASESORAMIENTO Y GESTIÓN EN LA UTILIZACIÓN DE LA ENERGÍA EN CUALQUIER FORMA Y LA INSTALACIÓN, REFORMA Y MANTENIMIENTO DE SISTEMAS EN ESTOS MISMOS CAMPOS",
      "mainEntityOfPage": "https://www.contratacion.euskadi.eus/webkpe00-kperoc/es/ac71aBusquedaRegistrosWar/empresa/07793",
      "_links": {
        "self": {
          "name": "ASE DESARROLLO DE PROYECTOS, S.L.",
          "href": "https://api.euskadi.eus/procurements/companies/07793"
        }
      }
    },
    {
      "name": "CARDIOLIFE-MEDICAL, SOCIEDAD LIMITADA",
      "registrationNumber": "07791",
      "identificationNumber": "B36999928",
      "address": "CARRETERA DE MADRID NÚM. 210, 1ª",
      "location": {
        "postalCode": "36318",
        "municipality": "Vigo",
        "county": "Pontevedra",
        "municipalityId": "057",
        "countyId": "36"
      },
      "economicActivities": [
        {
          "id": "1.619.2",
          "name": "Venta al por mayor de aparatos e instrumentos médicos, ortopédicos, ópticos",
          "_links": {
            "self": {
              "name": "Venta al por mayor de aparatos e instrumentos médicos, ortopédicos, ópticos",
              "href": "https://api.euskadi.eus/procurements/companies/economic-activities/1.619.2"
            }
          }
        }
      ],
      "certificateStartDate": "2021-07-07",
      "certificateEndDate": "2021-12-26",
      "object": "COMPRA, VENTA, DISTRIBUCIÓN Y COMERCIALIZACIÓN DE PRODUCTOS Y ARTÍCULOS MÉDICOS O SANITARIOS DE CUALESQUIERA PRODUCTOS, MATERIALES, APARATOS, EQUIPOS Y MAQUINARIA RELACIONADA CON LA PRÁCTICA DE LA MEDICINA",
      "mainEntityOfPage": "https://www.contratacion.euskadi.eus/webkpe00-kperoc/es/ac71aBusquedaRegistrosWar/empresa/07791",
      "_links": {
        "self": {
          "name": "CARDIOLIFE-MEDICAL, SOCIEDAD LIMITADA",
          "href": "https://api.euskadi.eus/procurements/companies/07791"
        }
      }
    },
    {
      "name": "AIR LIQUIDE HEALTHCARE ESPAÑA S.L.",
      "registrationNumber": "07789",
      "identificationNumber": "B84745801",
      "address": "CALLE ORENSE 34 3ª PLANTA",
      "location": {
        "postalCode": "28020",
        "municipality": "Madrid",
        "county": "Madrid",
        "municipalityId": "079",
        "countyId": "28"
      },
      "economicActivities": [
        {
          "id": "1.504.3",
          "name": "Instalaciones de frío, calor y acondicionamiento de aire",
          "_links": {
            "self": {
              "name": "Instalaciones de frío, calor y acondicionamiento de aire",
              "href": "https://api.euskadi.eus/procurements/companies/economic-activities/1.504.3"
            }
          }
        },
        {
          "id": "1.614.1",
          "name": "Venta al por mayor de productos farmacéuticos y medicamentos",
          "_links": {
            "self": {
              "name": "Venta al por mayor de productos farmacéuticos y medicamentos",
              "href": "https://api.euskadi.eus/procurements/companies/economic-activities/1.614.1"
            }
          }
        },
        {
          "id": "1.616.9",
          "name": "Otro comercio al por mayor interindustria de la minería n.c.o.p",
          "_links": {
            "self": {
              "name": "Otro comercio al por mayor interindustria de la minería n.c.o.p",
              "href": "https://api.euskadi.eus/procurements/companies/economic-activities/1.616.9"
            }
          }
        },
        {
          "id": "1.942.9",
          "name": "Otros servicios sanitarios sin internados, no clasificados",
          "_links": {
            "self": {
              "name": "Otros servicios sanitarios sin internados, no clasificados",
              "href": "https://api.euskadi.eus/procurements/companies/economic-activities/1.942.9"
            }
          }
        }
      ],
      "certificateStartDate": "2021-07-06",
      "certificateEndDate": "2021-11-09",
      "object": "A) LA FABRICACIÓN, DISTRIBUCIÓN Y EL SUMINISTRO DE TODO TIPO DE GASES MEDICINALES; B) EL SUMINISTRO O ALQUILER DE INSTALACIONES Y APARATOS DESTINADOS AL TRATAMIENTO MÉDICO, MEDIANTE LA ADMINISTRACIÓN DE GASES; C) LA PRESTACIÓN DE TODO TIPO DE SERVICIOS MÉDICOS Y ASISTENCIALES, INCLUYENDO, ENTRE OTROS, LOS RELACIONADOS CON LA OXIGENOTERAPIA O GASES MEDICINALES Y LOS DE TERAPIAS RESPIRATORIAS A DOMICILIO; D) LA FABRICACIÓN, DISTRIBUCIÓN Y EL SUMINISTRO DE TODO TIPO DE GASES INDUSTRIALES, ESPECIALES Y PUROS, ASÍ COMO SUS MEZCLAS; E) EL SUMINISTRO Y ALQUILER DE INSTALACIONES, APARATOS, BOTELLAS Y TANQUES PARA EL SERVICIO DEL SUMIISTRO DE GASES A SU MERCADO NATURAL. F) LA ADQUISICIÓN Y TENENCIA DE PARTICIPACIONES Y/O ACCIONES DE OTRAS COMPAÑÍAS, YA SEA DIRECTAMENTE O A TRAVÉS DE FILIALES",
      "mainEntityOfPage": "https://www.contratacion.euskadi.eus/webkpe00-kperoc/es/ac71aBusquedaRegistrosWar/empresa/07789",
      "_links": {
        "self": {
          "name": "AIR LIQUIDE HEALTHCARE ESPAÑA S.L.",
          "href": "https://api.euskadi.eus/procurements/companies/07789"
        }
      }
    },
    {
      "name": "LIMPIEZAS KALIDAD 2000, S.L.",
      "registrationNumber": "05430",
      "identificationNumber": "B95652418",
      "address": "JUAN VIAR Nº2",
      "location": {
        "postalCode": "48004",
        "municipality": "Bilbao",
        "county": "Bizkaia",
        "municipalityId": "020",
        "countyId": "48"
      },
      "economicActivities": [
        {
          "id": "1.921.3",
          "name": "Exterminio de animales dañinos y desinfección",
          "_links": {
            "self": {
              "name": "Exterminio de animales dañinos y desinfección",
              "href": "https://api.euskadi.eus/procurements/companies/economic-activities/1.921.3"
            }
          }
        },
        {
          "id": "1.922.1",
          "name": "Servicios de limpieza de interiores",
          "_links": {
            "self": {
              "name": "Servicios de limpieza de interiores",
              "href": "https://api.euskadi.eus/procurements/companies/economic-activities/1.922.1"
            }
          }
        }
      ],
      "certificateStartDate": "2021-07-06",
      "certificateEndDate": "2021-12-30",
      "object": "1).- CONSTRUCCIÓN, INSTALACIONES Y MANTENIIENTO. S).- PRESTACIÓN DE SERVICIOS. ACTIVIDADES DE GESTIÓN Y ADMINISTRACIÓN. SERVICIOS SANITARIOS. 3).- COMPRAVENTA Y REPARACIÓN DE VEHÍCULOS. REPARACIÓN Y MANTENIMIENTO DE INSTALACIONES Y MAQUINARIA, ESPECIALMENTE DE LIMPIEZA",
      "mainEntityOfPage": "https://www.contratacion.euskadi.eus/webkpe00-kperoc/es/ac71aBusquedaRegistrosWar/empresa/05430",
      "_links": {
        "self": {
          "name": "LIMPIEZAS KALIDAD 2000, S.L.",
          "href": "https://api.euskadi.eus/procurements/companies/05430"
        }
      }
    }
  ]
}