{
  "totalItems": 9042,
  "totalPages": 905,
  "currentPage": 267,
  "itemsOfPage": 10,
  "items": [
    {
      "name": "EXTINORTE S.L.",
      "registrationNumber": "05602",
      "identificationNumber": "B20646717",
      "address": "MAISTI-LOIDI 19E",
      "location": {
        "postalCode": "20100",
        "municipality": "Errenteria",
        "county": "Gipuzkoa",
        "municipalityId": "067",
        "countyId": "20"
      },
      "economicActivities": [
        {
          "id": "1.699",
          "name": "Otras reparaciones n.c.o.p",
          "_links": {
            "self": {
              "name": "Otras reparaciones n.c.o.p",
              "href": "https://api.euskadi.eus/procurements/companies/economic-activities/1.699"
            }
          }
        }
      ],
      "certificateStartDate": "2025-09-19",
      "certificateEndDate": "2026-03-03",
      "object": "LA COMPRA, VENTA, IMPORTACIÓN, EXPORTACIÓN Y REPARACIÓN DE TODA CLASE DE MATERIALES CONTRA INCENDIOS",
      "mainEntityOfPage": "https://www.contratacion.euskadi.eus/webkpe00-kperoc/es/ac71aBusquedaRegistrosWar/empresa/05602",
      "_links": {
        "self": {
          "name": "EXTINORTE S.L.",
          "href": "https://api.euskadi.eus/procurements/companies/05602"
        }
      }
    },
    {
      "name": "SERVACE INTEGRA,  S.L.",
      "registrationNumber": "07683",
      "identificationNumber": "B95829891",
      "address": "Avenida Sabino Arana, 48 BAJO LONJA",
      "location": {
        "postalCode": "48940",
        "municipality": "Leioa",
        "county": "Bizkaia",
        "municipalityId": "054",
        "countyId": "48"
      },
      "economicActivities": [
        {
          "id": "1.721.3",
          "name": "Transporte de viajeros por carretera",
          "_links": {
            "self": {
              "name": "Transporte de viajeros por carretera",
              "href": "https://api.euskadi.eus/procurements/companies/economic-activities/1.721.3"
            }
          }
        },
        {
          "id": "1.849.9",
          "name": "Otros servicios independientes n.c.o.p",
          "_links": {
            "self": {
              "name": "Otros servicios independientes n.c.o.p",
              "href": "https://api.euskadi.eus/procurements/companies/economic-activities/1.849.9"
            }
          }
        }
      ],
      "certificateStartDate": "2025-09-19",
      "certificateEndDate": "2026-03-03",
      "object": "1.- LA PRESTACIÓN DE TODO TIPO DE SERVICIOS AUXILIARES A TODO TIPO DE EMPRESAS, COMUNIDADES, ADMINISTRACIONES PÚBLICAS, URBANIZACIONES Y PARTICULARES; Y EN CONCRETO: LA PRESTACIÓN DE SERVICIOS AUXILIARES DE CONTROL DE ACCESOS A EDIFICACIONES E INSTALACIONES; DE CONSERJERÍA, PORTEROS Y ORDENANZAS EN EMPRESAS, EN COMUNIDADES DE PROPIETARIOS, EN OBRAS DE CONSTRUCCIÓN, EN EDIFICIOS PRIVADOS, EN EDIFICIOS PÚBLICOS, OFICINAS Y PARKINGS; DE RECEPCIONISTAS, CLASIFICACIÓN Y REPARTO DE CORREO; DE AZAFATAS Y LABORES DE PEONAJE; DE CUIDADO Y MANTENIMIENTO DE EDIFICIOS; DE SERVICIOS DOMÉSTICOS; DE SERVICIOS DE ASISTENCIA A PERSONAS Y DE ACTIVIDADES AUXILIARES A LA PRODUCCIÓN; DE MONITORES DE TIEMPO LIBRE, DEPORTIVOS, SOCORRISTAS Y MANTENIMIENTO DE PISCINAS; DE APARCACOCHES. 2.- ADQUIRIR, ENAJENAR Y ARRENDAR BIENES INMUEBLES (CONCRETAMENTE LOS DETERMINADOS EN EL ARTÍCULO 334.1 DEL CÓDIGO CIVIL), ACCIONES PARTICIPACIONES SOCIALES, OBLIGACIONES, BONOS DE CAJA, CERTIFICADOS DE DEPÓSITO Y PAGARÉS DE TODA CLASE DE EMPRESAS O NEGOCIOS",
      "mainEntityOfPage": "https://www.contratacion.euskadi.eus/webkpe00-kperoc/es/ac71aBusquedaRegistrosWar/empresa/07683",
      "_links": {
        "self": {
          "name": "SERVACE INTEGRA,  S.L.",
          "href": "https://api.euskadi.eus/procurements/companies/07683"
        }
      }
    },
    {
      "name": "INGURU 21 SOCIEDAD LIMITADA",
      "registrationNumber": "05837",
      "identificationNumber": "B20930079",
      "address": "Lasala plaza, 3. Solairuartea ezkerra-B. ",
      "location": {
        "postalCode": "20003",
        "municipality": "Donostia / San Sebastián",
        "county": "Gipuzkoa",
        "municipalityId": "069",
        "countyId": "20"
      },
      "economicActivities": [
        {
          "id": "1.849.9",
          "name": "Otros servicios independientes n.c.o.p",
          "_links": {
            "self": {
              "name": "Otros servicios independientes n.c.o.p",
              "href": "https://api.euskadi.eus/procurements/companies/economic-activities/1.849.9"
            }
          }
        },
        {
          "id": "1.933.9",
          "name": "Otras actividades de enseñanza tales como idiomas, mecanografía",
          "_links": {
            "self": {
              "name": "Otras actividades de enseñanza tales como idiomas, mecanografía",
              "href": "https://api.euskadi.eus/procurements/companies/economic-activities/1.933.9"
            }
          }
        }
      ],
      "certificateStartDate": "2025-09-18",
      "certificateEndDate": "2026-03-18",
      "object": "REALIZAR LABORES DE CONSULTORÍA EN TEMAS DE DESARROLLO SOSTENIBLE Y EDUCACIÓN AMBIENTAL, DINAMIZANDO, ENTRE OTROS, LOS PROCESOS DE AGENDA 21 LOCAL Y AGENDA 21 ESCOLAR",
      "mainEntityOfPage": "https://www.contratacion.euskadi.eus/webkpe00-kperoc/es/ac71aBusquedaRegistrosWar/empresa/05837",
      "_links": {
        "self": {
          "name": "INGURU 21 SOCIEDAD LIMITADA",
          "href": "https://api.euskadi.eus/procurements/companies/05837"
        }
      }
    },
    {
      "name": "COMPRESORES LOR, S.L.",
      "registrationNumber": "07884",
      "identificationNumber": "B20676326",
      "address": "Pº UBARBURU, 35 - PAB. 6y7 - POLIGONO 27 (MARTUTENE)",
      "location": {
        "postalCode": "20014",
        "municipality": "Donostia / San Sebastián",
        "county": "Gipuzkoa",
        "municipalityId": "069",
        "countyId": "20"
      },
      "economicActivities": [
        {
          "id": "1.504.2",
          "name": "Instalaciones de fontanería",
          "_links": {
            "self": {
              "name": "Instalaciones de fontanería",
              "href": "https://api.euskadi.eus/procurements/companies/economic-activities/1.504.2"
            }
          }
        },
        {
          "id": "1.654.5",
          "name": "Venta al por menor de toda clase de maquinaría",
          "_links": {
            "self": {
              "name": "Venta al por menor de toda clase de maquinaría",
              "href": "https://api.euskadi.eus/procurements/companies/economic-activities/1.654.5"
            }
          }
        },
        {
          "id": "1.692",
          "name": "Reparación de maquinaria industrial",
          "_links": {
            "self": {
              "name": "Reparación de maquinaria industrial",
              "href": "https://api.euskadi.eus/procurements/companies/economic-activities/1.692"
            }
          }
        }
      ],
      "certificateStartDate": "2025-09-18",
      "certificateEndDate": "2026-03-18",
      "classification": [
        {
          "id": "S",
          "name": "Servicios",
          "groups": [
            {
              "id": "Q",
              "subgroups": [
                {
                  "id": "01",
                  "name": "Mantenimiento y reparación de maquinaria",
                  "categories": [
                    {
                      "id": "1",
                      "name": "Desde 0 Hasta 150.000",
                      "_links": {
                        "self": {
                          "name": "Desde 0 Hasta 150.000",
                          "href": "https://api.euskadi.eus/procurements/companies/types/S/categories/1"
                        }
                      }
                    }
                  ],
                  "_links": {
                    "self": {
                      "name": "Mantenimiento y reparación de maquinaria",
                      "href": "https://api.euskadi.eus/procurements/companies/types/S/groups/Q/subgroups/01"
                    }
                  }
                }
              ],
              "_links": {
                "self": {
                  "href": "https://api.euskadi.eus/procurements/companies/types/S/groups/Q"
                }
              }
            }
          ],
          "_links": {
            "self": {
              "name": "Servicios",
              "href": "https://api.euskadi.eus/procurements/companies/types/S"
            }
          }
        }
      ],
      "object": "LA VENTA, ALQUILER Y REPARACIÓN DE MAQUINARIA INDUSTRIAL Y OBRAS PÚBLICAS",
      "mainEntityOfPage": "https://www.contratacion.euskadi.eus/webkpe00-kperoc/es/ac71aBusquedaRegistrosWar/empresa/07884",
      "_links": {
        "self": {
          "name": "COMPRESORES LOR, S.L.",
          "href": "https://api.euskadi.eus/procurements/companies/07884"
        }
      }
    },
    {
      "name": "EMAUS SOCIEDAD COOPERATIVA DE INICIATIVA SOCIAL",
      "registrationNumber": "05835",
      "identificationNumber": "F20487567",
      "address": "Gurutzegi 14/16",
      "location": {
        "postalCode": "20018",
        "municipality": "Donostia / San Sebastián",
        "county": "Gipuzkoa",
        "municipalityId": "069",
        "countyId": "20"
      },
      "economicActivities": [
        {
          "id": "1.661.3",
          "name": "Comercio en almacenes populares",
          "_links": {
            "self": {
              "name": "Comercio en almacenes populares",
              "href": "https://api.euskadi.eus/procurements/companies/economic-activities/1.661.3"
            }
          }
        },
        {
          "id": "1.921.2",
          "name": "Servicios de recogida de basuras y desechos",
          "_links": {
            "self": {
              "name": "Servicios de recogida de basuras y desechos",
              "href": "https://api.euskadi.eus/procurements/companies/economic-activities/1.921.2"
            }
          }
        }
      ],
      "certificateStartDate": "2025-09-18",
      "certificateEndDate": "2026-03-18",
      "object": "LA RECUPERACIÓN Y COMERCIO DE TODO TIPO DE DESPERDICIOS, A TRAVÉS, DE CUYA ACTIVIDAD SE PRETENDE LA INTEGRACIÓN SOCIAL Y LABORAL DE COLECTIVOS DESFAVORECIDOS",
      "mainEntityOfPage": "https://www.contratacion.euskadi.eus/webkpe00-kperoc/es/ac71aBusquedaRegistrosWar/empresa/05835",
      "_links": {
        "self": {
          "name": "EMAUS SOCIEDAD COOPERATIVA DE INICIATIVA SOCIAL",
          "href": "https://api.euskadi.eus/procurements/companies/05835"
        }
      }
    },
    {
      "name": "CONTRASTE ON LINE, S.L.",
      "registrationNumber": "09864",
      "identificationNumber": "B09627233",
      "address": "General Concha nº 25,1º 48010",
      "location": {
        "postalCode": "48010",
        "municipality": "Bilbao",
        "county": "Bizkaia",
        "municipalityId": "020",
        "countyId": "48"
      },
      "economicActivities": [
        {
          "id": "1.844",
          "name": "Servicios de publicidad, relaciones públicas y similares",
          "_links": {
            "self": {
              "name": "Servicios de publicidad, relaciones públicas y similares",
              "href": "https://api.euskadi.eus/procurements/companies/economic-activities/1.844"
            }
          }
        }
      ],
      "certificateStartDate": "2025-09-18",
      "certificateEndDate": "2026-03-18",
      "object": "ACTIVIDAD PRINCIPAL: 7311 AGENCIAS DE PUBLICIDAD. OTRAS ACTIVIDADES: 7022 OTRAS ACTIVIDADES DE CONSULTORÍA DE GESTIÓN EMPRESARIAL. 7021 RELACIONES PÚBLICAS Y COMUNICACIÓN. 7320 ESTUDIOS DE MERCADO Y REALIZACIÓN DE ENCUESTAS DE OPINIÓN PÚBLICA. 7410 ACTIVIDADES DE DISEÑO ESPECIALIZADO. 7490 OTRAS ACTIVIDADES PROFESIONALES, CIENTÍFICAS Y TÉCNICAS N.C.O.P. 8299 OTRAS ACTIVIDADES DE APOYO A LAS EMPRESAS N.C.O.P.",
      "mainEntityOfPage": "https://www.contratacion.euskadi.eus/webkpe00-kperoc/es/ac71aBusquedaRegistrosWar/empresa/09864",
      "_links": {
        "self": {
          "name": "CONTRASTE ON LINE, S.L.",
          "href": "https://api.euskadi.eus/procurements/companies/09864"
        }
      }
    },
    {
      "name": "ORIXOL NATURA IKERKETA BABESA ELKARTEA",
      "registrationNumber": "06654",
      "identificationNumber": "G01054550",
      "address": "PORTAL DE BETOÑO 6-8 ENTREPLANTA",
      "location": {
        "postalCode": "01002",
        "municipality": "Vitoria-Gasteiz",
        "county": "Araba/Álava",
        "municipalityId": "059",
        "countyId": "01"
      },
      "economicActivities": [
        {
          "id": "1.966.9",
          "name": "Otros servicios culturales n.c.o.p",
          "_links": {
            "self": {
              "name": "Otros servicios culturales n.c.o.p",
              "href": "https://api.euskadi.eus/procurements/companies/economic-activities/1.966.9"
            }
          }
        }
      ],
      "certificateStartDate": "2025-09-18",
      "certificateEndDate": "2026-03-18",
      "object": "EL ESTUDIO, DEFENSA Y PROTECCIÓN DEL MEDIO AMBIENTE NATURAL, LA DIVULGACIÓN Y EDUCACIÓN EN TEMAS DE MEDIO AMBIENTE, PROMOCIÓN DE ACTIVIDADES DE OCIO, TIEMPO LIBRE Y CULTURA DE CARÁCTER SOCIO COMUNITARIO RESPETUOSAS CON EL MEDIO AMBIENTE",
      "mainEntityOfPage": "https://www.contratacion.euskadi.eus/webkpe00-kperoc/es/ac71aBusquedaRegistrosWar/empresa/06654",
      "_links": {
        "self": {
          "name": "ORIXOL NATURA IKERKETA BABESA ELKARTEA",
          "href": "https://api.euskadi.eus/procurements/companies/06654"
        }
      }
    },
    {
      "name": "FUNDACION GIZAGUNE",
      "registrationNumber": "06796",
      "identificationNumber": "G95572350",
      "address": "plaza Saralegi nº 6-7 BAJO",
      "location": {
        "postalCode": "48003",
        "municipality": "Bilbao",
        "county": "Bizkaia",
        "municipalityId": "020",
        "countyId": "48"
      },
      "economicActivities": [
        {
          "id": "1.849.9",
          "name": "Otros servicios independientes n.c.o.p",
          "_links": {
            "self": {
              "name": "Otros servicios independientes n.c.o.p",
              "href": "https://api.euskadi.eus/procurements/companies/economic-activities/1.849.9"
            }
          }
        },
        {
          "id": "1.931.3",
          "name": "Enseñanza de bachillerato, formación profesional exclusivamente",
          "_links": {
            "self": {
              "name": "Enseñanza de bachillerato, formación profesional exclusivamente",
              "href": "https://api.euskadi.eus/procurements/companies/economic-activities/1.931.3"
            }
          }
        }
      ],
      "certificateStartDate": "2025-09-18",
      "certificateEndDate": "2026-03-18",
      "object": "1-LOS FINES DE INTERÉS GENERAL QUE PERSIGUE LA FUNDACIÓN SON: -INVESTIGAR, DISEÑAR, FOMENTAR, PROMOCIONAR, PLANIFICAR, DESARROLLAR, IMPLEMENTAR, EJECUTAR, EVALUAR ACCIONES Y PROGRAMAS TOTALES O PARCIALES, SOBRE MÉTODOS Y TÉCNICAS DE TRANSFORMACIÓN DE CONFLICTOS, CONSTRUCCIÓN DE PAZ Y PARTICIPACIÓN EN TODOS LOS ÁMBITOS DE INTERACCIÓN DE LAS PERSONAS. - INVESTIGAR, DISEÑAR, FOMENTAR, PROMOCIONAR, PLANIFICAR, DESARROLLAR, IMPLEMENTAR, EJECUTAR Y EVALUAR DIFERENTES METODOLOGÍAS QUE SE RELACIONEN CON EL FIN ANTERIOR Y CON PROCESOS DE CAMBIO EN SITUACIONES CONFLICTIVAS TANTO INDIVIDUALES COMO COLECTIVAS, YA SEAN VECINALES, SOCIALES ETC, DE MEJORA DE LA CONVIVENCIA EN GENERAL, DE LA TRANSFORMACIÓN DE CONFLICTOS Y DE SUPERACIÓN DE CRISIS. - APOYAR LA PARTICIPACIÓN. LA INCLUSIÓN Y EL BIENESTAR DE LAS PERSONAS EN TODOS AQUELLOS LUGARES EN LOS QUE DESARROLLEN TANTO SUS ACTIVIDADES: FAMILIAR, LABORAL, FORMATIVA, DE OCIO Y TIEMPO LIBRE ETC, INCIDIENDO ESPECIALMENTE EN DESARROLLAR ACTUACIONES EN EL ÁREA LA MUJER Y DE LA JUVENTUD.-POTENCIAR EL CAMBIO CONSTRUCTIVO, POSITIVO Y DE DESARROLLO DE LA CIUDADANÍA EN DIFERENTES DIMENSIONES: INDIVIDUAL, SOCIAL, ORGANIZACIONAL, COMUNITARIA, INVESTIGAR, DISEÑAR, FOMENTAR, PROMOCIONAR, PLANIFICAR, DESARROLLAR, EJECUTAR Y EVALUAR PROGRAMAS EN EL ÁMBITO DE LA COOPERACIÓN INTERNACIONAL. 2-PARA SU CONSECUCIÓN, LA FUNDACIÓN PODRÁ LLEVAR A CABO LAS SIGUIENTES ACTIVIDADES: 1.- SENSIBILIZACIÓN Y FORMACIÓN SOBRE LAS DIFERENTES METODOLOGÍAS Y ACCIONES, MEDIANTE LA ORGANIZACIÓN DE CAMPAÑAS, JORNADAS, CONFERENCIAS, TALLERES O CICLOS FORMATIVOS. 2.-ELABORACIÓN DE PROGRAMAS TOTALES O PARDALES DE INTERVENCIÓN A DIFERENTES NIVELES: INDIVIDUAL, ORGANIZACIONAL (ADMINISTRACIÓN PÚBLICA, EMPRESAS, CENTROS ESCOLARES, ETC&#8230;), SOCIAL Y COMUNITARIO. 3.- INVESTIGACIÓN E INNOVACIÓN EN LOS TEMAS RELACIONADOS CON LOS FINES. 4.- COLABORACIÓN CON ENTIDADES PÚBLICAS Y PRIVADAS, INSTITUCIONES UNIVERSITARIAS O PARAUNIVERSITARIAS, EMPRESAS ETC, RELACIONADAS CON LOS FINES DESCRITOS. 5.-CUALQUIER OTRA FINALIDAD QUE COADYUVEN AL CUMPLIMIENTO DEL FIN FUNDACIONAL\r\n\r\n\r\n\r\n",
      "mainEntityOfPage": "https://www.contratacion.euskadi.eus/webkpe00-kperoc/es/ac71aBusquedaRegistrosWar/empresa/06796",
      "_links": {
        "self": {
          "name": "FUNDACION GIZAGUNE",
          "href": "https://api.euskadi.eus/procurements/companies/06796"
        }
      }
    },
    {
      "name": "EQUIPO 7 RESTAURACION, S.A.",
      "registrationNumber": "08505",
      "identificationNumber": "A48413033",
      "address": "Avda. Cervantes, 49, módulo 32 Elkartegi",
      "location": {
        "postalCode": "48970",
        "municipality": "Basauri",
        "county": "Bizkaia",
        "municipalityId": "015",
        "countyId": "48"
      },
      "economicActivities": [
        {
          "id": "1.501.1",
          "name": "Construcción completa, reparación y conservación de edificaciones",
          "_links": {
            "self": {
              "name": "Construcción completa, reparación y conservación de edificaciones",
              "href": "https://api.euskadi.eus/procurements/companies/economic-activities/1.501.1"
            }
          }
        },
        {
          "id": "1.631",
          "name": "Intermediarios del comercio",
          "_links": {
            "self": {
              "name": "Intermediarios del comercio",
              "href": "https://api.euskadi.eus/procurements/companies/economic-activities/1.631"
            }
          }
        },
        {
          "id": "1.691.9",
          "name": "Reparación de otros bienes de consumo n.c.o.p",
          "_links": {
            "self": {
              "name": "Reparación de otros bienes de consumo n.c.o.p",
              "href": "https://api.euskadi.eus/procurements/companies/economic-activities/1.691.9"
            }
          }
        }
      ],
      "certificateStartDate": "2025-09-18",
      "certificateEndDate": "2026-03-18",
      "object": "LA RESTAURACIÓN, CONSERVACIÓN, COMPARA, VENTA, ARRENDAMIENTO, COMISIONES SOBRE VENTA O SOBRE ARRENDAMIENTO, EXPOSICIONES, MONTAJE DE GALERÍAS DE ARTE, PERITACIONES, DOCENCIA EN GENERAL, CURSILLOS, CONFERENCIAS, TRANSPORTE, ASEGURAMIENTO, MONTAJES, MAQUETACIÓN, DISEÑOS, ESTUDIOS Y PROYECTOS, DE -O EN RELACIÓN CON-: EL ARTE EN GENERAL, OBRAS DE ARTE DE TODO GÉNERO, INCLUIDOS EDIFICIOS O ESTRUCTURAS ARQUITECTÓNICAS O URBANAS, INSTRUMENTOS MUSICALES, ESCULTURAS, PINTURAS, PINTURAS, MARCOS Y MOLDURAS, ASÍ COMO CUALESQUIERA BIENES O PATRIMONIOS CULTURALES ARTÍSTICOS O HISTÓRICOS.",
      "mainEntityOfPage": "https://www.contratacion.euskadi.eus/webkpe00-kperoc/es/ac71aBusquedaRegistrosWar/empresa/08505",
      "_links": {
        "self": {
          "name": "EQUIPO 7 RESTAURACION, S.A.",
          "href": "https://api.euskadi.eus/procurements/companies/08505"
        }
      }
    },
    {
      "name": "RTO PUBLICIDAD, S.L.",
      "registrationNumber": "01861",
      "identificationNumber": "B01144310",
      "address": "C/ ADRIANO VI, Nº 29 BIS.",
      "location": {
        "postalCode": "01008",
        "municipality": "Vitoria-Gasteiz",
        "county": "Araba/Álava",
        "municipalityId": "059",
        "countyId": "01"
      },
      "economicActivities": [
        {
          "id": "1.844",
          "name": "Servicios de publicidad, relaciones públicas y similares",
          "_links": {
            "self": {
              "name": "Servicios de publicidad, relaciones públicas y similares",
              "href": "https://api.euskadi.eus/procurements/companies/economic-activities/1.844"
            }
          }
        }
      ],
      "certificateStartDate": "2025-09-18",
      "certificateEndDate": "2026-03-18",
      "object": "LA AGENCIA DE PUBLICIDAD EN GENERAL, CREAR, PROYECTAR, EJECUTAR Y DIRIGIR CAMPAÑAS DE PUBLICIDAD DE CUALQUIER TIPO Y EN CUALQUIER MEDIO DE DIFUSIÓN",
      "mainEntityOfPage": "https://www.contratacion.euskadi.eus/webkpe00-kperoc/es/ac71aBusquedaRegistrosWar/empresa/01861",
      "_links": {
        "self": {
          "name": "RTO PUBLICIDAD, S.L.",
          "href": "https://api.euskadi.eus/procurements/companies/01861"
        }
      }
    }
  ]
}