{
  "totalItems": 9042,
  "totalPages": 905,
  "currentPage": 812,
  "itemsOfPage": 10,
  "items": [
    {
      "name": "AUDIFILM NORTE, S.L.",
      "registrationNumber": "01556",
      "identificationNumber": "B48561658",
      "address": "PARQUE TECNOLÓGICO. EDIFICIO: 103, 2ª PLANTA.",
      "location": {
        "postalCode": "48170",
        "municipality": "Zamudio",
        "county": "Bizkaia",
        "municipalityId": "905",
        "countyId": "48"
      },
      "economicActivities": [
        {
          "id": "1.617.8",
          "name": "Venta al por mayor de máquinas y material de oficina",
          "_links": {
            "self": {
              "name": "Venta al por mayor de máquinas y material de oficina",
              "href": "https://api.euskadi.eus/procurements/companies/economic-activities/1.617.8"
            }
          }
        },
        {
          "id": "1.845",
          "name": "Explotación electrónica por cuenta de terceros",
          "_links": {
            "self": {
              "name": "Explotación electrónica por cuenta de terceros",
              "href": "https://api.euskadi.eus/procurements/companies/economic-activities/1.845"
            }
          }
        }
      ],
      "certificateStartDate": "2001-12-28",
      "certificateEndDate": "2002-06-11",
      "object": "LA COMPRAVENTA, COMERCIALIZACIÓN, PRODUCCIÓN Y DISTRIBUCIÓN DE PROGRAMAS INFORMÁTICOS, ORDENADORES Y PERIFÉRICOS, SU INSTALACIÓN, MANTENIMIENTO, IMPORTACIÓN Y EXPORTACIÓN, ASÍ COMO LA REPRESENTACIÓN DE LICENCIAS DE OTRAS EMPRESAS DE INFORMÁTICA NACIONALES Y EXTRANJERAS EN TODO EL TERRITORIO NACIONAL",
      "mainEntityOfPage": "https://www.contratacion.euskadi.eus/webkpe00-kperoc/es/ac71aBusquedaRegistrosWar/empresa/01556",
      "_links": {
        "self": {
          "name": "AUDIFILM NORTE, S.L.",
          "href": "https://api.euskadi.eus/procurements/companies/01556"
        }
      }
    },
    {
      "name": "PRECISIÓN VASCULAR SYSTEMS EUROPE, S.A.",
      "registrationNumber": "02468",
      "identificationNumber": "A62453451",
      "address": "C/ LONDRES, 90, 4º - 2ª",
      "location": {
        "postalCode": "08000",
        "municipality": "Barcelona",
        "county": "Barcelona",
        "municipalityId": "019",
        "countyId": "08"
      },
      "economicActivities": [
        {
          "id": "1.619.2",
          "name": "Venta al por mayor de aparatos e instrumentos médicos, ortopédicos, ópticos",
          "_links": {
            "self": {
              "name": "Venta al por mayor de aparatos e instrumentos médicos, ortopédicos, ópticos",
              "href": "https://api.euskadi.eus/procurements/companies/economic-activities/1.619.2"
            }
          }
        }
      ],
      "certificateStartDate": "2001-11-28",
      "certificateEndDate": "2002-05-14",
      "object": "LA COMPRA, VENTA, IMPORTACIÓN, EXPORTACIÓN Y DISTRIBUCIÓN DE PRODUCTOS MÉDICOS QUIRÚRGICOS.",
      "mainEntityOfPage": "https://www.contratacion.euskadi.eus/webkpe00-kperoc/es/ac71aBusquedaRegistrosWar/empresa/02468",
      "_links": {
        "self": {
          "name": "PRECISIÓN VASCULAR SYSTEMS EUROPE, S.A.",
          "href": "https://api.euskadi.eus/procurements/companies/02468"
        }
      }
    },
    {
      "name": "EVEARTE, S.L.",
      "registrationNumber": "02467",
      "identificationNumber": "B48307953",
      "address": "POLÍGONO LEZAMA LEGUIZAMON \"C\" - 19",
      "location": {
        "postalCode": "48450",
        "municipality": "Etxebarria",
        "county": "Bizkaia",
        "municipalityId": "030",
        "countyId": "48"
      },
      "economicActivities": [
        {
          "id": "1.619.4",
          "name": "Venta al por mayor de productos de papel y cartón",
          "_links": {
            "self": {
              "name": "Venta al por mayor de productos de papel y cartón",
              "href": "https://api.euskadi.eus/procurements/companies/economic-activities/1.619.4"
            }
          }
        }
      ],
      "certificateStartDate": "2001-11-23",
      "certificateEndDate": "2002-04-09",
      "object": "EL TRATAMIENTO, MANIPULACIÓN, ALMACENAMIENTO Y VENTA (TANTO A MINORISTAS COMO AL CONSUMIDOR FINAL) DE PAPEL, SUS DERIVADOS Y ACCESORIOS.",
      "mainEntityOfPage": "https://www.contratacion.euskadi.eus/webkpe00-kperoc/es/ac71aBusquedaRegistrosWar/empresa/02467",
      "_links": {
        "self": {
          "name": "EVEARTE, S.L.",
          "href": "https://api.euskadi.eus/procurements/companies/02467"
        }
      }
    },
    {
      "name": "GARBILE, S.A.",
      "registrationNumber": "01388",
      "identificationNumber": "A20300042",
      "address": "AVDA. ZUMALAKARREGI, 18 - 3º",
      "location": {
        "postalCode": "48200",
        "municipality": "Durango",
        "county": "Bizkaia",
        "municipalityId": "027",
        "countyId": "48"
      },
      "economicActivities": [
        {
          "id": "1.722",
          "name": "Transporte de mercancías por carretera",
          "_links": {
            "self": {
              "name": "Transporte de mercancías por carretera",
              "href": "https://api.euskadi.eus/procurements/companies/economic-activities/1.722"
            }
          }
        },
        {
          "id": "1.921.1",
          "name": "Servicios de limpieza en calles, vías públicas y jardines",
          "_links": {
            "self": {
              "name": "Servicios de limpieza en calles, vías públicas y jardines",
              "href": "https://api.euskadi.eus/procurements/companies/economic-activities/1.921.1"
            }
          }
        },
        {
          "id": "1.921.4",
          "name": "Servicios de alcantarillado, evacuación y depuración de aguas residuales",
          "_links": {
            "self": {
              "name": "Servicios de alcantarillado, evacuación y depuración de aguas residuales",
              "href": "https://api.euskadi.eus/procurements/companies/economic-activities/1.921.4"
            }
          }
        },
        {
          "id": "1.922",
          "name": "Servicios de limpieza",
          "_links": {
            "self": {
              "name": "Servicios de limpieza",
              "href": "https://api.euskadi.eus/procurements/companies/economic-activities/1.922"
            }
          }
        }
      ],
      "certificateStartDate": "2001-11-14",
      "certificateEndDate": "2002-04-23",
      "object": "LA LIMPIEZA EXTERNA DE VIAS Y CALLES, TANTO PUBLICAS COMO PRIVADAS, LIMPIEZA DE POZOS SEPTICOS, ALCANTARILLAS, CLOACAS, ASI COMO RECOGIDA, TRASLADO Y TRATAMIENTO DE RESIDUOS SOLIDOS URBANOS, INCLUIDA LA LIMPIEZA DE CONTENEDORES",
      "mainEntityOfPage": "https://www.contratacion.euskadi.eus/webkpe00-kperoc/es/ac71aBusquedaRegistrosWar/empresa/01388",
      "_links": {
        "self": {
          "name": "GARBILE, S.A.",
          "href": "https://api.euskadi.eus/procurements/companies/01388"
        }
      }
    },
    {
      "name": "REPARTOS Y DISTRIBUCIONES BIZKAYA, S.L.",
      "registrationNumber": "01949",
      "identificationNumber": "B48754907",
      "address": "C/ ANSELMA DE SALCES, Nº 4 - LONJA.",
      "location": {
        "postalCode": "48007",
        "municipality": "Bilbao",
        "county": "Bizkaia",
        "municipalityId": "020",
        "countyId": "48"
      },
      "economicActivities": [
        {
          "id": "1.849.5",
          "name": "Servicios de recadería y reparto y manipulación de correspondencia",
          "_links": {
            "self": {
              "name": "Servicios de recadería y reparto y manipulación de correspondencia",
              "href": "https://api.euskadi.eus/procurements/companies/economic-activities/1.849.5"
            }
          }
        }
      ],
      "certificateStartDate": "2001-11-12",
      "certificateEndDate": "2002-04-10",
      "object": "EL REPARTO DE TODA CLASE DE PROPAGANDA CON MANIPULADOS EN SOBRADOS, REPARTO DE SOBRES, NOTIFICACIONES Y MENSAJERÍA EN GENERAL",
      "mainEntityOfPage": "https://www.contratacion.euskadi.eus/webkpe00-kperoc/es/ac71aBusquedaRegistrosWar/empresa/01949",
      "_links": {
        "self": {
          "name": "REPARTOS Y DISTRIBUCIONES BIZKAYA, S.L.",
          "href": "https://api.euskadi.eus/procurements/companies/01949"
        }
      }
    },
    {
      "name": "MONTAJES ALECTRIAL, S.A.",
      "registrationNumber": "00146",
      "identificationNumber": "A01015288",
      "address": "C/ CONCEJO, Nº 1. POLÍGONO INDUSTRIAL DE BETOÑO",
      "location": {
        "postalCode": "01013",
        "municipality": "Vitoria-Gasteiz",
        "county": "Araba/Álava",
        "municipalityId": "059",
        "countyId": "01"
      },
      "economicActivities": [
        {
          "id": "1.504.1",
          "name": "Instalaciones eléctricas en general",
          "_links": {
            "self": {
              "name": "Instalaciones eléctricas en general",
              "href": "https://api.euskadi.eus/procurements/companies/economic-activities/1.504.1"
            }
          }
        }
      ],
      "certificateStartDate": "2001-11-08",
      "certificateEndDate": "2002-04-30",
      "object": "LA COMPRA- VENTA, REPARACIÓN, MONTAJE, ESTUDIOS, PRESUPUESTOS Y EJECUCIÓN DE INSTALACIONES ELÉCTRICAS DE TODA CLASES, ASÍ COMO DE MAQUINARIA Y MATERIAL ELÉCTRICO.",
      "mainEntityOfPage": "https://www.contratacion.euskadi.eus/webkpe00-kperoc/es/ac71aBusquedaRegistrosWar/empresa/00146",
      "_links": {
        "self": {
          "name": "MONTAJES ALECTRIAL, S.A.",
          "href": "https://api.euskadi.eus/procurements/companies/00146"
        }
      }
    },
    {
      "name": "IRUONDO AUTOMÓVILES, S.L.",
      "registrationNumber": "02090",
      "identificationNumber": "B01269562",
      "address": "C/ CARRETERA GAMARRA, Km. 3.",
      "location": {
        "postalCode": "01013",
        "municipality": "Vitoria-Gasteiz",
        "county": "Araba/Álava",
        "municipalityId": "059",
        "countyId": "01"
      },
      "economicActivities": [
        {
          "id": "1.654.1",
          "name": "Venta al por menor de vehículos terrestres",
          "_links": {
            "self": {
              "name": "Venta al por menor de vehículos terrestres",
              "href": "https://api.euskadi.eus/procurements/companies/economic-activities/1.654.1"
            }
          }
        }
      ],
      "certificateStartDate": "2001-11-07",
      "certificateEndDate": "2002-04-30",
      "object": "LA COMPRAVENTA DE VEHÍCULOS, TURISMOS E INDUSTRIALES, DE SUS RECAMBIOS Y ACCESORIOS, INCLUSO LA IMPORTACIÓN Y EXPORTACIÓN DE LOS MISMOS. EL ALQUILER DE TODA CLASE DE VEHÍCULOS. LA ADQUISICIÓN, URBANIZACIÓN, PARCELACIÓN, PROMOCIÓN, CONSTRUCCIÓN, EDIFICACIÓN, CONSTITUCIÓN EN PROPIEDAD HORIZONTAL, REFORMA, AMPLIACIÓN, EXPLOTACIÓN DIRECTA O INDIRECTA, ENAJENACIÓN, Y EN GENERAL, TODA ACTIVIDAD RELATIVA A BIENES INMUEBLES, Y TODA SUERTE DE INVERSIONES Y PROMOCIONES RELACIONADAS CON EL RAMO DE LA CONSTRUCCIÓN. ESTUDIOS DE MERCADO Y MARKETING EN EL SECTOR DE VEHÍCULOS A MOTOR",
      "mainEntityOfPage": "https://www.contratacion.euskadi.eus/webkpe00-kperoc/es/ac71aBusquedaRegistrosWar/empresa/02090",
      "_links": {
        "self": {
          "name": "IRUONDO AUTOMÓVILES, S.L.",
          "href": "https://api.euskadi.eus/procurements/companies/02090"
        }
      }
    },
    {
      "name": "TARPOON-SUB, S.L.",
      "registrationNumber": "02264",
      "identificationNumber": "B48936744",
      "address": "PUERTO DEPORTIVO DE GETXO. MUELLE DE ARRILUCE. PABELLÓN A-7",
      "location": {
        "postalCode": "48990",
        "municipality": "Getxo",
        "county": "Bizkaia",
        "municipalityId": "044",
        "countyId": "48"
      },
      "economicActivities": [
        {
          "id": "1.659.6",
          "name": "Venta al por menor de juguetes, artículos de deporte",
          "_links": {
            "self": {
              "name": "Venta al por menor de juguetes, artículos de deporte",
              "href": "https://api.euskadi.eus/procurements/companies/economic-activities/1.659.6"
            }
          }
        },
        {
          "id": "1.967.2",
          "name": "Escuelas y servicios de perfeccionamiento del deporte",
          "_links": {
            "self": {
              "name": "Escuelas y servicios de perfeccionamiento del deporte",
              "href": "https://api.euskadi.eus/procurements/companies/economic-activities/1.967.2"
            }
          }
        }
      ],
      "certificateStartDate": "2001-11-05",
      "certificateEndDate": "2002-04-17",
      "object": "LA IMPARTICIÓN Y DESARROLLO DE DE CURSOS DE BUCEO Y ACTIVIDADES DEPORTIVAS, NÁUTICAS Y SUBACUÁTICAS. COMERCIALIZACIÓN Y VENTA AL POR MAYOR Y AL POR MENOR DE MATERIAL NÁUTICO DEPORTIVO, ASÍ COMO TODO LO RELACIONADO CON ACTIVIDADES SUBACUÁTICAS. ALQUILER, CUSTODIA, MANTENIMIENTO Y REPARACIÓN DE MATERIALES NÁUTICOS, DEPORTIVOS Y SUBACUÁTICOS. ORGANIZACIÓN DE ACTIVIDADES RELACIONADAS CON EL FOMENTO DE LAS PRÁCTICAS DEPORTIVAS, NÁUTICAS Y SUBACUÁTICAS. VIAJES Y EXCURSIONES PARA LA PRÁCTICA DE DICHAS ACTIVIDADES. OFRECER SERVICIOS DE MEDICINA SUBACUÁTICA, ASÍ COMO SEGUROS ESPECIALIZADOS PARA ESTAS PRÁCTICAS.SUMINISTRO DE GASES RESPIRABLES PARA LA PRÁCTICA DE ACTUVIDADES SUBACUÁTICAS. CONSULTORÍA DE SERVICIOS DEPORTIVOS, NÁUTICOS Y SUBACUÁTICOS. SERVICIOS DE SEGURIDAD Y SALVAMENTO MARÍTIMO.",
      "mainEntityOfPage": "https://www.contratacion.euskadi.eus/webkpe00-kperoc/es/ac71aBusquedaRegistrosWar/empresa/02264",
      "_links": {
        "self": {
          "name": "TARPOON-SUB, S.L.",
          "href": "https://api.euskadi.eus/procurements/companies/02264"
        }
      }
    },
    {
      "name": "ECLAT MANTENIMIENTO, S.A.",
      "registrationNumber": "01513",
      "identificationNumber": "A20194775",
      "address": "C/ PASEO DE LOS OLMOS, Nº 14 - 13ª.",
      "location": {
        "postalCode": "20016",
        "municipality": "Donostia / San Sebastián",
        "county": "Gipuzkoa",
        "municipalityId": "069",
        "countyId": "20"
      },
      "economicActivities": [
        {
          "id": "1.501.1",
          "name": "Construcción completa, reparación y conservación de edificaciones",
          "_links": {
            "self": {
              "name": "Construcción completa, reparación y conservación de edificaciones",
              "href": "https://api.euskadi.eus/procurements/companies/economic-activities/1.501.1"
            }
          }
        },
        {
          "id": "1.504.1",
          "name": "Instalaciones eléctricas en general",
          "_links": {
            "self": {
              "name": "Instalaciones eléctricas en general",
              "href": "https://api.euskadi.eus/procurements/companies/economic-activities/1.504.1"
            }
          }
        }
      ],
      "certificateStartDate": "2001-10-31",
      "certificateEndDate": "2002-03-25",
      "object": "\r\n\r\na) LA EXPLOTACIÓN, ATENCIÓN, CONSERVACIÓN Y MANTENIMIENTO DE TODA CLASE INSTALACIONES DE PRODUCCION Y DISTRIBUCION DE CUALQUIER CLASE DE FLUIDOS, ACONDICIONAMIENTO DE AIRE, CLIMATIZACIÓN, TRATAMIENTO DE RESIDUOS, COGENARACIÓN, INSTALACIONES ELÉCTRICAS, MECÁNICAS, ELECTRÓNICAS, ACÚSTICAS Y DE COMUNICACIONES EN CUALQUIER TIPO DE CONSTRUCCIONES.\r\n\r\nb) ADQUISICIÓN DE LOS EQUIPOS Y COMPONENTES NECESARIOS PARA EL DESARROLLO DEL APARTADO ANTERIOR, ASÍ COMO SU VENTA, IMPORTACIÓN Y EXPORTACIÓN.\r\n\r\nc) EJECUCIÓN DE INSTALACIONES RELACIONADAS CON LOS APARTADOS ANTERIORES EN CUALQUIER TIPO DE EDIFICACIÓN.\r\n\r\nd) ESTUDIOS, PROYECTOS Y PRESUPUESTOS RELACIONADOS CON LO ANTERIOR ASÍ COMO DE AHORRO, ENERGÉTICO Y MEDIO AMBIENTE.\r\n\r\ne) CONSERVACIÓN Y MANTENIMIENTO INTEGRAL DE TODO TIPO DE CONSTRUCCIONES DE CUALQUIER CLASE Y LA PRESTACIÓN DE SERVICIOS DE LIMPIEZA, TRANSMISIÓN DE VOZ, COMUNICACIONES, REPARACIÓN, DESINFECCIÓN DE CONDUCCIONES DE BASURAS, VENTILACIÓN, REDES DE DISTRIBUCIÓN DE FLUIDOS Y PRESTACIÓN DE SERVICIOS DE PINTURA, FONTANERÍA, CARPINTERÍA, CERRAJERÍA, SEÑALIZACIÓN Y MANTENIMIENTO DE APARATOS ELEVADORES Y CUALQUIER OTRO TIPO DE SERVICIOS COMPRENDIDOS DENTRO DEL MANTENIMIENTO INTEGRAL.\r\n\r\nf) LA REALIZACIÓN DE OBRAS Y CONSTRUCCIONES DE NAVES COMERCIALES E INDUSTRIALES, DE TODO TIPO DE EDIFICIOS, ASÍ COMO LA DECORACIÓN E INSTALACIONES DE LOS MISMOS",
      "mainEntityOfPage": "https://www.contratacion.euskadi.eus/webkpe00-kperoc/es/ac71aBusquedaRegistrosWar/empresa/01513",
      "_links": {
        "self": {
          "name": "ECLAT MANTENIMIENTO, S.A.",
          "href": "https://api.euskadi.eus/procurements/companies/01513"
        }
      }
    },
    {
      "name": "REPRESENTACIONES MURILLO ARGUEDAS, S.L.",
      "registrationNumber": "02454",
      "identificationNumber": "B31234552",
      "address": "CARLOS ARIAS Nº 1",
      "location": {
        "postalCode": "31513",
        "municipality": "Arguedas",
        "county": "Navarra",
        "municipalityId": "032",
        "countyId": "31"
      },
      "economicActivities": [
        {
          "id": "1.613.2",
          "name": "Venta al por mayor de tejidos por metros textiles para el hogar, alfombras",
          "_links": {
            "self": {
              "name": "Venta al por mayor de tejidos por metros textiles para el hogar, alfombras",
              "href": "https://api.euskadi.eus/procurements/companies/economic-activities/1.613.2"
            }
          }
        }
      ],
      "certificateStartDate": "2001-10-24",
      "certificateEndDate": "2002-04-01",
      "object": "LA REPRESENTACIÓN, COMPRA, VENTA, TRANSPORTE, ALMACENAMIENTO, COMERCIALIZACIÓN, IMPORTACIÓN Y EXPORTACIÓN DE TODO TIPO DE ARTÍCULOS COMERCIALES, EN ESPECIAL PRODUCTOS TEXTILES, MENAGE Y ELEMENTOS Y ACCESORIOS PARA EL EQUIPAMIENTO Y DECORACIÓN DEL HOGAR.  ",
      "mainEntityOfPage": "https://www.contratacion.euskadi.eus/webkpe00-kperoc/es/ac71aBusquedaRegistrosWar/empresa/02454",
      "_links": {
        "self": {
          "name": "REPRESENTACIONES MURILLO ARGUEDAS, S.L.",
          "href": "https://api.euskadi.eus/procurements/companies/02454"
        }
      }
    }
  ]
}