{
  "totalItems": 9042,
  "totalPages": 905,
  "currentPage": 723,
  "itemsOfPage": 10,
  "items": [
    {
      "name": "MERLOT CONCEPT SL",
      "registrationNumber": "04507",
      "identificationNumber": "B95530887",
      "address": "C/Adrián Aldecoa, 2",
      "location": {
        "postalCode": "01008",
        "municipality": "Vitoria-Gasteiz",
        "county": "Araba/Álava",
        "municipalityId": "059",
        "countyId": "01"
      },
      "economicActivities": [
        {
          "id": "1.501.2",
          "name": "Construcción completa, reparación y conservación obras civiles",
          "_links": {
            "self": {
              "name": "Construcción completa, reparación y conservación obras civiles",
              "href": "https://api.euskadi.eus/procurements/companies/economic-activities/1.501.2"
            }
          }
        }
      ],
      "certificateStartDate": "2010-10-19",
      "certificateEndDate": "2011-03-16",
      "object": "LA ADQUISICIÓN, PARCELACIÓN, URBANIZACIÓN, EXPLOTACIÓN, GESTIÓN Y VENTA DE TERRENOS, COMPLEJOS URBANÍSTICOS Y DEPORTIVOS; LA CONSTRUCCIÓN, PROMOCIÓN, EDIFICACIÓN, GESTIÓN, REFORMA Y VENTA DE GALERÍAS Y CENTROS COMERCIALES, ASÍ COMO EN SU CASO LA EXPLOTACIÓN EN FORMA DE ARRIENDO Y ADMINISTRACIÓN",
      "mainEntityOfPage": "https://www.contratacion.euskadi.eus/webkpe00-kperoc/es/ac71aBusquedaRegistrosWar/empresa/04507",
      "_links": {
        "self": {
          "name": "MERLOT CONCEPT SL",
          "href": "https://api.euskadi.eus/procurements/companies/04507"
        }
      }
    },
    {
      "name": "ESKURTO, S.L.",
      "registrationNumber": "01936",
      "identificationNumber": "B48524995",
      "address": "C/ AVENIDA DE BILBAO, Nº 12 - LONJA.",
      "location": {
        "postalCode": "48530",
        "municipality": "Ortuella",
        "county": "Bizkaia",
        "municipalityId": "083",
        "countyId": "48"
      },
      "economicActivities": [
        {
          "id": "1.501.3",
          "name": "Albañilería y pequeños trabajos de construcción en general",
          "_links": {
            "self": {
              "name": "Albañilería y pequeños trabajos de construcción en general",
              "href": "https://api.euskadi.eus/procurements/companies/economic-activities/1.501.3"
            }
          }
        },
        {
          "id": "1.921.1",
          "name": "Servicios de limpieza en calles, vías públicas y jardines",
          "_links": {
            "self": {
              "name": "Servicios de limpieza en calles, vías públicas y jardines",
              "href": "https://api.euskadi.eus/procurements/companies/economic-activities/1.921.1"
            }
          }
        },
        {
          "id": "1.922.1",
          "name": "Servicios de limpieza de interiores",
          "_links": {
            "self": {
              "name": "Servicios de limpieza de interiores",
              "href": "https://api.euskadi.eus/procurements/companies/economic-activities/1.922.1"
            }
          }
        }
      ],
      "certificateStartDate": "2010-10-11",
      "certificateEndDate": "2011-03-20",
      "object": "OBRAS DE ALBAÑILERÍA EN GENERAL, TANTO PÚBLICAS COMO PRIVADAS. SERVICIOS DE LIMPIEZA, TANTO PARA LA ADMINISTRACIÓN PÚBLICA, COMO PARA EMPRESAS PÚBLICAS O PRIVADAS. RECOGIDA DE BASURAS, SERVICIO DE LIMPIEZA. CONSTRUCCIÓN DE OBRAS, TANTO PÚBLICAS COMO PRIVADAS. CONTRATACIÓN DE SERVICIOS TANTO PÚBLICOS COMO PRIVADOS. EXCAVACIONES. BAR, RESTAURANTES, SALAS DE FIESTAS Y DISCOBARES",
      "mainEntityOfPage": "https://www.contratacion.euskadi.eus/webkpe00-kperoc/es/ac71aBusquedaRegistrosWar/empresa/01936",
      "_links": {
        "self": {
          "name": "ESKURTO, S.L.",
          "href": "https://api.euskadi.eus/procurements/companies/01936"
        }
      }
    },
    {
      "name": "ESTUDIO UNO BULEGOAK, S.L.",
      "registrationNumber": "01979",
      "identificationNumber": "B48949572",
      "address": "C/ MASPE, Nº 18 - BAJO.",
      "location": {
        "postalCode": "48215",
        "municipality": "Iurreta",
        "county": "Bizkaia",
        "municipalityId": "910",
        "countyId": "48"
      },
      "economicActivities": [
        {
          "id": "1.501.3",
          "name": "Albañilería y pequeños trabajos de construcción en general",
          "_links": {
            "self": {
              "name": "Albañilería y pequeños trabajos de construcción en general",
              "href": "https://api.euskadi.eus/procurements/companies/economic-activities/1.501.3"
            }
          }
        },
        {
          "id": "1.615.2",
          "name": "Venta al por mayor de muebles",
          "_links": {
            "self": {
              "name": "Venta al por mayor de muebles",
              "href": "https://api.euskadi.eus/procurements/companies/economic-activities/1.615.2"
            }
          }
        }
      ],
      "certificateStartDate": "2010-10-11",
      "certificateEndDate": "2011-03-28",
      "object": "LA VENTA, INSTALACIÓN, DECORACIÓN Y EQUIPAMIENTO DE OFICINAS Y EDIFICIOS",
      "mainEntityOfPage": "https://www.contratacion.euskadi.eus/webkpe00-kperoc/es/ac71aBusquedaRegistrosWar/empresa/01979",
      "_links": {
        "self": {
          "name": "ESTUDIO UNO BULEGOAK, S.L.",
          "href": "https://api.euskadi.eus/procurements/companies/01979"
        }
      }
    },
    {
      "name": "WARNER CHILCOTT IBERIA, S.L.",
      "registrationNumber": "03242",
      "identificationNumber": "B58881954",
      "address": "PLAZA  DE LA PAU, S/N, ALAMEDA PARK S/N",
      "location": {
        "postalCode": "08940",
        "municipality": "Cornellà de Llobregat",
        "county": "Barcelona",
        "municipalityId": "073",
        "countyId": "08"
      },
      "economicActivities": [
        {
          "id": "1.614.1",
          "name": "Venta al por mayor de productos farmacéuticos y medicamentos",
          "_links": {
            "self": {
              "name": "Venta al por mayor de productos farmacéuticos y medicamentos",
              "href": "https://api.euskadi.eus/procurements/companies/economic-activities/1.614.1"
            }
          }
        }
      ],
      "certificateStartDate": "2010-10-11",
      "certificateEndDate": "2011-02-27",
      "object": "A) LA PRODUCCIÓN Y COMERCIALIZACIÓN DE ESPECIALIDADES FARMACÉUTICAS; B) LA COMPRAVENTA DE PRODUCTOS QUÍMICOS Y FARMACEÚTICOS; C) LA PRODUCCIÓN DE PRODUCTOS DIETÉTICOS\r\n",
      "mainEntityOfPage": "https://www.contratacion.euskadi.eus/webkpe00-kperoc/es/ac71aBusquedaRegistrosWar/empresa/03242",
      "_links": {
        "self": {
          "name": "WARNER CHILCOTT IBERIA, S.L.",
          "href": "https://api.euskadi.eus/procurements/companies/03242"
        }
      }
    },
    {
      "name": "INSEL 3, S.L.",
      "registrationNumber": "03174",
      "identificationNumber": "B48756944",
      "address": "POLÍGONO INDUSTRIAL ARETXAGA, 8",
      "location": {
        "postalCode": "48860",
        "municipality": "Zalla",
        "county": "Bizkaia",
        "municipalityId": "096",
        "countyId": "48"
      },
      "economicActivities": [
        {
          "id": "1.504.1",
          "name": "Instalaciones eléctricas en general",
          "_links": {
            "self": {
              "name": "Instalaciones eléctricas en general",
              "href": "https://api.euskadi.eus/procurements/companies/economic-activities/1.504.1"
            }
          }
        },
        {
          "id": "1.504.7",
          "name": "Instalaciones telefónicas, telegráficas, televisión, etc",
          "_links": {
            "self": {
              "name": "Instalaciones telefónicas, telegráficas, televisión, etc",
              "href": "https://api.euskadi.eus/procurements/companies/economic-activities/1.504.7"
            }
          }
        }
      ],
      "certificateStartDate": "2010-10-07",
      "certificateEndDate": "2011-03-09",
      "object": "LAS INSTALACIONES ELÉCTRICAS, INSTALACIONES DE REDES TELEGRÁFICAS, TELEFÓNICAS, TELEFONÍA SIN HILOS Y TELEVISIÓN; INSTALACIONES DE BALIZACIÓN  DE PUERTOS Y AEROPUERTOS",
      "mainEntityOfPage": "https://www.contratacion.euskadi.eus/webkpe00-kperoc/es/ac71aBusquedaRegistrosWar/empresa/03174",
      "_links": {
        "self": {
          "name": "INSEL 3, S.L.",
          "href": "https://api.euskadi.eus/procurements/companies/03174"
        }
      }
    },
    {
      "name": "KUKUMA, S.COOP.",
      "registrationNumber": "03110",
      "identificationNumber": "F48467278",
      "address": "POL. CONDOR II. NAVE B 1-2",
      "location": {
        "postalCode": "48340",
        "municipality": "Amorebieta-Etxano",
        "county": "Bizkaia",
        "municipalityId": "003",
        "countyId": "48"
      },
      "economicActivities": [
        {
          "id": "1.615.2",
          "name": "Venta al por mayor de muebles",
          "_links": {
            "self": {
              "name": "Venta al por mayor de muebles",
              "href": "https://api.euskadi.eus/procurements/companies/economic-activities/1.615.2"
            }
          }
        },
        {
          "id": "1.619.1",
          "name": "Venta al por mayor de juguetes y artículos de deporte",
          "_links": {
            "self": {
              "name": "Venta al por mayor de juguetes y artículos de deporte",
              "href": "https://api.euskadi.eus/procurements/companies/economic-activities/1.619.1"
            }
          }
        },
        {
          "id": "1.619.6",
          "name": "Venta al por mayor de libros , periódicos y revistas",
          "_links": {
            "self": {
              "name": "Venta al por mayor de libros , periódicos y revistas",
              "href": "https://api.euskadi.eus/procurements/companies/economic-activities/1.619.6"
            }
          }
        }
      ],
      "certificateStartDate": "2010-10-05",
      "certificateEndDate": "2011-03-27",
      "object": "LA PROMOCIÓN, DISTRIBUCIÓN, COMPRA-VENTA, COMERCIALIZACIÓN, ALQUILER DE TODO TIPO Y CLASE DE MATERIAL DIDÁCTICO YA SEA IMPRESO, CUALQUIER SISTEMA  AUDIO-VISUAL, MANUAL, ELÉCTRICO O DE CUALQUIER MODALIDAD, HACIENDO  ESPECIAL HINCAPIÉ EN EUSKERA, EN CUALQUIERA DE SUS MODALIDADES Y  DIALECTOS    ",
      "mainEntityOfPage": "https://www.contratacion.euskadi.eus/webkpe00-kperoc/es/ac71aBusquedaRegistrosWar/empresa/03110",
      "_links": {
        "self": {
          "name": "KUKUMA, S.COOP.",
          "href": "https://api.euskadi.eus/procurements/companies/03110"
        }
      }
    },
    {
      "name": "IMPRENTA BEREKINTZA, S.L.",
      "registrationNumber": "01066",
      "identificationNumber": "B48108179",
      "address": "C/ HEROS, Nº 7.",
      "location": {
        "postalCode": "48009",
        "municipality": "Bilbao",
        "county": "Bizkaia",
        "municipalityId": "020",
        "countyId": "48"
      },
      "economicActivities": [
        {
          "id": "1.474",
          "name": "Artes gráficas (impresión gráfica)",
          "_links": {
            "self": {
              "name": "Artes gráficas (impresión gráfica)",
              "href": "https://api.euskadi.eus/procurements/companies/economic-activities/1.474"
            }
          }
        },
        {
          "id": "1.475",
          "name": "Actividades anexas a las artes gráficas",
          "_links": {
            "self": {
              "name": "Actividades anexas a las artes gráficas",
              "href": "https://api.euskadi.eus/procurements/companies/economic-activities/1.475"
            }
          }
        }
      ],
      "certificateStartDate": "2010-10-04",
      "certificateEndDate": "2011-03-23",
      "object": "LA REALIZACIÓN Y EJECUCIÓN DE LABORES Y TAREAS DE CARTELERÍA, IMPRESIÓN, GRABADO, ENCUADERNACIÓN Y DEMÁS ACTIVIDADES ENCUADRADAS DIRECTA O INDIRECTAMENTE, CON LAS ARTES GRÁFICAS Y FACILITEN O FAVOREZCAN SU CUMPLIMIENTO",
      "mainEntityOfPage": "https://www.contratacion.euskadi.eus/webkpe00-kperoc/es/ac71aBusquedaRegistrosWar/empresa/01066",
      "_links": {
        "self": {
          "name": "IMPRENTA BEREKINTZA, S.L.",
          "href": "https://api.euskadi.eus/procurements/companies/01066"
        }
      }
    },
    {
      "name": "OSB SERVICIOS INTEGRALES DE LIMPIEZA MANTENIMIENTO Y JARDINERÍA SL",
      "registrationNumber": "04303",
      "identificationNumber": "B95558649",
      "address": "AVDA. DE LA LIBERTAD 65, 1º, DPTO. B",
      "location": {
        "postalCode": "48901",
        "municipality": "Barakaldo",
        "county": "Bizkaia",
        "municipalityId": "013",
        "countyId": "48"
      },
      "economicActivities": [
        {
          "id": "1.921.1",
          "name": "Servicios de limpieza en calles, vías públicas y jardines",
          "_links": {
            "self": {
              "name": "Servicios de limpieza en calles, vías públicas y jardines",
              "href": "https://api.euskadi.eus/procurements/companies/economic-activities/1.921.1"
            }
          }
        }
      ],
      "certificateStartDate": "2010-10-04",
      "certificateEndDate": "2011-02-19",
      "object": ".) PRESTACIÓN DE SERVICIOS DE LIMPIEZA, ABARCANDO LA LIMPIEZA DE EDIFICIOS Y LOCALES EN GENERAL, LIMPIEZAS DE FÁBRICAS Y NAVES INDUSTRIALES, CENTROS DE ASISTENCIA SANITARIA, BARCOS, AERONAVES, AEROPUERTOS, PARQUES, JARDINES, MONTES, ESPACIOS DE USO PÚBLICO Y PRIVADO, CONDUCCIONES INDUSTRIALES Y SANITARIAS, RECOGIDA Y TRANSPORTE DE RESIDUOS ORGÁNICOS E INORGÁNICOS TANTO URBANOS COMO INDUSTRIALES Y SU POSTERIOR ELIMINACIÓN HIGIÉNICO SANITARIA, ASÍ COMO SU POSIBLE RECUPERACIÓN Y REUTILIZACIÓN, HIGIENIZACIÓN DE AGUAS FLUVIALES, MARÍTIMAS Y RESIDUALES, ASÍ COMO LIMPIEZA DE PLAYAS Y COSTAS, DESARTIZACIÓN, DESINFECCIÓN Y DESINSECTACIÓN DE TODOS LOS ESPACIOS ANTERIORMENTE DESCRITOS.\r\n\r\n.) REALIZACIÓN DE ESTUDIOS Y PROYECTOS ASÍ COMO LA EJECUCIÓN DE OBRAS DE JARDINERÍA Y PAISAJISMO, EN PARQUES, JARDINES, ÁREAS FORESTALES MEDIANTE REDES DE RIEGO, ILUMINACIÓN, MOBILIARIO URBANO, ASÍ COMO CUALQUIER OTRO TRABAJO DE MANTENIMIENTO, OBRA O SERVICIO QUE TENGA POR OBJETO SU CONSERVACIÓN Y MEJORA.\r\n\r\n.) PRESTACIÓN DE SERVICIOS AUXILIARES Y COMPLEMENTARIOS EN FINCAS URBANAS, INSTALACIONES IDUSTRIALES, CENTROS COMERCIALES, REDES VIARIAS, MUSEOS, RECINTOS FERIALES, SALAS DE EXPOSICIONES, HOSPITALES, OBRAS DE CONSTRUCCIÓN, DEPENDENCIAS ADMINISTRATIVAS Y CUALQUIER TIPO DE DEPENDENCIA TANTO PÚBLICA COMO PRIVADA MEDIANTE CONSERJES, ORDENANZAS, BEDELES, UJIERES, COBRADORES, CUIDADORES, SOCORRISTAS, PERSONAL DE MANTENIMIENTO Y PROFESIONALES AFINES QUE PUEDAN REALIZAR UN TRABAJO DE ATENCIÓN, SERVICIO Y M",
      "mainEntityOfPage": "https://www.contratacion.euskadi.eus/webkpe00-kperoc/es/ac71aBusquedaRegistrosWar/empresa/04303",
      "_links": {
        "self": {
          "name": "OSB SERVICIOS INTEGRALES DE LIMPIEZA MANTENIMIENTO Y JARDINERÍA SL",
          "href": "https://api.euskadi.eus/procurements/companies/04303"
        }
      }
    },
    {
      "name": "BISOR ESTRATEGIAS EMPRESARIALES, S.L.",
      "registrationNumber": "04322",
      "identificationNumber": "B95558631",
      "address": "AVDA. DE LA LIBERTAD 65, 1º, DPTO. B",
      "location": {
        "postalCode": "48901",
        "municipality": "Barakaldo",
        "county": "Bizkaia",
        "municipalityId": "013",
        "countyId": "48"
      },
      "economicActivities": [
        {
          "id": "1.847",
          "name": "Servicios de consultoría",
          "_links": {
            "self": {
              "name": "Servicios de consultoría",
              "href": "https://api.euskadi.eus/procurements/companies/economic-activities/1.847"
            }
          }
        }
      ],
      "certificateStartDate": "2010-10-04",
      "certificateEndDate": "2011-03-01",
      "object": "LA PRESTACIÓN DE SERVICOS EXTERNOS EN SU ÁMBITO MÁS AMPLIO REQUERIDO POR TODO TIPO DE NETIDADES TANTO PUBLICAS COMO PRIVADAS A NIVEL NACIONAL, QUE SE CONCRETAN EN LAS SIGUIENTES ÁREAS: A) GESTIÓN INTEGRAL DE LOS SERVICIOS ADMINISTRATIVOS DE UNA EMPESA TANTO PÚBLICA COMO PRIVADA EN UBICACIÓN TANTO PROPIO COMO DE TERCEROS, INCLUYENDO LA ATENCIÓN AL PÚBLICO OY LA ELABORACIÓN DE CUALQUIER TAREA REQUERIDA PARA EL CORRECTO FUNCIONAMIENTO DEL ÁREA ADMINISTRATIVA DE CUALQUIER EMPRESA, MEDIANTE LA GESTIÓN DE PERSONAL NECESARIO TANTO TITULADO COMO NO, SECRETARIADO, ADMINISTRATIVOS, MECANÓGRAFOS, TAQUÍGRAFOS, RECEPCIONISTAS, TRADUCTORES Y TRADUCTORES JURADOS, VALIJA INTERNADA Y PROFESIONALES AFINES. B) SOLUCIONES INFORMÁTICAS DE CUALQUIER TIPO, REDES INFORMÁTICAS, REALIZACIÓN Y PATENTE DE SOFTWARE ESPECÍFICO , DISTRIBUCIÓN DE MATERIAL INFORMÁTICO Y SU CUIDADO Y MANTENIMIENTO. C) PRESTACIÓN DE SERVICIOS JURÍDICOS EN EL ÁMBITO MÁS AMPLIO DEL DERECHO TANTO PÚBLICO COMO PRIVADO EN RESOLUCIÓN DE CONFLICTOS JUDICIALES Y EXTRAJUDICIALES, ASÍ COMO ASESORÍA Y GESTIÓN EN EL ÁMBITO LABORAL, FISCAL Y CONTABLE Y CUALQUIER OTRO QUE LAS OBLIGACIONES MERCANTILES REQUIERAN. D) ASESORAMIENTO E IMPLANTACIÓN DE NUEVAS TÉCNICAS, NORMATIVA O LEYES QUE PUEDAN INCLUIR Y MEJORAR CUALQUIER PUNTO DE LA LÍNEA DE PRODUCCIÓN DE UNA EMPRESA, ASÍ COM SU ESTUDIO E IMPLANTACIÓN POSTEIROR. E) ASESORAMIENTO SOBRE INVERSIONES, ASÍ COMO CUALQUIER OTRO HECHO QUE PUEDA REPERCUTIR EN UNA BONANZA TANTO PARA EL CLIENTE COMO PARA LA EMPRESA. F) DIRECCIÓN Y GERENCIA DE SOCIEDADES EN TODO SU ÁMBITO, ELABORACIÓN DE PLANES DE NEGOCIO, ANÁLISIS DE VIABILIDAD, ASESORAMIENTO EN ESTRATEGIA TECNOLÓGICA E INNOVACIÓN. G) ELABORACIÓN DE ESTUDIOS DE MERCADO TANTO NACIONALES COMO INTERNACIONALES EN EL ÁMBITO MÁS AMPLIO DE SU ACTUACIÓN.H) ANÁLISIS Y ELABORACIÓN DE PLANTES DE REINGENIERÍA DE PROCESOS; I) REESTRUCTURACIONES DE EMPRESAS, GESTIÓN INTEGRAL DE CRISIS EN MERCANTILES REALIZANDO TODAS AQUELLAS ACTUACIONES QUE LLEVEN AL REFLOTAMIENTO DE LA MISMA. J) ELABORACIÓN E IMPLANTACIÓN EN EMPRESAS DE PLANES DE CALIDAD, ADAPTACIÓN A LA LEY DE PROTECCIÓN DE DATOS Y CUALQUIER OTRA MEJOA SIMILAR QUE REPRESENTE UN BENEFICIO DE LA MISMA. AUDITORÍA DE DICHAS ACTUACIONES. K) AUDITORÍA CONTABLE, LABORAL Y MERCANTIL DE EMPRESAS. L) ASESORAMIENTO E IMPLANTACIÓN EN COMERCIO EXTERIOR. M) ELABORACIÓN E IMPLANTACIÓN DE PLANES DE OUTSOURCING TANTO INDUSTRIAL COMO NO INDUSTRIAL. N) AUDITORÍA DE RECURSOS HUMANOS, GESTIÓN DE PUESTOS Y VACANTES PARA EMPRESAS, BÚSQUEDA Y SELECCIÓN DE PERSONAL ASÍ COMO FORMACÍON DE PERSONAL, GESTIÓN E INTERMEDIACIÓN SINDICAL, ELABORACIÓN Y TRAMITACIÓN DE EXPEDIENTES DE REGULACIÓN DE EMPLEO, INTERMEDIACIONES SINDICALES, GESTIÓN DE LA RETRIBUCIÓN Y SELECCIÓN Y FORMACÓN DE PERSONAL DE ALTA DIRECCIÓN. O) PLANES DE OBTENCIÓN DE AYUDAS Y SUBVENCIONES, GESTIÓN Y TRAMITACIÓN DE LAS MISMAS",
      "mainEntityOfPage": "https://www.contratacion.euskadi.eus/webkpe00-kperoc/es/ac71aBusquedaRegistrosWar/empresa/04322",
      "_links": {
        "self": {
          "name": "BISOR ESTRATEGIAS EMPRESARIALES, S.L.",
          "href": "https://api.euskadi.eus/procurements/companies/04322"
        }
      }
    },
    {
      "name": "CANALIZACIONES SARAGO, S.L.",
      "registrationNumber": "04501",
      "identificationNumber": "B70052725",
      "address": "Paseo de la Unesco, 3 y 5",
      "location": {
        "postalCode": "01015",
        "municipality": "Vitoria-Gasteiz",
        "county": "Araba/Álava",
        "municipalityId": "059",
        "countyId": "01"
      },
      "economicActivities": [
        {
          "id": "1.502.3",
          "name": "Consolidación y preparación de terrenos para la realización de obras civiles",
          "_links": {
            "self": {
              "name": "Consolidación y preparación de terrenos para la realización de obras civiles",
              "href": "https://api.euskadi.eus/procurements/companies/economic-activities/1.502.3"
            }
          }
        }
      ],
      "certificateStartDate": "2010-09-29",
      "certificateEndDate": "2011-02-28",
      "object": "A) LA EJECUCIÓN DE TODA CLASE DE CONSTRUCCIONES Y OBRAS PÚBLICAS Y PRIVADAS, URBANIZACIONES, VÍAS DE COMUNICACIÓN, EXPLANACIONES Y MOVIMIENTO  DE TIERRAS. B) LA REALIZACIÓN DE TRABAJOS DE REPARACIÓN, REHABILITACIÓN, CONSERVACIÓN Y DECORACIÓN DE TODO TIPO DE OBRAS Y EDIFICACIONES.",
      "mainEntityOfPage": "https://www.contratacion.euskadi.eus/webkpe00-kperoc/es/ac71aBusquedaRegistrosWar/empresa/04501",
      "_links": {
        "self": {
          "name": "CANALIZACIONES SARAGO, S.L.",
          "href": "https://api.euskadi.eus/procurements/companies/04501"
        }
      }
    }
  ]
}