{
  "totalItems": 9042,
  "totalPages": 905,
  "currentPage": 319,
  "itemsOfPage": 10,
  "items": [
    {
      "name": "ESCUELA TECNICA INDUSTRIAL 2010, S.L.",
      "registrationNumber": "10061",
      "identificationNumber": "B99276073",
      "address": "CALLE JAIME FERRAN 17, 50014, ZARAGOZA",
      "location": {
        "postalCode": "50014",
        "municipality": "Zaragoza",
        "county": "Zaragoza",
        "municipalityId": "297",
        "countyId": "50"
      },
      "economicActivities": [
        {
          "id": "1.932.1",
          "name": "Enseñanza de formación y perfeccionamiento profesional no superior",
          "_links": {
            "self": {
              "name": "Enseñanza de formación y perfeccionamiento profesional no superior",
              "href": "https://api.euskadi.eus/procurements/companies/economic-activities/1.932.1"
            }
          }
        }
      ],
      "certificateStartDate": "2025-08-26",
      "certificateEndDate": "2026-02-20",
      "object": "LA ORGANIZACIÓN E IMPARTICIÓN DE TODA CLASE DE CURSOS, CONFERENCIAS, SEMINARIOS, ETC, DEDICADOS A LA ENSEÑANZA DE FORMACIÓN Y PERFECCIONAMIENTO PROFESIONAL, NO SUPERIOR, CON LA FINALIDAD DE ACTUALIZAR CONOCIMIENTOS EN NUEVAS TECNOLOGÍAS Y LAS ACTIVIDADES COMPLEMENTARIAS AFINES A LAS CITADAS.",
      "mainEntityOfPage": "https://www.contratacion.euskadi.eus/webkpe00-kperoc/es/ac71aBusquedaRegistrosWar/empresa/10061",
      "_links": {
        "self": {
          "name": "ESCUELA TECNICA INDUSTRIAL 2010, S.L.",
          "href": "https://api.euskadi.eus/procurements/companies/10061"
        }
      }
    },
    {
      "name": "GURE AMETS GIZARTE ELKARTEA",
      "registrationNumber": "05949",
      "identificationNumber": "G20468641",
      "address": "Avenida de Euskadi 26 bajo",
      "location": {
        "postalCode": "20110",
        "municipality": "Pasaia",
        "county": "Gipuzkoa",
        "municipalityId": "064",
        "countyId": "20"
      },
      "economicActivities": [
        {
          "id": "1.501.3",
          "name": "Albañilería y pequeños trabajos de construcción en general",
          "_links": {
            "self": {
              "name": "Albañilería y pequeños trabajos de construcción en general",
              "href": "https://api.euskadi.eus/procurements/companies/economic-activities/1.501.3"
            }
          }
        },
        {
          "id": "1.922.2",
          "name": "Servicios especializados de limpiezas (cristales, chimeneas)",
          "_links": {
            "self": {
              "name": "Servicios especializados de limpiezas (cristales, chimeneas)",
              "href": "https://api.euskadi.eus/procurements/companies/economic-activities/1.922.2"
            }
          }
        },
        {
          "id": "1.944",
          "name": "Servicios de naturopatía, acupuntura y otros servicios parasanitarios",
          "_links": {
            "self": {
              "name": "Servicios de naturopatía, acupuntura y otros servicios parasanitarios",
              "href": "https://api.euskadi.eus/procurements/companies/economic-activities/1.944"
            }
          }
        },
        {
          "id": "1.952",
          "name": "Asistencia y servicios sociales en centros no residenciales",
          "_links": {
            "self": {
              "name": "Asistencia y servicios sociales en centros no residenciales",
              "href": "https://api.euskadi.eus/procurements/companies/economic-activities/1.952"
            }
          }
        }
      ],
      "certificateStartDate": "2025-08-26",
      "certificateEndDate": "2026-02-25",
      "object": "LOS OBJETIVOS Y ACTIVIDADES SE ENMARCAN EN TRES NIVELES: PREVENTIVO, ASISTENCIAL y -REHABILITACIÓN E INTEGRACIÓN SOCIAL. ESTA ASOCIACIÓN CENTRA SU ACTIVIDAD EN TRES CAMPOS: SOCIAL, CULTURALY-EDUCATIVO. EL PRINCIPAL FIN DE LA ASOCIACIÓN ES DESARROLLAR UN TRABAJO DE INTERVENCIÓN, QUE SE ENCUADRE DENTRO DE LOS NIVELES Y CAMPOS ANTERIORMENTE SEÑALADOS",
      "mainEntityOfPage": "https://www.contratacion.euskadi.eus/webkpe00-kperoc/es/ac71aBusquedaRegistrosWar/empresa/05949",
      "_links": {
        "self": {
          "name": "GURE AMETS GIZARTE ELKARTEA",
          "href": "https://api.euskadi.eus/procurements/companies/05949"
        }
      }
    },
    {
      "name": "CHIESI ESPAÑA, S.A.",
      "registrationNumber": "02354",
      "identificationNumber": "A08017204",
      "address": "C/ PL. EUROPA, 41-43 . PLANTA 10 (TORRE REALIA BCN)",
      "location": {
        "postalCode": "08908",
        "municipality": "Hospitalet de Llobregat, L'",
        "county": "Barcelona",
        "municipalityId": "101",
        "countyId": "08"
      },
      "economicActivities": [
        {
          "id": "1.614.1",
          "name": "Venta al por mayor de productos farmacéuticos y medicamentos",
          "_links": {
            "self": {
              "name": "Venta al por mayor de productos farmacéuticos y medicamentos",
              "href": "https://api.euskadi.eus/procurements/companies/economic-activities/1.614.1"
            }
          }
        }
      ],
      "certificateStartDate": "2025-08-26",
      "certificateEndDate": "2026-02-22",
      "object": "LA FABRICACIÓN Y VENTA DE TODA CLASE DE ESPECIALIDADES FARMACÉUTICAS, LA FABRICACIÓN Y COMERCIO DE PRODUCTOS COSMÉTICOS, DIETÉTICOS, Y DEMÁS PARAFARMACÉUTICOS, FABRICACIÓN DE MATERIAS PRIMAS Y/O  PRINCIPIOS ACTIVOS Y LA REALIZACIÓN DE TRABAJOS Y ESTUDIOS FARMACOLÓGICOS PARA USO PROPIO O DE TERCEROS. ",
      "mainEntityOfPage": "https://www.contratacion.euskadi.eus/webkpe00-kperoc/es/ac71aBusquedaRegistrosWar/empresa/02354",
      "_links": {
        "self": {
          "name": "CHIESI ESPAÑA, S.A.",
          "href": "https://api.euskadi.eus/procurements/companies/02354"
        }
      }
    },
    {
      "name": "CONSTRUCCIONES BELAIZE, S.L.",
      "registrationNumber": "07253",
      "identificationNumber": "B31688856",
      "address": "Santio Plaza, 12",
      "location": {
        "postalCode": "31810",
        "municipality": "Bakaiku",
        "county": "Navarra",
        "municipalityId": "044",
        "countyId": "31"
      },
      "economicActivities": [
        {
          "id": "1.501.1",
          "name": "Construcción completa, reparación y conservación de edificaciones",
          "_links": {
            "self": {
              "name": "Construcción completa, reparación y conservación de edificaciones",
              "href": "https://api.euskadi.eus/procurements/companies/economic-activities/1.501.1"
            }
          }
        }
      ],
      "certificateStartDate": "2025-08-26",
      "certificateEndDate": "2026-02-22",
      "object": "LA CONSTRUCCIÓN ADMINISTRACIÓN, EXPLOTACIÓN, REFORMA, REHABILITACIÓN, PROMOCIÓN, GESTIÓN, COMPRA Y VENTA, DE TODO TIPO DE EDIFICIOS DESTINADOS A VIVIENDAS, INCLUSO LAS DE PROTECCIÓN OFICIAL, LOCALES COMERCIALES, ALMACENES Y NAVES INDUSTRIALES. LA REALIZACIÓN DE TODA CLASE DE OBRAS PÚBLICAS O PRIVADAS DE EXCAVACIÓN, SANEAMIENTO, ABASTECIMIENTO, URBANIZACIÓN, PLANIFICACIÓN POR CUENTA PROPIA O AJENA. LA COMPRA Y VENTA DE TERRENOS, FINCAS, PARCELAS, SOLARES, VEHÍCULOS DE CARGA Y TRANSPORTE, MAQUINARIA Y ELEMENTOS DE CONSTRUCCIÓN",
      "mainEntityOfPage": "https://www.contratacion.euskadi.eus/webkpe00-kperoc/es/ac71aBusquedaRegistrosWar/empresa/07253",
      "_links": {
        "self": {
          "name": "CONSTRUCCIONES BELAIZE, S.L.",
          "href": "https://api.euskadi.eus/procurements/companies/07253"
        }
      }
    },
    {
      "name": "EXACTECH IBÉRICA, S.L.U.",
      "registrationNumber": "04678",
      "identificationNumber": "B33975814",
      "address": "PARQUE TECNOLÓGICO DE ASTURIAS, PARCELA 44",
      "location": {
        "postalCode": "33428",
        "municipality": "Llanera",
        "county": "Asturias",
        "municipalityId": "035",
        "countyId": "33"
      },
      "economicActivities": [
        {
          "id": "1.619.2",
          "name": "Venta al por mayor de aparatos e instrumentos médicos, ortopédicos, ópticos",
          "_links": {
            "self": {
              "name": "Venta al por mayor de aparatos e instrumentos médicos, ortopédicos, ópticos",
              "href": "https://api.euskadi.eus/procurements/companies/economic-activities/1.619.2"
            }
          }
        }
      ],
      "certificateStartDate": "2025-08-25",
      "certificateEndDate": "2026-02-25",
      "object": "A) EL DISEÑO, LA FABRICACIÓN, EL TRATAMIENTO, LA EXPLOTACIÓN, LA DISTRIBUCIÓN Y LA COMERCIALIZACIÓN DE TODO TIPO DE PRODUCTOS PARA EL SECTOR SANITARIO Y DE LOS EQUIPOS, PIEZAS, COMPONENTES, ÚTILES, ACCESORIOS, MATERIALES AUXILIARES Y COMPLEMENTOS DE LOS MISMOS, ASÍ COMO LA PRESTACIÓN DE TODA SUERTE DE SERVICIOS RELACIONADOS CON LA SALUD Y LA EJECUCIÓN DE OBRAS DE TODA ÍNDOLE PARA ESE MERCADO. B) LA ORGANIZACIÓN DE PRESENTACIONES, CERTÁMENES, FERIAS, CONFERENCIAS, SEMINARIOS, CONGRESOS Y CURSOS DE TODA ÍNDOLE, ASÍ COMO EL ASESORAMIENTO Y LA COLABORACIÓN EN LOS MISMOS. C) LA PRESTACIÓN DE SERVICIOS DE TODA ESPECIE Y LA EJECUCIÓN DE OBRAS DE TODA NATURALEZA EN MATERIA DE TECNOLOGÍA DE LA INFORMACIÓN Y PROCESOS EMPRESARIALES. D) LA ADQUISICIÓN, EL TRATAMIENTO, LA EXPLOTACIÓN, LA DISTRIBUCIÓN Y LA COMERCIALIZACIÓN DE TODA CLASE DE SOFTWARE Y EQUIPAMIENTO INFORMÁTICO, ASÍ COMO DE SUS SOPORTES, PIEZAS, COMPONENTES, ÚTILES, ACCESORIOS, MATERIALES AUXILIARES Y COMPLEMENTOS",
      "mainEntityOfPage": "https://www.contratacion.euskadi.eus/webkpe00-kperoc/es/ac71aBusquedaRegistrosWar/empresa/04678",
      "_links": {
        "self": {
          "name": "EXACTECH IBÉRICA, S.L.U.",
          "href": "https://api.euskadi.eus/procurements/companies/04678"
        }
      }
    },
    {
      "name": "ABADIA CATERING, S.L.",
      "registrationNumber": "09825",
      "identificationNumber": "B01143619",
      "address": "CARRETERA DE LOGROÑO S/N",
      "location": {
        "postalCode": "01300",
        "municipality": "Laguardia",
        "county": "Araba/Álava",
        "municipalityId": "031",
        "countyId": "01"
      },
      "economicActivities": [
        {
          "id": "1.677.9",
          "name": "Otros servicios de alimentación propios de la restauración",
          "_links": {
            "self": {
              "name": "Otros servicios de alimentación propios de la restauración",
              "href": "https://api.euskadi.eus/procurements/companies/economic-activities/1.677.9"
            }
          }
        }
      ],
      "certificateStartDate": "2025-08-25",
      "certificateEndDate": "2026-02-25",
      "object": "LA EXPLOTACIÓN DE NEGOCIOS DE HOSTELERÍA. LA ELABORACIÓN DE PRODUCTOS AGROALIMENTARIOS, CATERING, TRANSPORTE Y DISTRIBUCIÓN DE ALIMENTOS.",
      "mainEntityOfPage": "https://www.contratacion.euskadi.eus/webkpe00-kperoc/es/ac71aBusquedaRegistrosWar/empresa/09825",
      "_links": {
        "self": {
          "name": "ABADIA CATERING, S.L.",
          "href": "https://api.euskadi.eus/procurements/companies/09825"
        }
      }
    },
    {
      "name": "CUBRANTIA, S.L.",
      "registrationNumber": "07315",
      "identificationNumber": "B95774097",
      "address": "UGALDEGUREN I, PARCELA 5-IV, PABELLÓN 9B",
      "location": {
        "postalCode": "48160",
        "municipality": "Derio",
        "county": "Bizkaia",
        "municipalityId": "901",
        "countyId": "48"
      },
      "economicActivities": [
        {
          "id": "1.503.1",
          "name": "Preparación y montaje de estructuras y cubiertas en edificaciones",
          "_links": {
            "self": {
              "name": "Preparación y montaje de estructuras y cubiertas en edificaciones",
              "href": "https://api.euskadi.eus/procurements/companies/economic-activities/1.503.1"
            }
          }
        }
      ],
      "certificateStartDate": "2025-08-25",
      "certificateEndDate": "2026-02-25",
      "object": "LA COMPRAVENTA, SUMINISTRO Y MONTAJE DE MATERIALES PARA LA CONSTRUCCIÓN E INSTALACIÓN DE CUBIERTAS, FACHADAS Y ESTRUCTURA DE EDIFICIOS EN TODO TIPO DE OBRAS, PÚBLICAS O PRIVADAS, POR CUENTA PROPIA O AJENA, CON CONTRATACIÓN CONFORME A DERECHO EN ADJUDICACIONES DE CONTRATAS, ENTES PÚBLICOS O PARTICULARES. LA ASISTENCIA TÉCNICA PARA LA CONSTRUCCIÓN DE CUBIERTAS, FACHADAS, ESTRUCTURA, MANTENIMIENTO Y REPARACIÓN DE EDIFICIOS. LA REPARACIÓN Y MANTENIMIENTO DE CUBIERTAS Y FACHADAS DE EDIFICIOS",
      "mainEntityOfPage": "https://www.contratacion.euskadi.eus/webkpe00-kperoc/es/ac71aBusquedaRegistrosWar/empresa/07315",
      "_links": {
        "self": {
          "name": "CUBRANTIA, S.L.",
          "href": "https://api.euskadi.eus/procurements/companies/07315"
        }
      }
    },
    {
      "name": "SOKAIRE SERVICIOS DE LIMPIEZA, SLU",
      "registrationNumber": "03040",
      "identificationNumber": "B95306700",
      "address": "C/LA LAGUNA 5 LONJA",
      "location": {
        "postalCode": "48003",
        "municipality": "Bilbao",
        "county": "Bizkaia",
        "municipalityId": "020",
        "countyId": "48"
      },
      "economicActivities": [
        {
          "id": "1.849.9",
          "name": "Otros servicios independientes n.c.o.p",
          "_links": {
            "self": {
              "name": "Otros servicios independientes n.c.o.p",
              "href": "https://api.euskadi.eus/procurements/companies/economic-activities/1.849.9"
            }
          }
        },
        {
          "id": "1.921.1",
          "name": "Servicios de limpieza en calles, vías públicas y jardines",
          "_links": {
            "self": {
              "name": "Servicios de limpieza en calles, vías públicas y jardines",
              "href": "https://api.euskadi.eus/procurements/companies/economic-activities/1.921.1"
            }
          }
        },
        {
          "id": "1.922",
          "name": "Servicios de limpieza",
          "_links": {
            "self": {
              "name": "Servicios de limpieza",
              "href": "https://api.euskadi.eus/procurements/companies/economic-activities/1.922"
            }
          }
        }
      ],
      "certificateStartDate": "2025-08-25",
      "certificateEndDate": "2026-02-25",
      "object": "REALIZACIÓN DE SERVICIOS DE LIMPIEZA Y MANTENIMIENTO, ASÍ COMO TRATAMIENTOS ESPECÍFICOS DENTRO DEL ÁMBITO DE LA LIMPIEZA. FAVORECER EL DESARROLLO DE TODO TIPO DE ACTIVIDADES ECONÓMICAS ENCAMINADAS A FACILITAR LA INCORPORACIÓN SOCIAL Y LABORAL DE PERSONAS EN SITUACIÓN DE EXCLUSIÓN SOCIAL",
      "mainEntityOfPage": "https://www.contratacion.euskadi.eus/webkpe00-kperoc/es/ac71aBusquedaRegistrosWar/empresa/03040",
      "_links": {
        "self": {
          "name": "SOKAIRE SERVICIOS DE LIMPIEZA, SLU",
          "href": "https://api.euskadi.eus/procurements/companies/03040"
        }
      }
    },
    {
      "name": "ATHLON KUDEAKETA, S.L.",
      "registrationNumber": "06967",
      "identificationNumber": "B75217935",
      "address": "LORAMENDI,4",
      "location": {
        "postalCode": "20500",
        "municipality": "Arrasate / Mondragón",
        "county": "Gipuzkoa",
        "municipalityId": "055",
        "countyId": "20"
      },
      "economicActivities": [
        {
          "id": "1.673.2",
          "name": "Otros cafés y bares",
          "_links": {
            "self": {
              "name": "Otros cafés y bares",
              "href": "https://api.euskadi.eus/procurements/companies/economic-activities/1.673.2"
            }
          }
        },
        {
          "id": "1.999",
          "name": "Otros servicios n.c.o.p",
          "_links": {
            "self": {
              "name": "Otros servicios n.c.o.p",
              "href": "https://api.euskadi.eus/procurements/companies/economic-activities/1.999"
            }
          }
        }
      ],
      "certificateStartDate": "2025-08-25",
      "certificateEndDate": "2026-02-21",
      "object": "EL DESARROLLO Y PRESTACIÓN DE ACTIVIDADES DEPORTIVAS Y SERVICIOS COMPLEMENTARIOS",
      "mainEntityOfPage": "https://www.contratacion.euskadi.eus/webkpe00-kperoc/es/ac71aBusquedaRegistrosWar/empresa/06967",
      "_links": {
        "self": {
          "name": "ATHLON KUDEAKETA, S.L.",
          "href": "https://api.euskadi.eus/procurements/companies/06967"
        }
      }
    },
    {
      "name": "AUTOBUSES URBANOS ÁNGEL HERRERA SL",
      "registrationNumber": "06234",
      "identificationNumber": "B09015447",
      "address": "Calle Cid 16",
      "location": {
        "postalCode": "09200",
        "municipality": "Miranda de Ebro",
        "county": "Burgos",
        "municipalityId": "219",
        "countyId": "09"
      },
      "economicActivities": [
        {
          "id": "1.721.3",
          "name": "Transporte de viajeros por carretera",
          "_links": {
            "self": {
              "name": "Transporte de viajeros por carretera",
              "href": "https://api.euskadi.eus/procurements/companies/economic-activities/1.721.3"
            }
          }
        }
      ],
      "certificateStartDate": "2025-08-25",
      "certificateEndDate": "2026-02-20",
      "object": "LA REALIZACIÓN DE TRANSPORTE DE MERCANCÍAS Y VIAJEROS, POR CUALQUIER MODO Y MODALIDAD, TANTO DE SERVICIO PÚBLICO COMO PRIVADO, ASÍ COMO LAS ACTIVIDADES AUXILIARES Y COMPLEMENTARIAS DEL TRANSPORTE",
      "mainEntityOfPage": "https://www.contratacion.euskadi.eus/webkpe00-kperoc/es/ac71aBusquedaRegistrosWar/empresa/06234",
      "_links": {
        "self": {
          "name": "AUTOBUSES URBANOS ÁNGEL HERRERA SL",
          "href": "https://api.euskadi.eus/procurements/companies/06234"
        }
      }
    }
  ]
}