{
  "totalItems": 9042,
  "totalPages": 905,
  "currentPage": 730,
  "itemsOfPage": 10,
  "items": [
    {
      "name": "AGUSTÍN CORRAL FERNANDEZ DE BARRENA",
      "registrationNumber": "02782",
      "identificationNumber": "16226599F",
      "address": "BEATO TOMÁS DE ZUMÁRRAGA, 18",
      "location": {
        "postalCode": "01008",
        "municipality": "Vitoria-Gasteiz",
        "county": "Araba/Álava",
        "municipalityId": "059",
        "countyId": "01"
      },
      "economicActivities": [
        {
          "id": "1.653.1",
          "name": "Venta al por menor de muebles (excepto los de oficina)",
          "_links": {
            "self": {
              "name": "Venta al por menor de muebles (excepto los de oficina)",
              "href": "https://api.euskadi.eus/procurements/companies/economic-activities/1.653.1"
            }
          }
        },
        {
          "id": "1.653.2",
          "name": "Venta al por menor de material y aparatos eléctricos, electrodomésticos y cocina",
          "_links": {
            "self": {
              "name": "Venta al por menor de material y aparatos eléctricos, electrodomésticos y cocina",
              "href": "https://api.euskadi.eus/procurements/companies/economic-activities/1.653.2"
            }
          }
        },
        {
          "id": "1.653.3",
          "name": "Venta al por menor de artículos de menaje, ferretería, adorno, regalo",
          "_links": {
            "self": {
              "name": "Venta al por menor de artículos de menaje, ferretería, adorno, regalo",
              "href": "https://api.euskadi.eus/procurements/companies/economic-activities/1.653.3"
            }
          }
        },
        {
          "id": "1.659.2",
          "name": "Venta al por menor de muebles de oficina y máquinas y equipos de oficina",
          "_links": {
            "self": {
              "name": "Venta al por menor de muebles de oficina y máquinas y equipos de oficina",
              "href": "https://api.euskadi.eus/procurements/companies/economic-activities/1.659.2"
            }
          }
        }
      ],
      "certificateStartDate": "2010-05-06",
      "certificateEndDate": "2010-10-21",
      "object": "AMUEBLAMIENTO DE HOGAR, OFICINAS, COMERCIOS, ETC.\r\nEQUIPAMIENTO DE INSTALACIONES PARA CENTROS CÍVICOS, OFICINAS Y LOCALES TANTO DE ADMINISTRACIÓN PÚBLICA COMO DE PARTICULARES.\r\nINSTALACIÓN DE COCINAS Y ELECTRODOMÉSTICOS DE HOGAR.   ",
      "mainEntityOfPage": "https://www.contratacion.euskadi.eus/webkpe00-kperoc/es/ac71aBusquedaRegistrosWar/empresa/02782",
      "_links": {
        "self": {
          "name": "AGUSTÍN CORRAL FERNANDEZ DE BARRENA",
          "href": "https://api.euskadi.eus/procurements/companies/02782"
        }
      }
    },
    {
      "name": "GOIZUETAKO ESTRUCTURAS, S.L.",
      "registrationNumber": "03281",
      "identificationNumber": "B20685541",
      "address": "PORTUETXE, 11-BAJO",
      "location": {
        "postalCode": "20018",
        "municipality": "Donostia / San Sebastián",
        "county": "Gipuzkoa",
        "municipalityId": "069",
        "countyId": "20"
      },
      "economicActivities": [
        {
          "id": "1.501.1",
          "name": "Construcción completa, reparación y conservación de edificaciones",
          "_links": {
            "self": {
              "name": "Construcción completa, reparación y conservación de edificaciones",
              "href": "https://api.euskadi.eus/procurements/companies/economic-activities/1.501.1"
            }
          }
        }
      ],
      "certificateStartDate": "2010-05-05",
      "certificateEndDate": "2010-09-30",
      "object": "LA  CONSTRUCCIÓN, TENENCIA, PROMOCIÓN Y VENTA DE EDIFICIOS Y EDIFICACIONES EN GENERAL",
      "mainEntityOfPage": "https://www.contratacion.euskadi.eus/webkpe00-kperoc/es/ac71aBusquedaRegistrosWar/empresa/03281",
      "_links": {
        "self": {
          "name": "GOIZUETAKO ESTRUCTURAS, S.L.",
          "href": "https://api.euskadi.eus/procurements/companies/03281"
        }
      }
    },
    {
      "name": "ZINTZO, S.L.",
      "registrationNumber": "04414",
      "identificationNumber": "B01304724",
      "address": "SAN ROMÁN 25",
      "location": {
        "postalCode": "01409",
        "municipality": "Okondo",
        "county": "Araba/Álava",
        "municipalityId": "042",
        "countyId": "01"
      },
      "economicActivities": [
        {
          "id": "1.501.3",
          "name": "Albañilería y pequeños trabajos de construcción en general",
          "_links": {
            "self": {
              "name": "Albañilería y pequeños trabajos de construcción en general",
              "href": "https://api.euskadi.eus/procurements/companies/economic-activities/1.501.3"
            }
          }
        }
      ],
      "certificateStartDate": "2010-05-05",
      "certificateEndDate": "2010-10-20",
      "object": "LA PROMOCIÓN Y EJECUCIÓN COMPLETA O POR TRAMOS DE TODA CLASE DE OBRA DE CONSTRUCCIÓN, PARA SI O PARA TERCEROS, SEAN ORGANISMOS PÚBLICOS, DEL ESTADO, PROVINCIA O MUNICIPIO, ENTES AUTONOMOS O PERSONAS FÍSICAS, POR CUENTA PROPIA O AJENA, INCLUSO VIVIENDAS Y LOCALES DE LOS DENOMINADOS DE PROTECCIÓN OFICIAL. LA COMPRA, VENTA Y ALQUILER DE EDIFICACIONES EN SU TOTALIDAD, POR PARTE O POR PISOS, BIEN PARA VIVIENDAS  O PARA LOCALES DE OFICINAS, DE NEGOCIOS O INDUSTRIALES, CONSTRUÍDAS PARA TAL FIN, DIRECTAMENTE O POR MEDIO DE CONTRATISTAS, SUBCONTRATISTAS Y DESTAJISTAS O BIEN ADQUIRIDAS Y CONSTRUIDAS O EN CONSTRUCCIÓN.\r\n\r\nLA REPARACIÓN, LIMPIEZA, CONSERVACIÓN O REFORMA, POR CUENTA PROPIA O AJENA DE TODA CLASE DE EDIFICACIONES, POR PARTES O POR PISOS, BIEN PARA VIVIENDAS O PARA LOCALES DE NEGOCIO Y LA LIMPIEZA DE TODA CLASE DE FACHADAS.",
      "mainEntityOfPage": "https://www.contratacion.euskadi.eus/webkpe00-kperoc/es/ac71aBusquedaRegistrosWar/empresa/04414",
      "_links": {
        "self": {
          "name": "ZINTZO, S.L.",
          "href": "https://api.euskadi.eus/procurements/companies/04414"
        }
      }
    },
    {
      "name": "NEURRI INGENIEROS, S.A.",
      "registrationNumber": "01722",
      "identificationNumber": "A20521464",
      "address": "ZUATZU, Nº 2 EDIF. IGELDO, 1º - LOCAL 7",
      "location": {
        "postalCode": "20009",
        "municipality": "Donostia / San Sebastián",
        "county": "Gipuzkoa",
        "municipalityId": "069",
        "countyId": "20"
      },
      "economicActivities": [
        {
          "id": "1.843.1",
          "name": "Servicios técnicos de ingeniería",
          "_links": {
            "self": {
              "name": "Servicios técnicos de ingeniería",
              "href": "https://api.euskadi.eus/procurements/companies/economic-activities/1.843.1"
            }
          }
        }
      ],
      "certificateStartDate": "2010-05-04",
      "certificateEndDate": "2010-10-12",
      "object": "LA REALIZACIÓN, EDICIÓN, PUBLICACIÓN Y COMERCIALIZACIÓN DE FORMA DIRECTA O INDIRECTA DE TODA CLASE DE TRABAJOS Y ACTIVIDADES RELACIONADAS CON EL TRATAMIENTO Y OBTENCIÓN DE IMÁGENES GRÁFICAS, ÓPTICAS Y DIGITALES EN CUALQUIERA DE SUS MODALIDADES, QUEDANDO INCLUIDO EN EL ANTERIOR OBJETO SOCIAL LA REALIZACIÓN DE TRABAJOS TALES COMO TOPOGRAFÍA, FOTOGRAFÍA, FOTOGRAMETRÍA, ORTOFOTOGRAFÍA, REPROGRAFÍA, DIGITALIZACIÓN, TRATAMIENTO DE IMÁGENES, EDICIÓN GRÁFICA, PUBLICACIÓN, DISEÑO ARQUITECTÓNICO, DISEÑO GRÁFICO, DISEÑO INDUSTRIAL, GESTIÓN BASES DE DATOS, DIFUSIÓN DE PRODUCTOS CARTOGRÁFICOS, ETC., ASÍ COMO LA ELABORACIÓN DE ESTUDIOS, PROYECTOS, ASESORÍAS E INFORMES TÉCNICOS SOBRE CARTOGRAFÍA, ARQUITECTURA, HIDROLOGÍA, GEOTECNIA, URBANISMO, ECOLOGÍA, CATASTROS, INVENTARIOS Y CENSOS",
      "mainEntityOfPage": "https://www.contratacion.euskadi.eus/webkpe00-kperoc/es/ac71aBusquedaRegistrosWar/empresa/01722",
      "_links": {
        "self": {
          "name": "NEURRI INGENIEROS, S.A.",
          "href": "https://api.euskadi.eus/procurements/companies/01722"
        }
      }
    },
    {
      "name": "DATAVI SISTEMAS, S.L.",
      "registrationNumber": "02290",
      "identificationNumber": "B01234210",
      "address": "C/ LARRAGANA, Nº 12. PABELLÓN 19",
      "location": {
        "postalCode": "01013",
        "municipality": "Vitoria-Gasteiz",
        "county": "Araba/Álava",
        "municipalityId": "059",
        "countyId": "01"
      },
      "economicActivities": [
        {
          "id": "1.659.2",
          "name": "Venta al por menor de muebles de oficina y máquinas y equipos de oficina",
          "_links": {
            "self": {
              "name": "Venta al por menor de muebles de oficina y máquinas y equipos de oficina",
              "href": "https://api.euskadi.eus/procurements/companies/economic-activities/1.659.2"
            }
          }
        },
        {
          "id": "1.691.9",
          "name": "Reparación de otros bienes de consumo n.c.o.p",
          "_links": {
            "self": {
              "name": "Reparación de otros bienes de consumo n.c.o.p",
              "href": "https://api.euskadi.eus/procurements/companies/economic-activities/1.691.9"
            }
          }
        },
        {
          "id": "1.845",
          "name": "Explotación electrónica por cuenta de terceros",
          "_links": {
            "self": {
              "name": "Explotación electrónica por cuenta de terceros",
              "href": "https://api.euskadi.eus/procurements/companies/economic-activities/1.845"
            }
          }
        }
      ],
      "certificateStartDate": "2010-05-03",
      "certificateEndDate": "2010-10-21",
      "object": "LA COMPRA-VENTA DE TODO TIPO DE EQUIPOS INFORMÁTICOS, ACCESORIOS INFORMÁTICOS, PERIFÉRICOS, MOBILIARIO DE OFICINA Y DEMÁS ÚTILES RELACIONADOS CON EL MUNDO DE LA INFORMÁTICA; COMPRA-VENTA DE TODO TIPO DE SOFTWARE, ASÍ COMO LA ELABORACIÓN Y COMERCIALIZACIÓN DEL SOFTWARE DESARROLLADO POR LA PROPIA EMPRESA; SERVICIO TÉCNICO DESTINADO A REPARAR TANTO EL HARDWARE COMO EL SOFTWARE INFORMÁTICO",
      "mainEntityOfPage": "https://www.contratacion.euskadi.eus/webkpe00-kperoc/es/ac71aBusquedaRegistrosWar/empresa/02290",
      "_links": {
        "self": {
          "name": "DATAVI SISTEMAS, S.L.",
          "href": "https://api.euskadi.eus/procurements/companies/02290"
        }
      }
    },
    {
      "name": "DECONS GKAO, S.L.",
      "registrationNumber": "02726",
      "identificationNumber": "B95098778",
      "address": "ZUBIAURRETARREN, 3-5",
      "location": {
        "postalCode": "48960",
        "municipality": "Galdakao",
        "county": "Bizkaia",
        "municipalityId": "036",
        "countyId": "48"
      },
      "economicActivities": [
        {
          "id": "1.501.1",
          "name": "Construcción completa, reparación y conservación de edificaciones",
          "_links": {
            "self": {
              "name": "Construcción completa, reparación y conservación de edificaciones",
              "href": "https://api.euskadi.eus/procurements/companies/economic-activities/1.501.1"
            }
          }
        }
      ],
      "certificateStartDate": "2010-04-26",
      "certificateEndDate": "2010-10-14",
      "object": "1. LA ADQUISICIÓN Y ENAJENACIÓN POR CUALQUIER TÍTULO DE FINCAS RÚSTICAS Y URBANAS, YA SEAN TIERRAS, SOLARES, EDIFICIO O SUS PARTES DETERMINADAS LA CONSTRUCCIÓN Y REHABILITACIÓN DE ESTOS, Y LA TENENCIA, EXPLOTACIÓN Y ARRENDAMIENTO, YA SEA ACTIVO O PASIVO DE TALES BIENES Y SU VENTA TOTAL O PARCIAL, SEGÚN CONVENGA. 2. LA REALIZACIÓN Y SERVICIOS Y TRABAJOS DE ASESORAMIENTO Y CONSULTORÍA EN EL CAMPO DE LA DIRECCIÓN Y GESTIÓN DE EMPRESAS EN CUALQUIERA DE SUS ÁREAS O ACTIVIDADES, YA SEA ADMINISTRATIVO-CONTABLE, PRODUCCIÓN, FINANCIERA O COMERCIAL; LA REALIZACIÓN DE ESTUDIOS MACRO Y MICROECONÓMICOS, TANTO PARA EMPRESAS O AGRUPACIONES EMPRESARIALES, COMO PARA ENTIDADES DEL SECTOR PÚBLICO, YA SEA ÉSTE DE LA ADMINISTRACIÓN DEL ESTADO, AUTONÓMICA, FORAL, LOCAL O DE LA UNIÓN EUROPEA O CUALESQUIERA OTROS ORGANISMOS. 3. LA REALIZACIÓN DE SERVICIOS Y TRABAJOS DE INFORMÁTICA A TERCEROS ASÍ COMO SERVICIOS DE MECANOGRAFÍA, REPROGRAFÍA, DISEÑO, TRADUCCIONES, ASESORAMIENTO OIMAGEN, SECRETARIADO MÓVIL, YA SEA EN LAS DEPENDENCIAS DE LOS CLIENTES, YA EN FERIAS, CONGRESOS Y EXHIBICIONES. 4. EL DESEMPEÑO DE ACTIVIDADES DEREPRESENTACIÓN, MEDIACIÓN, PROMOCIÓN Y GESTIÓN TANTO EN ESPAÑA COMO EN EL EXTRAJERO, DE TODA CLASE DE EMPRESAS COMERCIALES, INDUSTRIALES Y DE SERVICIOS, INCLUÍDA LA INTERMEDIACIÓN INOMOBILIARIA. 5. LA CONSTITUCIÓN CON LA CONCURRENCIA DE OTRAS PERSONAS DE TODA CLASE DE SOCIEDADES MERCANTILES, LA PARTICIPACIÓN EN OTRAS CONSTITUIDAS, PUDIENDO OSTENTAR EN TODAS ELLAS CARGOS DE ADMINISTRACIÓN, DIRECCIÓN O CONTROL MEDIANTE LA OPORTUNA DELEGACIÓN EN PERSONA FÍSICA. 6. LA ADQUISICIÓN, TENENCIA,DISFRUTE Y ENAJENACIÓN DE TODA CLASE DE VALORES MOBILIARIOS, COTIZADOS EN BOLBA O NO, SIEMPRE QUE NO SE INCIDA EN OPERACIONES REGULADAS POR LEGISLACIÓN ESPECIAL. TODO ELLO SIEMPRE QUE LO REALICE LA SOCIEDAD POR CUENTA PROPIA Y CON EXCEPCIÓN DE LA INTERMEDIACÓN, QUEDANDO SIEMPRE EXCLUSIDAS LAS ACTIVIDADES OBJETO DE LA LEGISLACIÓN DE INSTITUCIONES DE INVERSIÓN COLECTIVA Y MERCADO DE VALORES. LAS ACTIVIDADES ENUMERADAS PODRÁN TAMBIÉN SER DESARROLLADAS POR LA SOCIEDAD, TOTAL O PARCIALMENTE, DE MODO INDIRECTO, MEDIANTE LA PARTICIPACIÓN EN OTRAS SOCIEDADES CON OBJETO ANÁLOGO. LA SOCIEDAD NO DESARROLLARÁ NINGUNA ACTIVIDAD PARA LA QUE LAS LEYES EXIJAN CONDICIONES O LIMITACIONES ESPECÍFICAS, EN TANTO NO DE EXACTO CUMPLIMIENTO A LAS MISMAS",
      "mainEntityOfPage": "https://www.contratacion.euskadi.eus/webkpe00-kperoc/es/ac71aBusquedaRegistrosWar/empresa/02726",
      "_links": {
        "self": {
          "name": "DECONS GKAO, S.L.",
          "href": "https://api.euskadi.eus/procurements/companies/02726"
        }
      }
    },
    {
      "name": "EXCAVACIONES ARTIBAI, S.A.",
      "registrationNumber": "04408",
      "identificationNumber": "A48422182",
      "address": "CASERIO BASEIBAR 20",
      "location": {
        "postalCode": "48270",
        "municipality": "Markina-Xemein",
        "county": "Bizkaia",
        "municipalityId": "060",
        "countyId": "48"
      },
      "economicActivities": [
        {
          "id": "1.244",
          "name": "Industrias de la piedra natural",
          "_links": {
            "self": {
              "name": "Industrias de la piedra natural",
              "href": "https://api.euskadi.eus/procurements/companies/economic-activities/1.244"
            }
          }
        },
        {
          "id": "1.501.1",
          "name": "Construcción completa, reparación y conservación de edificaciones",
          "_links": {
            "self": {
              "name": "Construcción completa, reparación y conservación de edificaciones",
              "href": "https://api.euskadi.eus/procurements/companies/economic-activities/1.501.1"
            }
          }
        },
        {
          "id": "1.501.2",
          "name": "Construcción completa, reparación y conservación obras civiles",
          "_links": {
            "self": {
              "name": "Construcción completa, reparación y conservación obras civiles",
              "href": "https://api.euskadi.eus/procurements/companies/economic-activities/1.501.2"
            }
          }
        },
        {
          "id": "1.502.2",
          "name": "Consolidación y preparación de terrenos para la construcción de edificaciones",
          "_links": {
            "self": {
              "name": "Consolidación y preparación de terrenos para la construcción de edificaciones",
              "href": "https://api.euskadi.eus/procurements/companies/economic-activities/1.502.2"
            }
          }
        },
        {
          "id": "1.722",
          "name": "Transporte de mercancías por carretera",
          "_links": {
            "self": {
              "name": "Transporte de mercancías por carretera",
              "href": "https://api.euskadi.eus/procurements/companies/economic-activities/1.722"
            }
          }
        }
      ],
      "certificateStartDate": "2010-04-26",
      "certificateEndDate": "2010-09-11",
      "object": "LA EJECUCIÓN, REALIZACIÓN Y PROMOCIÓN DE OBRAS, PROYECTOS Y CONSTRUCCIONES DE TODAS CLASES, POR CUENTA PROPIA O AJENA, BIEN POR SÍ O POR MEDIO DE CONTRATAS O SUBCONTRATAS, INCLUYENDO OBRAS PÚBLICAS, PRIVADAS O DE INFRAESTRUCTURA O EQUIPAMIENTO, ASÍ COMO LAS DE URBANIZACIONES, EDIFICACIONES O INSTALACIONES DE CUALQUIER CLASE, ALCANCE O NATURALEZA, PUDIENDO DEDICARSE A CUANTAS ACTIVIDADES SEAN NECESARIAS, COMPLEMENTARIAS, CONEXAS O RELACIONADAS CON LAS ANTERIORES",
      "mainEntityOfPage": "https://www.contratacion.euskadi.eus/webkpe00-kperoc/es/ac71aBusquedaRegistrosWar/empresa/04408",
      "_links": {
        "self": {
          "name": "EXCAVACIONES ARTIBAI, S.A.",
          "href": "https://api.euskadi.eus/procurements/companies/04408"
        }
      }
    },
    {
      "name": "CAMBRIDGE EQUIPAMIENTO, S.L.",
      "registrationNumber": "04403",
      "identificationNumber": "B31458797",
      "address": "TRAVESÍA CALLE A (MUTISVA BAJA)",
      "location": {
        "postalCode": "31192",
        "municipality": "Aranguren",
        "county": "Navarra",
        "municipalityId": "023",
        "countyId": "31"
      },
      "economicActivities": [
        {
          "id": "1.653.1",
          "name": "Venta al por menor de muebles (excepto los de oficina)",
          "_links": {
            "self": {
              "name": "Venta al por menor de muebles (excepto los de oficina)",
              "href": "https://api.euskadi.eus/procurements/companies/economic-activities/1.653.1"
            }
          }
        },
        {
          "id": "1.659.3",
          "name": "Venta al por menor de aparatos médicos, ortopédicos, ópticos y fotográficos",
          "_links": {
            "self": {
              "name": "Venta al por menor de aparatos médicos, ortopédicos, ópticos y fotográficos",
              "href": "https://api.euskadi.eus/procurements/companies/economic-activities/1.659.3"
            }
          }
        }
      ],
      "certificateStartDate": "2010-04-19",
      "certificateEndDate": "2010-08-19",
      "object": "LA EXPOSICIÓN, COMPRA Y VENTA DE MUEBLES Y OBJETOS DE DECORACIÓN Y REGALOS, ASÍ COMO LA RESTAURACIÓN Y MONTAJE DE LOS MISMOS.\r\nY LA COMERCIALIZACION DE APARATOS MÉDICOS Y ORTOPÉDICOS",
      "mainEntityOfPage": "https://www.contratacion.euskadi.eus/webkpe00-kperoc/es/ac71aBusquedaRegistrosWar/empresa/04403",
      "_links": {
        "self": {
          "name": "CAMBRIDGE EQUIPAMIENTO, S.L.",
          "href": "https://api.euskadi.eus/procurements/companies/04403"
        }
      }
    },
    {
      "name": "SERVICIOS SECURITAS, S.A.",
      "registrationNumber": "04393",
      "identificationNumber": "A28986800",
      "address": "BARBADILLO 9",
      "location": {
        "postalCode": "28042",
        "municipality": "Madrid",
        "county": "Madrid",
        "municipalityId": "079",
        "countyId": "28"
      },
      "economicActivities": [
        {
          "id": "1.849.9",
          "name": "Otros servicios independientes n.c.o.p",
          "_links": {
            "self": {
              "name": "Otros servicios independientes n.c.o.p",
              "href": "https://api.euskadi.eus/procurements/companies/economic-activities/1.849.9"
            }
          }
        }
      ],
      "certificateStartDate": "2010-04-15",
      "certificateEndDate": "2010-07-05",
      "object": "A) LA PRESTACIÓN DE TODA CLASE DE SERVICIOS DE RECEPCIÓN DE PERSONAS, CONSERJERÍA, JARDINERÍA, TRANSPORTE DE PAQUETES Y MENSAJES, MANTENIMIENTO TÉCNICO DE INSTALACIONES Y VIVIENDAS Y LOCALES DE NEGOCIOS, SU REPARACIÓN Y LIMPIEZA; B) GESTIÓN DE COBROS Y CONTROL DE APARCAMIENTOS SUBTERRÁNEOS;C) LA GESTIÓN INTEGRAL DE COTOS PRIVADOS DE CAZA; D) SERVICIOS DE PREVENCIÓN Y EXTINCIÓN DE INCENDIOS Y SALVAMENTO; E) TRASLADO DE ENFERMOSY/O ACCIDENTADOS A CENTROS SANITARIOS MEDIANTE VEHÍCULOS ADECUADOS Y OTRAS ACTIVIDADES AUXILIARES DE SERVICIOS; F) SERVICIOS DE ASESORAMIENTO Y CONSULTORÍA SOBRE GESTIÓN EMPRESARIAL, PROCESOS ADMINISTRATIVOS, ACTIVIDADES INFORMÁTICAS, PROCESOS DE DATOS, CONTABILIDAD, TENEDURÍA DE LIBROS, AUDITORÍA Y ASESORÍA FISCAL. SECRETARÍA Y TRADUCCIÓN. G) ESTUDIOS DE MERCADO Y ENCUESTAS. H) ALQUILER DE MÁQUINAS Y EQUIPOS DE OFICINA. I) CENTROS DE FORMACIÓN DE ENSEÑANZA PARA ADULTOS EN ACTIVIDADES COMO SANIDAD, EDUCACIÓN, CULTURAL Y OTROS SERVICIOS SOCIALES; J) GESTIÓN DE ESTADIOS Y OTRAS INSTALACIONES DEPORTIVAS",
      "mainEntityOfPage": "https://www.contratacion.euskadi.eus/webkpe00-kperoc/es/ac71aBusquedaRegistrosWar/empresa/04393",
      "_links": {
        "self": {
          "name": "SERVICIOS SECURITAS, S.A.",
          "href": "https://api.euskadi.eus/procurements/companies/04393"
        }
      }
    },
    {
      "name": "MONTAJES SBEMON, S.A.",
      "registrationNumber": "04387",
      "identificationNumber": "A48405062",
      "address": "ELEXPURU 5, ENTRPLTA",
      "location": {
        "postalCode": "48902",
        "municipality": "Barakaldo",
        "county": "Bizkaia",
        "municipalityId": "013",
        "countyId": "48"
      },
      "economicActivities": [
        {
          "id": "1.504.8",
          "name": "Montajes metálicos e instalaciones industriales completas",
          "_links": {
            "self": {
              "name": "Montajes metálicos e instalaciones industriales completas",
              "href": "https://api.euskadi.eus/procurements/companies/economic-activities/1.504.8"
            }
          }
        }
      ],
      "certificateStartDate": "2010-04-13",
      "certificateEndDate": "2010-08-12",
      "object": "TODO TIPO DE INSTALACIONES Y MONTAJES: METÁLICOS, DE MAQUINARIA, ELECTRICOS Y VENTA DE SUS REPUESTOS Y ACCESORIOS ",
      "mainEntityOfPage": "https://www.contratacion.euskadi.eus/webkpe00-kperoc/es/ac71aBusquedaRegistrosWar/empresa/04387",
      "_links": {
        "self": {
          "name": "MONTAJES SBEMON, S.A.",
          "href": "https://api.euskadi.eus/procurements/companies/04387"
        }
      }
    }
  ]
}