{
  "totalItems": 9042,
  "totalPages": 905,
  "currentPage": 344,
  "itemsOfPage": 10,
  "items": [
    {
      "name": "PULEN LIMPIEZA Y MANTENIMIENTO DE INFRAESTRUCTURAS, S.L.",
      "registrationNumber": "09435",
      "identificationNumber": "B71491443",
      "address": "POLIGONO OMBATILLO, CALLE A, Nº 14",
      "location": {
        "postalCode": "31591",
        "municipality": "Corella",
        "county": "Navarra",
        "municipalityId": "077",
        "countyId": "31"
      },
      "economicActivities": [
        {
          "id": "1.922.1",
          "name": "Servicios de limpieza de interiores",
          "_links": {
            "self": {
              "name": "Servicios de limpieza de interiores",
              "href": "https://api.euskadi.eus/procurements/companies/economic-activities/1.922.1"
            }
          }
        }
      ],
      "certificateStartDate": "2025-07-04",
      "certificateEndDate": "2025-12-27",
      "object": "MANTENIMIENTO Y LIMPIEZA DE VIVIENDAS, JARDINES Y ANEXOS, LOCALES COMERCIALES Y OTROS BIENES INMUEBLES, TANTO PÚBLICOS COMO PRIVADOS. LIMPIEZA DE BIENES MUEBLES. SERVICIOS DE GUARDAMUEBLES Y DEPÓSITO Y ALMACENAMIENTO DE MERCANCÍAS.",
      "mainEntityOfPage": "https://www.contratacion.euskadi.eus/webkpe00-kperoc/es/ac71aBusquedaRegistrosWar/empresa/09435",
      "_links": {
        "self": {
          "name": "PULEN LIMPIEZA Y MANTENIMIENTO DE INFRAESTRUCTURAS, S.L.",
          "href": "https://api.euskadi.eus/procurements/companies/09435"
        }
      }
    },
    {
      "name": "JOX SYSTEM, S.L.",
      "registrationNumber": "03657",
      "identificationNumber": "B95336046",
      "address": "P.E.Udondo C4 (Av. Autonomía, 2)",
      "location": {
        "postalCode": "48940",
        "municipality": "Leioa",
        "county": "Bizkaia",
        "municipalityId": "054",
        "countyId": "48"
      },
      "economicActivities": [
        {
          "id": "1.504.7",
          "name": "Instalaciones telefónicas, telegráficas, televisión, etc",
          "_links": {
            "self": {
              "name": "Instalaciones telefónicas, telegráficas, televisión, etc",
              "href": "https://api.euskadi.eus/procurements/companies/economic-activities/1.504.7"
            }
          }
        },
        {
          "id": "1.659.2",
          "name": "Venta al por menor de muebles de oficina y máquinas y equipos de oficina",
          "_links": {
            "self": {
              "name": "Venta al por menor de muebles de oficina y máquinas y equipos de oficina",
              "href": "https://api.euskadi.eus/procurements/companies/economic-activities/1.659.2"
            }
          }
        }
      ],
      "certificateStartDate": "2025-07-03",
      "certificateEndDate": "2026-01-01",
      "object": "1.- LA FABRICACIÓN, DISTRIBUCIÓN Y COMERCIALIZACIÓN EN GENERAL DE ORDENADORES, PROGRAMAS, ACCESORIOS Y DEMÁS PRODUCTOS INFORMÁTICOS, OFIMÁTICOS, AUDIOVISUALES Y ELECTRÓNICOS, Y EL ASESORAMIENTO, FORMACIÓN Y CONSULTORÍA EN ESTOS CAMPOS; LOS SERVICIOS DE PROGRAMACIÓN; LA ASISTENCIA TÉCNICA, MONTAJE Y MANTENIMIENTO DE TALES PRODUCTOS Y SERVICIOS; Y LA ELABORACIÓN, IMPARTICIÓN Y COMERCIALIZACIÓN DE CUALESQUIERA CURSOS DE FORMACIÓN RELACIONADOS CON LAS MATERIAS SEÑALADAS.\r\n2.- LA EJECUCIÓN, CONTROL Y MANTENIMIENTO DE INSTALACIONES ELÉCTRICAS EN GENERAL, Y DE INSTALACIONES DE TELECOMUNICACIONES, ELECTRÓNICAS, DE SEGURIDAD Y CONTRA INCENDIOS.\r\n3.- LA PRESTACIÓN Y COMERCIALIZACIÓN DE SERVICIOS DE TELECOMUNICACIONES; EL COMERCIO ELECTRÓNICO; Y LA PRESTACIÓN DE SERVICIOS DE TELEMARKETING, PUBLICIDAD Y DE TELECOMUNICACIONES, Y LOS SERVICIOS DE SEGURIDAD RELACIONADOS CON EL SECTOR DE TELECOMUNICACIONES.\r\n4.- LA CREACIÓN, PRODUCCIÓN Y DISTRIBUCIÓN DE OBRAS AUDIOVISUALES; Y LA COMPOSICIÓN, REPRODUCCIÓN Y GRABADO DE TEXTOS E IMÁGENES POR CUALQUIER SISTEMA O PROCEDIMIENTO, MANUAL, FOTOGRÁFICO, FOTOMECÁNICO Y ELECTRÓNICO, SOBRE CUALQUIER MATERIAL SENSIBLE",
      "mainEntityOfPage": "https://www.contratacion.euskadi.eus/webkpe00-kperoc/es/ac71aBusquedaRegistrosWar/empresa/03657",
      "_links": {
        "self": {
          "name": "JOX SYSTEM, S.L.",
          "href": "https://api.euskadi.eus/procurements/companies/03657"
        }
      }
    },
    {
      "name": "ARTINGENIUM INGENIERIA ARTISTICA S.L.",
      "registrationNumber": "07656",
      "identificationNumber": "B75040196",
      "address": "CALLE MATIA 2, 4DCHA",
      "location": {
        "postalCode": "20008",
        "municipality": "Donostia / San Sebastián",
        "county": "Gipuzkoa",
        "municipalityId": "069",
        "countyId": "20"
      },
      "economicActivities": [
        {
          "id": "1.619.6",
          "name": "Venta al por mayor de libros , periódicos y revistas",
          "_links": {
            "self": {
              "name": "Venta al por mayor de libros , periódicos y revistas",
              "href": "https://api.euskadi.eus/procurements/companies/economic-activities/1.619.6"
            }
          }
        },
        {
          "id": "1.849.9",
          "name": "Otros servicios independientes n.c.o.p",
          "_links": {
            "self": {
              "name": "Otros servicios independientes n.c.o.p",
              "href": "https://api.euskadi.eus/procurements/companies/economic-activities/1.849.9"
            }
          }
        },
        {
          "id": "1.965.3",
          "name": "Espectáculos fuera de establecimiento permanente (excepto los taurinos)",
          "_links": {
            "self": {
              "name": "Espectáculos fuera de establecimiento permanente (excepto los taurinos)",
              "href": "https://api.euskadi.eus/procurements/companies/economic-activities/1.965.3"
            }
          }
        }
      ],
      "certificateStartDate": "2025-07-03",
      "certificateEndDate": "2025-12-16",
      "object": "1) EL ASESORAMIENTO EN TODO TIPO DE MATERIAS ARTÍSTICAS, INCLUYENDO CUANTAS ACTIVIDADES AYUDEN A CONSEGUIR ESTE FIN. 2) ASESORÍA E INTERMEDIACIÓN EN TODO TIPO DE MATERIAS Y OBJETOS ARTÍSTICOS, IMPORTACIÓN, EXPORTACIÓN, CONSULTORÍA, COMPRAVENTA E INTERMEDIACIÓN DE OBRAS DE ARTE, ASÍ COMO LA EXPLOTACIÓN DE GALERÍAS DE ARTE DE TODO TIPO Y LA ORGANIZACIÓN DE EVENTOS. 3) LAS ACTIVIDADES PROPIAS DE UNA AGENCIA DE PRODUCCIÓN ARTISTICA; ASÍ COMO LA REPRESENTACIÓN, ASESORAMIENTO E INTERMEDIACIÓN DE ARTISTAS. 4) LA COMERCIALIZACIÓN FÍSICA O POR INTERNET, ASÍ COMO LA IMPORTACIÓN, EXPORTACIÓN, COMPRAVENTA AL MAYOR Y MENOR DE TODO TIPO DE MATERIAS Y OBJETOS ARTÍSTICOS. 5) EL ASESORAMIENTO TÉCNICO, TANTO DESDE UN PUNTO DE VISTA ARTÍSTICO, COMO FISCAL, JURÍDICO, FINANCIERO O DE CUALQUIER OTRO TIPO; EL ESTUDIO, INVESTIGACIÓN, PROMOCIÓN Y PRESTACIÓN DE TODA CLASE DE SERVICIOS DE ASISTENCIA Y GESTIÓN TÉCNICA, ADMINISTRATIVA, COMERCIAL, CONTABLE, FINANCIERA, FISCAL JURÍDICA Y DE OTROS SERVICIOS INDEPENDIENTES RELACIONADOS CON LA GESTIÓN INTEGRAL DE DICHAS MATERIAS Y OBJETOS ARTÍSTICOS",
      "mainEntityOfPage": "https://www.contratacion.euskadi.eus/webkpe00-kperoc/es/ac71aBusquedaRegistrosWar/empresa/07656",
      "_links": {
        "self": {
          "name": "ARTINGENIUM INGENIERIA ARTISTICA S.L.",
          "href": "https://api.euskadi.eus/procurements/companies/07656"
        }
      }
    },
    {
      "name": "SUMIGAS, S.A.",
      "registrationNumber": "07693",
      "identificationNumber": "A48135586",
      "address": "POL. IND. GRANADA L3",
      "location": {
        "postalCode": "48530",
        "municipality": "Ortuella",
        "county": "Bizkaia",
        "municipalityId": "083",
        "countyId": "48"
      },
      "economicActivities": [
        {
          "id": "1.617.9",
          "name": "Venta al por mayor interindustrial de otros productos n.c.o.p",
          "_links": {
            "self": {
              "name": "Venta al por mayor interindustrial de otros productos n.c.o.p",
              "href": "https://api.euskadi.eus/procurements/companies/economic-activities/1.617.9"
            }
          }
        },
        {
          "id": "1.852",
          "name": "Alquiler de maquinaria y equipo para la construcción",
          "_links": {
            "self": {
              "name": "Alquiler de maquinaria y equipo para la construcción",
              "href": "https://api.euskadi.eus/procurements/companies/economic-activities/1.852"
            }
          }
        }
      ],
      "certificateStartDate": "2025-07-03",
      "certificateEndDate": "2025-07-15",
      "object": "LA ACTIVIDAD DE TRANSPORTE POR CARRETERA, DE CUALQUIER TIPO Y CLASE, TANTO DE MERCANCIAS PROPIAS COMO AJENAS, ASÍ COMO LAS ACTIVIDADES AUXILIARES Y COMPLEMENTARIAS DEL TRANSPORTE, TANTO EN SU MODALIDAD DE AGENCIA O TRANSPORTISTAS, DE VIAJEROSY MERCANCÍAS, Y LO MISMO EN TERRITORIO NACIONAL QUE POR EL EXTRANJERO; EL ALQUILER DE AUTOBUSES Y CAMIONES; LA CONTRATACIÓN O SUBCONTRATACIÓN DIRECTA DEL PORTE CON CUALQUIER OTRA EMPRESA QUE PUDIERA DEDICARSE A ESTA ACTIVIDAD E INCLUSIVE EL DEPÓSITO Y ALMACENAMIENTO, COMO SERVICIO INDEPENDIENTE, DE TODA CLASE DE MERCANICIAS AJENAS. EL COMERCIO AL POR MAYOR Y MENOR DE TODA CLASE DE PRODUCTOS DERIVADOS DEL REFINO DE PETRÓLEO, COMBUSTIBLES Y LUBRICANTES, CON ESPECIAL DEDICACIÓN A L DISTRIBCIÓN DE GASES BUTANO Y PROPANO Y EN ESPECIAL LA DISTRIBUCIÓN DE GASES LICUADOS DEL PETRÓLEO (G.L.P.); EL COMECIO AL POR MAYOR Y MENOR DE TODA CLASE DE PRODUCTOS DE FERRETERÍA, TANTO INDUSTRIAL COMO DOMÉSTICA Y COMERCIO AL POR MAYOR Y MENOR DE TODA CLASE DE PRODUCTOS Y ÚTILES  DEL HOGAR. EL ALQUILER DE MAQUINARIA, HERRAMIENTA, COMPLEMENTOS Y ÚTILES DE TODO TIPO, TANTO PARA LA CONSTRUCCIÓN Y OBRAS PÚBLICAS COMO PARA CUALQUIER OTRA ACTIVIDAD INDUSTRIAL, COMERCIAL O DE SERVICIOS, ASÍ COMO DE VEHÍCULOS INDUSTRIALES Y DE TODO TIPO DE ANDAMIOS. LA VENTA DE MAQUINARIA, HERRAMIENTA, COMPLEMENTOS Y ÚTILES DE TODO TIPO, TANTO INDUSTRIAL COMO PARA LA CONSTRUCCIÓN Y OBRA PÚBLICA, ASÍ COMO LA VENTA DE VEHÍCULOS INDUSTRIALES Y LA REPARACIÓN Y MANTENIMIENTO DE LOS ELEMENTOS Y LAS MÁQUINAS INDICADAS. LA VENTA Y EL SUMINISTRO DE ELEMENTOS INDUSTRIALES Y DE MATERIALES PARA LA CONSTRUCCIÓN Y OBRA PÚBLICA, AISLAMIENTO E IMPERMEABILIZACION. LA REALIZACIÓN DE SERVICIOS AUXILIARES DE LA CONSTRUCCIÓN Y DRAGADOS, TALES COMO LA INSTALACIÓN DE ANDAMIOS, CERRAMIENTOS, CIMBRAS Y ENCOFRADOS, INCLUSO PARA USOS DISTINTOS DE LA CONSTRUCCIÓN. LA PROMOCIÓN Y EJECUCIÓN, COMPLETA O POR RAMOS, DE TODA CLASE DE OBRAS DE CONSTRUCCIÓN, URBANIZACIÓN Y SERVICIOS, REPARACIÓN O CONSERVACIÓN, POR CUENTA PROPIA O AJENA, DE VIVIENDAS Y LOCALES COMERCIALES O INDUSTRIALES, E INCLUSO DE VIVIENDAS DE PROTECCIÓN OFICIAL; Y LA CONSTRUCCIÓN DE EDIFICACIONES EN GENERAL, BIEN DIRECTAMENTE O POR MEDIO DE SUBCONTRATATISTAS O DESTAJISTAS\r\n",
      "mainEntityOfPage": "https://www.contratacion.euskadi.eus/webkpe00-kperoc/es/ac71aBusquedaRegistrosWar/empresa/07693",
      "_links": {
        "self": {
          "name": "SUMIGAS, S.A.",
          "href": "https://api.euskadi.eus/procurements/companies/07693"
        }
      }
    },
    {
      "name": "COMERCIAL ELEJAGA, S.L.",
      "registrationNumber": "08116",
      "identificationNumber": "B95080776",
      "address": "POL IND IGELTZERA, C-14",
      "location": {
        "postalCode": "48610",
        "municipality": "Urduliz",
        "county": "Bizkaia",
        "municipalityId": "089",
        "countyId": "48"
      },
      "economicActivities": [
        {
          "id": "1.654.5",
          "name": "Venta al por menor de toda clase de maquinaría",
          "_links": {
            "self": {
              "name": "Venta al por menor de toda clase de maquinaría",
              "href": "https://api.euskadi.eus/procurements/companies/economic-activities/1.654.5"
            }
          }
        }
      ],
      "certificateStartDate": "2025-07-02",
      "certificateEndDate": "2026-01-02",
      "object": "COMERCIALIZACIÓN DE MAQUINARIA AGRÍCOLA E INDUSTRIAL, APARATOS ELÉCTRICOS, ELECTRÓNICOS Y DE FERRETERÍA, HERRAMIENTAS Y MATERIAL PARA LA INDUSTRIA, EL COMERCIO Y LA NAVEGACIÓN, DE MOTORES Y GENERADORES ELÉCTRICOS, EQUIPOS Y MATERIAL DE DISTRIBUCIÓN Y TRANSMISIÓN DE ELECTRICIDAD. COMERCIAL EXPORTADORA DE TODA CLASE DE MAQUINARIA AGRÍCOLA E INDUSTRIAL. COMPRAVENTA DE VEHÍCULOS DE TODAS CLASES. MECÁNICA EN GENERAL. REPARACIÓN DE MAQUINARIA INDUSTRIAL, DE VEHÍCULOS DE TODAS CLASES Y REPARACIONES ELÉCTRICAS; ASÍ COMO LA COMPRA-VENTA DE BIENES INMUEBLES.",
      "mainEntityOfPage": "https://www.contratacion.euskadi.eus/webkpe00-kperoc/es/ac71aBusquedaRegistrosWar/empresa/08116",
      "_links": {
        "self": {
          "name": "COMERCIAL ELEJAGA, S.L.",
          "href": "https://api.euskadi.eus/procurements/companies/08116"
        }
      }
    },
    {
      "name": "SASTRERIA ALDABALDETRECU, S.L.",
      "registrationNumber": "07296",
      "identificationNumber": "B20651279",
      "address": "SAN FRANCISCO, 5",
      "location": {
        "postalCode": "20001",
        "municipality": "Donostia / San Sebastián",
        "county": "Gipuzkoa",
        "municipalityId": "069",
        "countyId": "20"
      },
      "economicActivities": [
        {
          "id": "1.454",
          "name": "Confección a medida de prendas de vestir y sus complementos",
          "_links": {
            "self": {
              "name": "Confección a medida de prendas de vestir y sus complementos",
              "href": "https://api.euskadi.eus/procurements/companies/economic-activities/1.454"
            }
          }
        },
        {
          "id": "1.651.2",
          "name": "Venta al por menor de prendas de ropa para el vestido y tocado",
          "_links": {
            "self": {
              "name": "Venta al por menor de prendas de ropa para el vestido y tocado",
              "href": "https://api.euskadi.eus/procurements/companies/economic-activities/1.651.2"
            }
          }
        }
      ],
      "certificateStartDate": "2025-07-02",
      "certificateEndDate": "2025-12-30",
      "object": "LA MANUFACTURACIÓN, COMPRA-VENTA AL DETALL Y MAYOR, DE ARETÍCULOS Y PRENDAS DE VESTIR Y CALZADO",
      "mainEntityOfPage": "https://www.contratacion.euskadi.eus/webkpe00-kperoc/es/ac71aBusquedaRegistrosWar/empresa/07296",
      "_links": {
        "self": {
          "name": "SASTRERIA ALDABALDETRECU, S.L.",
          "href": "https://api.euskadi.eus/procurements/companies/07296"
        }
      }
    },
    {
      "name": "IZAR BLUE EVENTOS Y PRODUCCIONES, S.L.",
      "registrationNumber": "09192",
      "identificationNumber": "B95921466",
      "address": "C/ Tivoli, nº 2A 1º D",
      "location": {
        "postalCode": "48007",
        "municipality": "Bilbao",
        "county": "Bizkaia",
        "municipalityId": "020",
        "countyId": "48"
      },
      "economicActivities": [
        {
          "id": "1.965.4",
          "name": "Empresas de espectáculos",
          "_links": {
            "self": {
              "name": "Empresas de espectáculos",
              "href": "https://api.euskadi.eus/procurements/companies/economic-activities/1.965.4"
            }
          }
        },
        {
          "id": "1.989.2",
          "name": "Servicios de organización de congresos, asambleas y similares",
          "_links": {
            "self": {
              "name": "Servicios de organización de congresos, asambleas y similares",
              "href": "https://api.euskadi.eus/procurements/companies/economic-activities/1.989.2"
            }
          }
        }
      ],
      "certificateStartDate": "2025-07-02",
      "certificateEndDate": "2025-12-30",
      "object": "A) LA ORGANIZACIÓN, PRODUCCIÓN, DISEÑO Y PROMOCIÓN DE TODO TIPO DE EVENTOS, CONGRESOS, SEMINARIOS, FIESTAS Y ESPECTÁCULOS, YA SEAN SOCIO-CULTURALES, ARTÍSTICOS, ESCÉNICOS, MUSICALES, DEPORTIVOS, PUBLICITARIOS, CULTURALES, EDUCATIVOS O INSTITUCIONALES. B) LA CREACIÓN, PRODUCCIÓN, REALIZACIÓN, MONTAJE Y DISTRIBUCIÓN DE ESPECTÁCULOS, YA SEAN TEATRALES, AUDIOVISUALES, RECREATIVOS, PUBLICITARIOS, ARTÍSTICOS Y/O CULTURALES. ",
      "mainEntityOfPage": "https://www.contratacion.euskadi.eus/webkpe00-kperoc/es/ac71aBusquedaRegistrosWar/empresa/09192",
      "_links": {
        "self": {
          "name": "IZAR BLUE EVENTOS Y PRODUCCIONES, S.L.",
          "href": "https://api.euskadi.eus/procurements/companies/09192"
        }
      }
    },
    {
      "name": "SEXUNE EMAKUME ELKARTEA",
      "registrationNumber": "09318",
      "identificationNumber": "G01363027",
      "address": "Calle Konkorrenea",
      "location": {
        "postalCode": "20012",
        "municipality": "Donostia / San Sebastián",
        "county": "Gipuzkoa",
        "municipalityId": "069",
        "countyId": "20"
      },
      "economicActivities": [
        {
          "id": "1.966.9",
          "name": "Otros servicios culturales n.c.o.p",
          "_links": {
            "self": {
              "name": "Otros servicios culturales n.c.o.p",
              "href": "https://api.euskadi.eus/procurements/companies/economic-activities/1.966.9"
            }
          }
        }
      ],
      "certificateStartDate": "2025-07-02",
      "certificateEndDate": "2025-12-23",
      "object": "- ULERMEN MARKO BERRI BAT ESKAINTZEA: ZEINAK IDEIEN ETA KONTZEPTUEN BIDEZ JENDEARI LAGUN DIEZAIOTEN BERAIEN IZATE SEXUTU BEREZIA EZAGUTZEN ETA HAU AHAL DEN MODU ASEBETEGARRIENEAN BIZITZEA. - DIBERTSITATEAREN IDEA INDARTZEA (IDEIA HONEK JASOTZEN DU ERREALITATE ANITZAK DIBERTSITATE SEXUALA ETA GENERO DIBERTSITATE BARNE). SEXUTUA IZATEKO ETA SENTITZEKO MODU BAKOITZARI BALIOA EMANEZ, AUKERA GUZTIAK LEGITIMOTZAT HARTUZ ETA BERAIEN LANKETA SUSTATUZ. HALA, ERRESPETUAN ETA ARDURAN OINARRITUTAKO HARREMANAK BULTZATUZ. - AUTONOMIA INDIBIDUALA ETA HARREMANEZKO AUTONOMIA HANDITZEA : KONTSULTARIARI HONETARAKO BEHARREZKOAK IZANGO DIREN TRESNAK EMANEZ ETA BERE BALIABIDEEKIN LAN EGINEZ. HONELA, NORBERAREN EZINEGONAK, ESPERIENTZIA ASEBETEGABEAK, EGOERA GATAZKATSUAK ... KUDEATZEN LAGUNDUZ. - DIBERTSITATEAREN ULERMENEAN, EZAGUTZAN, ONARPENEAN ETA BIZIKIDETZAN LAGUNTZEA. DIBERTSITATEA, (SEXUALITATEAK, ORIENTAZIOA, IDENTITATEA, BEREZITASUN EROTIKOAK, INTERSEXUALITATEA ...) GIZA IZATE SEXUTUARI ATXIKITAKO EZAUGARRI IZANIK. - LZATE SEXUTUAREKIN HARRENMANDUTAKO ERREALITATEAK (GIZON-EMAKUMEAK, TRANSEXUALITATEA, HOMOSEXUALITATEA-HETEROSEXUALITATEA, INTERSEXUALITATEA ETA ABAR LUZE BAT) EZAGUTZEKO IKERKETA ETA FORMAKUNTZA BULTZATZEA. - DIBERTSITATEAREN BIZIKIDETZAN LAGUNDUKO DUTEN AKZIOAK BULTZATZEA ETA HONETARAKO BEHARREZKOAK DIREN TRESNAK ESKURA JARTZEA. - EMAKUMEEN ETA GIZONEN AUKERA BERDINTASUNAREN ALDEKO LANAK AURRERA ERAMATEA, HAUEK SEXUEN CONTINIUUM-AREN IKUSPEGITIK ULERTUTA ETA EZ MODU DIMORFIKO (BINARIO) BATEAN. MOTA GUZTIETAKO DISKRIMINAZIOAK GAINDITZEKO HELBURUAREKIN; SOZIALAK, LEGALAK, ORIENTAZIOARI LOTUTAKOAK, IDENTITARIOAK, BEREZITASUN EROTIKOAK ETA AMATORIA. - LKASKETETAN GENERO IKUSPEGIA TXERTATZEA. SEXUA, ARRAZA/ETNIA ALDAGAIA, ZEIN BESTE ALDAGAI BATZUK, ZEINAK AKZIOEN IKERKETAN, DISEINUAN ETA IMPLEMENTAZIOAN LAGUNDUKO DUTEN. - HERRITARREN KONTZIENTZIAZIO ETA SENTSIBILIZAZIORAKO EKINTZAK BULTZATZEA. DIBERTSITATEA ERRESPETATZEN DUTEN, EZBERDINTASUNEN BALIOA ONARTZEN DUTEN ETA GIZA ESKUBIDEKIKO ERRESPETUA ETA NORBANAKOAREN ASKATASUNA INDARTUKO DUTEN EKINTZAK. BERAUEN ONARPENA ETA EZARPENA BERMATUZ ETA JARRERA SEXISTA, HOMO-LESBOTRANSFOBOAK ETA ARRAZISTAK GAINDITZEN LAGUNDUZ. - KULTURA EZBERDINEN ARTEKO BIZIKIDETZA BULTZATZEA, DIBERTSITATEAREN KULTURARI BALIOA EMANEZ. EKINTZA INKLUSIBOAK SUSTATUZ ETA DIBERTSITATEA ABERASTEN GAITUEN ELEMENTU BEZALA ULERTUZ. - EUSKAL KULTURAREKIN LOTUTAKO BEREZITASUNAK IKERTU, EZAGUTU ETA SUSTATU.",
      "mainEntityOfPage": "https://www.contratacion.euskadi.eus/webkpe00-kperoc/es/ac71aBusquedaRegistrosWar/empresa/09318",
      "_links": {
        "self": {
          "name": "SEXUNE EMAKUME ELKARTEA",
          "href": "https://api.euskadi.eus/procurements/companies/09318"
        }
      }
    },
    {
      "name": "RELIEVES BASTERRA, S.A.",
      "registrationNumber": "08654",
      "identificationNumber": "A01018951",
      "address": "PORTAL CE BETOÑO 21",
      "location": {
        "postalCode": "01013",
        "municipality": "Vitoria-Gasteiz",
        "county": "Araba/Álava",
        "municipalityId": "059",
        "countyId": "01"
      },
      "economicActivities": [
        {
          "id": "1.474",
          "name": "Artes gráficas (impresión gráfica)",
          "_links": {
            "self": {
              "name": "Artes gráficas (impresión gráfica)",
              "href": "https://api.euskadi.eus/procurements/companies/economic-activities/1.474"
            }
          }
        },
        {
          "id": "1.475",
          "name": "Actividades anexas a las artes gráficas",
          "_links": {
            "self": {
              "name": "Actividades anexas a las artes gráficas",
              "href": "https://api.euskadi.eus/procurements/companies/economic-activities/1.475"
            }
          }
        }
      ],
      "certificateStartDate": "2025-07-02",
      "certificateEndDate": "2025-12-27",
      "object": "LOS TRABAJOS DE IMPRENTA.",
      "mainEntityOfPage": "https://www.contratacion.euskadi.eus/webkpe00-kperoc/es/ac71aBusquedaRegistrosWar/empresa/08654",
      "_links": {
        "self": {
          "name": "RELIEVES BASTERRA, S.A.",
          "href": "https://api.euskadi.eus/procurements/companies/08654"
        }
      }
    },
    {
      "name": "ZUREKIN, S.L.",
      "registrationNumber": "07568",
      "identificationNumber": "B20920286",
      "address": "calle azpilgoeta 32 Mendaro",
      "location": {
        "postalCode": "20850",
        "municipality": "Mendaro",
        "county": "Gipuzkoa",
        "municipalityId": "901",
        "countyId": "20"
      },
      "economicActivities": [
        {
          "id": "1.952",
          "name": "Asistencia y servicios sociales en centros no residenciales",
          "_links": {
            "self": {
              "name": "Asistencia y servicios sociales en centros no residenciales",
              "href": "https://api.euskadi.eus/procurements/companies/economic-activities/1.952"
            }
          }
        }
      ],
      "certificateStartDate": "2025-07-02",
      "certificateEndDate": "2026-01-02",
      "object": "LA PRESTACIÓN DE SERVICIOS SOCIALES Y DE ASISTENCIA A PERSONAS MAYORES",
      "mainEntityOfPage": "https://www.contratacion.euskadi.eus/webkpe00-kperoc/es/ac71aBusquedaRegistrosWar/empresa/07568",
      "_links": {
        "self": {
          "name": "ZUREKIN, S.L.",
          "href": "https://api.euskadi.eus/procurements/companies/07568"
        }
      }
    }
  ]
}