{
  "totalItems": 9042,
  "totalPages": 905,
  "currentPage": 123,
  "itemsOfPage": 10,
  "items": [
    {
      "name": "COMUNICACIÓN INTERACTIVA ADIMEDIA, S.L.",
      "registrationNumber": "04563",
      "identificationNumber": "B20631198",
      "address": "C/LEZO, 3",
      "location": {
        "postalCode": "20301",
        "municipality": "Irun",
        "county": "Gipuzkoa",
        "municipalityId": "045",
        "countyId": "20"
      },
      "economicActivities": [
        {
          "id": "1.845",
          "name": "Explotación electrónica por cuenta de terceros",
          "_links": {
            "self": {
              "name": "Explotación electrónica por cuenta de terceros",
              "href": "https://api.euskadi.eus/procurements/companies/economic-activities/1.845"
            }
          }
        }
      ],
      "certificateStartDate": "2025-12-10",
      "certificateEndDate": "2026-05-25",
      "object": "DESARROLLO DE PRODUCTOS INFORMÁTICOS LÓGICOS, DISEÑO GRÁFICO, MULTIMEDIA, GRABACIÓN DE DATOS EN DIFERENTES SOPORTES, DISEÑO Y DESARROLLO DE PRODUCTOS ON-LINE",
      "mainEntityOfPage": "https://www.contratacion.euskadi.eus/webkpe00-kperoc/es/ac71aBusquedaRegistrosWar/empresa/04563",
      "_links": {
        "self": {
          "name": "COMUNICACIÓN INTERACTIVA ADIMEDIA, S.L.",
          "href": "https://api.euskadi.eus/procurements/companies/04563"
        }
      }
    },
    {
      "name": "ITGLOBAL, S.L.",
      "registrationNumber": "09953",
      "identificationNumber": "B61124376",
      "address": "Calle La Jota, 27",
      "location": {
        "postalCode": "08016",
        "municipality": "Barcelona",
        "county": "Barcelona",
        "municipalityId": "019",
        "countyId": "08"
      },
      "economicActivities": [
        {
          "id": "1.659.2",
          "name": "Venta al por menor de muebles de oficina y máquinas y equipos de oficina",
          "_links": {
            "self": {
              "name": "Venta al por menor de muebles de oficina y máquinas y equipos de oficina",
              "href": "https://api.euskadi.eus/procurements/companies/economic-activities/1.659.2"
            }
          }
        },
        {
          "id": "1.845",
          "name": "Explotación electrónica por cuenta de terceros",
          "_links": {
            "self": {
              "name": "Explotación electrónica por cuenta de terceros",
              "href": "https://api.euskadi.eus/procurements/companies/economic-activities/1.845"
            }
          }
        }
      ],
      "certificateStartDate": "2025-12-10",
      "certificateEndDate": "2026-06-10",
      "object": "A) LA COMPRA, VENTA, DISTRIBUCIÓN DE MATERIAL Y APLICACIONES INFORMÁTICAS Y ELECTRÓNICAS. B) LA COMPRA, VENTA, DISTRIBUCIÓN O INSTALACIÓN DE MATERIAL ELECTROACÚSTICO Y DE ILUMINACIÓN PARA ESPECTÁCULOS. C) LA COMPRA, VENTA Y DISTRIBUCIÓN DE MATERIAL PARA LA CONSTRUCCIÓN. D) LA COMPRAVENTA DE BIENES INMUEBLES, SU ARRENDAMIENTO NO FINANCIERO Y PARTICIPAR EN SOCIEDADES DE TIPO INMOBILIARIO. E) ORGANIZACIÓN Y EXPLOTACIÓN DE FIESTAS POPULARES, ESPECTÁCULOS MUSICALES Y DE ENTRETENIMIENTO. F) CATERING Y SERVICIOS DE COMIDAS Y BEBIDAS A DOMICILIOS. G) COMPRA, VENTA Y DISTRIBUCIÓN DE COMPACT DISK, DISCOS, CASSETES Y REPRODUCCIONES MUSICALES. H) ASESORAMIENTO DE SOCIEDADES CIVILES Y MERCANTILES.",
      "mainEntityOfPage": "https://www.contratacion.euskadi.eus/webkpe00-kperoc/es/ac71aBusquedaRegistrosWar/empresa/09953",
      "_links": {
        "self": {
          "name": "ITGLOBAL, S.L.",
          "href": "https://api.euskadi.eus/procurements/companies/09953"
        }
      }
    },
    {
      "name": "INFORMATICA MEDICO FARMACEUTICA, S.L.",
      "registrationNumber": "08581",
      "identificationNumber": "B96820154",
      "address": "Av. Menéndez y Pelayo, 9 - 10",
      "location": {
        "postalCode": "46010",
        "municipality": "València",
        "county": "Valencia/València",
        "municipalityId": "250",
        "countyId": "46"
      },
      "economicActivities": [
        {
          "id": "1.845",
          "name": "Explotación electrónica por cuenta de terceros",
          "_links": {
            "self": {
              "name": "Explotación electrónica por cuenta de terceros",
              "href": "https://api.euskadi.eus/procurements/companies/economic-activities/1.845"
            }
          }
        }
      ],
      "certificateStartDate": "2025-12-10",
      "certificateEndDate": "2026-06-08",
      "object": "EL EJERCICIO DE TODO TIPO DE ACTIVIDADES CONCERNIENTES A ACTIVIDADES DE INVESTIGACIÓN Y DESARROLLO REFERENTES A PROGRAMAS INFORMÁTICOS DE APLICACIONES Y EQUIPOS MÉDICO FARMACÉUTICAS.",
      "mainEntityOfPage": "https://www.contratacion.euskadi.eus/webkpe00-kperoc/es/ac71aBusquedaRegistrosWar/empresa/08581",
      "_links": {
        "self": {
          "name": "INFORMATICA MEDICO FARMACEUTICA, S.L.",
          "href": "https://api.euskadi.eus/procurements/companies/08581"
        }
      }
    },
    {
      "name": "TESEC SEÑALIZACIONES, S.L.",
      "registrationNumber": "04857",
      "identificationNumber": "B20735668",
      "address": "C/A PABELLON 6(BIS)-P.I.ITZIAR",
      "location": {
        "postalCode": "20829",
        "municipality": "Deba",
        "county": "Gipuzkoa",
        "municipalityId": "029",
        "countyId": "20"
      },
      "economicActivities": [
        {
          "id": "1.506.0",
          "name": "Instalaciones de andamios, cimbras, encofrados, etc",
          "_links": {
            "self": {
              "name": "Instalaciones de andamios, cimbras, encofrados, etc",
              "href": "https://api.euskadi.eus/procurements/companies/economic-activities/1.506.0"
            }
          }
        }
      ],
      "certificateStartDate": "2025-12-10",
      "certificateEndDate": "2026-06-08",
      "classification": [
        {
          "id": "O",
          "name": "Obras",
          "groups": [
            {
              "id": "G",
              "name": "VIALES Y PISTAS",
              "subgroups": [
                {
                  "id": "05",
                  "name": "Señalizaciones y balizamientos viales",
                  "categories": [
                    {
                      "id": "4",
                      "name": "Desde 840.001 Hasta 2.400.000",
                      "_links": {
                        "self": {
                          "name": "Desde 840.001 Hasta 2.400.000",
                          "href": "https://api.euskadi.eus/procurements/companies/types/O/categories/4"
                        }
                      }
                    }
                  ],
                  "_links": {
                    "self": {
                      "name": "Señalizaciones y balizamientos viales",
                      "href": "https://api.euskadi.eus/procurements/companies/types/O/groups/G/subgroups/05"
                    }
                  }
                }
              ],
              "_links": {
                "self": {
                  "name": "VIALES Y PISTAS",
                  "href": "https://api.euskadi.eus/procurements/companies/types/O/groups/G"
                }
              }
            }
          ],
          "_links": {
            "self": {
              "name": "Obras",
              "href": "https://api.euskadi.eus/procurements/companies/types/O"
            }
          }
        },
        {
          "id": "S",
          "name": "Servicios",
          "groups": [
            {
              "id": "O",
              "subgroups": [
                {
                  "id": "02",
                  "name": "Conserv. y Mtto. carreteras,pistas,autopistas,autovías,calzadas y vías férreas",
                  "categories": [
                    {
                      "id": "5",
                      "name": "Mas de 1.200.000",
                      "_links": {
                        "self": {
                          "name": "Mas de 1.200.000",
                          "href": "https://api.euskadi.eus/procurements/companies/types/S/categories/5"
                        }
                      }
                    }
                  ],
                  "_links": {
                    "self": {
                      "name": "Conserv. y Mtto. carreteras,pistas,autopistas,autovías,calzadas y vías férreas",
                      "href": "https://api.euskadi.eus/procurements/companies/types/S/groups/O/subgroups/02"
                    }
                  }
                }
              ],
              "_links": {
                "self": {
                  "href": "https://api.euskadi.eus/procurements/companies/types/S/groups/O"
                }
              }
            }
          ],
          "_links": {
            "self": {
              "name": "Servicios",
              "href": "https://api.euskadi.eus/procurements/companies/types/S"
            }
          }
        }
      ],
      "object": "EL PINTADO DE TODA CLASE DE SUELOS, CALLES, CARRETERAS Y CUALQUIER OTRO ESPACIO CUBIERTO O DESCUBIERTO, ASÍ COMO LA COLOCACIÓN DE CUALQUIER TIPO DE SEÑALIZACIÓN VERTICAL",
      "mainEntityOfPage": "https://www.contratacion.euskadi.eus/webkpe00-kperoc/es/ac71aBusquedaRegistrosWar/empresa/04857",
      "_links": {
        "self": {
          "name": "TESEC SEÑALIZACIONES, S.L.",
          "href": "https://api.euskadi.eus/procurements/companies/04857"
        }
      }
    },
    {
      "name": "MIGUEL ANGEL ANDUAGA ARRILLAGA",
      "registrationNumber": "08028",
      "identificationNumber": "15992093D",
      "address": "portuene 27 2E",
      "location": {
        "postalCode": "20008",
        "municipality": "Donostia / San Sebastián",
        "county": "Gipuzkoa",
        "municipalityId": "069",
        "countyId": "20"
      },
      "economicActivities": [
        {
          "id": "1.330.2",
          "name": "Instalación de máquinas de oficina y ordenadores",
          "_links": {
            "self": {
              "name": "Instalación de máquinas de oficina y ordenadores",
              "href": "https://api.euskadi.eus/procurements/companies/economic-activities/1.330.2"
            }
          }
        },
        {
          "id": "1.659.2",
          "name": "Venta al por menor de muebles de oficina y máquinas y equipos de oficina",
          "_links": {
            "self": {
              "name": "Venta al por menor de muebles de oficina y máquinas y equipos de oficina",
              "href": "https://api.euskadi.eus/procurements/companies/economic-activities/1.659.2"
            }
          }
        },
        {
          "id": "1.691.9",
          "name": "Reparación de otros bienes de consumo n.c.o.p",
          "_links": {
            "self": {
              "name": "Reparación de otros bienes de consumo n.c.o.p",
              "href": "https://api.euskadi.eus/procurements/companies/economic-activities/1.691.9"
            }
          }
        }
      ],
      "certificateStartDate": "2025-12-10",
      "certificateEndDate": "2026-06-03",
      "object": "REPARACIÓN DE OTROS BIENES DE CONSUMO N.C.O.P, INSTALACIÓN DE MÁQUINAS DE OFICINA Y ORDENADORES, VENTA AL POR MENOR DE MUEBLES DE OFICINA Y MÁQUINAS Y EQUIPOS DE OFICINA.",
      "mainEntityOfPage": "https://www.contratacion.euskadi.eus/webkpe00-kperoc/es/ac71aBusquedaRegistrosWar/empresa/08028",
      "_links": {
        "self": {
          "name": "MIGUEL ANGEL ANDUAGA ARRILLAGA",
          "href": "https://api.euskadi.eus/procurements/companies/08028"
        }
      }
    },
    {
      "name": "MARTIMEDIC SUMINISTROS MÉDICO QUIRÚRGICOS, S.L.",
      "registrationNumber": "03125",
      "identificationNumber": "B20506192",
      "address": "Pol.Txalaka-Araneder, Troya ibilbidea 18 pabellon 6A5",
      "location": {
        "postalCode": "20115",
        "municipality": "Astigarraga",
        "county": "Gipuzkoa",
        "municipalityId": "903",
        "countyId": "20"
      },
      "economicActivities": [
        {
          "id": "1.619.2",
          "name": "Venta al por mayor de aparatos e instrumentos médicos, ortopédicos, ópticos",
          "_links": {
            "self": {
              "name": "Venta al por mayor de aparatos e instrumentos médicos, ortopédicos, ópticos",
              "href": "https://api.euskadi.eus/procurements/companies/economic-activities/1.619.2"
            }
          }
        }
      ],
      "certificateStartDate": "2025-12-10",
      "certificateEndDate": "2026-06-07",
      "object": "LA COMPRA VENTA DE MAQUINARIA Y MATERIAL MÉDICO QUIRÚRGICO",
      "mainEntityOfPage": "https://www.contratacion.euskadi.eus/webkpe00-kperoc/es/ac71aBusquedaRegistrosWar/empresa/03125",
      "_links": {
        "self": {
          "name": "MARTIMEDIC SUMINISTROS MÉDICO QUIRÚRGICOS, S.L.",
          "href": "https://api.euskadi.eus/procurements/companies/03125"
        }
      }
    },
    {
      "name": "CONSTRUCCIONES M.B. ANTIO S.L.L.",
      "registrationNumber": "05490",
      "identificationNumber": "B75126789",
      "address": "C/ UROLA, 8 PAB. 22",
      "location": {
        "postalCode": "20230",
        "municipality": "Legazpi",
        "county": "Gipuzkoa",
        "municipalityId": "051",
        "countyId": "20"
      },
      "economicActivities": [
        {
          "id": "1.501.1",
          "name": "Construcción completa, reparación y conservación de edificaciones",
          "_links": {
            "self": {
              "name": "Construcción completa, reparación y conservación de edificaciones",
              "href": "https://api.euskadi.eus/procurements/companies/economic-activities/1.501.1"
            }
          }
        },
        {
          "id": "1.501.2",
          "name": "Construcción completa, reparación y conservación obras civiles",
          "_links": {
            "self": {
              "name": "Construcción completa, reparación y conservación obras civiles",
              "href": "https://api.euskadi.eus/procurements/companies/economic-activities/1.501.2"
            }
          }
        }
      ],
      "certificateStartDate": "2025-12-10",
      "certificateEndDate": "2026-06-07",
      "object": "LA ACTIVIDAD DE CONSTRUCCIÓN Y GESTIÓN DE TODO TIPO DE OBRAS CIVILES Y DE EDIFICACIÓN, ASÍ COMO EL MANTENIMIENTO, COORDINACIÓN DE GREMIOS DE LA CONSTRUCCIÓN DE REFORMA TOTAL Y/O PARCIAL PARA OBRAS Y REHABILITACIONES EN GENERAL",
      "mainEntityOfPage": "https://www.contratacion.euskadi.eus/webkpe00-kperoc/es/ac71aBusquedaRegistrosWar/empresa/05490",
      "_links": {
        "self": {
          "name": "CONSTRUCCIONES M.B. ANTIO S.L.L.",
          "href": "https://api.euskadi.eus/procurements/companies/05490"
        }
      }
    },
    {
      "name": "EUTIK SOLUTIONS, S.L.",
      "registrationNumber": "08572",
      "identificationNumber": "B75018275",
      "address": "ZUATZU 3, 2º OF.5",
      "location": {
        "postalCode": "20018",
        "municipality": "Donostia / San Sebastián",
        "county": "Gipuzkoa",
        "municipalityId": "069",
        "countyId": "20"
      },
      "economicActivities": [
        {
          "id": "1.847",
          "name": "Servicios de consultoría",
          "_links": {
            "self": {
              "name": "Servicios de consultoría",
              "href": "https://api.euskadi.eus/procurements/companies/economic-activities/1.847"
            }
          }
        }
      ],
      "certificateStartDate": "2025-12-10",
      "certificateEndDate": "2026-06-06",
      "object": "COMERCIALIZACIÓN, DISTRIBUCIÓN, COMPRA-VENTA, IMPORTACIÓN, EXPORTACIÓN E INSTALACIÓN DE SOFTWARE; CONSULTORÍA Y PROYECTOS RELACIONADOS CON LA INFORMÁTICA, ASESORAMIENTO Y FORMACIÓN EMPRESARIAL EN TODOS SUS ÁMBITOS.",
      "mainEntityOfPage": "https://www.contratacion.euskadi.eus/webkpe00-kperoc/es/ac71aBusquedaRegistrosWar/empresa/08572",
      "_links": {
        "self": {
          "name": "EUTIK SOLUTIONS, S.L.",
          "href": "https://api.euskadi.eus/procurements/companies/08572"
        }
      }
    },
    {
      "name": "LARRAITZ ALONSO GARMENDIA",
      "registrationNumber": "09958",
      "identificationNumber": "72445428M",
      "address": "Calle Foru (20200) Nº1 bajo local 4",
      "location": {
        "postalCode": "20200",
        "municipality": "Beasain",
        "county": "Gipuzkoa",
        "municipalityId": "019",
        "countyId": "20"
      },
      "economicActivities": [
        {
          "id": "1.972.1",
          "name": "Servicios de peluquería de señoras y caballeros",
          "_links": {
            "self": {
              "name": "Servicios de peluquería de señoras y caballeros",
              "href": "https://api.euskadi.eus/procurements/companies/economic-activities/1.972.1"
            }
          }
        }
      ],
      "certificateStartDate": "2025-12-10",
      "certificateEndDate": "2026-06-07",
      "object": "SERVICIOS DE PELUQUERÍA DE SEÑORAS Y CABALLEROS.",
      "mainEntityOfPage": "https://www.contratacion.euskadi.eus/webkpe00-kperoc/es/ac71aBusquedaRegistrosWar/empresa/09958",
      "_links": {
        "self": {
          "name": "LARRAITZ ALONSO GARMENDIA",
          "href": "https://api.euskadi.eus/procurements/companies/09958"
        }
      }
    },
    {
      "name": "INES MULLIEZ CORELLA, S.A.",
      "registrationNumber": "08884",
      "identificationNumber": "A31271257",
      "address": "POL. IND II, C/A Nº 14",
      "location": {
        "postalCode": "31592",
        "municipality": "Cintruénigo",
        "county": "Navarra",
        "municipalityId": "072",
        "countyId": "31"
      },
      "economicActivities": [
        {
          "id": "1.453",
          "name": "Confección en serie de toda clase de prendas de vestir",
          "_links": {
            "self": {
              "name": "Confección en serie de toda clase de prendas de vestir",
              "href": "https://api.euskadi.eus/procurements/companies/economic-activities/1.453"
            }
          }
        }
      ],
      "certificateStartDate": "2025-12-10",
      "certificateEndDate": "2026-05-30",
      "object": "A) - TODAS LAS OPERACIONES INDUSTRIALES Y COMERCIALES RELACIONADAS CON LA COMPRA, FABRICACIÓN, TRANSFORMACIÓN Y LA VENTA DE TODOS LOS ARTÍCULOS Y OBJETO TEXTILES Y EN PARTICULAR LOS DESTINADOS AL EQUIPAMIENTO DE COLECTIVIDADES, HOSTELERÍAS, LABORATORIOS, HOSPILES, ETC. B) - LA CREACIÓN, ADQUISICIÓN, ALQUILER, INSTALACIÓN Y EXPLOTACIÓN DE TODOS LOS ESTABLECIMIENTOS RELACIONADOS CON LAS ACTIVIDADES ANTERIORMENTE ESPECIFICADAS Y LA CESIÓN DE TODOS LOS DERECHOS Y PATENTES RELACIONADOS CON ESTAS ACTIVIDADES.",
      "mainEntityOfPage": "https://www.contratacion.euskadi.eus/webkpe00-kperoc/es/ac71aBusquedaRegistrosWar/empresa/08884",
      "_links": {
        "self": {
          "name": "INES MULLIEZ CORELLA, S.A.",
          "href": "https://api.euskadi.eus/procurements/companies/08884"
        }
      }
    }
  ]
}