{
  "totalItems": 9042,
  "totalPages": 905,
  "currentPage": 592,
  "itemsOfPage": 10,
  "items": [
    {
      "name": "INSTRUMENTOS MÉDICOS ESTÉRILES, S.A.",
      "registrationNumber": "06623",
      "identificationNumber": "A58436015",
      "address": "C/ Once de Septiembre, 13 15 Entl 2ª",
      "location": {
        "postalCode": "08903",
        "municipality": "Hospitalet de Llobregat, L'",
        "county": "Barcelona",
        "municipalityId": "101",
        "countyId": "08"
      },
      "economicActivities": [
        {
          "id": "1.619.2",
          "name": "Venta al por mayor de aparatos e instrumentos médicos, ortopédicos, ópticos",
          "_links": {
            "self": {
              "name": "Venta al por mayor de aparatos e instrumentos médicos, ortopédicos, ópticos",
              "href": "https://api.euskadi.eus/procurements/companies/economic-activities/1.619.2"
            }
          }
        }
      ],
      "certificateStartDate": "2019-11-14",
      "certificateEndDate": "2020-04-01",
      "object": " LA COMERCIALIZACIÓN Y VENTA DE PRODUCTOS MÉDICOS ESTÉRILES, ASÍ COMO MATERIAL DE INSTRUMENTAL MÉDICO-QUIRÚRGICO Y APARATOS DE ORTOPEDIA, VENDAJES, APÓSITOS Y EFECTOS DE GOMA PARA USO DE HIGIENE O TERAPÉUTICO. REACTIVOS DE USO CONVENCIONAL Y MÉDICO, ASÍ COMO PRÓTESIS E IMPLANTES",
      "mainEntityOfPage": "https://www.contratacion.euskadi.eus/webkpe00-kperoc/es/ac71aBusquedaRegistrosWar/empresa/06623",
      "_links": {
        "self": {
          "name": "INSTRUMENTOS MÉDICOS ESTÉRILES, S.A.",
          "href": "https://api.euskadi.eus/procurements/companies/06623"
        }
      }
    },
    {
      "name": "MADERA PLUS CALIDAD FORESTAL S.L.",
      "registrationNumber": "06625",
      "identificationNumber": "B32429474",
      "address": "Parque Tecnológico de Galicia. Rúa de Vigo nº2",
      "location": {
        "postalCode": "32900",
        "municipality": "San Cibrao das Viñas",
        "county": "Ourense",
        "municipalityId": "075",
        "countyId": "32"
      },
      "economicActivities": [
        {
          "id": "1.843.9",
          "name": "Otros servicios técnicos n.c.o.p",
          "_links": {
            "self": {
              "name": "Otros servicios técnicos n.c.o.p",
              "href": "https://api.euskadi.eus/procurements/companies/economic-activities/1.843.9"
            }
          }
        },
        {
          "id": "1.912",
          "name": "Servicios forestales",
          "_links": {
            "self": {
              "name": "Servicios forestales",
              "href": "https://api.euskadi.eus/procurements/companies/economic-activities/1.912"
            }
          }
        },
        {
          "id": "1.933.9",
          "name": "Otras actividades de enseñanza tales como idiomas, mecanografía",
          "_links": {
            "self": {
              "name": "Otras actividades de enseñanza tales como idiomas, mecanografía",
              "href": "https://api.euskadi.eus/procurements/companies/economic-activities/1.933.9"
            }
          }
        },
        {
          "id": "1.936",
          "name": "Investigación científica y técnica",
          "_links": {
            "self": {
              "name": "Investigación científica y técnica",
              "href": "https://api.euskadi.eus/procurements/companies/economic-activities/1.936"
            }
          }
        }
      ],
      "certificateStartDate": "2019-11-14",
      "certificateEndDate": "2020-04-30",
      "object": "1. CONSTRUCCIÓN, INSTLACIONES Y OMANTENIMIENTO. 2. ACTIVIDADES PROFESIONALES. 3. PRETACIÓN DE SERVICIOS. ACTIVIDADES DE GESTIÓN Y ADMINISTRACIÓN. SERVICIOS EDUCATIVOS, SANITARIOS, DE OCIO Y ENTRETENIMIENTO. 4. INFORMACIÓN Y COMUNICACIONES. 5. AGRICULTURA, GANADERÍA Y PESCA. 6. INVESTIGACIÓN, DESARROLLO E INNOVACIÓN. 7. ACTIVIDADES CIENTÍFICAS Y TÉCNICAS",
      "mainEntityOfPage": "https://www.contratacion.euskadi.eus/webkpe00-kperoc/es/ac71aBusquedaRegistrosWar/empresa/06625",
      "_links": {
        "self": {
          "name": "MADERA PLUS CALIDAD FORESTAL S.L.",
          "href": "https://api.euskadi.eus/procurements/companies/06625"
        }
      }
    },
    {
      "name": "PAUZARQ SCP",
      "registrationNumber": "06627",
      "identificationNumber": "J75030288",
      "address": "C/ Bergara 3, 4º B",
      "location": {
        "postalCode": "20005",
        "municipality": "Donostia / San Sebastián",
        "county": "Gipuzkoa",
        "municipalityId": "069",
        "countyId": "20"
      },
      "economicActivities": [
        {
          "id": "1.843.2",
          "name": "Servicios técnicos de arquitectura y urbanismo",
          "_links": {
            "self": {
              "name": "Servicios técnicos de arquitectura y urbanismo",
              "href": "https://api.euskadi.eus/procurements/companies/economic-activities/1.843.2"
            }
          }
        }
      ],
      "certificateStartDate": "2019-11-14",
      "certificateEndDate": "2020-04-25",
      "object": "LA ACTIVIDAD PROPIA DEL EJERCICIO DE LA ARQUITECTURA",
      "mainEntityOfPage": "https://www.contratacion.euskadi.eus/webkpe00-kperoc/es/ac71aBusquedaRegistrosWar/empresa/06627",
      "_links": {
        "self": {
          "name": "PAUZARQ SCP",
          "href": "https://api.euskadi.eus/procurements/companies/06627"
        }
      }
    },
    {
      "name": "INQUALAB",
      "registrationNumber": "06628",
      "identificationNumber": "B74334707",
      "address": "CAMINO DE LABORES Nº29, NAVE 8, POLIGONO LA MATA",
      "location": {
        "postalCode": "28440",
        "municipality": "Guadarrama",
        "county": "Madrid",
        "municipalityId": "068",
        "countyId": "28"
      },
      "economicActivities": [
        {
          "id": "1.616.6",
          "name": "Venta al por mayor de productos químicos industriales",
          "_links": {
            "self": {
              "name": "Venta al por mayor de productos químicos industriales",
              "href": "https://api.euskadi.eus/procurements/companies/economic-activities/1.616.6"
            }
          }
        }
      ],
      "certificateStartDate": "2019-11-14",
      "certificateEndDate": "2020-04-09",
      "object": "1) LA DISTRIBUCIÓN DE EQUIPOS, CONSUMIBLES Y REACTIVOS PARA LABORATORIOS E INDUSTRIA. 2) LA DISTRIBUCIÓN, VENTA AL POR MAYOR Y MENOR, IMPORTACIÓN Y EXPORTACIÓN DE PRODUCTOS FARMACOLÓGICOS, QUÍMICOS O BIOQUÍMICOS. 3) EL COMERCIO AL POR MAYOR Y AL POR MENOR DE MATERIALES DE CONSTRUCCIÓN, VIDRIO Y ARTÍCULOS PARAINSTALACIONES DE CALEFACCIÓN, AGUA Y AIRE ACONDICIONADO",
      "mainEntityOfPage": "https://www.contratacion.euskadi.eus/webkpe00-kperoc/es/ac71aBusquedaRegistrosWar/empresa/06628",
      "_links": {
        "self": {
          "name": "INQUALAB",
          "href": "https://api.euskadi.eus/procurements/companies/06628"
        }
      }
    },
    {
      "name": "TRAFOBER SOCIEDAD LIMITADA",
      "registrationNumber": "06629",
      "identificationNumber": "B24399156",
      "address": "PASAJE MELENDRERAS, 18",
      "location": {
        "postalCode": "24492",
        "municipality": "Cubillos del Sil",
        "county": "León",
        "municipalityId": "064",
        "countyId": "24"
      },
      "economicActivities": [
        {
          "id": "1.912",
          "name": "Servicios forestales",
          "_links": {
            "self": {
              "name": "Servicios forestales",
              "href": "https://api.euskadi.eus/procurements/companies/economic-activities/1.912"
            }
          }
        }
      ],
      "certificateStartDate": "2019-11-14",
      "certificateEndDate": "2020-04-04",
      "object": "TRANSPORTE PÚBLICO DE MERCANCÍAS POR CARRETERA EN CARGA COMPLETA O FRACCIONADA Y LOS SERVICIOS AUXILIARES RELACIONADOS CON EL TRANSPORTE. EXCAVACIÓN, CONSOLIDACIÓN Y PREPARACIÓN DE TERRENOS. ALQUILER DE MAQUINARIA INDUSTRIAL Y DE VEHÍCULOS. SERVICIOS DE AGRICULTURA CON O SIN MAQUINARIA POR PERSONAS O ENTIDADES DISTINTAS DE LOS TITULARES DE LAS EXPLOTACIONES, TALES COMO PREPARACIÓN DE TIERRAS, RIEGOS, PLANTACIONES Y MANTENIMIENTOS. LOS SERVICIOS DE PROTECCIÓN CONTRAINCENDIOS Y ACONDICIONAMIENTO AMBIENTAL.",
      "mainEntityOfPage": "https://www.contratacion.euskadi.eus/webkpe00-kperoc/es/ac71aBusquedaRegistrosWar/empresa/06629",
      "_links": {
        "self": {
          "name": "TRAFOBER SOCIEDAD LIMITADA",
          "href": "https://api.euskadi.eus/procurements/companies/06629"
        }
      }
    },
    {
      "name": "JOSEBA BARRAL MARTÍNEZ",
      "registrationNumber": "02864",
      "identificationNumber": "72468827J",
      "address": "Paseo Herrera, 30 - LOCALES 3 y 4",
      "location": {
        "postalCode": "20017",
        "municipality": "Donostia / San Sebastián",
        "county": "Gipuzkoa",
        "municipalityId": "069",
        "countyId": "20"
      },
      "economicActivities": [
        {
          "id": "1.504.2",
          "name": "Instalaciones de fontanería",
          "_links": {
            "self": {
              "name": "Instalaciones de fontanería",
              "href": "https://api.euskadi.eus/procurements/companies/economic-activities/1.504.2"
            }
          }
        }
      ],
      "certificateStartDate": "2019-11-13",
      "certificateEndDate": "2020-05-06",
      "object": "INSTALACIONES DE FONTANERÍA",
      "mainEntityOfPage": "https://www.contratacion.euskadi.eus/webkpe00-kperoc/es/ac71aBusquedaRegistrosWar/empresa/02864",
      "_links": {
        "self": {
          "name": "JOSEBA BARRAL MARTÍNEZ",
          "href": "https://api.euskadi.eus/procurements/companies/02864"
        }
      }
    },
    {
      "name": "MARIA REYES VILLAS MARTIN",
      "registrationNumber": "06617",
      "identificationNumber": "72448717M",
      "address": "CALLE JERONIMO ROURE NUMERO 6  2A",
      "location": {
        "postalCode": "01010",
        "municipality": "Vitoria-Gasteiz",
        "county": "Araba/Álava",
        "municipalityId": "059",
        "countyId": "01"
      },
      "economicActivities": [
        {
          "id": "2.826",
          "name": "Personal docente de enseñanzas diversas",
          "_links": {
            "self": {
              "name": "Personal docente de enseñanzas diversas",
              "href": "https://api.euskadi.eus/procurements/companies/economic-activities/2.826"
            }
          }
        }
      ],
      "certificateStartDate": "2019-11-13",
      "certificateEndDate": "2020-02-06",
      "object": "DOCENTE DE IDIOMAS",
      "mainEntityOfPage": "https://www.contratacion.euskadi.eus/webkpe00-kperoc/es/ac71aBusquedaRegistrosWar/empresa/06617",
      "_links": {
        "self": {
          "name": "MARIA REYES VILLAS MARTIN",
          "href": "https://api.euskadi.eus/procurements/companies/06617"
        }
      }
    },
    {
      "name": "AINHOA GONZALEZ PINEDO",
      "registrationNumber": "06621",
      "identificationNumber": "44970052S",
      "address": "JOSE MIGUEL DE BARANDIARAN 25 F 2D",
      "location": {
        "postalCode": "48980",
        "municipality": "Santurtzi",
        "county": "Bizkaia",
        "municipalityId": "082",
        "countyId": "48"
      },
      "economicActivities": [
        {
          "id": "2.411",
          "name": "Arquitectos",
          "_links": {
            "self": {
              "name": "Arquitectos",
              "href": "https://api.euskadi.eus/procurements/companies/economic-activities/2.411"
            }
          }
        }
      ],
      "certificateStartDate": "2019-11-13",
      "certificateEndDate": "2020-02-20",
      "object": "ARQUITECTO",
      "mainEntityOfPage": "https://www.contratacion.euskadi.eus/webkpe00-kperoc/es/ac71aBusquedaRegistrosWar/empresa/06621",
      "_links": {
        "self": {
          "name": "AINHOA GONZALEZ PINEDO",
          "href": "https://api.euskadi.eus/procurements/companies/06621"
        }
      }
    },
    {
      "name": "RAIMUNDO MENDIBURU ARKITEKTURA ESTUDIOA SLP",
      "registrationNumber": "06604",
      "identificationNumber": "B20758702",
      "address": "Intxaurrondo 60-behea",
      "location": {
        "postalCode": "20015",
        "municipality": "Donostia / San Sebastián",
        "county": "Gipuzkoa",
        "municipalityId": "069",
        "countyId": "20"
      },
      "economicActivities": [
        {
          "id": "1.843.2",
          "name": "Servicios técnicos de arquitectura y urbanismo",
          "_links": {
            "self": {
              "name": "Servicios técnicos de arquitectura y urbanismo",
              "href": "https://api.euskadi.eus/procurements/companies/economic-activities/1.843.2"
            }
          }
        }
      ],
      "certificateStartDate": "2019-11-12",
      "certificateEndDate": "2020-04-30",
      "object": "LA ACTIVIDAD PROPIA DE LOS PROFESIONALES DE ARQUITECTURA",
      "mainEntityOfPage": "https://www.contratacion.euskadi.eus/webkpe00-kperoc/es/ac71aBusquedaRegistrosWar/empresa/06604",
      "_links": {
        "self": {
          "name": "RAIMUNDO MENDIBURU ARKITEKTURA ESTUDIOA SLP",
          "href": "https://api.euskadi.eus/procurements/companies/06604"
        }
      }
    },
    {
      "name": "MIGUEL LOITXATE CID",
      "registrationNumber": "06611",
      "identificationNumber": "72577721W",
      "address": "BISTA-EDER 4-1º IZQ.-DCHA.",
      "location": {
        "postalCode": "20600",
        "municipality": "Eibar",
        "county": "Gipuzkoa",
        "municipalityId": "030",
        "countyId": "20"
      },
      "economicActivities": [
        {
          "id": "2.399",
          "name": "Otros profesionales relacionados con otras industrias manufactureras",
          "_links": {
            "self": {
              "name": "Otros profesionales relacionados con otras industrias manufactureras",
              "href": "https://api.euskadi.eus/procurements/companies/economic-activities/2.399"
            }
          }
        },
        {
          "id": "2.762",
          "name": "Doctores y licenciados en informática",
          "_links": {
            "self": {
              "name": "Doctores y licenciados en informática",
              "href": "https://api.euskadi.eus/procurements/companies/economic-activities/2.762"
            }
          }
        },
        {
          "id": "2.861",
          "name": "Pintores, escultores, ceramistas, artesanos, artistas y similares",
          "_links": {
            "self": {
              "name": "Pintores, escultores, ceramistas, artesanos, artistas y similares",
              "href": "https://api.euskadi.eus/procurements/companies/economic-activities/2.861"
            }
          }
        }
      ],
      "certificateStartDate": "2019-11-12",
      "certificateEndDate": "2020-05-08",
      "object": "OTROS PROFESIONALES RELACIONADOS CON OTRAS INDUSTRIAS MANUFACTURERAS. DOCTORES Y LICENCIADOS EN INFORMÁTICA. PINTORES, ESCULTORES, CERAMISTAS, ARTESANOS, ARTISTAS Y SIMILARES",
      "mainEntityOfPage": "https://www.contratacion.euskadi.eus/webkpe00-kperoc/es/ac71aBusquedaRegistrosWar/empresa/06611",
      "_links": {
        "self": {
          "name": "MIGUEL LOITXATE CID",
          "href": "https://api.euskadi.eus/procurements/companies/06611"
        }
      }
    }
  ]
}