{
  "totalItems": 9042,
  "totalPages": 905,
  "currentPage": 263,
  "itemsOfPage": 10,
  "items": [
    {
      "name": "MONDRAGON GOI ESKOLA POLITEKNIKOA JOSE MARÍA ARIZMENDIARRIETA S. COOP.",
      "registrationNumber": "08438",
      "identificationNumber": "F20045241",
      "address": "Loramendi, 4",
      "location": {
        "postalCode": "20500",
        "municipality": "Arrasate / Mondragón",
        "county": "Gipuzkoa",
        "municipalityId": "055",
        "countyId": "20"
      },
      "economicActivities": [
        {
          "id": "1.312.2",
          "name": "Piezas estampadas o troqueladas",
          "_links": {
            "self": {
              "name": "Piezas estampadas o troqueladas",
              "href": "https://api.euskadi.eus/procurements/companies/economic-activities/1.312.2"
            }
          }
        },
        {
          "id": "1.683",
          "name": "Fondas, casas de huéspedes y alojamientos turísticos agrícolas",
          "_links": {
            "self": {
              "name": "Fondas, casas de huéspedes y alojamientos turísticos agrícolas",
              "href": "https://api.euskadi.eus/procurements/companies/economic-activities/1.683"
            }
          }
        },
        {
          "id": "1.751.2",
          "name": "Guarda y custodia de vehículos en \"parkings\"",
          "_links": {
            "self": {
              "name": "Guarda y custodia de vehículos en \"parkings\"",
              "href": "https://api.euskadi.eus/procurements/companies/economic-activities/1.751.2"
            }
          }
        },
        {
          "id": "1.843.1",
          "name": "Servicios técnicos de ingeniería",
          "_links": {
            "self": {
              "name": "Servicios técnicos de ingeniería",
              "href": "https://api.euskadi.eus/procurements/companies/economic-activities/1.843.1"
            }
          }
        },
        {
          "id": "1.853",
          "name": "Alquiler de maquinaria y equipo contable de oficina y cálculo",
          "_links": {
            "self": {
              "name": "Alquiler de maquinaria y equipo contable de oficina y cálculo",
              "href": "https://api.euskadi.eus/procurements/companies/economic-activities/1.853"
            }
          }
        },
        {
          "id": "1.859",
          "name": "Alquiler de otros bienes muebles n.c.o.p. (sin personal permanente)",
          "_links": {
            "self": {
              "name": "Alquiler de otros bienes muebles n.c.o.p. (sin personal permanente)",
              "href": "https://api.euskadi.eus/procurements/companies/economic-activities/1.859"
            }
          }
        },
        {
          "id": "1.861.2",
          "name": "Alquiler de locales industriales y otros alquileres n.c.o.p",
          "_links": {
            "self": {
              "name": "Alquiler de locales industriales y otros alquileres n.c.o.p",
              "href": "https://api.euskadi.eus/procurements/companies/economic-activities/1.861.2"
            }
          }
        },
        {
          "id": "1.931.4",
          "name": "Enseñanza de varias modalidades regladas",
          "_links": {
            "self": {
              "name": "Enseñanza de varias modalidades regladas",
              "href": "https://api.euskadi.eus/procurements/companies/economic-activities/1.931.4"
            }
          }
        },
        {
          "id": "1.932.1",
          "name": "Enseñanza de formación y perfeccionamiento profesional no superior",
          "_links": {
            "self": {
              "name": "Enseñanza de formación y perfeccionamiento profesional no superior",
              "href": "https://api.euskadi.eus/procurements/companies/economic-activities/1.932.1"
            }
          }
        },
        {
          "id": "1.932.2",
          "name": "Enseñanza de formación y perfeccionamiento profesional superior",
          "_links": {
            "self": {
              "name": "Enseñanza de formación y perfeccionamiento profesional superior",
              "href": "https://api.euskadi.eus/procurements/companies/economic-activities/1.932.2"
            }
          }
        },
        {
          "id": "1.935.2",
          "name": "Residencias de estudiantes",
          "_links": {
            "self": {
              "name": "Residencias de estudiantes",
              "href": "https://api.euskadi.eus/procurements/companies/economic-activities/1.935.2"
            }
          }
        },
        {
          "id": "1.936.5",
          "name": "Investigación técnica industrial",
          "_links": {
            "self": {
              "name": "Investigación técnica industrial",
              "href": "https://api.euskadi.eus/procurements/companies/economic-activities/1.936.5"
            }
          }
        },
        {
          "id": "1.936.9",
          "name": "Otras investigaciones científicas y técnicas n.c.o.p",
          "_links": {
            "self": {
              "name": "Otras investigaciones científicas y técnicas n.c.o.p",
              "href": "https://api.euskadi.eus/procurements/companies/economic-activities/1.936.9"
            }
          }
        }
      ],
      "certificateStartDate": "2025-09-22",
      "certificateEndDate": "2026-03-19",
      "object": "EL DESARROLLO EDUCATIVO QUE RESPONDA A LAS CARACTERÍSTICAS SOCIO-CULTURALES DE LA COMUNIDAD EN LA QUE ESTÁ INSERTADA Y LA FORMACIÓN INTEGRAL DE LA PERSONA PARA EL SERVICIO DE LA SOCIEDAD, DEDICÁNDOSE PREFERENTEMENTE A: - LA ENSEÑANZA TÉCNICA SUPERIOR PROFESIONAL Y UNIVERSITARIA. – EL PERFECCIONAMIENTO PROFESIONAL. - EL FOMENTO DE NUEVAS ACTIVIDADES EMPRESARIALES. – LA INVESTIGACIÓN Y LA TRANSFERENCIA DE CONOCIMIENTOS A LA EMPRESA Y A LA SOCIEDAD. SU MISIÓN ES TRANSFORMAR LA SOCIEDAD A TRAVÉS DE LA FORMACIÓN INTEGRAL DE LAS PERSONAS Y LA GENERACIÓN, TRANSFERENCIA Y SOCIALIZACIÓN DEL CONOCIMIENTO EN EL ÁMBITO CIENTÍFICO-TECNOLÓGICO, PARA LO CUAL PROPICIARÁ: - LA FORMACIÓN BASADA EN VALORES COOPERATIVOS Y EL APRENDIZAJE A LO LARGO DE LA VIDA COMO ELEMENTO CLAVE DE DESARROLLO SOCIAL. – LA INVESTIGACIÓN, TRANSFERENCIA, INNOVACIÓN Y EMPRENDIMIENTO COMO FACTORES DE PROGRESO SOSTENIBLE.",
      "mainEntityOfPage": "https://www.contratacion.euskadi.eus/webkpe00-kperoc/es/ac71aBusquedaRegistrosWar/empresa/08438",
      "_links": {
        "self": {
          "name": "MONDRAGON GOI ESKOLA POLITEKNIKOA JOSE MARÍA ARIZMENDIARRIETA S. COOP.",
          "href": "https://api.euskadi.eus/procurements/companies/08438"
        }
      }
    },
    {
      "name": "PANOIMAGEN S.L.",
      "registrationNumber": "06302",
      "identificationNumber": "B26520767",
      "address": "PLAZA FERMÍN GURBINDO, 1 - 4 B",
      "location": {
        "postalCode": "26004",
        "municipality": "Logroño",
        "county": "Rioja, La",
        "municipalityId": "089",
        "countyId": "26"
      },
      "economicActivities": [
        {
          "id": "1.355.2",
          "name": "Edición de soportes grabados de sonido, vídeo y de informática",
          "_links": {
            "self": {
              "name": "Edición de soportes grabados de sonido, vídeo y de informática",
              "href": "https://api.euskadi.eus/procurements/companies/economic-activities/1.355.2"
            }
          }
        },
        {
          "id": "1.845",
          "name": "Explotación electrónica por cuenta de terceros",
          "_links": {
            "self": {
              "name": "Explotación electrónica por cuenta de terceros",
              "href": "https://api.euskadi.eus/procurements/companies/economic-activities/1.845"
            }
          }
        },
        {
          "id": "1.934",
          "name": "Enseñanza fuera de establecimiento permanente",
          "_links": {
            "self": {
              "name": "Enseñanza fuera de establecimiento permanente",
              "href": "https://api.euskadi.eus/procurements/companies/economic-activities/1.934"
            }
          }
        }
      ],
      "certificateStartDate": "2025-09-21",
      "certificateEndDate": "2026-03-21",
      "object": " EL ESTUDIO, DISEÑO, DESARROLLO, ANÁLISIS Y FABRICACIÓN DE SISTEMAS DE SOFTWARE Y/O HARDWARE PARA LA CAPTURA, TRATAMIENTO Y PROCESO DE IMAGEN ASÍ COMO SUS DERIVADOS, INCLUYENDO LA COMERCIALIZACIÓN TANTO AL POR MAYOR COMO AL DETALLE DE DESARROLLOS, EQUIPOS Y SIMILARES TANTO PROPIOS COMO DE TERCEROS\r\n",
      "mainEntityOfPage": "https://www.contratacion.euskadi.eus/webkpe00-kperoc/es/ac71aBusquedaRegistrosWar/empresa/06302",
      "_links": {
        "self": {
          "name": "PANOIMAGEN S.L.",
          "href": "https://api.euskadi.eus/procurements/companies/06302"
        }
      }
    },
    {
      "name": "LUBRINORTE, S.L.",
      "registrationNumber": "09863",
      "identificationNumber": "B01042662",
      "address": "Plaza Amárica (01005ZA DE LA CONSTITUCION,10",
      "location": {
        "postalCode": "01012",
        "municipality": "Vitoria-Gasteiz",
        "county": "Araba/Álava",
        "municipalityId": "059",
        "countyId": "01"
      },
      "economicActivities": [
        {
          "id": "1.616.5",
          "name": "Venta al por mayor de petróleo y lubricantes",
          "_links": {
            "self": {
              "name": "Venta al por mayor de petróleo y lubricantes",
              "href": "https://api.euskadi.eus/procurements/companies/economic-activities/1.616.5"
            }
          }
        }
      ],
      "certificateStartDate": "2025-09-21",
      "certificateEndDate": "2026-03-21",
      "object": "- EL COMERCIO AL POR MAYOR Y MENOR DE LUBRICANTES Y CARBURANTES PARA AUTOMOCIÓN Y USOS INDUSTRIALES. - EL COMERCIO AL POR MAYOR Y MENOR DE MAQUINARIA, ACCESORIOS Y HERRAMIENTAS PARA AUTOMOCIÓN Y USOS INDUSTRIALES DE TODO TIPO.",
      "mainEntityOfPage": "https://www.contratacion.euskadi.eus/webkpe00-kperoc/es/ac71aBusquedaRegistrosWar/empresa/09863",
      "_links": {
        "self": {
          "name": "LUBRINORTE, S.L.",
          "href": "https://api.euskadi.eus/procurements/companies/09863"
        }
      }
    },
    {
      "name": "IPACE, PSICOLOGÍA APLICADA, S.L.",
      "registrationNumber": "03276",
      "identificationNumber": "B01285790",
      "address": "C/ PLAZA DEL RENACIMIENTO, 9  -2ª PLANTA OFICINA Nº 4 Y 5",
      "location": {
        "postalCode": "01006",
        "municipality": "Vitoria-Gasteiz",
        "county": "Araba/Álava",
        "municipalityId": "059",
        "countyId": "01"
      },
      "economicActivities": [
        {
          "id": "1.932.1",
          "name": "Enseñanza de formación y perfeccionamiento profesional no superior",
          "_links": {
            "self": {
              "name": "Enseñanza de formación y perfeccionamiento profesional no superior",
              "href": "https://api.euskadi.eus/procurements/companies/economic-activities/1.932.1"
            }
          }
        },
        {
          "id": "1.932.2",
          "name": "Enseñanza de formación y perfeccionamiento profesional superior",
          "_links": {
            "self": {
              "name": "Enseñanza de formación y perfeccionamiento profesional superior",
              "href": "https://api.euskadi.eus/procurements/companies/economic-activities/1.932.2"
            }
          }
        },
        {
          "id": "1.942.9",
          "name": "Otros servicios sanitarios sin internados, no clasificados",
          "_links": {
            "self": {
              "name": "Otros servicios sanitarios sin internados, no clasificados",
              "href": "https://api.euskadi.eus/procurements/companies/economic-activities/1.942.9"
            }
          }
        },
        {
          "id": "1.952",
          "name": "Asistencia y servicios sociales en centros no residenciales",
          "_links": {
            "self": {
              "name": "Asistencia y servicios sociales en centros no residenciales",
              "href": "https://api.euskadi.eus/procurements/companies/economic-activities/1.952"
            }
          }
        }
      ],
      "certificateStartDate": "2025-09-21",
      "certificateEndDate": "2026-03-21",
      "object": "LA GESTIÓN, FORMACIÓN Y ASESORAMIENTO TÉCNICO EN MATERIA PSICOLÓGICA E INTERVENCIÓN SOCIO-COMUNITARIA.",
      "mainEntityOfPage": "https://www.contratacion.euskadi.eus/webkpe00-kperoc/es/ac71aBusquedaRegistrosWar/empresa/03276",
      "_links": {
        "self": {
          "name": "IPACE, PSICOLOGÍA APLICADA, S.L.",
          "href": "https://api.euskadi.eus/procurements/companies/03276"
        }
      }
    },
    {
      "name": "SOPRENER, S.L.",
      "registrationNumber": "06767",
      "identificationNumber": "B01522614",
      "address": "MENDIGORRITXU 128",
      "location": {
        "postalCode": "01015",
        "municipality": "Vitoria-Gasteiz",
        "county": "Araba/Álava",
        "municipalityId": "059",
        "countyId": "01"
      },
      "economicActivities": [
        {
          "id": "1.504.1",
          "name": "Instalaciones eléctricas en general",
          "_links": {
            "self": {
              "name": "Instalaciones eléctricas en general",
              "href": "https://api.euskadi.eus/procurements/companies/economic-activities/1.504.1"
            }
          }
        }
      ],
      "certificateStartDate": "2025-09-21",
      "certificateEndDate": "2026-03-21",
      "classification": [
        {
          "id": "O",
          "name": "Obras",
          "groups": [
            {
              "id": "I",
              "name": "INSTALACIONES ELÉCTRICAS",
              "subgroups": [
                {
                  "id": "01",
                  "name": "Alumbrados, iluminaciones y balizamientos",
                  "categories": [
                    {
                      "id": "3",
                      "name": "Desde 360.001 Hasta 840.000",
                      "_links": {
                        "self": {
                          "name": "Desde 360.001 Hasta 840.000",
                          "href": "https://api.euskadi.eus/procurements/companies/types/O/categories/3"
                        }
                      }
                    }
                  ],
                  "_links": {
                    "self": {
                      "name": "Alumbrados, iluminaciones y balizamientos",
                      "href": "https://api.euskadi.eus/procurements/companies/types/O/groups/I/subgroups/01"
                    }
                  }
                },
                {
                  "id": "09",
                  "name": "Instalaciones eléctricas sin cualificación específica",
                  "categories": [
                    {
                      "id": "3",
                      "name": "Desde 360.001 Hasta 840.000",
                      "_links": {
                        "self": {
                          "name": "Desde 360.001 Hasta 840.000",
                          "href": "https://api.euskadi.eus/procurements/companies/types/O/categories/3"
                        }
                      }
                    }
                  ],
                  "_links": {
                    "self": {
                      "name": "Instalaciones eléctricas sin cualificación específica",
                      "href": "https://api.euskadi.eus/procurements/companies/types/O/groups/I/subgroups/09"
                    }
                  }
                }
              ],
              "_links": {
                "self": {
                  "name": "INSTALACIONES ELÉCTRICAS",
                  "href": "https://api.euskadi.eus/procurements/companies/types/O/groups/I"
                }
              }
            }
          ],
          "_links": {
            "self": {
              "name": "Obras",
              "href": "https://api.euskadi.eus/procurements/companies/types/O"
            }
          }
        }
      ],
      "object": "EL DESARROLLO, ALQUILER Y VENTA DE SOFTWARE Y HARDWARE. LA GESTIÓN DE SERVICIOS PÚBLICOS DE ALUMBRADO, ASÍ COMO LA GESTIÓN DE RECURSOS ENERGÉTICOS Y LA ASESORÍA Y GESTIÓN DE PROYECTOS EN MATERIA DE EFICIENCIA ENERGÉTICA. AUDITORIAS DE EFICIENCIA ENERGÉTICA. PROYECTOS DE TELEGESTIÓN Y TELECONTROL ASÍ COMO PROYECTOS DE INGENIERÍA. EJECUCIÓN DE CONTRATOS PÚBLICOS. LA EJECUCIÓN DE INSTALACIONES Y MONTAJES ELÉCTRICOS DE TODAS CLASES, ASÍ COMO EN GENERAL LA EJECUCIÓN DE CUALQUIER OBRA QUE SE PUEDA CONSIDERAR AUXILIAR Y PERTENECIENTE AL GREMIO DE LA CONSTRUCCIÓN. A SU VEZ LA COMERCIALIZACIÓN EN TODAS SU FORMAS, ASÍ COMO LA IMPORTACIÓN Y EXPORTACIÓN Y LA FABRICACIÓN DE CUALQUIER ARTÍCULOS QUE ESTÉ RELACIONADO CON EL SECTOR DE LA ELECTRICIDAD. TODO TIPO DE INSTALACIONES ELÉCTRICAS Y DE TELECOMUNICACIONES, DOMÓTICA, ENERGÍA SOLAR, CLIMATIZACIÓN Y CALEFACCIÓN, PROTECCIÓN CONTRA INCENDIOS, ALUMBRADO PÚBLICO, ASÍ COMO LA REDACCIÓN Y ESTUDIO DE PROYECTOS Y LA INGENIERÍA Y MANTENIMIENTO DE LOS MISMOS. CUALQUIER ACTIVIDAD DE LÍCITO COMERCIO, CONEXA, COMPLEMENTARIA O RELACIONADA CON LAS ANTERIORES. EJECUCIÓN DE TODO TIPO DE OBRA TANTO PÚBLICA COMO PRIVADA\n",
      "mainEntityOfPage": "https://www.contratacion.euskadi.eus/webkpe00-kperoc/es/ac71aBusquedaRegistrosWar/empresa/06767",
      "_links": {
        "self": {
          "name": "SOPRENER, S.L.",
          "href": "https://api.euskadi.eus/procurements/companies/06767"
        }
      }
    },
    {
      "name": "URIARTE PAGALDAY, S.L.",
      "registrationNumber": "06535",
      "identificationNumber": "B01193606",
      "address": "C/ BARRATXI Nº 41 - PAB.2",
      "location": {
        "postalCode": "01013",
        "municipality": "Vitoria-Gasteiz",
        "county": "Araba/Álava",
        "municipalityId": "059",
        "countyId": "01"
      },
      "economicActivities": [
        {
          "id": "1.504.8",
          "name": "Montajes metálicos e instalaciones industriales completas",
          "_links": {
            "self": {
              "name": "Montajes metálicos e instalaciones industriales completas",
              "href": "https://api.euskadi.eus/procurements/companies/economic-activities/1.504.8"
            }
          }
        },
        {
          "id": "1.692",
          "name": "Reparación de maquinaria industrial",
          "_links": {
            "self": {
              "name": "Reparación de maquinaria industrial",
              "href": "https://api.euskadi.eus/procurements/companies/economic-activities/1.692"
            }
          }
        }
      ],
      "certificateStartDate": "2025-09-21",
      "certificateEndDate": "2026-03-21",
      "object": "LA PRESTACIÓN DE SERVICIOS DESTINADOS AL TRATAMIENTO DEL AGUA",
      "mainEntityOfPage": "https://www.contratacion.euskadi.eus/webkpe00-kperoc/es/ac71aBusquedaRegistrosWar/empresa/06535",
      "_links": {
        "self": {
          "name": "URIARTE PAGALDAY, S.L.",
          "href": "https://api.euskadi.eus/procurements/companies/06535"
        }
      }
    },
    {
      "name": "ALBA MAESTRE HERNANDEZ",
      "registrationNumber": "10125",
      "identificationNumber": "44174492W",
      "address": "CALLE MAYOR 12 BAJO",
      "location": {
        "postalCode": "01240",
        "municipality": "Alegría-Dulantzi",
        "county": "Araba/Álava",
        "municipalityId": "001",
        "countyId": "01"
      },
      "economicActivities": [
        {
          "id": "1.652.3",
          "name": "Venta al por menor de perfumería y cosmética y artículos de aseo personal",
          "_links": {
            "self": {
              "name": "Venta al por menor de perfumería y cosmética y artículos de aseo personal",
              "href": "https://api.euskadi.eus/procurements/companies/economic-activities/1.652.3"
            }
          }
        },
        {
          "id": "1.673.2",
          "name": "Otros cafés y bares",
          "_links": {
            "self": {
              "name": "Otros cafés y bares",
              "href": "https://api.euskadi.eus/procurements/companies/economic-activities/1.673.2"
            }
          }
        },
        {
          "id": "2.599",
          "name": "Otros profesionales relacionados con el comercio y hostelería",
          "_links": {
            "self": {
              "name": "Otros profesionales relacionados con el comercio y hostelería",
              "href": "https://api.euskadi.eus/procurements/companies/economic-activities/2.599"
            }
          }
        }
      ],
      "certificateStartDate": "2025-09-21",
      "certificateEndDate": "2026-03-21",
      "object": "OTROS CAFÉS Y BARES. OTROS PROFESIONALES RELACIONADOS CON EL COMERCIO Y HOSTELERÍA. VENTA AL POR MENOR DE PERFUMERÍA Y COSMÉTICA Y ARTÍCULOS DE ASEO PERSONAL.",
      "mainEntityOfPage": "https://www.contratacion.euskadi.eus/webkpe00-kperoc/es/ac71aBusquedaRegistrosWar/empresa/10125",
      "_links": {
        "self": {
          "name": "ALBA MAESTRE HERNANDEZ",
          "href": "https://api.euskadi.eus/procurements/companies/10125"
        }
      }
    },
    {
      "name": "RUBEN PAZ PUERTAS",
      "registrationNumber": "07118",
      "identificationNumber": "30680310N",
      "address": "TRAVESIA C DE URIBARRI Nº5, 3º INT IZDA",
      "location": {
        "postalCode": "48007",
        "municipality": "Bilbao",
        "county": "Bizkaia",
        "municipalityId": "020",
        "countyId": "48"
      },
      "economicActivities": [
        {
          "id": "2.411",
          "name": "Arquitectos",
          "_links": {
            "self": {
              "name": "Arquitectos",
              "href": "https://api.euskadi.eus/procurements/companies/economic-activities/2.411"
            }
          }
        }
      ],
      "certificateStartDate": "2025-09-21",
      "certificateEndDate": "2026-03-02",
      "object": "ARQUITECTURA",
      "mainEntityOfPage": "https://www.contratacion.euskadi.eus/webkpe00-kperoc/es/ac71aBusquedaRegistrosWar/empresa/07118",
      "_links": {
        "self": {
          "name": "RUBEN PAZ PUERTAS",
          "href": "https://api.euskadi.eus/procurements/companies/07118"
        }
      }
    },
    {
      "name": "GENDIA-SOLUCIONES PARA LA DISCAPACIDAD,  S.L.",
      "registrationNumber": "08528",
      "identificationNumber": "B75080804",
      "address": "Calle Portuetxe (20018) Nº16 Planta 2 Oficina 4",
      "location": {
        "postalCode": "20018",
        "municipality": "Donostia / San Sebastián",
        "county": "Gipuzkoa",
        "municipalityId": "069",
        "countyId": "20"
      },
      "economicActivities": [
        {
          "id": "1.392.2",
          "name": "Fabricación de aparatos de prótesis y ortopedia",
          "_links": {
            "self": {
              "name": "Fabricación de aparatos de prótesis y ortopedia",
              "href": "https://api.euskadi.eus/procurements/companies/economic-activities/1.392.2"
            }
          }
        },
        {
          "id": "1.659.3",
          "name": "Venta al por menor de aparatos médicos, ortopédicos, ópticos y fotográficos",
          "_links": {
            "self": {
              "name": "Venta al por menor de aparatos médicos, ortopédicos, ópticos y fotográficos",
              "href": "https://api.euskadi.eus/procurements/companies/economic-activities/1.659.3"
            }
          }
        },
        {
          "id": "1.952",
          "name": "Asistencia y servicios sociales en centros no residenciales",
          "_links": {
            "self": {
              "name": "Asistencia y servicios sociales en centros no residenciales",
              "href": "https://api.euskadi.eus/procurements/companies/economic-activities/1.952"
            }
          }
        }
      ],
      "certificateStartDate": "2025-09-21",
      "certificateEndDate": "2026-03-21",
      "object": "- CREACIÓN, DISEÑO, IMPLANTACIÓN, COMERCIALIZACIÓN, GESTIÓN, VENTA, ALQUILER Y REPARACIÓN DE ELEMENTOS DE APOYO PARA LAS PERSONAS MAYORES, LAS PERSONAS DEPENDIENTES Y PERSONAS CON DIVERSIDAD FUNCIONAL. - EL DISEÑO, IMPLANTACIÓN, COMERCIALIZACIÓN, GESTIÓN Y VENTA DE SERVICIOS DESTINADOS A LAS PERSONAS CON DIVERSIDAD FUNCIONAL. - DISEÑO, IMPLANTACIÓN Y COMERCIALIZACIÓN DE SISTEMAS DE FORMACIÓN PARA EL TRATAMIENTO DE LAS PERSONAS MAYORES, LAS PERSONAS DEPENDIENTES Y PERSONAS CON DIVERSIDAD FUNCIONAL. LA FORMACIÓN DE PERSONAS QUE SE DEDIQUEN A ATENDER A DICHOS COLECTIVOS. - ASESORAMIENTO EN LAS SOLUCIONES ADECUADAS PARA TRATAR A LAS PERSONAS MAYORES, LAS PERSONAS DEPENDIENTES Y PERSONAS CON DIVERSIDAD FUNCIONAL.\n",
      "mainEntityOfPage": "https://www.contratacion.euskadi.eus/webkpe00-kperoc/es/ac71aBusquedaRegistrosWar/empresa/08528",
      "_links": {
        "self": {
          "name": "GENDIA-SOLUCIONES PARA LA DISCAPACIDAD,  S.L.",
          "href": "https://api.euskadi.eus/procurements/companies/08528"
        }
      }
    },
    {
      "name": "EXCAVACIONES BERGARETXE, S.L.",
      "registrationNumber": "02995",
      "identificationNumber": "B20409702",
      "address": "ERREBAL, 16 - 6ºIZDA.",
      "location": {
        "postalCode": "20600",
        "municipality": "Eibar",
        "county": "Gipuzkoa",
        "municipalityId": "030",
        "countyId": "20"
      },
      "economicActivities": [
        {
          "id": "1.502.1",
          "name": "Demoliciones y derribos en general",
          "_links": {
            "self": {
              "name": "Demoliciones y derribos en general",
              "href": "https://api.euskadi.eus/procurements/companies/economic-activities/1.502.1"
            }
          }
        },
        {
          "id": "1.507",
          "name": "Construcción, reparación y conservación de toda clase obras",
          "_links": {
            "self": {
              "name": "Construcción, reparación y conservación de toda clase obras",
              "href": "https://api.euskadi.eus/procurements/companies/economic-activities/1.507"
            }
          }
        },
        {
          "id": "1.722",
          "name": "Transporte de mercancías por carretera",
          "_links": {
            "self": {
              "name": "Transporte de mercancías por carretera",
              "href": "https://api.euskadi.eus/procurements/companies/economic-activities/1.722"
            }
          }
        },
        {
          "id": "1.852",
          "name": "Alquiler de maquinaria y equipo para la construcción",
          "_links": {
            "self": {
              "name": "Alquiler de maquinaria y equipo para la construcción",
              "href": "https://api.euskadi.eus/procurements/companies/economic-activities/1.852"
            }
          }
        }
      ],
      "certificateStartDate": "2025-09-20",
      "certificateEndDate": "2026-03-20",
      "object": "LA EXPLOTACIÓN DE UN NEGOCIO DEDICADO A EXCAVACIONES DE TERRENOS",
      "mainEntityOfPage": "https://www.contratacion.euskadi.eus/webkpe00-kperoc/es/ac71aBusquedaRegistrosWar/empresa/02995",
      "_links": {
        "self": {
          "name": "EXCAVACIONES BERGARETXE, S.L.",
          "href": "https://api.euskadi.eus/procurements/companies/02995"
        }
      }
    }
  ]
}