{
  "totalItems": 9042,
  "totalPages": 905,
  "currentPage": 346,
  "itemsOfPage": 10,
  "items": [
    {
      "name": "SEGURIDAD INCENDIOS SERCOIN, S.A.",
      "registrationNumber": "04693",
      "identificationNumber": "A48647291",
      "address": "CTRA.  BILBAO-PLENCIA, 40",
      "location": {
        "postalCode": "48950",
        "municipality": "Erandio",
        "county": "Bizkaia",
        "municipalityId": "902",
        "countyId": "48"
      },
      "economicActivities": [
        {
          "id": "1.504.12",
          "name": "Instalaciones eléctricas en toda clase de edificios",
          "_links": {
            "self": {
              "name": "Instalaciones eléctricas en toda clase de edificios",
              "href": "https://api.euskadi.eus/procurements/companies/economic-activities/1.504.12"
            }
          }
        },
        {
          "id": "1.653.2",
          "name": "Venta al por menor de material y aparatos eléctricos, electrodomésticos y cocina",
          "_links": {
            "self": {
              "name": "Venta al por menor de material y aparatos eléctricos, electrodomésticos y cocina",
              "href": "https://api.euskadi.eus/procurements/companies/economic-activities/1.653.2"
            }
          }
        },
        {
          "id": "1.699",
          "name": "Otras reparaciones n.c.o.p",
          "_links": {
            "self": {
              "name": "Otras reparaciones n.c.o.p",
              "href": "https://api.euskadi.eus/procurements/companies/economic-activities/1.699"
            }
          }
        }
      ],
      "certificateStartDate": "2025-06-30",
      "certificateEndDate": "2025-07-15",
      "object": "A) VIGILANCIA Y PROTECCIÓN DE BIENES, ESTABLECIMIENTOS, ESPECTÁCULOS, CERTÁMENES O CONVENCIONES. B) PROTECCIÓN DE PERSONAS DETERMINADAS, PREVIA LA AUTORIZACIÓN CORRESPONDIENTE. C) DEPÓSITO, CUSTODIA, RECUENTO Y CLASIFICACIÓN DE MONEDAS Y BILLETES, TÍTULOS-VALORES Y DEMÁS OBJETOS QUE, POR SU VALOR ECONÓMICO Y ESPECTATIVAS QUE GENEREN, O POR SU PELIGROSIDAD PUEDAN REQUERIR PROTECCIÓN ESPECIAL, SIN PERJUICIO DE LAS ACTIVIDADES PROPIAS DE LAS ENTIDADES FINANCIERAS. D) TRANSPORTE Y DISTRIBUCIÓN DE LOS OBJETOS A QUE SE REFIERE EL APARTADO ANTERIOR A TRAVÉS DE LOS DISTINTOS MEDIOS, REALIZÁNDOLOS, EN SU CASO, MEDIANTE VEHÍCULOS CUYAS CARACTERÍSTICAS SERÁN DETERMINADAS POR EL MINISTERIO DEL INTERIOR, DE FORMA QUE NO PUEDAN CONFUNDIRSE CON LOS DE LAS FUERZAS ARMADAS NI CON LOS DE LAS FUERZAS Y CUERPOS DE SEGURIDAD DEL ESTADO. E) INSTALACIÓN Y MATENIMIENTO DE APARATOS, DISPOSITIVOS Y SISTEMAS DE SEGURIDAD. F) EXPLOTACIÓN DE CENTRALES PARA LA RECEPCIÓN, VERIFICACIÓN Y TRANSMISIÓN DE LAS SEÑALES DE ALARMAS Y SU COMUNICACIÓN A LAS FUERZAS Y CUERPOS DE SEGURIDAD, ASÍ COMO PRESTACIÓN DE SERVICIOS DE RESPUESTA CUYA REALIZACIÓN NO SEA DE LA COMPETENCIA DE DICHAS FUERZAS Y CUERPOS. G) PLANIFICACIÓN Y ASESORAMIENTO DE LAS ACTIVIDADES DE SEGURIDAD CONTEMPLADAS EN LA LEY, ASÍ COMO LA ADQUISICIÓN, NEAJENACIÓN Y GRAVAMEN DE BIENES INMUEBLES",
      "mainEntityOfPage": "https://www.contratacion.euskadi.eus/webkpe00-kperoc/es/ac71aBusquedaRegistrosWar/empresa/04693",
      "_links": {
        "self": {
          "name": "SEGURIDAD INCENDIOS SERCOIN, S.A.",
          "href": "https://api.euskadi.eus/procurements/companies/04693"
        }
      }
    },
    {
      "name": "JM MELENDEZ ARQUITECTOS, S.L.",
      "registrationNumber": "09961",
      "identificationNumber": "B91510651",
      "address": "Avenida San Francisco Javier 9, Edif Sevilla 2, Planta Semisótano, Local F4A10",
      "location": {
        "postalCode": "41018",
        "municipality": "Sevilla",
        "county": "Sevilla",
        "municipalityId": "091",
        "countyId": "41"
      },
      "economicActivities": [
        {
          "id": "1.843.2",
          "name": "Servicios técnicos de arquitectura y urbanismo",
          "_links": {
            "self": {
              "name": "Servicios técnicos de arquitectura y urbanismo",
              "href": "https://api.euskadi.eus/procurements/companies/economic-activities/1.843.2"
            }
          }
        }
      ],
      "certificateStartDate": "2025-06-29",
      "certificateEndDate": "2025-12-29",
      "object": "LA ACTIVIDAD PROPIA DE LOS PROFESIONALES DE LA ARQUITECTURA.",
      "mainEntityOfPage": "https://www.contratacion.euskadi.eus/webkpe00-kperoc/es/ac71aBusquedaRegistrosWar/empresa/09961",
      "_links": {
        "self": {
          "name": "JM MELENDEZ ARQUITECTOS, S.L.",
          "href": "https://api.euskadi.eus/procurements/companies/09961"
        }
      }
    },
    {
      "name": "ERRO AMARO TECNICOS EN ARQUITECTURA E INGENIERIA S.L.P",
      "registrationNumber": "06024",
      "identificationNumber": "B75177139",
      "address": "Labeltze 17",
      "location": {
        "postalCode": "20305",
        "municipality": "Irun",
        "county": "Gipuzkoa",
        "municipalityId": "045",
        "countyId": "20"
      },
      "economicActivities": [
        {
          "id": "1.843.1",
          "name": "Servicios técnicos de ingeniería",
          "_links": {
            "self": {
              "name": "Servicios técnicos de ingeniería",
              "href": "https://api.euskadi.eus/procurements/companies/economic-activities/1.843.1"
            }
          }
        },
        {
          "id": "1.843.2",
          "name": "Servicios técnicos de arquitectura y urbanismo",
          "_links": {
            "self": {
              "name": "Servicios técnicos de arquitectura y urbanismo",
              "href": "https://api.euskadi.eus/procurements/companies/economic-activities/1.843.2"
            }
          }
        }
      ],
      "certificateStartDate": "2025-06-28",
      "certificateEndDate": "2025-12-28",
      "object": "LA ACTIVIDAD PROPIA DEL EJERCICIO DE LA INGENIERÍA Y ARQUITECTURA A PARTICULARES Y EMPRESAS",
      "mainEntityOfPage": "https://www.contratacion.euskadi.eus/webkpe00-kperoc/es/ac71aBusquedaRegistrosWar/empresa/06024",
      "_links": {
        "self": {
          "name": "ERRO AMARO TECNICOS EN ARQUITECTURA E INGENIERIA S.L.P",
          "href": "https://api.euskadi.eus/procurements/companies/06024"
        }
      }
    },
    {
      "name": "KUIK IT S.L.U.",
      "registrationNumber": "07271",
      "identificationNumber": "B75236901",
      "address": "TXIRRITA MALEO Nº1, 1ºPISO",
      "location": {
        "postalCode": "20100",
        "municipality": "Errenteria",
        "county": "Gipuzkoa",
        "municipalityId": "067",
        "countyId": "20"
      },
      "economicActivities": [
        {
          "id": "1.849.9",
          "name": "Otros servicios independientes n.c.o.p",
          "_links": {
            "self": {
              "name": "Otros servicios independientes n.c.o.p",
              "href": "https://api.euskadi.eus/procurements/companies/economic-activities/1.849.9"
            }
          }
        }
      ],
      "certificateStartDate": "2025-06-27",
      "certificateEndDate": "2025-12-24",
      "object": "COMPRAVENTA, REPARACIÓN, ALMACENAMIENTO, REPRESENTACIÓN, DISTRIBUCIÓN, CONCESIÓN, IMPORTACIÓN, EXPORTACIÓN, SUSTITUCIÓN, MANTENIMIENTO, CONSERVACIÓN, RECUPERACIÓN Y GENÉRICAMENTE LA COMERCIALIZACIÓN DE PRODUCTOS ELECTRÓNICOS E INFORMÁTICOS.",
      "mainEntityOfPage": "https://www.contratacion.euskadi.eus/webkpe00-kperoc/es/ac71aBusquedaRegistrosWar/empresa/07271",
      "_links": {
        "self": {
          "name": "KUIK IT S.L.U.",
          "href": "https://api.euskadi.eus/procurements/companies/07271"
        }
      }
    },
    {
      "name": "COMESA EQUIPAMIENTO INTEGRAL DE SEGURIDAD SL",
      "registrationNumber": "06362",
      "identificationNumber": "B48023485",
      "address": "POLIG UGALDEGUREN PARCELA 4-7 PAB 7",
      "location": {
        "postalCode": "48170",
        "municipality": "Zamudio",
        "county": "Bizkaia",
        "municipalityId": "905",
        "countyId": "48"
      },
      "economicActivities": [
        {
          "id": "1.613.1",
          "name": "Venta al por mayor de productos textiles, confección calzado y artículos cuero",
          "_links": {
            "self": {
              "name": "Venta al por mayor de productos textiles, confección calzado y artículos cuero",
              "href": "https://api.euskadi.eus/procurements/companies/economic-activities/1.613.1"
            }
          }
        },
        {
          "id": "1.651.5",
          "name": "Venta al por menor de prendas especiales",
          "_links": {
            "self": {
              "name": "Venta al por menor de prendas especiales",
              "href": "https://api.euskadi.eus/procurements/companies/economic-activities/1.651.5"
            }
          }
        }
      ],
      "certificateStartDate": "2025-06-27",
      "certificateEndDate": "2025-12-21",
      "object": "1.- LA FABRICACIÓN Y COMERCIALIZACIÓN AL POR MENOR DE PRENDAS ESPECIALES, PRENDAS DE TRABAJO, UNIFORMES, PRENDAS DE CUERO Y SIMILARES, PRENDAS MILITARES, DEPORTIVAS, RELIGIOSAS. 2.- LA FABRICACIÓN Y COMERCIALIZACIÓN DE OBJETOS DE CUERO PARA EL DEPORTE Y EN GENERAL",
      "mainEntityOfPage": "https://www.contratacion.euskadi.eus/webkpe00-kperoc/es/ac71aBusquedaRegistrosWar/empresa/06362",
      "_links": {
        "self": {
          "name": "COMESA EQUIPAMIENTO INTEGRAL DE SEGURIDAD SL",
          "href": "https://api.euskadi.eus/procurements/companies/06362"
        }
      }
    },
    {
      "name": "TRIENEKENS PAIS VASCO, S.L.",
      "registrationNumber": "08917",
      "identificationNumber": "B48906937",
      "address": "Barrio Boroa s/n",
      "location": {
        "postalCode": "48340",
        "municipality": "Amorebieta-Etxano",
        "county": "Bizkaia",
        "municipalityId": "003",
        "countyId": "48"
      },
      "economicActivities": [
        {
          "id": "1.622",
          "name": "Venta al por mayor de otros productos de recuperación",
          "_links": {
            "self": {
              "name": "Venta al por mayor de otros productos de recuperación",
              "href": "https://api.euskadi.eus/procurements/companies/economic-activities/1.622"
            }
          }
        },
        {
          "id": "1.842",
          "name": "Servicios financieros y contables",
          "_links": {
            "self": {
              "name": "Servicios financieros y contables",
              "href": "https://api.euskadi.eus/procurements/companies/economic-activities/1.842"
            }
          }
        },
        {
          "id": "1.843.9",
          "name": "Otros servicios técnicos n.c.o.p",
          "_links": {
            "self": {
              "name": "Otros servicios técnicos n.c.o.p",
              "href": "https://api.euskadi.eus/procurements/companies/economic-activities/1.843.9"
            }
          }
        },
        {
          "id": "1.921.5",
          "name": "Servicios de incineración y eliminación de basuras y desechos",
          "_links": {
            "self": {
              "name": "Servicios de incineración y eliminación de basuras y desechos",
              "href": "https://api.euskadi.eus/procurements/companies/economic-activities/1.921.5"
            }
          }
        }
      ],
      "certificateStartDate": "2025-06-27",
      "certificateEndDate": "2025-12-18",
      "object": "A) LA PRESTACIÓN DE TODA CLASE DE SERVICIOS DE PLANIFICACIÓN, PROMOCIÓN, ADMINISTRACIÓN, GESTIÓN, REPRESENTACIÓN Y ASESORAMIENTO DE CARÁCTER ECONÓMICO, FINANCIERO, TRIBUTARIO, JURÍDICO, CONTABLE, ADMINISTRATIVO Y COMERCIAL, TODO ELLO EN SU MÁS AMPLIA ACEPCIÓN, EN FAVOR DE TODA CLASE DE EMPRESAS Y PERSONAS, FÍSICAS O JURÍDICAS, Y EN GENERAL, LA PRESTACIÓN DE TODOS LOS SERVICIOS DE ASESORAMIENTO PROFESIONAL RELACIONADOS CON LA EMPRESA, CONTANDO AL EFECTO CON PERSONAL HABILITADO LEGALMENTE PARA EL EJERCICIO DE DICHAS ACTIVIDADES EN AQUELLOS SUPUESTOS EN QUE TAL HABILITACIÓN SEA EXIGIDO POR LAS LEYES. B) EFECTUAR, EN NOMBRE PROPIO O POR CUENTA AJENA LA COMPRAVENTA U OPCIÓN DE COMPRA DE FINCAS RÚSTICAS, URBANIZABLES Y URBANAS, DE TODA CLASE DE EDIFICIOS CONSTRUIDOS O EN FASE DE CONSTRUCCIÓN; LA PROMOCIÓN DE FINCAS RUSTICAS Y URBANAS, URBANIZACIONES Y VIVIENDAS LIBRES DE PROTECCIÓN OFICIAL, DIRECTAMENTE O POR CUENTA DE TERCEROS, INCLUSO EN RÉGIMEN DE COMUNIDAD Y COOPERATIVA, Y EN ESTOS CASOS, LA GESTIÓN DE SU CONSTITUCIÓN, DETERMINACIÓN DE SU FUNCIONAMIENTO INTERNO Y SUS RELACIONES CON TERCEROS, SU ADMINISTRACIÓN, PROMOCIÓN Y ASESORAMIENTO; LA CONSTRUCCIÓN DIRECTA O A TRAVÉS DE TERCEROS, SEA ÉSTOS EMPRESAS CONSTRUCTORAS O COORDINADORAS DE CONSTRUCCIÓN, O EN RÉGIMEN DE ADMINISTRACIÓN, DE LOS EDIFICIOS Y URBANIZACIONES QUE PROMUEVA. LA PROMOCIÓN DE TODA CLASE DE ACTIVIDADES INMOBILIARIAS, PUDIENDO, EN CONSECUENCIA, COMPRAR, VENDER, GRAVAR, ARRENDAR, Y, EN GENERAL, REALIZAR TODA CLASE DE ACTOS Y CONTRATOS DE DISPOSICIÓN O ADMINISTRACIÓN RESPECTO DE BIENES INMUEBLES; E IGUALMENTE, LA PROMOCIÓN DE TODA CLASE DE CONSTRUCCIONES, EDIFICACIONES Y OBRAS, HASTA LOGRAR LA TOTAL TERMINACIÓN DE LAS MISMAS. LA TRAMITACIÓN, GESTIÓN Y ASESORAMIENTO DE CUALQUIER ORDEN, NECESARIO PARA LA OBTENCIÓN DE CRÉDITOS, INCLUSO OFICIALES Y AYUDA FINANCIERA DE TODO TIPO, SEA POR CUENTA PROPIA O DE TERCEROS. C) LA COMPRA, VENTA, ADMINISTRACIÓN Y EXPLOTACIÓN DE TÍTULOS, VALORES, ACCIONES, PARTICIPACIONES SOCIALES, BONOS, OBLIGACIONES, NACIONALES Y EXTRANJEROS, PATENTES, LICENCIAS, MARCAS, MODELOS, RÓTULOS, NOMBRES COMERCIALES Y PERTENENCIAS DE PROPIEDAD INDUSTRIAL E INTELECTUAL. D) LA CONTRATA DE OBRAS Y SERVICIOS. E) LA PROMOCIÓN DE NEGOCIOS Y EMPRESAS INDUSTRIALES, COMERCIALES, INMOBILIARIAS O AGRÍCOLAS. F) EL ASESORAMIENTO Y PRESTACIÓN DE SERVICIOS A INSTITUCIONES Y PERSONAS JURÍDICAS EN MATERIA DE SELECCIÓN DE PERSONAL. G) LA ADMINISTRACIÓN DE BIENES, DERECHOS Y EMPRESAS Y EL ASESORAMIENTO EN MATERIA DE INVERSIONES Y FINANZAS Y LA COLOCACIÓN Y GESTIÓN DE CAPITALES AJENOS. H) LA REALIZACIÓN DE ESTUDIOS DE CARÁCTER ECONÓMICO, COMERCIAL, FINANCIERO, ADMINISTRATIVO O DE OTRA ÍNDOLE, CONDUCENTES A MEJORAR LA GESTIÓN Y PRODUCTIVIDAD DE LAS EMPRESAS. I) RECOGIDA, SEPARACIÓN, GESTIÓN, TRANSPORTE, ENTREGA, COMPRA-VENTA, EXPORTACIÓN E IMPORTACIÓN DE MATERIALES PROCEDENTES DE LOS RESIDUOS SÓLIDOS DE ORIGEN DOMICILIARIO, COMERCIAL E INDUSTRIAL ASIMILABLE A URBANOS QUE SEAN RECICLABLES, ASÍ COMO CUALQUIER OTRA ACTIVIDAD RELACIONADA CON EL CICLO DE VIDA DE ESTOS PRODUCTOS DESPUÉS DE SU USO.\n",
      "mainEntityOfPage": "https://www.contratacion.euskadi.eus/webkpe00-kperoc/es/ac71aBusquedaRegistrosWar/empresa/08917",
      "_links": {
        "self": {
          "name": "TRIENEKENS PAIS VASCO, S.L.",
          "href": "https://api.euskadi.eus/procurements/companies/08917"
        }
      }
    },
    {
      "name": "DALAINOR S. COOP. PEQUEÑA",
      "registrationNumber": "10252",
      "identificationNumber": "F75113357",
      "address": "Barrio de Itxaspe 3",
      "location": {
        "postalCode": "20829",
        "municipality": "Deba",
        "county": "Gipuzkoa",
        "municipalityId": "029",
        "countyId": "20"
      },
      "economicActivities": [
        {
          "id": "1.631",
          "name": "Intermediarios del comercio",
          "_links": {
            "self": {
              "name": "Intermediarios del comercio",
              "href": "https://api.euskadi.eus/procurements/companies/economic-activities/1.631"
            }
          }
        }
      ],
      "certificateStartDate": "2025-06-25",
      "certificateEndDate": "2025-12-25",
      "object": "EL DISEÑO, DESARROLLO Y DISTRIBUCIÓN DE ARTÍCULOS DE ILUMINACIÓN Y DECORACIÓN (CNAE: 4615. INTERMEDIACIÓN COMERCIAL DE ARTÍCULOS DE MUEBLE, HOGAR Y FERRETERÍA).",
      "mainEntityOfPage": "https://www.contratacion.euskadi.eus/webkpe00-kperoc/es/ac71aBusquedaRegistrosWar/empresa/10252",
      "_links": {
        "self": {
          "name": "DALAINOR S. COOP. PEQUEÑA",
          "href": "https://api.euskadi.eus/procurements/companies/10252"
        }
      }
    },
    {
      "name": "JON PATXI RODRIGUEZ BILBAO",
      "registrationNumber": "09589",
      "identificationNumber": "30591507N",
      "address": "Guayaquil 4, 3ºD",
      "location": {
        "postalCode": "01012",
        "municipality": "Vitoria-Gasteiz",
        "county": "Araba/Álava",
        "municipalityId": "059",
        "countyId": "01"
      },
      "economicActivities": [
        {
          "id": "1.973.1",
          "name": "Servicios fotográficos",
          "_links": {
            "self": {
              "name": "Servicios fotográficos",
              "href": "https://api.euskadi.eus/procurements/companies/economic-activities/1.973.1"
            }
          }
        }
      ],
      "certificateStartDate": "2025-06-25",
      "certificateEndDate": "2025-12-23",
      "object": "SERVICIOS FOTOGRÁFICOS.",
      "mainEntityOfPage": "https://www.contratacion.euskadi.eus/webkpe00-kperoc/es/ac71aBusquedaRegistrosWar/empresa/09589",
      "_links": {
        "self": {
          "name": "JON PATXI RODRIGUEZ BILBAO",
          "href": "https://api.euskadi.eus/procurements/companies/09589"
        }
      }
    },
    {
      "name": "GERTU ERAIKUNTZAK, S.L",
      "registrationNumber": "09354",
      "identificationNumber": "B67811547",
      "address": "c/ DIPUTACION 4BIS - 1º IZQ",
      "location": {
        "postalCode": "48009",
        "municipality": "Bilbao",
        "county": "Bizkaia",
        "municipalityId": "020",
        "countyId": "48"
      },
      "economicActivities": [
        {
          "id": "1.501.1",
          "name": "Construcción completa, reparación y conservación de edificaciones",
          "_links": {
            "self": {
              "name": "Construcción completa, reparación y conservación de edificaciones",
              "href": "https://api.euskadi.eus/procurements/companies/economic-activities/1.501.1"
            }
          }
        }
      ],
      "certificateStartDate": "2025-06-24",
      "certificateEndDate": "2025-12-20",
      "classification": [
        {
          "id": "O",
          "name": "Obras",
          "groups": [
            {
              "id": "C",
              "name": "EDIFICACIONES",
              "subgroups": [
                {
                  "id": "01",
                  "name": "DEMOLICIONES",
                  "categories": [
                    {
                      "id": "1",
                      "name": "Desde 0 Hasta 150.000",
                      "_links": {
                        "self": {
                          "name": "Desde 0 Hasta 150.000",
                          "href": "https://api.euskadi.eus/procurements/companies/types/O/categories/1"
                        }
                      }
                    }
                  ],
                  "_links": {
                    "self": {
                      "name": "DEMOLICIONES",
                      "href": "https://api.euskadi.eus/procurements/companies/types/O/groups/C/subgroups/01"
                    }
                  }
                },
                {
                  "id": "04",
                  "name": "ALBAÑILERIA, REVOCOS Y REVESTIDOS",
                  "categories": [
                    {
                      "id": "1",
                      "name": "Desde 0 Hasta 150.000",
                      "_links": {
                        "self": {
                          "name": "Desde 0 Hasta 150.000",
                          "href": "https://api.euskadi.eus/procurements/companies/types/O/categories/1"
                        }
                      }
                    }
                  ],
                  "_links": {
                    "self": {
                      "name": "ALBAÑILERIA, REVOCOS Y REVESTIDOS",
                      "href": "https://api.euskadi.eus/procurements/companies/types/O/groups/C/subgroups/04"
                    }
                  }
                },
                {
                  "id": "08",
                  "name": "CARPINTERIA DE MADERA",
                  "categories": [
                    {
                      "id": "1",
                      "name": "Desde 0 Hasta 150.000",
                      "_links": {
                        "self": {
                          "name": "Desde 0 Hasta 150.000",
                          "href": "https://api.euskadi.eus/procurements/companies/types/O/categories/1"
                        }
                      }
                    }
                  ],
                  "_links": {
                    "self": {
                      "name": "CARPINTERIA DE MADERA",
                      "href": "https://api.euskadi.eus/procurements/companies/types/O/groups/C/subgroups/08"
                    }
                  }
                },
                {
                  "id": "09",
                  "name": "CARPINTERIA METALICA",
                  "categories": [
                    {
                      "id": "1",
                      "name": "Desde 0 Hasta 150.000",
                      "_links": {
                        "self": {
                          "name": "Desde 0 Hasta 150.000",
                          "href": "https://api.euskadi.eus/procurements/companies/types/O/categories/1"
                        }
                      }
                    }
                  ],
                  "_links": {
                    "self": {
                      "name": "CARPINTERIA METALICA",
                      "href": "https://api.euskadi.eus/procurements/companies/types/O/groups/C/subgroups/09"
                    }
                  }
                }
              ],
              "_links": {
                "self": {
                  "name": "EDIFICACIONES",
                  "href": "https://api.euskadi.eus/procurements/companies/types/O/groups/C"
                }
              }
            },
            {
              "id": "G",
              "name": "VIALES Y PISTAS",
              "subgroups": [
                {
                  "id": "06",
                  "name": "Obras viales sin cualificación específica",
                  "categories": [
                    {
                      "id": "3",
                      "name": "Desde 360.001 Hasta 840.000",
                      "_links": {
                        "self": {
                          "name": "Desde 360.001 Hasta 840.000",
                          "href": "https://api.euskadi.eus/procurements/companies/types/O/categories/3"
                        }
                      }
                    }
                  ],
                  "_links": {
                    "self": {
                      "name": "Obras viales sin cualificación específica",
                      "href": "https://api.euskadi.eus/procurements/companies/types/O/groups/G/subgroups/06"
                    }
                  }
                }
              ],
              "_links": {
                "self": {
                  "name": "VIALES Y PISTAS",
                  "href": "https://api.euskadi.eus/procurements/companies/types/O/groups/G"
                }
              }
            },
            {
              "id": "K",
              "name": "ESPECIALES",
              "subgroups": [
                {
                  "id": "04",
                  "name": "Pinturas y metalizaciones",
                  "categories": [
                    {
                      "id": "1",
                      "name": "Desde 0 Hasta 150.000",
                      "_links": {
                        "self": {
                          "name": "Desde 0 Hasta 150.000",
                          "href": "https://api.euskadi.eus/procurements/companies/types/O/categories/1"
                        }
                      }
                    }
                  ],
                  "_links": {
                    "self": {
                      "name": "Pinturas y metalizaciones",
                      "href": "https://api.euskadi.eus/procurements/companies/types/O/groups/K/subgroups/04"
                    }
                  }
                }
              ],
              "_links": {
                "self": {
                  "name": "ESPECIALES",
                  "href": "https://api.euskadi.eus/procurements/companies/types/O/groups/K"
                }
              }
            }
          ],
          "_links": {
            "self": {
              "name": "Obras",
              "href": "https://api.euskadi.eus/procurements/companies/types/O"
            }
          }
        }
      ],
      "object": "ACTIVIDAD PRINCIPAL.- CONSTRUCCIÓN DE EDIFICIOS RESIDENCIALES. ACTIVIDADES SECUNDARIAS.- PROMOCIÓN INMOBILIARIA. DEMOLICIÓN. PREPARACIÓN DE TERRENOS. PERFORACIONES Y SONDEOS. INSTALACIONES ELÉCTRICAS. FONTANERÍA, INSTALACIONES DE SISTEMAS DE CALEFACCIÓN Y AIRE ACONDICIONADO. OTRAS INSTALACIONES EN OBRAS DE CONSTRUCCIÓN. REVOCAMIENTO. INSTALACIÓN DE CARPINTERÍA. REVESTIMIENTO DE SUELOS Y PAREDES. PINTURA Y ACRISTALAMIENTO. OTRO ACABADO DE EDIFICIOS. CONSTRUCCIÓN DE CUBIERTAS. OTRAS ACTIVIDADES DE CONSTRUCCIÓN ESPECIALIZADA N.C.O.P.",
      "mainEntityOfPage": "https://www.contratacion.euskadi.eus/webkpe00-kperoc/es/ac71aBusquedaRegistrosWar/empresa/09354",
      "_links": {
        "self": {
          "name": "GERTU ERAIKUNTZAK, S.L",
          "href": "https://api.euskadi.eus/procurements/companies/09354"
        }
      }
    },
    {
      "name": "REPOBLACIONES AGUINAGALDE, S.L.",
      "registrationNumber": "03827",
      "identificationNumber": "B20950366",
      "address": "C/ BEKOLANDA Nº 26, CASA TTUTTURRE",
      "location": {
        "postalCode": "31760",
        "municipality": "Etxalar",
        "county": "Navarra",
        "municipalityId": "082",
        "countyId": "31"
      },
      "economicActivities": [
        {
          "id": "1.912",
          "name": "Servicios forestales",
          "_links": {
            "self": {
              "name": "Servicios forestales",
              "href": "https://api.euskadi.eus/procurements/companies/economic-activities/1.912"
            }
          }
        }
      ],
      "certificateStartDate": "2025-06-24",
      "certificateEndDate": "2025-12-23",
      "object": "SERVICIOS AGRARIOS Y FORESTALES EN GENERAL",
      "mainEntityOfPage": "https://www.contratacion.euskadi.eus/webkpe00-kperoc/es/ac71aBusquedaRegistrosWar/empresa/03827",
      "_links": {
        "self": {
          "name": "REPOBLACIONES AGUINAGALDE, S.L.",
          "href": "https://api.euskadi.eus/procurements/companies/03827"
        }
      }
    }
  ]
}