{
  "totalItems": 9042,
  "totalPages": 905,
  "currentPage": 276,
  "itemsOfPage": 10,
  "items": [
    {
      "name": "PARQUES SOLARES DE NAVARRA SERVICIOS, S.L.",
      "registrationNumber": "09852",
      "identificationNumber": "B71073639",
      "address": "PARQUE TOMAS CABALLERO 1 BAJO",
      "location": {
        "postalCode": "31005",
        "municipality": "Pamplona/Iruña",
        "county": "Navarra",
        "municipalityId": "201",
        "countyId": "31"
      },
      "economicActivities": [
        {
          "id": "1.151.4",
          "name": "Producción de energía no especificada en otros epígrafes",
          "_links": {
            "self": {
              "name": "Producción de energía no especificada en otros epígrafes",
              "href": "https://api.euskadi.eus/procurements/companies/economic-activities/1.151.4"
            }
          }
        },
        {
          "id": "1.504.1",
          "name": "Instalaciones eléctricas en general",
          "_links": {
            "self": {
              "name": "Instalaciones eléctricas en general",
              "href": "https://api.euskadi.eus/procurements/companies/economic-activities/1.504.1"
            }
          }
        },
        {
          "id": "1.842",
          "name": "Servicios financieros y contables",
          "_links": {
            "self": {
              "name": "Servicios financieros y contables",
              "href": "https://api.euskadi.eus/procurements/companies/economic-activities/1.842"
            }
          }
        },
        {
          "id": "1.999",
          "name": "Otros servicios n.c.o.p",
          "_links": {
            "self": {
              "name": "Otros servicios n.c.o.p",
              "href": "https://api.euskadi.eus/procurements/companies/economic-activities/1.999"
            }
          }
        }
      ],
      "certificateStartDate": "2025-09-15",
      "certificateEndDate": "2026-03-15",
      "object": "EL SUMINISTRO Y LA CONSTRUCCIÓN LLAVE EN MANO DE INSTALACIONES DE GENERACIÓN ELÉCTRICA DE ORIGEN RENOVABLE; LA OPERACIÓN, EL MANTENIMIENTO Y LA ASISTENCIA TÉCNICA DE DICHAS INSTALACIONES, ASÍ COMO OTROS SERVICIOS DE GESTIÓN TÉCNICA Y ADMINISTRATIVA RELATIVOS A SU TENENCIA Y EXPLOTACIÓN. LA INTERMEDIACIÓN EN LA GESTIÓN Y EJECUCIÓN DE SERVICIOS TÉCNICOS ESPECIALIZADOS EN EL SECTOR DE LAS ENERGÍAS RENOVABLES.",
      "mainEntityOfPage": "https://www.contratacion.euskadi.eus/webkpe00-kperoc/es/ac71aBusquedaRegistrosWar/empresa/09852",
      "_links": {
        "self": {
          "name": "PARQUES SOLARES DE NAVARRA SERVICIOS, S.L.",
          "href": "https://api.euskadi.eus/procurements/companies/09852"
        }
      }
    },
    {
      "name": "DEURBE, SOCIEDAD DE GESTIÓN, S.L.P.",
      "registrationNumber": "05702",
      "identificationNumber": "B48439392",
      "address": "COLÓN DE LARREATEGUI, 35-1º DCHA.",
      "location": {
        "postalCode": "48009",
        "municipality": "Bilbao",
        "county": "Bizkaia",
        "municipalityId": "020",
        "countyId": "48"
      },
      "economicActivities": [
        {
          "id": "1.843.2",
          "name": "Servicios técnicos de arquitectura y urbanismo",
          "_links": {
            "self": {
              "name": "Servicios técnicos de arquitectura y urbanismo",
              "href": "https://api.euskadi.eus/procurements/companies/economic-activities/1.843.2"
            }
          }
        }
      ],
      "certificateStartDate": "2025-09-15",
      "certificateEndDate": "2026-03-15",
      "object": "LA ACTIVIDAD PROPIA DEL EJERCICIO DE LA ARQUITECTURA",
      "mainEntityOfPage": "https://www.contratacion.euskadi.eus/webkpe00-kperoc/es/ac71aBusquedaRegistrosWar/empresa/05702",
      "_links": {
        "self": {
          "name": "DEURBE, SOCIEDAD DE GESTIÓN, S.L.P.",
          "href": "https://api.euskadi.eus/procurements/companies/05702"
        }
      }
    },
    {
      "name": "BARAKA PRODUCCIONES AUDIOVISUALES S.L.",
      "registrationNumber": "04519",
      "identificationNumber": "B95146353",
      "address": "C/ Ibaizabal, 4-lonja. (Entrada por C/NERVIOI, 1)",
      "location": {
        "postalCode": "48901",
        "municipality": "Barakaldo",
        "county": "Bizkaia",
        "municipalityId": "013",
        "countyId": "48"
      },
      "economicActivities": [
        {
          "id": "1.844",
          "name": "Servicios de publicidad, relaciones públicas y similares",
          "_links": {
            "self": {
              "name": "Servicios de publicidad, relaciones públicas y similares",
              "href": "https://api.euskadi.eus/procurements/companies/economic-activities/1.844"
            }
          }
        },
        {
          "id": "1.961.1",
          "name": "Producción de películas cinematográficas (incluso vídeos)",
          "_links": {
            "self": {
              "name": "Producción de películas cinematográficas (incluso vídeos)",
              "href": "https://api.euskadi.eus/procurements/companies/economic-activities/1.961.1"
            }
          }
        },
        {
          "id": "1.973.1",
          "name": "Servicios fotográficos",
          "_links": {
            "self": {
              "name": "Servicios fotográficos",
              "href": "https://api.euskadi.eus/procurements/companies/economic-activities/1.973.1"
            }
          }
        }
      ],
      "certificateStartDate": "2025-09-15",
      "certificateEndDate": "2026-03-15",
      "object": "1.- LA PRODUCCIÓN, GRABACIÓN, REALIZACIÓN, SINCRONIZACIÓN Y MONTAJE, DOBLAJE, ILUMINACIÓN, ANIMACIÓN Y DISTRIBUCIÓN DE PELÍCULAS CINEMATOGRÁFICAS, DIGITALES, DE VIDEO Y FOTOGRÁFICAS ASÍ COMO SU EXHIBICIÓN Y COMERCIALIZACIÓN. 2.- LA PRESTACIÓN Y DIFUSIÓN DE SERVICIOS DE PUBLICIDAD, MEDIANTE ANUNCIOS, CARTELES, FOLLETOS, PELÍCULAS PUBLICITARIAS, ETC., A TRAVÉS DE PRENSA, RADIO, TELEVISIÓN U OTROS MEDIOS ASÍ COMO DE ACTIVIDADES DE AGENCIA DE NOTICIAS, LA REALIZACIÓN DE MATERIAL AUDIOVISUAL, EVENTOS EN DIRECTO O CAMPAÑAS PUBLICITARIAS. 3.- PRESTACIÓN DE SERVICIOS DE MARKETING Y ARTES GRÁFICAS. 4.- LA PRESTACIÓN DE SERVICIOS EN RELACIÓN A SEGUIMIENTOS URBANÍSTICOS, CONSTRUCTIVOS, ARQUITECTÓNICOS Y DE OBRAS",
      "mainEntityOfPage": "https://www.contratacion.euskadi.eus/webkpe00-kperoc/es/ac71aBusquedaRegistrosWar/empresa/04519",
      "_links": {
        "self": {
          "name": "BARAKA PRODUCCIONES AUDIOVISUALES S.L.",
          "href": "https://api.euskadi.eus/procurements/companies/04519"
        }
      }
    },
    {
      "name": "TEKNOVAS, S.A.",
      "registrationNumber": "00987",
      "identificationNumber": "A48278022",
      "address": "PARQUE TECNOLOGICO DE BIZKAIA, EDIF 804",
      "location": {
        "postalCode": "48160",
        "municipality": "Derio",
        "county": "Bizkaia",
        "municipalityId": "901",
        "countyId": "48"
      },
      "economicActivities": [
        {
          "id": "1.619.2",
          "name": "Venta al por mayor de aparatos e instrumentos médicos, ortopédicos, ópticos",
          "_links": {
            "self": {
              "name": "Venta al por mayor de aparatos e instrumentos médicos, ortopédicos, ópticos",
              "href": "https://api.euskadi.eus/procurements/companies/economic-activities/1.619.2"
            }
          }
        },
        {
          "id": "1.619.9",
          "name": "Venta al por mayor de otros productos n.c.o.p",
          "_links": {
            "self": {
              "name": "Venta al por mayor de otros productos n.c.o.p",
              "href": "https://api.euskadi.eus/procurements/companies/economic-activities/1.619.9"
            }
          }
        },
        {
          "id": "1.653.2",
          "name": "Venta al por menor de material y aparatos eléctricos, electrodomésticos y cocina",
          "_links": {
            "self": {
              "name": "Venta al por menor de material y aparatos eléctricos, electrodomésticos y cocina",
              "href": "https://api.euskadi.eus/procurements/companies/economic-activities/1.653.2"
            }
          }
        }
      ],
      "certificateStartDate": "2025-09-15",
      "certificateEndDate": "2026-03-15",
      "object": "LA IMPORTACIÓN, EXPORTACIÓN, COMERCIALIZACIÓN, DISTRIBUCIÓN Y ASISTENCIA TÉCNICA DE INSTRUMENTACIÓN Y PRODUCTOS QUÍMICOS Y BIOQUÍMICOS, ASÍ COMO CUALQUIER OTRA ACTIVIDAD PRINCIPAL O COMPLEMENTARIA DE LAS ANTERIORES QUE DIRECTA O INDIRECTAMENTE SE HALLE RELACIONADA CON LAS MISMAS",
      "mainEntityOfPage": "https://www.contratacion.euskadi.eus/webkpe00-kperoc/es/ac71aBusquedaRegistrosWar/empresa/00987",
      "_links": {
        "self": {
          "name": "TEKNOVAS, S.A.",
          "href": "https://api.euskadi.eus/procurements/companies/00987"
        }
      }
    },
    {
      "name": "MICRODAN ALTA DESINFECCIÓN, S.A.",
      "registrationNumber": "05701",
      "identificationNumber": "A74233990",
      "address": "TORRECERREDO, 26",
      "location": {
        "postalCode": "33012",
        "municipality": "Oviedo",
        "county": "Asturias",
        "municipalityId": "044",
        "countyId": "33"
      },
      "economicActivities": [
        {
          "id": "1.619.2",
          "name": "Venta al por mayor de aparatos e instrumentos médicos, ortopédicos, ópticos",
          "_links": {
            "self": {
              "name": "Venta al por mayor de aparatos e instrumentos médicos, ortopédicos, ópticos",
              "href": "https://api.euskadi.eus/procurements/companies/economic-activities/1.619.2"
            }
          }
        }
      ],
      "certificateStartDate": "2025-09-15",
      "certificateEndDate": "2026-03-15",
      "object": "LA FABRICACIÓN, TRANSFORMACIÓN, DISTRIBUCIÓN Y COMERCIALIZACIÓN DE PRODUCTOS FARMACÉUTICOS E HIGIÉNICOS, SUSTANCIAS DIETÉTICAS PARA USO MÉDICO, ALIMENTOS PARA BEBÉS, EMPLASTOS, MATERIAL PARA CURAS (APÓSITOS), MATERIAL PARA EMPASTAR LOS DIENTES Y PARA MOLDES DENTALES, DESINFECTANTES, PRODUCTOS PARA LA DESTRUCCIÓN DE LOS ANIMALES DAÑINOS, FUNGICIDAS Y BERBICIDAS. LA FABRICACIÓN, TRANSFORMACIÓN, DISTRIBUCIÓN Y COMERCIALIZACIÓN DE APARATOS E INSTRUMENTOS QUIRÚRGICOS, MÉDICOS, DENTALES Y VETERINARIOS, MIEMBROS, OJOS Y DIENTES ARTIFICIALES, ARTÍCULOS ORTOPÉDICOS, MATERIAL DE SUTURA E IDÉNTICOS APARATOS A LOS ANTERIORES DESECHABLES; ASÍ COMO EL ALQUILER DE MAQUINARIA Y EQUIPOS RELACIONADOS CON LO ANTERIOR. LA REALIZACIÓN DE SERVICIOS DE ALMACENAMIENTO, DISTRIBUCIÓN Y TRANSPORTE DE TODO TIPO DE MATERIAL PARA LABORATORIO Y HOSPITALES. LA REALIZACIÓN DE NEGOCIOS INMOBILIARIOS DE TODA ÍNDOLE Y, CONSIGUIENTEMENTE, LA ADQUISICIÓN, ENAJENACIÓN Y GRAVAMEN, POR CUALQUIER TÍTULO LEGÍTIMO, DE BIENES INMUEBLES, RÚSTICOS O URBANOS; LA CONSTRUCCIÓN DE LOS MISMOS, YA LA REALICE EN FORMA DIRECTA O INDIRECTA; LA PROMOCIÓN Y GESTIÓN DE SU ORDENACIÓN URBANA Y SU DESARROLLO, EN TODAS SUS ETAPAS, TRÁMITES Y MODALIDADES; LA EXPLOTACIÓN Y ADMINISTRACIÓN DE LOS REFERIDOS BIENES DE CUALQUIER FORMA LÍCITA, INCLUSO MEDIANTE EL DESARROLLO DE ACTIVIDADES DEL RAMO TURÍSTICO Y DE LA HOSTELERÍA. LA REALIZACIÓN DE LA ACTIVIDAD DE MEDIACIÓN DE SEGUROS COMO CORREDOR DE SEGUROS, DE CONFORMIDAD CON LO DISPUESTO EN LA LEY SOBRE ORDENACIÓN DEL SEGURO PRIVADO, SU REGLAMENTO Y DISPOSICIONES COMPLEMENTARIAS, A LAS QUE LA SOCIEDAD SE ENCUENTRE SOMETIDA, PREVIO EL CUMPLIMIENTO DE LOS REQUISITOS EN ELLAS EXIGIDOS. LA REALIZACIÓN, DIRECTA O INDIRECTAMENTE, PARA SI O POR CUENTA DE TERCEROS, DE TODA CLASE DE OPERACIONES MONETARIAS, BANCARIAS O FINANCIERAS, YA SEAN DE EMISIÓN, DE DEPÓSITO, DE DESCUENTO, DE CRÉDITO, DE SERVICIOS O DE MEDIACIÓN. LA REALIZACIÓN DE TODA CLASE DE ACTIVIDADES, OBRAS Y SERVICIOS PROPIOS O RELACIONADOS CON LOS NEGOCIOS DE PRODUCCIÓN, TRANSPORTE, TRANSFORMACIÓN Y DISTRIBUCIÓN O COMERCIALIZACIÓN DE ENERGÍA ELÉCTRICA O DERIVADOS DE LA ELECTRICIDAD, DE SUS APLICACIONES Y DE LAS MATERIAS O ENERGÍAS PRIMARIAS NECESARIAS PARA SU GENERACIÓN",
      "mainEntityOfPage": "https://www.contratacion.euskadi.eus/webkpe00-kperoc/es/ac71aBusquedaRegistrosWar/empresa/05701",
      "_links": {
        "self": {
          "name": "MICRODAN ALTA DESINFECCIÓN, S.A.",
          "href": "https://api.euskadi.eus/procurements/companies/05701"
        }
      }
    },
    {
      "name": "BUFALO PRODUKZIOAK, S.L.",
      "registrationNumber": "08745",
      "identificationNumber": "B95796132",
      "address": "CM/ BIDEBARRI BIDEA 14 - BJ- A ",
      "location": {
        "postalCode": "48640",
        "municipality": "Berango",
        "county": "Bizkaia",
        "municipalityId": "016",
        "countyId": "48"
      },
      "economicActivities": [
        {
          "id": "1.961.1",
          "name": "Producción de películas cinematográficas (incluso vídeos)",
          "_links": {
            "self": {
              "name": "Producción de películas cinematográficas (incluso vídeos)",
              "href": "https://api.euskadi.eus/procurements/companies/economic-activities/1.961.1"
            }
          }
        }
      ],
      "certificateStartDate": "2025-09-15",
      "certificateEndDate": "2026-03-15",
      "object": "PRODUCCIONES ARTÍSTICAS, CONFECCIONES DE PÁGINAS WEB, INFORMÁTICA Y COMUNICACIÓN, REPRESENTACIÓN DE ARTISTAS, OPERADORES DE CÁMARA, PRENSA DIARIA DIGITAL; SERVICIOS DE TELETRANSMISIÓN DE DATOS; OTROS SERVICIOS PRIVADOS DE TELECOMUNICACIÓN N.C.O.P.; SERVICIOS DE PUBLICIDAD; RELACIONES PÚBLICAS Y SIMILARES; EXPLOTACIÓN ELECTRÓNICA POR CUENTA DE TERCEROS; EMPRESAS DE ESTUDIOS DE MERCADO; SERVICIOS INTEGRALES DE CORREOS Y TELECOMUNICACIONES; OTROS SERVICIOS PRESTADOS A LAS EMPRESAS N.C.O.P.; PROMOCIÓN DE CURSOS Y ESTUDIOS EN EL EXTRANJERO; OTRAS ACTIVIDADES DE ENSEÑANZA, TALES COMO IDIOMAS, CORTE Y CONFECCIÓN, MECANOGRAFÍA, TAQUIGRAFÍA, PREPARACIÓN DE EXÁMENES Y OPOSICIONES Y SIMILARES, NCOP;; PRODUCCIÓN Y SERVICIOS RELACIONADOS CON LA MISMA DE PELÍCULAS CINEMATOGRÁFICAS (INCLUSO VÍDEOS); DOBLAJE, SINCRONIZACIÓN Y MONTAJE DE PELÍCULAS O CINTAS CINEMATOGRÁFICAS (INCLUSO VÍDEOS) DISTRIBUCIÓN Y EXHIBICIÓN DE PELÍCULAS CINEMATOGRÁFICAS Y VIDEOS; EXHIBICIÓN DE PELÍCULAS CINEMATOGRÁFICAS Y VÍDEOS AL AIRE LIBRE; EXHIBICIÓN DE PELÍCULAS CINEMATOGRÁFICAS Y VÍDEOS FUERA DE ESTABLECIMIENTO PERMANENTE, SERVICIOS DE RADIODIFUSIÓN; SERVICIOS DE TELEVISIÓN; SERVICIOS DE ENLACE Y TRANSMISIÓN DE SEÑALES DE TELEVISIÓN; ESPECTÁCULOS EN SALAS Y LOCALES; ESPECTÁCULOS AL AIRE LIBRE; ESPECTÁCULOS FUERA DE ESTABLECIMIENTO; INSTALACIONES PARA LA CELEBRACIÓN DE ESPECTÁCULOS DEPORTIVOS; ORGANIZACIÓN DE ESPECTÁCULOS DEPORTIVOS EN INSTALACIONES QUE NO SEAN DE LA TITULARIDAD DE LOS ORGANIZADORES; ORGANIZACIÓN DE ESPECTÁCULOS DEPORTIVOS POR FEDERACIONES ESPAÑOLAS Y DE ÁMBITO AUTONÓMICO Y CLUBES NO PROFESIONALES.",
      "mainEntityOfPage": "https://www.contratacion.euskadi.eus/webkpe00-kperoc/es/ac71aBusquedaRegistrosWar/empresa/08745",
      "_links": {
        "self": {
          "name": "BUFALO PRODUKZIOAK, S.L.",
          "href": "https://api.euskadi.eus/procurements/companies/08745"
        }
      }
    },
    {
      "name": "ASOCIACIÓN LORRATZ GIZA ELKARTEA",
      "registrationNumber": "07250",
      "identificationNumber": "G20519120",
      "address": "Arantzazu auzoa 18 - 2º",
      "location": {
        "postalCode": "20230",
        "municipality": "Legazpi",
        "county": "Gipuzkoa",
        "municipalityId": "051",
        "countyId": "20"
      },
      "economicActivities": [
        {
          "id": "1.952",
          "name": "Asistencia y servicios sociales en centros no residenciales",
          "_links": {
            "self": {
              "name": "Asistencia y servicios sociales en centros no residenciales",
              "href": "https://api.euskadi.eus/procurements/companies/economic-activities/1.952"
            }
          }
        }
      ],
      "certificateStartDate": "2025-09-15",
      "certificateEndDate": "2026-03-15",
      "object": "LOS FINES DE ESTA ASOCIACIÓN SON: SOCIALES, CULTURALES Y EDUCATIVOS CON LA PRETENSIÓN DE CENTRAR SU INTERVENCIÓN EN EL COLECTIVO DE INFANCIA, JUVENTUD Y FAMILIA, SIN POR ELLO DESCARTAR QUE EN ALGÚN MOMENTO DE SU TRAYECTORIA SE AMPLÍE HACIA OTROS COLECTIVOS. PARA LA CONSECUCIÓN DE DICHOS FINES SE LLEVARÁN A CABO, PREVIO EL CUMPLIMIENTO DE LOS REQUISITOS LEGALES ESTABLECIDOS, LAS SIGUIENTES ACTIVIDADES: EL ESTUDIO DE LAS NECESIDADES EN LAS ÁREAS DE INTERVENCIÓN DE LA ASOCIACIÓN. EL DISEÑO Y PUESTA EN MARCHA DE PROYECTOS DE INTERVENCIÓN PREVENTIVOS, ASISTENCIALES Y DE REHABILITACIÓN E INTEGRACIÓN SOCIAL DIRIGIDOS A DIFERENTES COLECTIVOS, PRINCIPALMENTE INFANCIA Y JUVENTUD: REALIZANDO PROYECTOS DE INICIATIVA PROPIA, LICITANDO A CONCURSOS-OPOSICIONES QUE LAS INSTITUCIONES PÚBLICAS O PRIVADAS HAGAN PÚBLICO",
      "mainEntityOfPage": "https://www.contratacion.euskadi.eus/webkpe00-kperoc/es/ac71aBusquedaRegistrosWar/empresa/07250",
      "_links": {
        "self": {
          "name": "ASOCIACIÓN LORRATZ GIZA ELKARTEA",
          "href": "https://api.euskadi.eus/procurements/companies/07250"
        }
      }
    },
    {
      "name": "JULTER SERVICIOS, S.L.",
      "registrationNumber": "05601",
      "identificationNumber": "B01379189",
      "address": "ESTELLA/LIZARRA, 1",
      "location": {
        "postalCode": "01010",
        "municipality": "Vitoria-Gasteiz",
        "county": "Araba/Álava",
        "municipalityId": "059",
        "countyId": "01"
      },
      "economicActivities": [
        {
          "id": "1.659.6",
          "name": "Venta al por menor de juguetes, artículos de deporte",
          "_links": {
            "self": {
              "name": "Venta al por menor de juguetes, artículos de deporte",
              "href": "https://api.euskadi.eus/procurements/companies/economic-activities/1.659.6"
            }
          }
        },
        {
          "id": "1.849.5",
          "name": "Servicios de recadería y reparto y manipulación de correspondencia",
          "_links": {
            "self": {
              "name": "Servicios de recadería y reparto y manipulación de correspondencia",
              "href": "https://api.euskadi.eus/procurements/companies/economic-activities/1.849.5"
            }
          }
        },
        {
          "id": "1.849.8",
          "name": "Multiservicios intensivos en personal",
          "_links": {
            "self": {
              "name": "Multiservicios intensivos en personal",
              "href": "https://api.euskadi.eus/procurements/companies/economic-activities/1.849.8"
            }
          }
        },
        {
          "id": "1.856.1",
          "name": "Alquiler de bienes de consumo",
          "_links": {
            "self": {
              "name": "Alquiler de bienes de consumo",
              "href": "https://api.euskadi.eus/procurements/companies/economic-activities/1.856.1"
            }
          }
        },
        {
          "id": "1.922",
          "name": "Servicios de limpieza",
          "_links": {
            "self": {
              "name": "Servicios de limpieza",
              "href": "https://api.euskadi.eus/procurements/companies/economic-activities/1.922"
            }
          }
        },
        {
          "id": "1.932.1",
          "name": "Enseñanza de formación y perfeccionamiento profesional no superior",
          "_links": {
            "self": {
              "name": "Enseñanza de formación y perfeccionamiento profesional no superior",
              "href": "https://api.euskadi.eus/procurements/companies/economic-activities/1.932.1"
            }
          }
        }
      ],
      "certificateStartDate": "2025-09-15",
      "certificateEndDate": "2026-03-15",
      "object": "1.- CREAR OPORTUNIDADES DE EMPLEO DE CALIDAD Y SOSTENIBLES, SOCIAL ECONÓMICA Y AMBIENTALMENTE, PARA PERSONAS CON DISCAPACIDAD, COMO MEDIO DE LOGRAR SU INCLUSIÓN LABORAL Y SOCIAL. 2.-LA SOCIEDAD PROPORCIONARÁ CUALQUIER ACTIVIDAD CONTEMPLADA POR LA LEGISLACIÓN ACTUAL O FUTURA, QUE FACILITE LA INCLUSIÓN DE LAS PERSONAS CON DISCAPACIDAD EN EL EMPLEO ORDINARIO, ASÍ COMO ACTIVIDADES DE SERVICIOS DIRIGIDOS A LAS PERSONAS; A LA SOCIEDAD O A LA INDUSTRIA EN GENERAL, SIN LÍMITE ALGUNO QUE SIRVAN DE MEDIO DE EMPLEO DE PERSONAS CON DISCAPACIDAD. 3.- LA SOCIEDAD TENDRÁ COMO OBJETO SOCIAL  EL DESARROLLO DE LAS SIGUIENTES ACTIVIDADES QUE ESTARÁ OBLIGADA A REALIZAR EN LA MEDIDA EN LA QUE LE SEAN ENCOMENDADAS: - SERVICIOS A LAS PERSONAS: CUIDADOS, LIMPIEZAS, LIMPIEZA DOMICILIARIA Y CUALQUIER OTRA ACTIVIDAD DE ESTE ÁMBITO QUE ACTUALMENTE O EN UN FUTURO LE PUEDAN ENCOMENDAR. - SERVICIOS A LA SOCIEDAD: LIMPIEZA DE EDIFICIOS, MANTENIMIENTO DE ZONAS VERDES, MANTENIMIENTO DE EDIFICIOS, HOSTELERÍA Y RESTAURACIÓN Y CUALQUIER OTRA ACTIVIDAD QUE ACTUALMENTE O EN UN FUTURO SE LE PUEDA ENCOMENDAR. - SERVICIOS A LA INDUSTRIA: ACTIVIDADES ESPECIALIZADAS O PROPIAS DE LA INDUSTRIA, TANTO CUANDO FORMEN PARTE DE SU PROCESO PRODUCTIVO, COMO CUANDO SE TRATEN DE ACTIVIDADES O SERVICIOS AUXILIARES, PERO PRECISOS PARA PODER LLEVAR A CABO LA ACTIVIDAD INDUSTRIAL, EN PLENITUD (MANIPULADOS, MECANIZADOS, MONTAJES, COMPRA DE MERCADERÍAS, LOGÍSTICA, ADMINISTRACIÓN, EMBALAJES) y CUALQUIER OTRA ACTIVIDAD QUE, ACUTALMENTE O EN EL FUTURO SEA CONVENIENTE PARA EL CUMPLIMIENTO DE LOS OBJETIVOS DE JULTER SERVICIOS, S.L. - FORMACIÓN: ACTIVIDADES FORMATIVAS DESTINADAS A PERSONAS CON DISCAPACIDAD CON EL FIN PRIMORDIAL DE LA INTEGRACIÓN DE ÉSTAS EN EL MUNDO LABORAL, BIEN SEA EN EL MERCADO ORDINARIO O EN TRABAJOS PROTEGIDOS. 4.- LA SOCIEDAD PODRÁ DESARROLLAR LAS ACTIVIDADES INTEGRANTES DE SU OBJETO SOCIAL, TOTAL O PARCIALMENTE Y PODRÁ COLABORAR CON OTRAS EMPRESAS POR TIEMPO CIERTO, DETERMINADO E INDETERMINADO, A TRAVÉS DE ALIANZAS ESTRATÉGICAS, UNIONES TEMPORALES DE EMPRESAS O AGRUPACIONES DE INTERÉS ECONÓMICO, REGULADAS POR LAS LEY 12/1991 DE 30 DE ABRIL\".",
      "mainEntityOfPage": "https://www.contratacion.euskadi.eus/webkpe00-kperoc/es/ac71aBusquedaRegistrosWar/empresa/05601",
      "_links": {
        "self": {
          "name": "JULTER SERVICIOS, S.L.",
          "href": "https://api.euskadi.eus/procurements/companies/05601"
        }
      }
    },
    {
      "name": "COMERCIAL MATURANA, S.L.",
      "registrationNumber": "00356",
      "identificationNumber": "B48086854",
      "address": "SANTO DOMINGO ETORBIDEA, Nº 5 - 1º IZDA.",
      "location": {
        "postalCode": "48160",
        "municipality": "Derio",
        "county": "Bizkaia",
        "municipalityId": "901",
        "countyId": "48"
      },
      "economicActivities": [
        {
          "id": "1.619.2",
          "name": "Venta al por mayor de aparatos e instrumentos médicos, ortopédicos, ópticos",
          "_links": {
            "self": {
              "name": "Venta al por mayor de aparatos e instrumentos médicos, ortopédicos, ópticos",
              "href": "https://api.euskadi.eus/procurements/companies/economic-activities/1.619.2"
            }
          }
        },
        {
          "id": "1.990.8",
          "name": "ACTIVIDAD FICTICIA PARA PODER CARGAR LOCALES AFECTOS IAE",
          "_links": {
            "self": {
              "name": "ACTIVIDAD FICTICIA PARA PODER CARGAR LOCALES AFECTOS IAE",
              "href": "https://api.euskadi.eus/procurements/companies/economic-activities/1.990.8"
            }
          }
        }
      ],
      "certificateStartDate": "2025-09-15",
      "certificateEndDate": "2026-03-15",
      "object": "LA COMERCIALIZACIÓN, DISTRIBUCIÓN Y VENTA DE MERCADERÍAS O SERVICIOS, ESPECIALMENTE DE MATERIAL SANITARIO-MÉDICO O QUIRÚRGICO",
      "mainEntityOfPage": "https://www.contratacion.euskadi.eus/webkpe00-kperoc/es/ac71aBusquedaRegistrosWar/empresa/00356",
      "_links": {
        "self": {
          "name": "COMERCIAL MATURANA, S.L.",
          "href": "https://api.euskadi.eus/procurements/companies/00356"
        }
      }
    },
    {
      "name": "EUSKOAUTO 2003 S.L.",
      "registrationNumber": "05935",
      "identificationNumber": "B20815643",
      "address": "FERNANDO MUGICA 1",
      "location": {
        "postalCode": "20018",
        "municipality": "Donostia / San Sebastián",
        "county": "Gipuzkoa",
        "municipalityId": "069",
        "countyId": "20"
      },
      "economicActivities": [
        {
          "id": "1.654.1",
          "name": "Venta al por menor de vehículos terrestres",
          "_links": {
            "self": {
              "name": "Venta al por menor de vehículos terrestres",
              "href": "https://api.euskadi.eus/procurements/companies/economic-activities/1.654.1"
            }
          }
        },
        {
          "id": "1.691.2",
          "name": "Reparación de vehículos automóviles, bicicletas y otros vehículos",
          "_links": {
            "self": {
              "name": "Reparación de vehículos automóviles, bicicletas y otros vehículos",
              "href": "https://api.euskadi.eus/procurements/companies/economic-activities/1.691.2"
            }
          }
        },
        {
          "id": "1.854.1",
          "name": "Alquiler de automóviles sin conductor",
          "_links": {
            "self": {
              "name": "Alquiler de automóviles sin conductor",
              "href": "https://api.euskadi.eus/procurements/companies/economic-activities/1.854.1"
            }
          }
        }
      ],
      "certificateStartDate": "2025-09-15",
      "certificateEndDate": "2026-03-15",
      "object": "LA IMPORTACIÓN Y COMPRA Y VENTA DE AUTOMÓVILES Y DE TODA CLASE DE VEHÍCULOS Y EMBARCACIONES Y DE ACCESORIOS PARA ELLOS, REALIZACIÓN DE OBRAS Y TRABAJOS DE REPARACIÓN MECÁNICA, ELÉCTRICA Y DE CARROCERÍA DE LOS MISMOS, ASÍ COMO SU PINTURA,ENGRASE Y LAVADO. ALQUILER DE VEHÍCULOS DE TRANSPORTE DE PERSONAS O MERCANCÍAS. TRANSPORTE DE MERCANCÍAS POR CARRETERA. SERVICIOS DE GRÚA PARA EL TRANSPORTE DE VEHÍCULOS",
      "mainEntityOfPage": "https://www.contratacion.euskadi.eus/webkpe00-kperoc/es/ac71aBusquedaRegistrosWar/empresa/05935",
      "_links": {
        "self": {
          "name": "EUSKOAUTO 2003 S.L.",
          "href": "https://api.euskadi.eus/procurements/companies/05935"
        }
      }
    }
  ]
}