{
  "totalItems": 9042,
  "totalPages": 905,
  "currentPage": 222,
  "itemsOfPage": 10,
  "items": [
    {
      "name": "GUZTIOK SEXOLOGIA ETA BERDINTASUNA, S.L.",
      "registrationNumber": "09218",
      "identificationNumber": "B05493143",
      "address": "Zubiaurre 40 - bajo",
      "location": {
        "postalCode": "48260",
        "municipality": "Ermua",
        "county": "Bizkaia",
        "municipalityId": "034",
        "countyId": "48"
      },
      "economicActivities": [
        {
          "id": "1.934",
          "name": "Enseñanza fuera de establecimiento permanente",
          "_links": {
            "self": {
              "name": "Enseñanza fuera de establecimiento permanente",
              "href": "https://api.euskadi.eus/procurements/companies/economic-activities/1.934"
            }
          }
        }
      ],
      "certificateStartDate": "2025-10-13",
      "certificateEndDate": "2026-04-08",
      "object": "- IMPARTIR CURSOS DE FORMACIÓN EN CENTROS EDUCATIVOS, PRINCIPALMENTE DENTRO DE LA CAV, A ALUMNADO, FAMILIAS, PROFESORADO Y OTROS/AS PROFESIONALES EN MATERIA DE SEXUALIDAD, GÉNERO, DIVERSIDAD SEXUAL, COEDUCACIÓN, PEDAGOGÍA FEMINISTA, IE, ETC. - DISEÑAR E IMPLEMENTAR PROYECTOS RELACIONADOS SOBRE TODO CON LA ATENCIÓN A LA SEXUALIDAD - IMPARTIR CURSOS DE FORMACIÓN A GRUPOS ESPECÍFICOS (COLECTIVOS CON DIVERSIDAD FUNCIONAL, DE MUJERES, JUVENTUD, INFANCIA, EDAD ADULTA, PERSONAS EN SITUACIÓN DE VULNERABILIDAD…) TANTO EN SUS ENTIDADES COMO DE MANERA ESPORÁDICA EN NUESTRAS INSTALACIONES. - DIVULGAR LA CIENCIA SEXOLÓGICA A FAVOR DE LA DEFENSA DE LAS LIBERTADES Y DERECHOS SEXUALES. - REALIZACIÓN DE TERAPIAS QUE GARANTICEN FAVORECER EL BIENESTAR PERSONAL. - PROMOVER Y DEFENDER LAS LIBERTADES Y DERECHOS SEXUALES DE TODAS LAS PERSONAS - COLABORAR, CREAR LAZOS DE COLABORACIÓN Y/O TRABAJAR CONJUNTAMENTE CON INSTITUCIONES Y GRUPOS SOCIALES - LLEVAR A CABO ACCIONES Y CAMPAÑAS DE SENSIBILIZACIÓN.",
      "mainEntityOfPage": "https://www.contratacion.euskadi.eus/webkpe00-kperoc/es/ac71aBusquedaRegistrosWar/empresa/09218",
      "_links": {
        "self": {
          "name": "GUZTIOK SEXOLOGIA ETA BERDINTASUNA, S.L.",
          "href": "https://api.euskadi.eus/procurements/companies/09218"
        }
      }
    },
    {
      "name": "BIOSEGURIDAD SANITARIA POR FRIO, S.L.",
      "registrationNumber": "09576",
      "identificationNumber": "B85578573",
      "address": "PASEO DE LA CASTELLANA, 72",
      "location": {
        "postalCode": "28046",
        "municipality": "Madrid",
        "county": "Madrid",
        "municipalityId": "079",
        "countyId": "28"
      },
      "economicActivities": [
        {
          "id": "1.921.2",
          "name": "Servicios de recogida de basuras y desechos",
          "_links": {
            "self": {
              "name": "Servicios de recogida de basuras y desechos",
              "href": "https://api.euskadi.eus/procurements/companies/economic-activities/1.921.2"
            }
          }
        },
        {
          "id": "1.921.6",
          "name": "Servicios de protección y acondicionamiento ambiental",
          "_links": {
            "self": {
              "name": "Servicios de protección y acondicionamiento ambiental",
              "href": "https://api.euskadi.eus/procurements/companies/economic-activities/1.921.6"
            }
          }
        }
      ],
      "certificateStartDate": "2025-10-13",
      "certificateEndDate": "2026-04-09",
      "object": "- EL TRATAMIENTO DE RESIDUOS PELIGROSOS Y LA ELIMINACIÓN DE LOS MISMOS. - LA GESTIÓN Y CONSERVACIÓN DE SUELO, BOSQUES, PARAJES NATURALES, RÍOS E INDUSTRIAS EN MATERIA MEDIOAMBIENTAL.",
      "mainEntityOfPage": "https://www.contratacion.euskadi.eus/webkpe00-kperoc/es/ac71aBusquedaRegistrosWar/empresa/09576",
      "_links": {
        "self": {
          "name": "BIOSEGURIDAD SANITARIA POR FRIO, S.L.",
          "href": "https://api.euskadi.eus/procurements/companies/09576"
        }
      }
    },
    {
      "name": "MARIA CARMEN PRADO GARCIA",
      "registrationNumber": "08542",
      "identificationNumber": "11922917Q",
      "address": "Calle Urbano Ruiz Laorden, 1 - 3B",
      "location": {
        "postalCode": "48910",
        "municipality": "Sestao",
        "county": "Bizkaia",
        "municipalityId": "084",
        "countyId": "48"
      },
      "economicActivities": [
        {
          "id": "2.224",
          "name": "Dibujantes técnicos",
          "_links": {
            "self": {
              "name": "Dibujantes técnicos",
              "href": "https://api.euskadi.eus/procurements/companies/economic-activities/2.224"
            }
          }
        }
      ],
      "certificateStartDate": "2025-10-13",
      "certificateEndDate": "2026-04-12",
      "object": "DIBUJANTES TÉCNICOS.",
      "mainEntityOfPage": "https://www.contratacion.euskadi.eus/webkpe00-kperoc/es/ac71aBusquedaRegistrosWar/empresa/08542",
      "_links": {
        "self": {
          "name": "MARIA CARMEN PRADO GARCIA",
          "href": "https://api.euskadi.eus/procurements/companies/08542"
        }
      }
    },
    {
      "name": "GARBINDU LIMPIEZAS Y MANTENIMIENTO, S.L.",
      "registrationNumber": "08121",
      "identificationNumber": "B95300190",
      "address": "Carretera Asua Erletxe nº8 Pab.1",
      "location": {
        "postalCode": "48950",
        "municipality": "Erandio",
        "county": "Bizkaia",
        "municipalityId": "902",
        "countyId": "48"
      },
      "economicActivities": [
        {
          "id": "1.922",
          "name": "Servicios de limpieza",
          "_links": {
            "self": {
              "name": "Servicios de limpieza",
              "href": "https://api.euskadi.eus/procurements/companies/economic-activities/1.922"
            }
          }
        }
      ],
      "certificateStartDate": "2025-10-13",
      "certificateEndDate": "2026-04-11",
      "object": "LOS SERVICIOS DE LIMPIEZA DE EDIFICIOS, OFICINAS, ESTABLECIMIENTOS COMERCIALES, RESIDENCIAS, CENTROS SANITARIOS, COLEGIOS, ESTABLECIMIENTOS INDUSTRIALES Y VÍAS PÚBLICAS; LA COMPRAVENTA DE ARTÍCULOS, PRODUCTOS Y ÚTILES DE LIMPIEZA Y AFINES, INCLUSO MAQUINARIA; IMPLANTACIÓN, MANTENIMIENTO, CUIDADO. Y RENOVACIÓN DE JARDINERÍA. LA PRESTACIÓN DE SERVICIOS DE SERVICIOS DE LIMPIEZA, MANTENIMIENTO, DESINFECCIÓN, DESRATIZACIÓN Y DESINSECTACIÓN, SOBRE TODA CLASE DE EDIFICIOS, LOCALES Y EN GENERAL CUALESQUIERA BIENES, MUEBLES E INMUEBLES.",
      "mainEntityOfPage": "https://www.contratacion.euskadi.eus/webkpe00-kperoc/es/ac71aBusquedaRegistrosWar/empresa/08121",
      "_links": {
        "self": {
          "name": "GARBINDU LIMPIEZAS Y MANTENIMIENTO, S.L.",
          "href": "https://api.euskadi.eus/procurements/companies/08121"
        }
      }
    },
    {
      "name": "FINAMIK TECHNOLOGIES, S.L.",
      "registrationNumber": "09562",
      "identificationNumber": "B56939697",
      "address": "Avenida Gasteiz 28, 1ºB",
      "location": {
        "postalCode": "01008",
        "municipality": "Vitoria-Gasteiz",
        "county": "Araba/Álava",
        "municipalityId": "059",
        "countyId": "01"
      },
      "economicActivities": [
        {
          "id": "1.845",
          "name": "Explotación electrónica por cuenta de terceros",
          "_links": {
            "self": {
              "name": "Explotación electrónica por cuenta de terceros",
              "href": "https://api.euskadi.eus/procurements/companies/economic-activities/1.845"
            }
          }
        },
        {
          "id": "1.849.9",
          "name": "Otros servicios independientes n.c.o.p",
          "_links": {
            "self": {
              "name": "Otros servicios independientes n.c.o.p",
              "href": "https://api.euskadi.eus/procurements/companies/economic-activities/1.849.9"
            }
          }
        }
      ],
      "certificateStartDate": "2025-10-13",
      "certificateEndDate": "2026-04-10",
      "object": "- INVESTIGACIÓN, DESARROLLO, INNOVACIÓN, MANTENIMIENTO, COMERCIALIZACIÓN Y DISTRIBUCIÓN DE SOFTWARE. - PRESTACIÓN DE SERVICIOS DE CONSULTORÍA, FORMACIÓN, COMUNICACIÓN, GESTIÓN Y ADMINISTRACIÓN RELACIONADOS CON LA TECNOLOGÍA. - EL COMERCIO DE TODA CLASE DE PRODUCTOS Y SERVICIOS RELACIONADOS CON LA INFORMÁTICA Y LA PROGRAMACIÓN. - LA COMPRA, VENTA, ALQUILER, PROMOCIÓN Y REHABILITACIÓN DE TODA CLASE DE INMUEBLES.",
      "mainEntityOfPage": "https://www.contratacion.euskadi.eus/webkpe00-kperoc/es/ac71aBusquedaRegistrosWar/empresa/09562",
      "_links": {
        "self": {
          "name": "FINAMIK TECHNOLOGIES, S.L.",
          "href": "https://api.euskadi.eus/procurements/companies/09562"
        }
      }
    },
    {
      "name": "ALFREDO ESTEVE VIOQUE",
      "registrationNumber": "08836",
      "identificationNumber": "20819829E",
      "address": "CUENCA, 70 -2 -3",
      "location": {
        "postalCode": "46008",
        "municipality": "València",
        "county": "Valencia/València",
        "municipalityId": "250",
        "countyId": "46"
      },
      "economicActivities": [
        {
          "id": "2.747",
          "name": "Auditores de cuentas y censores jurados de cuentas",
          "_links": {
            "self": {
              "name": "Auditores de cuentas y censores jurados de cuentas",
              "href": "https://api.euskadi.eus/procurements/companies/economic-activities/2.747"
            }
          }
        }
      ],
      "certificateStartDate": "2025-10-12",
      "certificateEndDate": "2026-04-12",
      "object": "AUDITORES DE CUENTAS Y CENSORES JURADOS DE CUENTAS.",
      "mainEntityOfPage": "https://www.contratacion.euskadi.eus/webkpe00-kperoc/es/ac71aBusquedaRegistrosWar/empresa/08836",
      "_links": {
        "self": {
          "name": "ALFREDO ESTEVE VIOQUE",
          "href": "https://api.euskadi.eus/procurements/companies/08836"
        }
      }
    },
    {
      "name": "HIRUKO SEÑAL, S.L.",
      "registrationNumber": "09613",
      "identificationNumber": "B01567221",
      "address": "Calle Arangutxi 25",
      "location": {
        "postalCode": "01015",
        "municipality": "Vitoria-Gasteiz",
        "county": "Araba/Álava",
        "municipalityId": "059",
        "countyId": "01"
      },
      "economicActivities": [
        {
          "id": "1.654.2",
          "name": "Venta al por menor de accesorios, piezas de recambio de vehículos terrestres",
          "_links": {
            "self": {
              "name": "Venta al por menor de accesorios, piezas de recambio de vehículos terrestres",
              "href": "https://api.euskadi.eus/procurements/companies/economic-activities/1.654.2"
            }
          }
        },
        {
          "id": "1.852",
          "name": "Alquiler de maquinaria y equipo para la construcción",
          "_links": {
            "self": {
              "name": "Alquiler de maquinaria y equipo para la construcción",
              "href": "https://api.euskadi.eus/procurements/companies/economic-activities/1.852"
            }
          }
        },
        {
          "id": "1.921.1",
          "name": "Servicios de limpieza en calles, vías públicas y jardines",
          "_links": {
            "self": {
              "name": "Servicios de limpieza en calles, vías públicas y jardines",
              "href": "https://api.euskadi.eus/procurements/companies/economic-activities/1.921.1"
            }
          }
        }
      ],
      "certificateStartDate": "2025-10-12",
      "certificateEndDate": "2026-04-12",
      "object": "EL ALQUILER Y VENTA AL POR MENOR DE SISTEMAS PARA SEÑALIZACIÓN, MANTENIMIENTO Y CONSERVACIÓN DE CARRETERAS. LA REALIZACIÓN DE DESBROCES, ROTURACIONES Y EN GENERAL TODO TIPO DE EXCAVACIONES DE TERRENOS. LA CONSTRUCCIÓN DE AISLAMIENTOS, ACEQUIAS, TUBOS DE DRENAJE, POZOS SÉPTICOS, VASOS COMUNICANTES Y CERCADOS DE TERRENOS RÚSTICOS. PLANTACIONES DE ARBOLADOS. REALIZACIÓN DE TRABAJOS DE CONSTRUCCIÓN Y ALBAÑILERÍA. EL ENSILLADO Y VENTA DE PRODUCTOS AGRÍCOLAS. EL TRANSPORTE PÚBLICO DE MERCANCÍAS POR CARRETERA. EL TRANSPORTE DE MERCANCÍAS PROPIAS POR CARRETERA. EXPLOTACIONES FORESTALES. EXPLOTACIONES AGRÍCOLAS. ASFALTADO DE VÍAS PÚBLICAS. EL COMERCIO DE MATERIALES Y ELEMENTOS UTILIZADOS EN LAS ACTIVIDADES ANTERIORES.",
      "mainEntityOfPage": "https://www.contratacion.euskadi.eus/webkpe00-kperoc/es/ac71aBusquedaRegistrosWar/empresa/09613",
      "_links": {
        "self": {
          "name": "HIRUKO SEÑAL, S.L.",
          "href": "https://api.euskadi.eus/procurements/companies/09613"
        }
      }
    },
    {
      "name": "FLORENCIO SUESCUN CONSTRUCCIONES, S.L.",
      "registrationNumber": "09094",
      "identificationNumber": "B31555642",
      "address": "Ctra. Estella-Tafalla, s/n",
      "location": {
        "postalCode": "31251",
        "municipality": "Larraga",
        "county": "Navarra",
        "municipalityId": "142",
        "countyId": "31"
      },
      "economicActivities": [
        {
          "id": "1.501.1",
          "name": "Construcción completa, reparación y conservación de edificaciones",
          "_links": {
            "self": {
              "name": "Construcción completa, reparación y conservación de edificaciones",
              "href": "https://api.euskadi.eus/procurements/companies/economic-activities/1.501.1"
            }
          }
        },
        {
          "id": "1.501.2",
          "name": "Construcción completa, reparación y conservación obras civiles",
          "_links": {
            "self": {
              "name": "Construcción completa, reparación y conservación obras civiles",
              "href": "https://api.euskadi.eus/procurements/companies/economic-activities/1.501.2"
            }
          }
        },
        {
          "id": "1.833.2",
          "name": "Promoción de edificaciones",
          "_links": {
            "self": {
              "name": "Promoción de edificaciones",
              "href": "https://api.euskadi.eus/procurements/companies/economic-activities/1.833.2"
            }
          }
        }
      ],
      "certificateStartDate": "2025-10-12",
      "certificateEndDate": "2026-04-12",
      "object": "LA REALIZACIÓN DE TODO TIPO DE OBRAS, TANTO CIVILES COMO PÚBLICAS, TALES COMO EXCAVACIONES, MOVIMIENTO Y TRANSPORTE DE TIERRA, CONSTRUCCIONES Y ARREGLOS DE CARRETERAS. LA COMPRA Y VENTA DE SOLARES, EDIFICIOS DE TODA CLASE Y MATERIALES Y MAQUINARIA DE CONSTRUCCIÓN. LA PROMOCIÓN Y CONSTRUCCIÓN DE TODA CLASE DE EDIFICIOS, LOCALES Y VIVIENDAS, ASÍ COMO POLÍGONOS INDUSTRIALES Y URBANÍSTICOS. LA REALIZACIÓN DE TODA CLASE DE OBRAS DE URBANIZACIÓN, PARCELACIÓN, REPARCELACIÓN Y PREPARACIÓN DE TERRENOS Y SOLARES. LA INTERMEDIACIÓN Y COORDINACIÓN EN LA REALIZACIÓN DE PROYECTOS, TRABAJOS DE INVESTIGACIÓN, DESARROLLO E INNOVACIÓN EN EL ÁMBITO DE LAS EXPLOTACIONES MINERAS.\n",
      "mainEntityOfPage": "https://www.contratacion.euskadi.eus/webkpe00-kperoc/es/ac71aBusquedaRegistrosWar/empresa/09094",
      "_links": {
        "self": {
          "name": "FLORENCIO SUESCUN CONSTRUCCIONES, S.L.",
          "href": "https://api.euskadi.eus/procurements/companies/09094"
        }
      }
    },
    {
      "name": "AQUARABA, S.L.",
      "registrationNumber": "03084",
      "identificationNumber": "B01246297",
      "address": "C/ZORROLLETA Nº 6. PAB. 3A.POLIGONO INDUST. JUNDIZ",
      "location": {
        "postalCode": "01000",
        "municipality": "Vitoria-Gasteiz",
        "county": "Araba/Álava",
        "municipalityId": "059",
        "countyId": "01"
      },
      "economicActivities": [
        {
          "id": "1.921.9",
          "name": "Otros servicios de saneamiento y similares n.c.o.p",
          "_links": {
            "self": {
              "name": "Otros servicios de saneamiento y similares n.c.o.p",
              "href": "https://api.euskadi.eus/procurements/companies/economic-activities/1.921.9"
            }
          }
        },
        {
          "id": "1.936",
          "name": "Investigación científica y técnica",
          "_links": {
            "self": {
              "name": "Investigación científica y técnica",
              "href": "https://api.euskadi.eus/procurements/companies/economic-activities/1.936"
            }
          }
        }
      ],
      "certificateStartDate": "2025-10-12",
      "certificateEndDate": "2026-04-12",
      "object": "LA PRESTACIÓN DE SERVICIOS RELACIONADOS  CON EL TRATAMIENTO DE TODO TIPO DE AGUAS Y DE RESIDUOS INDUSTRIALES.\nDICHAS ACTIVIDADES PODRÁN SER REALIZADAS POR LA SOCIEDAD DE MODO DIRECTO O INDIRECTO, INCLUSO MEDIANTE SU PARTICIPACIÓN EN OTRAS SOCIEDADES DE OBJETO IDÉNTICO O ANÁLOGO",
      "mainEntityOfPage": "https://www.contratacion.euskadi.eus/webkpe00-kperoc/es/ac71aBusquedaRegistrosWar/empresa/03084",
      "_links": {
        "self": {
          "name": "AQUARABA, S.L.",
          "href": "https://api.euskadi.eus/procurements/companies/03084"
        }
      }
    },
    {
      "name": "ZETABI ARKITEKTURA BULEGOA S.L.P.",
      "registrationNumber": "06552",
      "identificationNumber": "B20877874",
      "address": "CALLE TELLERIA 21, PABELLON C-06 ",
      "location": {
        "postalCode": "20570",
        "municipality": "Bergara",
        "county": "Gipuzkoa",
        "municipalityId": "074",
        "countyId": "20"
      },
      "economicActivities": [
        {
          "id": "1.843.2",
          "name": "Servicios técnicos de arquitectura y urbanismo",
          "_links": {
            "self": {
              "name": "Servicios técnicos de arquitectura y urbanismo",
              "href": "https://api.euskadi.eus/procurements/companies/economic-activities/1.843.2"
            }
          }
        }
      ],
      "certificateStartDate": "2025-10-12",
      "certificateEndDate": "2026-04-12",
      "object": "LAS ACTIVIDADES DE TASACIONES, PERITACIONES, ACTIVIDADES DE ARQUITECTURA Y DE APAREJADORES, CONSTRUCCIÓN Y EDIFICACIÓN DE TODO TIPO DE INMUEBLES, TANTO RÚSTICOS COMO URBANOS, Y ACTIVIDADES INMOBILIARIAS",
      "mainEntityOfPage": "https://www.contratacion.euskadi.eus/webkpe00-kperoc/es/ac71aBusquedaRegistrosWar/empresa/06552",
      "_links": {
        "self": {
          "name": "ZETABI ARKITEKTURA BULEGOA S.L.P.",
          "href": "https://api.euskadi.eus/procurements/companies/06552"
        }
      }
    }
  ]
}