{
  "totalItems": 9042,
  "totalPages": 905,
  "currentPage": 593,
  "itemsOfPage": 10,
  "items": [
    {
      "name": "GOMETRICS, SL",
      "registrationNumber": "06603",
      "identificationNumber": "B60564309",
      "address": "Ctra. Vicalvaro a la estación O'Donell, 2B - 1ºA",
      "location": {
        "postalCode": "28032",
        "municipality": "Madrid",
        "county": "Madrid",
        "municipalityId": "079",
        "countyId": "28"
      },
      "economicActivities": [
        {
          "id": "1.391",
          "name": "Fabricación de instrumentos de precisión, medida y control",
          "_links": {
            "self": {
              "name": "Fabricación de instrumentos de precisión, medida y control",
              "href": "https://api.euskadi.eus/procurements/companies/economic-activities/1.391"
            }
          }
        },
        {
          "id": "1.619.7",
          "name": "Venta al por mayor de instrumentos de precisión, medida y similares",
          "_links": {
            "self": {
              "name": "Venta al por mayor de instrumentos de precisión, medida y similares",
              "href": "https://api.euskadi.eus/procurements/companies/economic-activities/1.619.7"
            }
          }
        }
      ],
      "certificateStartDate": "2019-11-07",
      "certificateEndDate": "2020-04-22",
      "object": "A) DESARROLLO, FABRICACIÓN Y COMPRAVENTA DE EQUIPOS Y SISTEMAS PARA INSTRUMENTACIÓN, MEDICIÓN Y CONTROL DE PROCESOS. B) SERVICIOS DE MANTENIMIENTO, REPARACIÓN Y CALIBRADO DE EQUIPOS PARA INSTRUMENTACIÓN, MEDICIÓN Y CONTROL. C) REPRESENTACIÓN, DISTRIBUCIÓN, COMPRAVENTA AL POR MAYOR Y AL MENOR, ASÍ COMO IMPORTACIÓN Y EXPORTACIÓN DE EQUIPOS, MÁQUINAS Y ACCESORIOS EN GENERAL, TANTO POR CUENTA PROPIA, COMO EN COMISIÓN O POR CUENTA DE TERCEROS",
      "mainEntityOfPage": "https://www.contratacion.euskadi.eus/webkpe00-kperoc/es/ac71aBusquedaRegistrosWar/empresa/06603",
      "_links": {
        "self": {
          "name": "GOMETRICS, SL",
          "href": "https://api.euskadi.eus/procurements/companies/06603"
        }
      }
    },
    {
      "name": "RUNITEK INGENIEROS, S.L.",
      "registrationNumber": "06599",
      "identificationNumber": "B74342817",
      "address": "PLAZA DE VALLADOLID, Nº 2 BAJO IZQUIERDA",
      "location": {
        "postalCode": "33404",
        "municipality": "Corvera de Asturias",
        "county": "Asturias",
        "municipalityId": "020",
        "countyId": "33"
      },
      "economicActivities": [
        {
          "id": "1.843.1",
          "name": "Servicios técnicos de ingeniería",
          "_links": {
            "self": {
              "name": "Servicios técnicos de ingeniería",
              "href": "https://api.euskadi.eus/procurements/companies/economic-activities/1.843.1"
            }
          }
        }
      ],
      "certificateStartDate": "2019-11-06",
      "certificateEndDate": "2020-01-02",
      "object": "LA ACTIVIDAD PROPIA DE LOS PROFESIONALES DE INGENIERÍA INDUSTRIAL",
      "mainEntityOfPage": "https://www.contratacion.euskadi.eus/webkpe00-kperoc/es/ac71aBusquedaRegistrosWar/empresa/06599",
      "_links": {
        "self": {
          "name": "RUNITEK INGENIEROS, S.L.",
          "href": "https://api.euskadi.eus/procurements/companies/06599"
        }
      }
    },
    {
      "name": "GIROTZE, S.L.",
      "registrationNumber": "06602",
      "identificationNumber": "B20389540",
      "address": "Poligono Industrial Juin Txiki nº5",
      "location": {
        "postalCode": "20720",
        "municipality": "Azkoitia",
        "county": "Gipuzkoa",
        "municipalityId": "017",
        "countyId": "20"
      },
      "economicActivities": [
        {
          "id": "1.151.4",
          "name": "Producción de energía no especificada en otros epígrafes",
          "_links": {
            "self": {
              "name": "Producción de energía no especificada en otros epígrafes",
              "href": "https://api.euskadi.eus/procurements/companies/economic-activities/1.151.4"
            }
          }
        },
        {
          "id": "1.504.3",
          "name": "Instalaciones de frío, calor y acondicionamiento de aire",
          "_links": {
            "self": {
              "name": "Instalaciones de frío, calor y acondicionamiento de aire",
              "href": "https://api.euskadi.eus/procurements/companies/economic-activities/1.504.3"
            }
          }
        },
        {
          "id": "1.653.2",
          "name": "Venta al por menor de material y aparatos eléctricos, electrodomésticos y cocina",
          "_links": {
            "self": {
              "name": "Venta al por menor de material y aparatos eléctricos, electrodomésticos y cocina",
              "href": "https://api.euskadi.eus/procurements/companies/economic-activities/1.653.2"
            }
          }
        }
      ],
      "certificateStartDate": "2019-11-06",
      "certificateEndDate": "2020-04-15",
      "object": "LA COMPRAVENTA Y FABRICACIÓN E INSTALACIÓN DE MONTAJES DE EQUIPOS RELACIONADOS CON LA INDUSTRIA DEL FRÍO, CALOR Y ACONDICIONAMIENTO DE AIRE",
      "mainEntityOfPage": "https://www.contratacion.euskadi.eus/webkpe00-kperoc/es/ac71aBusquedaRegistrosWar/empresa/06602",
      "_links": {
        "self": {
          "name": "GIROTZE, S.L.",
          "href": "https://api.euskadi.eus/procurements/companies/06602"
        }
      }
    },
    {
      "name": "ALISEA ESCO S.A.",
      "registrationNumber": "05704",
      "identificationNumber": "A01489954",
      "address": "C/ PORTAL DE GAMARRA, 1A, OFICINA 611",
      "location": {
        "postalCode": "01015",
        "municipality": "Vitoria-Gasteiz",
        "county": "Araba/Álava",
        "municipalityId": "059",
        "countyId": "01"
      },
      "economicActivities": [
        {
          "id": "1.504.1",
          "name": "Instalaciones eléctricas en general",
          "_links": {
            "self": {
              "name": "Instalaciones eléctricas en general",
              "href": "https://api.euskadi.eus/procurements/companies/economic-activities/1.504.1"
            }
          }
        },
        {
          "id": "1.615.4",
          "name": "Venta al por mayor de aparatos y material radioeléctrico y electrónico",
          "_links": {
            "self": {
              "name": "Venta al por mayor de aparatos y material radioeléctrico y electrónico",
              "href": "https://api.euskadi.eus/procurements/companies/economic-activities/1.615.4"
            }
          }
        },
        {
          "id": "1.849.9",
          "name": "Otros servicios independientes n.c.o.p",
          "_links": {
            "self": {
              "name": "Otros servicios independientes n.c.o.p",
              "href": "https://api.euskadi.eus/procurements/companies/economic-activities/1.849.9"
            }
          }
        }
      ],
      "certificateStartDate": "2019-11-05",
      "certificateEndDate": "2020-04-21",
      "object": "A) IMPLANTACIÓN E INSTALACIÓN DE SISTEMAS Y SOLUCIONES PARA USOS RESIDENCIALES, TERCIARIOS Y URBANÍSTICOS, ASÍ COMO SUS REPARACIONES Y MANTENIMIENTOS POSTERIORES. B) INTERMEDIACIÓN EN LA REDACCIÓN DE PROYECTOS DE ARQUITECTURA, INGENIERÍA Y URBANISMO, ASÍ COMO LA INTERMEDIACIÓN EN EL ASESORAMIENTO DE EMPRESAS Y PERSONAS FÍSICAS EN SU MÁS AMPLIA ACEPCIÓN, TASACIONES, PERITACIONES. TODO LO ANTERIOR A TRAVÉS DE LOS OPORTUNOS PROFESIONALES QUE EN CADA CASO PROCEDA. C) SERVICIOS ENERGÉTICOS, INCLUYENDO GESTIÓN ENERGÉTICA, GESTIÓN DEL SUMINISTRO ENERGÉTICO, GARANTÍAS DE APROVISIONAMIENTO Y AUDITORIAS O CONSULTORÍAS ENERGÉTICAS. D) SERVICIOS DE CONSULTORÍA TECNOLÓGICA Y DE NEGOCIO. E) FABRICACIÓN, IMPORTACIÓN, EXPORTACIÓN, LA INTERMEDIACIÓN Y EL COMERCIO AL POR MAYOR Y MENOR DE MÁQUINAS Y MATERIAL RELACIONADO CON ORDENADORES Y PROGRAMAS PARA LOS MISMOS, APARATOS ELÉCTRICOS Y ELECTRÓNICOS, TELEFONÍA MÓVIL Y FIJA, MÁQUINAS DE OFICINA, DESARROLLO DE PROGRAMAS, ASESORAMIENTO TÉCNICO E INFORMÁTICOS, SERVICIOS DE TELEFONÍA MÓVIL Y FIJA Y SU ACTUACIÓN COMO OPERADOR DE REDES, REPARACIÓN DE MÁQUINAS DE OFICINA, PROGRAMACIÓN DE AUTÓMATAS Y CONTROL INDUSTRIAL. PROCESOS DE DATOS. F) LA REALIZACIÓN DE ACTIVIDADES DE INTERNET, ASÍ COMO EL SUMINISTRO DE SERVICIOS DE INFORMACIÓN Y FORMACIÓN Y FORMACIÓN",
      "mainEntityOfPage": "https://www.contratacion.euskadi.eus/webkpe00-kperoc/es/ac71aBusquedaRegistrosWar/empresa/05704",
      "_links": {
        "self": {
          "name": "ALISEA ESCO S.A.",
          "href": "https://api.euskadi.eus/procurements/companies/05704"
        }
      }
    },
    {
      "name": "LEICA GEOSYSTEMS, S.L.",
      "registrationNumber": "06595",
      "identificationNumber": "B61395497",
      "address": "c/ Nicaragua 46, 2",
      "location": {
        "postalCode": "08029",
        "municipality": "Barcelona",
        "county": "Barcelona",
        "municipalityId": "019",
        "countyId": "08"
      },
      "economicActivities": [
        {
          "id": "1.330.2",
          "name": "Instalación de máquinas de oficina y ordenadores",
          "_links": {
            "self": {
              "name": "Instalación de máquinas de oficina y ordenadores",
              "href": "https://api.euskadi.eus/procurements/companies/economic-activities/1.330.2"
            }
          }
        },
        {
          "id": "1.619.7",
          "name": "Venta al por mayor de instrumentos de precisión, medida y similares",
          "_links": {
            "self": {
              "name": "Venta al por mayor de instrumentos de precisión, medida y similares",
              "href": "https://api.euskadi.eus/procurements/companies/economic-activities/1.619.7"
            }
          }
        },
        {
          "id": "1.654.1",
          "name": "Venta al por menor de vehículos terrestres",
          "_links": {
            "self": {
              "name": "Venta al por menor de vehículos terrestres",
              "href": "https://api.euskadi.eus/procurements/companies/economic-activities/1.654.1"
            }
          }
        },
        {
          "id": "1.852",
          "name": "Alquiler de maquinaria y equipo para la construcción",
          "_links": {
            "self": {
              "name": "Alquiler de maquinaria y equipo para la construcción",
              "href": "https://api.euskadi.eus/procurements/companies/economic-activities/1.852"
            }
          }
        },
        {
          "id": "1.859",
          "name": "Alquiler de otros bienes muebles n.c.o.p. (sin personal permanente)",
          "_links": {
            "self": {
              "name": "Alquiler de otros bienes muebles n.c.o.p. (sin personal permanente)",
              "href": "https://api.euskadi.eus/procurements/companies/economic-activities/1.859"
            }
          }
        }
      ],
      "certificateStartDate": "2019-10-30",
      "certificateEndDate": "2020-03-16",
      "object": "A) EL MANTENIMIENTO, REPRESENTACIÓN, IMPORTACIÓN, EXPORTACIÓN, DISTRIBUCIÓN, FABRICACIÓN, MONTAJE, ALQUILER, COMERCIALIZACIÓN ASÍ COMO PRESTACIÓN DE SERVICIOS INFORMÁTICOS RELACIONADOS CON TODA CLASE DE MAQUINARIA, INSTRUMENTOS, ELEMENTOS Y COMPLEMENTOS DESTINADOS A LA ANALÍTICA, CONTROL, MEDICIÓN O INVESTIGACIÓN TANTO MÉDICA COMO INDUSTRIAL, CIENTÍFICA, DOCENTE ASÍ COMO PRODUCTOS DE TOPOGRAFÍA, INGENIERÍA Y FOTOGRAFÍA. ASIMISMO LA SOCIEDAD PODRÁ VENDER ASISTENCIA TÉCNICA EN RELACIÓN A LOS PRODUCTOS SEÑALADOS ANTERIORMENTE; Y B) LA PRESTACIÓN DE SERVICIOS DE ASESORAMIENTO, ESTUDIO Y GESTIÓN TÉCNICA Y ECONÓMICA A TERCERAS PERSONAS, FÍSICAS Y/O JURÍDICAS, YA SEA ESPAÑOLAS O EXTRANJERAS, EMITIENDO INFORMES, REALIZANDO ESTUDIOS DE MERCADO, ORGANIZACIÓN ADMINISTRATIVA, TRABAJOS DE CONTABILIDAD, FACTURACIÓN Y CORRESPONDENCIA",
      "mainEntityOfPage": "https://www.contratacion.euskadi.eus/webkpe00-kperoc/es/ac71aBusquedaRegistrosWar/empresa/06595",
      "_links": {
        "self": {
          "name": "LEICA GEOSYSTEMS, S.L.",
          "href": "https://api.euskadi.eus/procurements/companies/06595"
        }
      }
    },
    {
      "name": "POLIMEROS TECNICOS, S.L.",
      "registrationNumber": "06589",
      "identificationNumber": "B48893085",
      "address": "TORRETXU BIDEA 5 PABELLON 12A",
      "location": {
        "postalCode": "48150",
        "municipality": "Sondika",
        "county": "Bizkaia",
        "municipalityId": "904",
        "countyId": "48"
      },
      "economicActivities": [
        {
          "id": "1.482.2",
          "name": "Fabricación de artículos acabados de materias plásticas",
          "_links": {
            "self": {
              "name": "Fabricación de artículos acabados de materias plásticas",
              "href": "https://api.euskadi.eus/procurements/companies/economic-activities/1.482.2"
            }
          }
        }
      ],
      "certificateStartDate": "2019-10-29",
      "certificateEndDate": "2020-03-02",
      "object": "LA ELABORACIÓN, TRANSFORMACIÓN, COMERCIALIZACIÓN, COMPRAVENTA, AL POR MAYOR Y MENOR DE PRODUCTOS PLÁSTICOS E INDUSTRIALES, TANTO EN EXPORTACIÓN COMO EN IMPORTACIÓN",
      "mainEntityOfPage": "https://www.contratacion.euskadi.eus/webkpe00-kperoc/es/ac71aBusquedaRegistrosWar/empresa/06589",
      "_links": {
        "self": {
          "name": "POLIMEROS TECNICOS, S.L.",
          "href": "https://api.euskadi.eus/procurements/companies/06589"
        }
      }
    },
    {
      "name": "HODEI ZENIKAONANDIA OTZERINJAUREGI",
      "registrationNumber": "06592",
      "identificationNumber": "15400504A",
      "address": "San Andres 2, eskuma",
      "location": {
        "postalCode": "48215",
        "municipality": "Iurreta",
        "county": "Bizkaia",
        "municipalityId": "910",
        "countyId": "48"
      },
      "economicActivities": [
        {
          "id": "2.411",
          "name": "Arquitectos",
          "_links": {
            "self": {
              "name": "Arquitectos",
              "href": "https://api.euskadi.eus/procurements/companies/economic-activities/2.411"
            }
          }
        }
      ],
      "certificateStartDate": "2019-10-29",
      "certificateEndDate": "2020-03-05",
      "object": "LA ARQUITECTURA Y EL URBANISMO",
      "mainEntityOfPage": "https://www.contratacion.euskadi.eus/webkpe00-kperoc/es/ac71aBusquedaRegistrosWar/empresa/06592",
      "_links": {
        "self": {
          "name": "HODEI ZENIKAONANDIA OTZERINJAUREGI",
          "href": "https://api.euskadi.eus/procurements/companies/06592"
        }
      }
    },
    {
      "name": "VASCO INFORMATICA, S.L.",
      "registrationNumber": "06593",
      "identificationNumber": "B29361896",
      "address": "C/ AYALA, 3",
      "location": {
        "postalCode": "29002",
        "municipality": "Málaga",
        "county": "Málaga",
        "municipalityId": "067",
        "countyId": "29"
      },
      "economicActivities": [
        {
          "id": "1.659.2",
          "name": "Venta al por menor de muebles de oficina y máquinas y equipos de oficina",
          "_links": {
            "self": {
              "name": "Venta al por menor de muebles de oficina y máquinas y equipos de oficina",
              "href": "https://api.euskadi.eus/procurements/companies/economic-activities/1.659.2"
            }
          }
        },
        {
          "id": "1.659.4",
          "name": "Venta al por menor de libros, periódicos y artículos de papelería y escritorio",
          "_links": {
            "self": {
              "name": "Venta al por menor de libros, periódicos y artículos de papelería y escritorio",
              "href": "https://api.euskadi.eus/procurements/companies/economic-activities/1.659.4"
            }
          }
        }
      ],
      "certificateStartDate": "2019-10-29",
      "certificateEndDate": "2020-03-24",
      "object": "LA COMPRA Y VENTA, AL POR MAYOR Y/O MENOR DE MATERIALES DE INFORMATICA, PAPELERIAS Y/O ARTICULOS DE OFICINAS\r\n\r\n   ",
      "mainEntityOfPage": "https://www.contratacion.euskadi.eus/webkpe00-kperoc/es/ac71aBusquedaRegistrosWar/empresa/06593",
      "_links": {
        "self": {
          "name": "VASCO INFORMATICA, S.L.",
          "href": "https://api.euskadi.eus/procurements/companies/06593"
        }
      }
    },
    {
      "name": "DUNBA ARGITALPEN LANAK, S.L.",
      "registrationNumber": "06594",
      "identificationNumber": "B01437482",
      "address": "OTAZU, 1",
      "location": {
        "postalCode": "01408",
        "municipality": "Ayala/Aiara",
        "county": "Araba/Álava",
        "municipalityId": "010",
        "countyId": "01"
      },
      "economicActivities": [
        {
          "id": "1.476.2",
          "name": "Edición de periódicos y revistas",
          "_links": {
            "self": {
              "name": "Edición de periódicos y revistas",
              "href": "https://api.euskadi.eus/procurements/companies/economic-activities/1.476.2"
            }
          }
        }
      ],
      "certificateStartDate": "2019-10-29",
      "certificateEndDate": "2020-04-14",
      "object": "LA REALIZACIÓN DE CUALESQUIERA ACTIVIDADES CULTURALES, EDUCATIVAS, RECREATIVAS Y DE PUBLICACIOÓ DE OBRAS DE CARÁCTER LITERARIO, CIENTÍFICO Y DIVULGATIVO",
      "mainEntityOfPage": "https://www.contratacion.euskadi.eus/webkpe00-kperoc/es/ac71aBusquedaRegistrosWar/empresa/06594",
      "_links": {
        "self": {
          "name": "DUNBA ARGITALPEN LANAK, S.L.",
          "href": "https://api.euskadi.eus/procurements/companies/06594"
        }
      }
    },
    {
      "name": "HONDALANAK ETA ERAIKUNTZAK ARRI 2017 SL",
      "registrationNumber": "05891",
      "identificationNumber": "B75171520",
      "address": "CL LEABURU OTAZU ETXEA 39",
      "location": {
        "postalCode": "20491",
        "municipality": "Leaburu",
        "county": "Gipuzkoa",
        "municipalityId": "050",
        "countyId": "20"
      },
      "economicActivities": [
        {
          "id": "1.507",
          "name": "Construcción, reparación y conservación de toda clase obras",
          "_links": {
            "self": {
              "name": "Construcción, reparación y conservación de toda clase obras",
              "href": "https://api.euskadi.eus/procurements/companies/economic-activities/1.507"
            }
          }
        },
        {
          "id": "1.912",
          "name": "Servicios forestales",
          "_links": {
            "self": {
              "name": "Servicios forestales",
              "href": "https://api.euskadi.eus/procurements/companies/economic-activities/1.912"
            }
          }
        }
      ],
      "certificateStartDate": "2019-10-25",
      "certificateEndDate": "2020-04-23",
      "object": "LOS TRABAJOS DE EXCAVACION Y CONSTRUCCION; OBRAS CIVILES Y OBRAS EN GENERAL; Y TRABAJOS FORESTALES\r\n",
      "mainEntityOfPage": "https://www.contratacion.euskadi.eus/webkpe00-kperoc/es/ac71aBusquedaRegistrosWar/empresa/05891",
      "_links": {
        "self": {
          "name": "HONDALANAK ETA ERAIKUNTZAK ARRI 2017 SL",
          "href": "https://api.euskadi.eus/procurements/companies/05891"
        }
      }
    }
  ]
}