{
  "totalItems": 9042,
  "totalPages": 905,
  "currentPage": 613,
  "itemsOfPage": 10,
  "items": [
    {
      "name": "BA CREATIVOS, S.L.",
      "registrationNumber": "03469",
      "identificationNumber": "B95064895",
      "address": "PLAZA VENEZUELA, Nº 1-PRAL. IZDA, IZDA.",
      "location": {
        "postalCode": "48001",
        "municipality": "Bilbao",
        "county": "Bizkaia",
        "municipalityId": "020",
        "countyId": "48"
      },
      "economicActivities": [
        {
          "id": "1.844",
          "name": "Servicios de publicidad, relaciones públicas y similares",
          "_links": {
            "self": {
              "name": "Servicios de publicidad, relaciones públicas y similares",
              "href": "https://api.euskadi.eus/procurements/companies/economic-activities/1.844"
            }
          }
        }
      ],
      "certificateStartDate": "2019-04-17",
      "certificateEndDate": "2019-10-14",
      "object": "LA EXPLOTACIÓN, DESARROLLO Y GESTIÓN DE UNA AGENCIA DE PUBLICIDAD, ASÍ COMO LA REALIZACIÓN DE CUALQUIER TRABAJO QUE SE RELACIONE CON LA CREATIVIDAD Y DESARROLLO PUBLICITARIO, ASÍ COMO SU DESARROLLO, PRODUCCIÓN Y EJECUCIÓN, INDEPENDIENTEMENTE DEL SOPORTE QUE SE UTILICE. IGUALMENTE PODRÁ DESARROLLAR CUALQUIER ACTUACIÓN DE DIFUSIÓN. IGUALMENTE, PODRÁN DISEÑAR TODO TIPO DE CAMPAÑAS PUBLICITARIAS O IMÁGENES CORPORATIVAS, SIN LIMITACIÓN ALGUNA EN TODOS LOS ÁMBITOS DEL DISEÑO Y DESARROLLO ARTÍSTICO",
      "mainEntityOfPage": "https://www.contratacion.euskadi.eus/webkpe00-kperoc/es/ac71aBusquedaRegistrosWar/empresa/03469",
      "_links": {
        "self": {
          "name": "BA CREATIVOS, S.L.",
          "href": "https://api.euskadi.eus/procurements/companies/03469"
        }
      }
    },
    {
      "name": "KOOPERA AMBIENTE, S.COOP.",
      "registrationNumber": "04881",
      "identificationNumber": "F95094991",
      "address": "C/ DERIO BIDEA 57. POL. ZABALANDO",
      "location": {
        "postalCode": "48100",
        "municipality": "Mungia",
        "county": "Bizkaia",
        "municipalityId": "069",
        "countyId": "48"
      },
      "economicActivities": [
        {
          "id": "1.439.3",
          "name": "Fabricación de textiles con fibras de recuperación",
          "_links": {
            "self": {
              "name": "Fabricación de textiles con fibras de recuperación",
              "href": "https://api.euskadi.eus/procurements/companies/economic-activities/1.439.3"
            }
          }
        },
        {
          "id": "1.622",
          "name": "Venta al por mayor de otros productos de recuperación",
          "_links": {
            "self": {
              "name": "Venta al por mayor de otros productos de recuperación",
              "href": "https://api.euskadi.eus/procurements/companies/economic-activities/1.622"
            }
          }
        }
      ],
      "certificateStartDate": "2019-04-17",
      "certificateEndDate": "2019-10-02",
      "object": "PROMOVER EL DESARROLLO SOCIAL Y ECOLÓGICO, Y EN CONCRETO: 1) DENTRO DE LA PROMOCIÓN SOCIAL: a) PROMOVER LA INTEGRACIÓN SOCIAL DE PERSONAS Y COLECTIVOS QUE SUFRAN CUALQUIER CLASE DE EXCLUSIÓN SOCIAL: a.1) POSIBILITANDO LA INCLUSIÓN SOCIO-LABORAL DE PERSONAS QUE PRESENTEN ESPECIALES DIFICULTADES DE ACCESO AL MERCADO LABORAL, ACOMPAÑÁNDOLAS EN UN PROCESO PERSONAL DE APRENDIZAJE ADECUADO QUE CONTEMPLARÁ LA CONSECUCIÓN DE HABILIDADES SOCIALES, LABORALES, FORMACIÓN BÁSICA, CUALIFICACIÓN LABORAL Y CONOCIMIENTOS DEL MERCADO QUE LES PERMITAN MEJORAR SUS CONDICIONES DE EMPLEABILIDAD, DESPLEGANDO LAS ACCIONES SIGUIENTES: - LA ACTIVACIÓN LABORAL DE PERSONAS QUE CUENTEN CON CONVENIOS DE INCLUSIÓN ACTIVA RECOGIDOS EN LA LEY 18/2008, DE 23 DE DICIEMBRE, PARA LA GARANTÍA DE INGRESOS Y LA INCUSIÓN SOCIAL, Y MODIFICADA POR LA LEY 4/2011, DE 24 DE NOVIEMBRE. - LA FORMACIÓN DIRIGIDA AL APRENDIZAJE DE UNA DETERMINADA ACTIVIDAD PROFESIONAL Y A LA ADECUACIÓN DEL NIVEL FORMATIVO REGLADO O LAS COMPETENCIAS PROFESIONALES A LAS EXIGENCIAS DEL MERCADO LABORAL. - EL ESTABLECIMIENTO DE UNAS ACTITUDES Y APTITUDES DESTINADAS A LA ADQUISICIÓN DE HÁBITOS SOCIALES Y DE TRABAJO. -UN SERVICIO DE ACOMPAÑAMIENTO SOCIAL, ENCAMINADO A SATISFACER O RESOLVER PROBLEMÁTICAS Y DE CONVIVENCIA QUE IMPIDEN O DIFICULTAN EL NORMAL DESARROLLO DEL PROCESO DE ADAPTACIÓN SOCIAL Y LABORAL. -LA ORIENTACIÓN PERSONALIZADA EN BÚSQUEDA ACTIVA DE EMPLEO Y PARA LA INSERCIÓN LABORAL. a.2) DESARROLLANDO ACTIVIDADES DE OBRAS Y REFORMAS EN EDIFICACIONES, INFRAESTRUCTURAS E INSTALACIONES, COMO: -LA REALIZACIÓN, POR CUENTA PROPIA O DE TERCEROS POR MEDIO DE OTRA U OTRAS PERSONAS O EMPRESAS, DE OBRAS PARA CONSTRUCCIÓN DE CUALQUIER TIPO DE EDIFICIOS COMPLETOS O PARCIALES, BIEN LIBREMENTE O ACOGIÉNDOSE CUANDO PROCEDA A LAS LEYES DE PROTECCIÓN OFICIAL, INCLUIDAS LAS VIVIENDAS Y EDIFICIOS MUNICIPALES. - LA REALIZACIÓN DE CUALQUIER OBRA PÚBLICA O PRIVADA, INCLUYENDO EL DISEÑO, LA REPARACIÓN, RESTAURACIÓN, REHABILITACIÓN, REMODELACIÓN, AMPLIACIÓN, MODIFICACIÓN Y MANTENIMIENTO, ACABADOS Y DECORACIONES DE INTERIORES Y EXTERIORES, SERVICIOS DE PINTURA Y METALIZACIONES. -LA EJECUCIÓN DE TRABAJOS DE DEMOLICIONES, ESTRUCTURAS DE FÁBRICA U HORMIGÓN, ESTRUCTGURAS METÁLICAS, ALBAÑILERÍA, REVOCOS Y REVISTIDOS, CARPINTERÍA Y MARMOLERÍA, PAVIMENTOS, SOLADOS Y ALICATADOS, AISLAMIENTOS E IMPERMEABILIZACIONES, ASÍ COMO CARPINTERÍA METÁLICA Y DE LA MADERA. - LA EJECUCIÓN DE OBRAS PARA INSTALACIONES ELÉCTRICAS DE ALUMBRADO, ILUMINACIÓN Y BALIZAMIENTO LUMINOSO, DISTRIBUCIÓN EN BAJA TENSIÓN, TELECOMUNICACIONES E INSTALACIONES RADIOELÉCTRICAS Y ELECTRÓNICAS, REDES DE ELECT5RIFICACIÓN, E INSTALACIONES MECÁNICAS DE VENTILACIÓN, CALEFACCIÓN Y CLIMATIZACIÓN, AGUA, FONTANERÍA Y SANITARIA, DESAGÜES, INSTLAACIONES DE AIRE ACONDICIONADOS Y CONTRA INCENDIOS, Y OTRAS SIN CUALIFICACIÓN. - Y OTRAS RELACIONADAS OCN LA EJECUCIÓN DE CUALQUIER ITIPO DE OBRA PÚBLICA O PRIVADA, TANTO EN EDIFICACIONES CON EN INSTALACIONES, INFRAESTRUCTURAS Y OBRAS CIVILES, INCLUÍDO EL MOVIMIENTO DE TIERRA, PERFORACIONES, DESMONTES, EXCAVA CIONES Y VACIADOS, ASÍ COMO EL TRASLADO DE TIERRAS MEDIANTE MAQUINARIA PESADA. - ASÍ MISMO, LA COMPRA, VENTA, ALQUILER, PERMUTA Y, EN GENERAL, ADQUISICIÓN O ENAJENACIÓN POR CUALQUIER TÍTULO DE EDIFICIOS DE TODAS CLASES, SOLARES, TERRENOS, Y FUNCAS RÚSTICAS O URBANAS; ASÍ COMO SU ORDENACIÓN, PARCELACIÓN Y URBANIZACIÓN Y LA REALIZACIÓN DE TODA CLASE DE ACTIVIDADES INMOBILIARIAS Y ADMINISTRACIÓN DE LAS MISMAS, Y ASESORÍAS Y CONSULTORÍA EN CONSTRUCCIÓN CIVIL, INGENIERÍA CIVIL, PLANOS Y DIBUJOS ARQUITECTÓNICOS. a.3) DESARROLLANDO CUALQUIER OTRA ACTIVIDAD ECONÓMICA QUE TENGA POR FINALIDAD SU INTEGRACIÓN LABORAL. - EFECTUANDO EL MANTENIMIENTO Y REPARACIÓN DE MAQUINARIA, HERRAMIENTAS Y UTILLAJES, INCLUÍDA LA MAQUINARIA DE OFICINA Y EQUIPOS E INSTALACIONES ELÉCTRICAS Y ELECTRÓNICAS. - MEDIANTE EL DESARROLLO DE ACTIVIDADES DE LIMPIEZA VIARIA, DE INSTALACIONE Y EDIFICIOS, ASÍ COMO LA CONSERVACIÓN DE LOS MISMOS. - PRESTANDO SERVICIOS DE MANTENIMIENTO Y REPARACIÓN DE VEHÍCULOS AUTOMOTORES Y SIN MOTOR. -MEDIANTE SERVICIOS DE TRANSPORTE EN GENERAL. a.4) REALIZANDO ESTUDIOS Y PROYECTOS SOBRE LA SITUACIÓN DE EXCLUSIÓN SOCIAL DE PERSONAS Y COLECTIVOS. a.5) PROMOVIENDO LA ECONOMÍA SOCIAL Y SOLIDARIA. a.6) EN COLABORACIÓN CON ORGANISMOS, ENTIDADES Y ADMINISTRACIONES DEL ÁMBITO LOCAL, AUTONÓMICO, NACIONAL, EUROPEO E INTERNACIONAL, Y a.7) MEDIANTE CUALQUIER OTRA ACCIÓN QUE POSIBILITE DICHA INTEGRACIÓN SOCIAL. b) PRESTAR SERVICIOS ASISTENCIALES Y SOCIALES A LA COMUNIDAD MEDIANTE LA REALIZACIÓN DE ACTIVIDADES EDUCATIVAS, CULTURALES, SANITARIAS U OTRAS DE NATURALEZA SOCIAL. c) FACILITAR LA SENSIBILIZACIÓN, COLABORACIÓN Y PARTICIPACIÓN SOCIAL DEL VOLUNTARIADO Y DE LA SOCIEDAD EN GENERAL EN LA RESOLUCIÓN DE LOS PROBLEMAS SOCIALES DEL ENTORNO. d) BUSCAR UN DESARROLLO SOCIAL GLOBAL E INTEGRAL, MEDIANTE LA COOPERACIÓN PARA EL DESARROLLO CON OTROS PUEBLOS Y EL IMPULSO DE PRÁCTICAS DE COMERCIO JUSTO Y SOLIDARIO. 2. DENTRO DEL DESARROLLO ECOLÓGICO: e) REALIZAR CUALQUIER ACTIVIDAD QUE TENGA POR FINALIDAD LA DEFENSA AL MEDIO AMBIENTE: e.1) DEDICÁNDOSE A LA REDUCCIÓN, LA RECUPERACIÓN Y EL RECICLAJE DE RESIDUOS. PREPARANDO LOS MISMOS PARA LA REUTILIZACIÓN Y COMERCIALIZACIÓN COMO ARTÍCULOS RECUPERADOS Y DE SEGUNDA MANO EN EL MERCADO NACIONAL E INTERNACIONAL. BUSCARÁ DESDE ESTA PERSPECTIVA, EL DESARROLLO EN LOS PAÍSES  EN VÍAS DE DESARROLLO CON LOS QUE TRABAJE, DE IMPLANTACIONES O PROYECTOS BASADOS EN LOS PRINCIPIOS DE SOLIDARIDAD, PARTICIPACIÓN Y CORRESPONSABILIDAD, SEÑAS DE IDENTIDAD DEL PROYECTO BEROHI ORIGINARIO, Y CON LAS PECULIARIDADES NECESARIAS PARA ADAPTARSE A LA REALIDAD LOCAL. e.2)  PRESTANDO SERVICIOS DE RECOGIDA, CLASIFICACIÓN, ALMACENAMIENTO Y RECICLAJE  DE RESIDOS URBANOS A EMPRESAS O ENTES PÚBLICOS, ASÍ COMO EL FOMENTO DE LA REUTILIZACIÓN A TRAVÉS DE LA VENTA. E.3) EFECTUANDO TRABAJOS DE CONSERVACIÓN Y MANTENIMIENTO DE BIENES INMUEBLES Y MOBILIARIO URBANO, ASÍ COMO REALIZANDO TRABAJOS DE PLANTACIONES Y JARDINERÍA, INCLUÍDA LA LIMPIEZA Y CONSERVACIÓN DE JARDINES, MONTES Y ÁREAS VERDES. e.4) EFECTUANDO SERVICIOS DE LIMPIEZA, MANTENIMIENTO Y CONSERVACIÓN DE ESPACIOS EN GENERAL, Y EN CONRETO LA LIMPIEZA, MANTENIMIENTO Y CONSERVACIÓN DE: PLAYAS Y ARENALES, PASEOS MARÍTIMOS Y PASEOS URBANOS, VÍA PÚBLICA, PARQUES INFANTILES Y ZONAS DE ESPARCIMIENTO Y DEPORTE, LOCALES E INSTALACIONES DE ENTIDADES PRIVADAS Y/O PÚBLICAS. e.5) PROMOVIENDO LA DISTRIBUCIÓN DE PRODUCTOS ECOLÓGICOS, RECICLADOS, Y/O BIOLÓGICOS. e.6) EDUCANDO EN UN CONSUMO MÁS RESPONSABLE DE RECURSOS ESCASOS, COMO LA ENERGÍA, EL AGUA Y/O LAS MATERIAS PRIMAS. e.7) REALIZANDO ESTUDIOS Y PROYECTOS TENDENTES A MEJORAR EL ESTADO DEL MEDIO AMBIENTE. e.8) EN COLABORACIÓN CON ORGANISMOS, ENTIDADES Y ADMINISTRACIONES DEL ÁMBITO LOCAL, AUTONÓMICO, NACIONAL, EUROPEO E INTERNACIONAL. e.9) DIFUNDIENDO EL USO DE MEDIOS DE TRANSPORTE MENOS CONTEMINANTES. e.10) LA GESTIÓN INTEGRAL DE GARBIGUNES Y PUNTOS LIMPIOS. e.11) PROMOVIENDO LA BIOCONSTRUCCIÓN Y/O REHABILITACIÓN ECOLÓGICA DE VIVIENDAS, y e.12) MEDIANTE CUALQUIER OTRA ACCIÓN QUE POSIBILITE DICHO RESPETO AL MEDIO AMBIENTE. f) SENSIBILIZAR A LA POBLACIÓN ESCOLAR Y GENERAL PARA QUE ADOPTE HÁBITOS Y CONDUCTAS RESPETUOSAS CON EL MEDIO AMBIENTE. g) FACILITAR LA COLABORACIÓN Y PARTICIPACIÓN SOCIAL DEL VOLUNTARIADO Y DE LA SOCIEDAD EN GENERAL EN LA RESOLUCIÓN DE LOS PROBLEMAS MEDIOAMBIENTALES DEL ENTORNO. h) ORGANIZAR Y PROMOCIONAR EVENTOS, EXPOSICIONES, FERIAS Y CONGRESOS",
      "mainEntityOfPage": "https://www.contratacion.euskadi.eus/webkpe00-kperoc/es/ac71aBusquedaRegistrosWar/empresa/04881",
      "_links": {
        "self": {
          "name": "KOOPERA AMBIENTE, S.COOP.",
          "href": "https://api.euskadi.eus/procurements/companies/04881"
        }
      }
    },
    {
      "name": "TEXRIS SL",
      "registrationNumber": "06195",
      "identificationNumber": "B12043956",
      "address": "Av. Sant Isidre, 29",
      "location": {
        "postalCode": "12318",
        "municipality": "Portell de Morella",
        "county": "Castellón/Castelló",
        "municipalityId": "091",
        "countyId": "12"
      },
      "economicActivities": [
        {
          "id": "1.431.3",
          "name": "Tejido de algodón y sus mezclas",
          "_links": {
            "self": {
              "name": "Tejido de algodón y sus mezclas",
              "href": "https://api.euskadi.eus/procurements/companies/economic-activities/1.431.3"
            }
          }
        }
      ],
      "certificateStartDate": "2019-04-17",
      "certificateEndDate": "2019-07-04",
      "object": " LA FABRICACIÓN Y CONFECCIÓN DE TEJIDOS DE TODAS CLASES, ASÍ COMO SU POSTERIOR COMERCIALIZACIÓN",
      "mainEntityOfPage": "https://www.contratacion.euskadi.eus/webkpe00-kperoc/es/ac71aBusquedaRegistrosWar/empresa/06195",
      "_links": {
        "self": {
          "name": "TEXRIS SL",
          "href": "https://api.euskadi.eus/procurements/companies/06195"
        }
      }
    },
    {
      "name": "MEDIASAL 2000, S.A.",
      "registrationNumber": "02016",
      "identificationNumber": "A48944268",
      "address": "CALLE ELCANO 9, 3º B",
      "location": {
        "postalCode": "48008",
        "municipality": "Bilbao",
        "county": "Bizkaia",
        "municipalityId": "020",
        "countyId": "48"
      },
      "economicActivities": [
        {
          "id": "1.844",
          "name": "Servicios de publicidad, relaciones públicas y similares",
          "_links": {
            "self": {
              "name": "Servicios de publicidad, relaciones públicas y similares",
              "href": "https://api.euskadi.eus/procurements/companies/economic-activities/1.844"
            }
          }
        }
      ],
      "certificateStartDate": "2019-04-14",
      "certificateEndDate": "2019-10-13",
      "object": "EL DE UNA AGENCIA DE PUBLICIDAD GENERAL, CUYA DEDICACIÓN ES LA DE CONTRATAR MEDIOS, CREAR, PROYECTAR, EJECUTAR O DISTRIBUIR CAMPAÑAS DE PUBLICIDAD A TRAVÉS DE CUALQUIER MEDIO DE DIFUSIÓN",
      "mainEntityOfPage": "https://www.contratacion.euskadi.eus/webkpe00-kperoc/es/ac71aBusquedaRegistrosWar/empresa/02016",
      "_links": {
        "self": {
          "name": "MEDIASAL 2000, S.A.",
          "href": "https://api.euskadi.eus/procurements/companies/02016"
        }
      }
    },
    {
      "name": "ARCHANDA PLANTAS INDUSTRIALES S.L.",
      "registrationNumber": "05420",
      "identificationNumber": "B95630190",
      "address": "POLIG. INDUST. URAZANDI  PARC.3   EDIF.2",
      "location": {
        "postalCode": "48950",
        "municipality": "Erandio",
        "county": "Bizkaia",
        "municipalityId": "902",
        "countyId": "48"
      },
      "economicActivities": [
        {
          "id": "1.504.8",
          "name": "Montajes metálicos e instalaciones industriales completas",
          "_links": {
            "self": {
              "name": "Montajes metálicos e instalaciones industriales completas",
              "href": "https://api.euskadi.eus/procurements/companies/economic-activities/1.504.8"
            }
          }
        }
      ],
      "certificateStartDate": "2019-04-10",
      "certificateEndDate": "2019-10-09",
      "object": "LOS MONTAJES INDUSTRIALES Y CONSTRUCCIONES METALICAS",
      "mainEntityOfPage": "https://www.contratacion.euskadi.eus/webkpe00-kperoc/es/ac71aBusquedaRegistrosWar/empresa/05420",
      "_links": {
        "self": {
          "name": "ARCHANDA PLANTAS INDUSTRIALES S.L.",
          "href": "https://api.euskadi.eus/procurements/companies/05420"
        }
      }
    },
    {
      "name": "GLOBAL SURGICAL SERVICE,S.L.",
      "registrationNumber": "05875",
      "identificationNumber": "B98685472",
      "address": "GUGLIELMO MARCONI, 11 EFIF. B",
      "location": {
        "postalCode": "46980",
        "municipality": "Paterna",
        "county": "Valencia/València",
        "municipalityId": "190",
        "countyId": "46"
      },
      "economicActivities": [
        {
          "id": "1.619.2",
          "name": "Venta al por mayor de aparatos e instrumentos médicos, ortopédicos, ópticos",
          "_links": {
            "self": {
              "name": "Venta al por mayor de aparatos e instrumentos médicos, ortopédicos, ópticos",
              "href": "https://api.euskadi.eus/procurements/companies/economic-activities/1.619.2"
            }
          }
        }
      ],
      "certificateStartDate": "2019-04-10",
      "certificateEndDate": "2019-09-20",
      "object": "IMPORTACIOM, DISTRIBUCIÓN Y VENTA DE PRODUCTOS QUIRÚRGICOS, BIENES DE EQUIPO , FUNGIBLES Y DE SERVICIOS MEDICO HOSPITALARIOS",
      "mainEntityOfPage": "https://www.contratacion.euskadi.eus/webkpe00-kperoc/es/ac71aBusquedaRegistrosWar/empresa/05875",
      "_links": {
        "self": {
          "name": "GLOBAL SURGICAL SERVICE,S.L.",
          "href": "https://api.euskadi.eus/procurements/companies/05875"
        }
      }
    },
    {
      "name": "GREEN H WHICH WAS MISSING SLP",
      "registrationNumber": "05634",
      "identificationNumber": "B71220032",
      "address": "CL MONASTERIO DE USUN 1 BAJO",
      "location": {
        "postalCode": "31011",
        "municipality": "Pamplona/Iruña",
        "county": "Navarra",
        "municipalityId": "201",
        "countyId": "31"
      },
      "economicActivities": [
        {
          "id": "1.843.2",
          "name": "Servicios técnicos de arquitectura y urbanismo",
          "_links": {
            "self": {
              "name": "Servicios técnicos de arquitectura y urbanismo",
              "href": "https://api.euskadi.eus/procurements/companies/economic-activities/1.843.2"
            }
          }
        }
      ],
      "certificateStartDate": "2019-04-09",
      "certificateEndDate": "2019-09-08",
      "object": "LA ACTIVIDAD PROPIA DEL EJERCICIO DE LA ARQUITECTURA (ACTIVIDAD PRINCIPAL, CÓDIGO CNAE 7111: SERVICIOS TÉCNICOS DE ARQUITECTURA)",
      "mainEntityOfPage": "https://www.contratacion.euskadi.eus/webkpe00-kperoc/es/ac71aBusquedaRegistrosWar/empresa/05634",
      "_links": {
        "self": {
          "name": "GREEN H WHICH WAS MISSING SLP",
          "href": "https://api.euskadi.eus/procurements/companies/05634"
        }
      }
    },
    {
      "name": "XABIER GÓMEZ MATURANA",
      "registrationNumber": "06179",
      "identificationNumber": "45667677G",
      "address": "bizkai 15 - 11 B",
      "location": {
        "postalCode": "48960",
        "municipality": "Galdakao",
        "county": "Bizkaia",
        "municipalityId": "036",
        "countyId": "48"
      },
      "economicActivities": [
        {
          "id": "2.826",
          "name": "Personal docente de enseñanzas diversas",
          "_links": {
            "self": {
              "name": "Personal docente de enseñanzas diversas",
              "href": "https://api.euskadi.eus/procurements/companies/economic-activities/2.826"
            }
          }
        }
      ],
      "certificateStartDate": "2019-04-08",
      "certificateEndDate": "2019-09-01",
      "object": "PERSONAL DOCENTE DE ENSEÑANZAS DIVERSAS\r\n",
      "mainEntityOfPage": "https://www.contratacion.euskadi.eus/webkpe00-kperoc/es/ac71aBusquedaRegistrosWar/empresa/06179",
      "_links": {
        "self": {
          "name": "XABIER GÓMEZ MATURANA",
          "href": "https://api.euskadi.eus/procurements/companies/06179"
        }
      }
    },
    {
      "name": "FERNANDO GARCÍA-OCHOA MONTES",
      "registrationNumber": "06172",
      "identificationNumber": "05377883T",
      "address": "Calle Jorge Juan, 104",
      "location": {
        "postalCode": "28009",
        "municipality": "Madrid",
        "county": "Madrid",
        "municipalityId": "079",
        "countyId": "28"
      },
      "economicActivities": [
        {
          "id": "1.613.1",
          "name": "Venta al por mayor de productos textiles, confección calzado y artículos cuero",
          "_links": {
            "self": {
              "name": "Venta al por mayor de productos textiles, confección calzado y artículos cuero",
              "href": "https://api.euskadi.eus/procurements/companies/economic-activities/1.613.1"
            }
          }
        },
        {
          "id": "2.411",
          "name": "Arquitectos",
          "_links": {
            "self": {
              "name": "Arquitectos",
              "href": "https://api.euskadi.eus/procurements/companies/economic-activities/2.411"
            }
          }
        }
      ],
      "certificateStartDate": "2019-04-05",
      "certificateEndDate": "2019-08-01",
      "object": "ARQUITECTO Y VENTA AL POR MAYOR DE PRODUCTOS TEXTILES, CONFECCIÓN DE CALZADO Y ARTÍCULOS DE CUERO",
      "mainEntityOfPage": "https://www.contratacion.euskadi.eus/webkpe00-kperoc/es/ac71aBusquedaRegistrosWar/empresa/06172",
      "_links": {
        "self": {
          "name": "FERNANDO GARCÍA-OCHOA MONTES",
          "href": "https://api.euskadi.eus/procurements/companies/06172"
        }
      }
    },
    {
      "name": "WORKSHIP STUDIO SL",
      "registrationNumber": "06173",
      "identificationNumber": "B66923178",
      "address": "Aribau 80 sobreático 2ª",
      "location": {
        "postalCode": "08036",
        "municipality": "Barcelona",
        "county": "Barcelona",
        "municipalityId": "019",
        "countyId": "08"
      },
      "economicActivities": [
        {
          "id": "1.843.9",
          "name": "Otros servicios técnicos n.c.o.p",
          "_links": {
            "self": {
              "name": "Otros servicios técnicos n.c.o.p",
              "href": "https://api.euskadi.eus/procurements/companies/economic-activities/1.843.9"
            }
          }
        }
      ],
      "certificateStartDate": "2019-04-05",
      "certificateEndDate": "2019-09-08",
      "object": "A) LOS SERVICIOS DE DISEÑO GRÁFICO E INTERACTIVO, DIRECCIÓN DE ARTE, 'NAMING' ILUSTRACIÓN, FOTOGRAFÍA, ANIMACIÓN Y CREACIÓN DE LOGOTIPOS, IMAGEN DE MARCA Y 'BRANDING'. B) LOS SERVICIOS DE MERCADOTECNIA (MARKETING), ESTUDIOS DE MERCADO Y CONSULTORÍA Y DESARROLLO DE LA COMUNICACIÓN CREATIVA DE MARCA Y DESARROLLO GRÁFICO Y VISUAL DE TODO TIPO DE MARCAS Y PRODUCTOS EN CUALQUIER SOPORTE, CANAL O MEDIO. C) LOS SERVICIOS DE DISEÑO INDUSTRIAL, PRODUCTO, MOBILIARIO Y DESARROLLO DE LA ESTRATEGIA DE COMUNICACIÓN, IMAGEN Y PUBLICIDAD DE CUALQUIER TIPO DE PRODUCTO. D) LOS SERVICIOS DE CONSULTORÍA TECNOLÓGICA Y CREATIVA, ESTRATEGIA DIGITAL, 'COMMUNITY MANAGEMENT', DISEÑO, PROGRAMACIÓN, CONFECCIÓN Y DESARROLLO DE APLICACIONES MULTIMEDIA, DE PÁGINAS WEB, PIEZAS INTERACTIVAS Y EL POSTERIOR POSICIONAMIENTO DE LAS MISMAS ONFLINE Y OFFLINE. E) LOS SERVICIOS DE ASESORAMIENTO, CONSULTORÍA, CONCEPTUALIZACIÓN, ORGANIZACIÓN, DISEÑO Y PRODUCCIÓN DE EVENTOS CULTURALES, COMERCIALES Y PROMOCIONALES. F) LA SERVICIOS DE CONCEPTUALIZACIÓN Y CREACIÓN DE PIEZAS DE ANIMACIÓN, Y 'MAPPING', INCLUIDOS SERVICIOS RELACIONADOS TALES COMO LA FOTOGRAFÍA, LA CINEMATOGRAFÍA, EL SONIDO Y LA ILUMINACIÓN. G) SERVICIOS EDITORIALES Y DISTRIBUCIÓN DE TODO TIPO DE PUBLICACIONES Y EN CUALQUIER TIPO Y EN CUALQUIER CANAL DE COMUNICACIÓN INCLUYENDO SERVICIOS RELACIONADOS TALES COMO LA REDACCIÓN, TRADUCCIÓN Y ADAPTACIÓN DE TEXTOS. H) LOS SERVICIOS AGENCIA DE COMUNICACIÓN Y PUBLICIDAD, RELACIONES PÚBLICAS Y RELACIÓN Y GESTIÓN DE MEDIOS Y PRENSA ONLINE Y OFFLINE. I) EL DISEÑO, DESARROLLO, DISTRIBUCIÓN Y COMERCIALIZACIÓN DE ARTÍCULOS DE PAPELERÍA, ARTÍCULOS DE ARTESANÍA, JOYERÍA, PRENDAS DE VESTIR Y TOCADO Y ACCESORIOS DE MODA. J) EL DISEÑO, DESARROLLO, DISTRIBUCIÓN Y COMERCIALIZACIÓN DE PERFUMES, FRAGANCIAS Y PRODUCTOS DE HIGIENE PERSONAL. K) LAS ACTIVIDADES PROPIAS DE LA IMPRESIÓN Y ARTES GRÁFICAS. L) LOS SERVICIOS DE DOCENCIA EN UNIVERSIDADES, ESCUELAS, CENTROS CÍVICOS, MUSEOS, CONGRESOS, TALLERES Y CONFERENCIAS ",
      "mainEntityOfPage": "https://www.contratacion.euskadi.eus/webkpe00-kperoc/es/ac71aBusquedaRegistrosWar/empresa/06173",
      "_links": {
        "self": {
          "name": "WORKSHIP STUDIO SL",
          "href": "https://api.euskadi.eus/procurements/companies/06173"
        }
      }
    }
  ]
}