{
  "totalItems": 9042,
  "totalPages": 905,
  "currentPage": 774,
  "itemsOfPage": 10,
  "items": [
    {
      "name": "BASFER DIVISIÓN SANITARIA, S.A.",
      "registrationNumber": "02487",
      "identificationNumber": "A61003729",
      "address": "DR. LLUÍS DURÁN, 33-35",
      "location": {
        "postalCode": "08100",
        "municipality": "Barcelona",
        "county": "Barcelona",
        "municipalityId": "019",
        "countyId": "08"
      },
      "economicActivities": [
        {
          "id": "1.619.2",
          "name": "Venta al por mayor de aparatos e instrumentos médicos, ortopédicos, ópticos",
          "_links": {
            "self": {
              "name": "Venta al por mayor de aparatos e instrumentos médicos, ortopédicos, ópticos",
              "href": "https://api.euskadi.eus/procurements/companies/economic-activities/1.619.2"
            }
          }
        }
      ],
      "certificateStartDate": "2007-03-13",
      "certificateEndDate": "2007-08-16",
      "object": "LA FABRICACIÓN, DISTRIBUCIÓN, REPRESENTACIÓN Y COMERCIALIZACIÓN DE ARTÍCULOS Y PRODUCTOS MÉDICO-QUIRÚRGICOS, TALES COMO, GASAS, VENDAS, JERINGAS, REACTIVOS, ALCOHOL, ALGODÓN, CÁNULAS Y DEMÁS MATERIAL FUNGIBLE, O DE UN SOLO USO. INSTRUMENTAL QUIRÚRGICO, APARATOS DE ELECTROMEDICINA, MOBILIARIO SANITARIO, MATERIAL PARA REHABILITACIÓN, ASÍ COMO CUALQUIER PRODUCTO SUSCEPTIBLE DE SER UTILIZADO EN EL CAMPO MÉDICO-SANITARIO.  ",
      "mainEntityOfPage": "https://www.contratacion.euskadi.eus/webkpe00-kperoc/es/ac71aBusquedaRegistrosWar/empresa/02487",
      "_links": {
        "self": {
          "name": "BASFER DIVISIÓN SANITARIA, S.A.",
          "href": "https://api.euskadi.eus/procurements/companies/02487"
        }
      }
    },
    {
      "name": "EDIPRO, EDICIONES PROFESIONALES, S.L.",
      "registrationNumber": "02392",
      "identificationNumber": "B48982961",
      "address": "AVDA. ZUGAZARTE, 8. EDIFICIO EL ABRA 4.",
      "location": {
        "postalCode": "48930",
        "municipality": "Getxo",
        "county": "Bizkaia",
        "municipalityId": "044",
        "countyId": "48"
      },
      "economicActivities": [
        {
          "id": "1.476.1",
          "name": "Edición de libros",
          "_links": {
            "self": {
              "name": "Edición de libros",
              "href": "https://api.euskadi.eus/procurements/companies/economic-activities/1.476.1"
            }
          }
        },
        {
          "id": "1.844",
          "name": "Servicios de publicidad, relaciones públicas y similares",
          "_links": {
            "self": {
              "name": "Servicios de publicidad, relaciones públicas y similares",
              "href": "https://api.euskadi.eus/procurements/companies/economic-activities/1.844"
            }
          }
        },
        {
          "id": "1.846",
          "name": "Empresas de estudios de mercado",
          "_links": {
            "self": {
              "name": "Empresas de estudios de mercado",
              "href": "https://api.euskadi.eus/procurements/companies/economic-activities/1.846"
            }
          }
        },
        {
          "id": "1.849.9",
          "name": "Otros servicios independientes n.c.o.p",
          "_links": {
            "self": {
              "name": "Otros servicios independientes n.c.o.p",
              "href": "https://api.euskadi.eus/procurements/companies/economic-activities/1.849.9"
            }
          }
        }
      ],
      "certificateStartDate": "2007-03-05",
      "certificateEndDate": "2007-07-31",
      "object": "- LA PRESTACIÓN DE SERVICIOS DE ATENCIÓN TELEFÓNICA (CALL CENTER), TANTO EN EMISIÓN DE LLAMADAS COMO EN RECEPCIÓN DE LAS MISMAS. ESTE SERVICIO SE REALIZA APOYÁNDOSE EN CUALQUIER MEDIO DE COMUNICACIÓN EXISTENTE. - LA PRESTACIÓN DE SERVICIOS DE BACK OFFICE -REALIZACIÓN DE TRABAJOS DE TIPO ADMINISTRATIVO- PARA TERCERAS EMPRESAS. - LA REALIZACIÓN Y VENTA DE PUBLICIDAD POR CUALQUIER MEDIO: PRENSA, RADIO, TELEVISIÓN, TELEMARKETING, BUZONES. - LA REALIZACIÓN DE ESTUDIOS DE MERCADO, ENCUESTAS, SONDEOS DE ESTADO DE OPINIÓN, INCLUYENDO TANTO LA EJECUCIÓN COMO EL ESTUDIO Y ANÁLISIS POSTERIOR. - EL ANÁLISIS Y CREACIÓN DE BASES DE DATOS; LA GRABACIÓN DE LOS DATOS POR CUALQUIER MEDIO INFORMÁTICO Y TELEMÁTICO, ASÍ COMO LA MANIPULACIÓN DE LOS MISMOS.",
      "mainEntityOfPage": "https://www.contratacion.euskadi.eus/webkpe00-kperoc/es/ac71aBusquedaRegistrosWar/empresa/02392",
      "_links": {
        "self": {
          "name": "EDIPRO, EDICIONES PROFESIONALES, S.L.",
          "href": "https://api.euskadi.eus/procurements/companies/02392"
        }
      }
    },
    {
      "name": "NIDEC. S.L.",
      "registrationNumber": "03275",
      "identificationNumber": "B61293841",
      "address": "GRAN VIA C. CATALANES, 606 PPAL A",
      "location": {
        "postalCode": "08007",
        "municipality": "Barcelona",
        "county": "Barcelona",
        "municipalityId": "019",
        "countyId": "08"
      },
      "economicActivities": [
        {
          "id": "1.615.4",
          "name": "Venta al por mayor de aparatos y material radioeléctrico y electrónico",
          "_links": {
            "self": {
              "name": "Venta al por mayor de aparatos y material radioeléctrico y electrónico",
              "href": "https://api.euskadi.eus/procurements/companies/economic-activities/1.615.4"
            }
          }
        }
      ],
      "certificateStartDate": "2007-03-01",
      "certificateEndDate": "2007-07-05",
      "object": "LA IMPORTACIÓN, FABRICACIÓN, COMERCIALIZACIÓN, DISTRIBUCIÓN Y VENTA AL POR MAYOR Y MENOR DE EQUIPOS Y APARATOS ELECTRÓNICOS Y FÍSICOS PARA LA VIGILANCIA, DEFENSA Y CONTRAESPIONAJE",
      "mainEntityOfPage": "https://www.contratacion.euskadi.eus/webkpe00-kperoc/es/ac71aBusquedaRegistrosWar/empresa/03275",
      "_links": {
        "self": {
          "name": "NIDEC. S.L.",
          "href": "https://api.euskadi.eus/procurements/companies/03275"
        }
      }
    },
    {
      "name": "INDUSTRIAS DE ÓPTICA, S.A.",
      "registrationNumber": "01891",
      "identificationNumber": "A08011546",
      "address": "C/ SANTA EULALIA, Nº 181",
      "location": {
        "postalCode": "08902",
        "municipality": "Hospitalet de Llobregat, L'",
        "county": "Barcelona",
        "municipalityId": "101",
        "countyId": "08"
      },
      "economicActivities": [
        {
          "id": "1.393.1",
          "name": "Instrumentos ópticos, material fotográfico y cinematográfico",
          "_links": {
            "self": {
              "name": "Instrumentos ópticos, material fotográfico y cinematográfico",
              "href": "https://api.euskadi.eus/procurements/companies/economic-activities/1.393.1"
            }
          }
        }
      ],
      "certificateStartDate": "2007-02-19",
      "certificateEndDate": "2007-08-02",
      "object": "LA INDUSTRIA Y COMERCIO AL POR MAYOR Y DETALLE DE ARTÍCULOS DE ÓPTICA, FOTOGRAFÍA Y MATERIAL CIENTÍFICO Y SIMILARES",
      "mainEntityOfPage": "https://www.contratacion.euskadi.eus/webkpe00-kperoc/es/ac71aBusquedaRegistrosWar/empresa/01891",
      "_links": {
        "self": {
          "name": "INDUSTRIAS DE ÓPTICA, S.A.",
          "href": "https://api.euskadi.eus/procurements/companies/01891"
        }
      }
    },
    {
      "name": "GOITU ERAIKUNTZAK, S.A.",
      "registrationNumber": "01164",
      "identificationNumber": "A20071742",
      "address": "C/ MAZTERREKA, Nº 14 - 16, 1º.",
      "location": {
        "postalCode": "20570",
        "municipality": "Bergara",
        "county": "Gipuzkoa",
        "municipalityId": "074",
        "countyId": "20"
      },
      "economicActivities": [
        {
          "id": "1.501.1",
          "name": "Construcción completa, reparación y conservación de edificaciones",
          "_links": {
            "self": {
              "name": "Construcción completa, reparación y conservación de edificaciones",
              "href": "https://api.euskadi.eus/procurements/companies/economic-activities/1.501.1"
            }
          }
        },
        {
          "id": "1.507",
          "name": "Construcción, reparación y conservación de toda clase obras",
          "_links": {
            "self": {
              "name": "Construcción, reparación y conservación de toda clase obras",
              "href": "https://api.euskadi.eus/procurements/companies/economic-activities/1.507"
            }
          }
        },
        {
          "id": "1.833.2",
          "name": "Promoción de edificaciones",
          "_links": {
            "self": {
              "name": "Promoción de edificaciones",
              "href": "https://api.euskadi.eus/procurements/companies/economic-activities/1.833.2"
            }
          }
        }
      ],
      "certificateStartDate": "2007-02-01",
      "certificateEndDate": "2007-04-25",
      "object": "LA CONSTRUCCIÓN, INSTALACIÓN, PROMOCIÓN, EXPLOTACIÓN Y COMPRAVENTA DE VIVIENDAS Y LOCALES COMERCIALES, LOCALES INDUSTRIALES Y DE NEGOCIO, Y APARTAMENTOS, Y, EN GENERAL, LA REALIZACIÓN Y PROMOCIÓN, POR EJECUCIÓN DIRECTA O MEDIANTE CONTRATA, Y OBRAS DE REPARACIÓN, REHABILITACIÓN Y RESTAURACIÓN, DE TODA CLASE DE CONSTRUCCIONES SOBRE BIENES INMUEBLES; LA ADQUISICIÓN, URBANIZACIÓN, PARCELACIÓN, REPARCELACIÓN Y VENTA DE FINCAS URBANAS Y TERRENOS EN GENERAL. LAS ACTIVIDADES ENUMERADAS PODRÁN SER REALIZADAS POR LA SOCIEDAD, YA DIRECTAMENTE, YA INDIRECTAMENTE, INCLUSO MEDIANTE SU PARTICIPACIÓN EN OTRAS SOCIEDADES DE OBJETO IDÉNTICO O ANÁLOGO",
      "mainEntityOfPage": "https://www.contratacion.euskadi.eus/webkpe00-kperoc/es/ac71aBusquedaRegistrosWar/empresa/01164",
      "_links": {
        "self": {
          "name": "GOITU ERAIKUNTZAK, S.A.",
          "href": "https://api.euskadi.eus/procurements/companies/01164"
        }
      }
    },
    {
      "name": "IRON MOUNTAIN ESPAÑA, S.A.",
      "registrationNumber": "02780",
      "identificationNumber": "A82515776",
      "address": "AVDA. REYES CATOLICOS 6. POLÍGONO INDUSTRIAL VALGRANDE",
      "location": {
        "postalCode": "28108",
        "municipality": "Alcobendas",
        "county": "Madrid",
        "municipalityId": "006",
        "countyId": "28"
      },
      "economicActivities": [
        {
          "id": "1.845",
          "name": "Explotación electrónica por cuenta de terceros",
          "_links": {
            "self": {
              "name": "Explotación electrónica por cuenta de terceros",
              "href": "https://api.euskadi.eus/procurements/companies/economic-activities/1.845"
            }
          }
        },
        {
          "id": "1.849.4",
          "name": "Servicios de custodia, seguridad y protección",
          "_links": {
            "self": {
              "name": "Servicios de custodia, seguridad y protección",
              "href": "https://api.euskadi.eus/procurements/companies/economic-activities/1.849.4"
            }
          }
        }
      ],
      "certificateStartDate": "2007-01-31",
      "certificateEndDate": "2007-07-05",
      "object": "LA COMPRA, VENTA, GESTIÓN, COMERCIALIZACIÓN, DISTRIBUCIÓN Y ALMACENAJE DE MATERIAL INFORMÁTICO, DOCUMENTACIÓN Y ARCHIVOS EN GENERAL Y FRANQUICIAS DE MATERIAL INFORMÁTICO.\r\n\r\nLA SOCIEDAD PODRÁ DEDICARSE A LA TRANSMISIÓN Y ADQUISICIÓN DE SOLARES, TERRENOS, PARCELAS RÚSTICAS O URBANAS Y EN GENERAL CUALESQUIERA INMUEBLES, CUANDO DICHAS OPERACIONES  ESTÉN RELACIONADAS CON EL DESARROLLO DE LAS FUNCIONES DE DOCUMENTACIÓN, ALMACENAJE YARCHIVO QUE LE SON PROPIAS.\r\n\r\nLAS ACTIVIDADES ENUMERADAS PODRÁN SER DESARROLLADAS POR LA SOCIEDAD, TOTAL O PARCIALMENTE, DE MODO INDIRECTO, MEDIANTE LA PARTICIPACIÓN EN OTRAS SOCIEDADES CON OBJETO ANÁLOGO.\r\n\r\nLA SOCIEDAD NO DESARROLLARÁ  NINGUNA ACTIVIDAD PARA LA QUE LAS LEYES EXIJAN CONDICIONES O LIMITACIONES ESPECÍFICAS, EN TANTO NO SE DÉ CUMPLIMIENTO A LAS MISMAS.\r\n",
      "mainEntityOfPage": "https://www.contratacion.euskadi.eus/webkpe00-kperoc/es/ac71aBusquedaRegistrosWar/empresa/02780",
      "_links": {
        "self": {
          "name": "IRON MOUNTAIN ESPAÑA, S.A.",
          "href": "https://api.euskadi.eus/procurements/companies/02780"
        }
      }
    },
    {
      "name": "OCE ESPAÑA, S.A.",
      "registrationNumber": "02553",
      "identificationNumber": "A08970535",
      "address": "EL PRAT DE LLOBREGAT - BUSINESS PARK MAS BLAU OSONA ",
      "location": {
        "postalCode": "08000",
        "municipality": "Barcelona",
        "county": "Barcelona",
        "municipalityId": "019",
        "countyId": "08"
      },
      "economicActivities": [
        {
          "id": "1.617.8",
          "name": "Venta al por mayor de máquinas y material de oficina",
          "_links": {
            "self": {
              "name": "Venta al por mayor de máquinas y material de oficina",
              "href": "https://api.euskadi.eus/procurements/companies/economic-activities/1.617.8"
            }
          }
        },
        {
          "id": "1.692",
          "name": "Reparación de maquinaria industrial",
          "_links": {
            "self": {
              "name": "Reparación de maquinaria industrial",
              "href": "https://api.euskadi.eus/procurements/companies/economic-activities/1.692"
            }
          }
        },
        {
          "id": "1.853",
          "name": "Alquiler de maquinaria y equipo contable de oficina y cálculo",
          "_links": {
            "self": {
              "name": "Alquiler de maquinaria y equipo contable de oficina y cálculo",
              "href": "https://api.euskadi.eus/procurements/companies/economic-activities/1.853"
            }
          }
        }
      ],
      "certificateStartDate": "2007-01-24",
      "certificateEndDate": "2007-06-04",
      "object": "LA IMPORTACIÓN, MONTAJE, FABRICACIÓN, COMERCIALIZACIÓN, VENTA, ALQUILER  Y SERVICIO DE  EQUIPOS Y SISTEMAS REPROGRÁFICOS Y DE OFICINAS, SUS MATERIALES AUXILIARES Y AQUELLOS PRODUCTOS CONSUMIBLES PARA SU UTILIZACIÓN Y MANTENIMIENTO, PUDIENDO, ADEMÁS, REALIZAR TODO CUANTO SEA INHERENTE O CONDUCENTE A DICHO OBJETO.",
      "mainEntityOfPage": "https://www.contratacion.euskadi.eus/webkpe00-kperoc/es/ac71aBusquedaRegistrosWar/empresa/02553",
      "_links": {
        "self": {
          "name": "OCE ESPAÑA, S.A.",
          "href": "https://api.euskadi.eus/procurements/companies/02553"
        }
      }
    },
    {
      "name": "JUAN TOMÁS HERNANI BURZACO",
      "registrationNumber": "03015",
      "identificationNumber": "14954125P",
      "address": "JUAN BAUTISTA ZABALA, 13-3º",
      "location": {
        "postalCode": "48991",
        "municipality": "Getxo",
        "county": "Bizkaia",
        "municipalityId": "044",
        "countyId": "48"
      },
      "economicActivities": [
        {
          "id": "2.311",
          "name": "Ingenieros industriales y textiles",
          "_links": {
            "self": {
              "name": "Ingenieros industriales y textiles",
              "href": "https://api.euskadi.eus/procurements/companies/economic-activities/2.311"
            }
          }
        }
      ],
      "certificateStartDate": "2007-01-24",
      "certificateEndDate": "2007-07-09",
      "object": "INGENIERÍA INDUSTRIAL Y TEXTIL",
      "mainEntityOfPage": "https://www.contratacion.euskadi.eus/webkpe00-kperoc/es/ac71aBusquedaRegistrosWar/empresa/03015",
      "_links": {
        "self": {
          "name": "JUAN TOMÁS HERNANI BURZACO",
          "href": "https://api.euskadi.eus/procurements/companies/03015"
        }
      }
    },
    {
      "name": "GIPUZKOAKO URAK - AGUAS DE GIPUZKOA, S.A.",
      "registrationNumber": "03312",
      "identificationNumber": "A20471462",
      "address": "C/PORTUETXE, 14-2º",
      "location": {
        "postalCode": "20018",
        "municipality": "Donostia / San Sebastián",
        "county": "Gipuzkoa",
        "municipalityId": "069",
        "countyId": "20"
      },
      "economicActivities": [
        {
          "id": "1.161.3",
          "name": "Tratamiento de agua para su suministro",
          "_links": {
            "self": {
              "name": "Tratamiento de agua para su suministro",
              "href": "https://api.euskadi.eus/procurements/companies/economic-activities/1.161.3"
            }
          }
        },
        {
          "id": "1.161.4",
          "name": "Distribución de agua para núcleos urbanos",
          "_links": {
            "self": {
              "name": "Distribución de agua para núcleos urbanos",
              "href": "https://api.euskadi.eus/procurements/companies/economic-activities/1.161.4"
            }
          }
        },
        {
          "id": "1.921.4",
          "name": "Servicios de alcantarillado, evacuación y depuración de aguas residuales",
          "_links": {
            "self": {
              "name": "Servicios de alcantarillado, evacuación y depuración de aguas residuales",
              "href": "https://api.euskadi.eus/procurements/companies/economic-activities/1.921.4"
            }
          }
        }
      ],
      "certificateStartDate": "2007-01-24",
      "certificateEndDate": "2007-04-10",
      "classification": [
        {
          "id": "S",
          "name": "Servicios",
          "groups": [
            {
              "id": "O",
              "subgroups": [
                {
                  "id": "03",
                  "name": "Conservación y mantenimiento de de redes de agua y alcantarillado",
                  "categories": [
                    {
                      "id": "5",
                      "name": "Mas de 1.200.000",
                      "_links": {
                        "self": {
                          "name": "Mas de 1.200.000",
                          "href": "https://api.euskadi.eus/procurements/companies/types/S/categories/5"
                        }
                      }
                    }
                  ],
                  "_links": {
                    "self": {
                      "name": "Conservación y mantenimiento de de redes de agua y alcantarillado",
                      "href": "https://api.euskadi.eus/procurements/companies/types/S/groups/O/subgroups/03"
                    }
                  }
                },
                {
                  "id": "04",
                  "name": "Conservación y mantenimiento integral de estaciones depuradoras",
                  "categories": [
                    {
                      "id": "5",
                      "name": "Mas de 1.200.000",
                      "_links": {
                        "self": {
                          "name": "Mas de 1.200.000",
                          "href": "https://api.euskadi.eus/procurements/companies/types/S/categories/5"
                        }
                      }
                    }
                  ],
                  "_links": {
                    "self": {
                      "name": "Conservación y mantenimiento integral de estaciones depuradoras",
                      "href": "https://api.euskadi.eus/procurements/companies/types/S/groups/O/subgroups/04"
                    }
                  }
                }
              ],
              "_links": {
                "self": {
                  "href": "https://api.euskadi.eus/procurements/companies/types/S/groups/O"
                }
              }
            },
            {
              "id": "P",
              "subgroups": [
                {
                  "id": "02",
                  "name": "Mtto. y reparación equipos e instalac.de fontanería, conducciones de agua y gas",
                  "categories": [
                    {
                      "id": "5",
                      "name": "Mas de 1.200.000",
                      "_links": {
                        "self": {
                          "name": "Mas de 1.200.000",
                          "href": "https://api.euskadi.eus/procurements/companies/types/S/categories/5"
                        }
                      }
                    }
                  ],
                  "_links": {
                    "self": {
                      "name": "Mtto. y reparación equipos e instalac.de fontanería, conducciones de agua y gas",
                      "href": "https://api.euskadi.eus/procurements/companies/types/S/groups/P/subgroups/02"
                    }
                  }
                }
              ],
              "_links": {
                "self": {
                  "href": "https://api.euskadi.eus/procurements/companies/types/S/groups/P"
                }
              }
            }
          ],
          "_links": {
            "self": {
              "name": "Servicios",
              "href": "https://api.euskadi.eus/procurements/companies/types/S"
            }
          }
        }
      ],
      "object": "EL ESTABLECIMIENTO, LA EXPLOTACIÓN DE LA INFRAESTRUCTURA DEL ABASTECIMIENTO DE AGUA Y SANEAMIENTO EN REDES PRIMARIAS Y LA PRESTACIÓN DE LOS SERVICIOS CORRESPONDIENTES, Y EN GENERAL LOS RELATIVOS AL CICLO INTEGRAL DEL AGUA, EN LOS TÉRMINOS MUNICIPALES DE LAS ENTIDADES LOCALES INTEGRADAS EN EL CONSORCIO DE AGUAS DE GIPUZKOA, ENTRE LOS QUE SE ENCUENTRAN LOS SIGUIENTES:\r\nA) ABASTECIMIENTO DE AGUA POTABLE, ALCANTARILLADO Y SANEAMIENTO Y DEPURACIÓN DE AGUAS RESIDUALES, TANTO EN RED PRIMARIA COMO SECUNDARIA, GESTIÓN DE ABONADOS ASÍ COMO OBTENCIÓN, APROVECHAMIENTO Y VENTA DE ENERGÍA.\r\nB) RECOGIDA, TRATAMIENTO Y APROVECHAMIENTO DE RESIDUOS SÓLIDOS URBANOS, ASÍ COMO OBTENCIÓN, APROVECHAMIENTO Y VENTA DE ENERGÍA",
      "mainEntityOfPage": "https://www.contratacion.euskadi.eus/webkpe00-kperoc/es/ac71aBusquedaRegistrosWar/empresa/03312",
      "_links": {
        "self": {
          "name": "GIPUZKOAKO URAK - AGUAS DE GIPUZKOA, S.A.",
          "href": "https://api.euskadi.eus/procurements/companies/03312"
        }
      }
    },
    {
      "name": "GE MEDICAL SYSTEMS INFORMATION TECHNOLOGIES ESPAÑA, S.A.",
      "registrationNumber": "02718",
      "identificationNumber": "A79486460",
      "address": "AVDA. EUROPA 22. P.E. LA MORALEJA",
      "location": {
        "postalCode": "28108",
        "municipality": "Alcobendas",
        "county": "Madrid",
        "municipalityId": "006",
        "countyId": "28"
      },
      "economicActivities": [
        {
          "id": "1.619.2",
          "name": "Venta al por mayor de aparatos e instrumentos médicos, ortopédicos, ópticos",
          "_links": {
            "self": {
              "name": "Venta al por mayor de aparatos e instrumentos médicos, ortopédicos, ópticos",
              "href": "https://api.euskadi.eus/procurements/companies/economic-activities/1.619.2"
            }
          }
        }
      ],
      "certificateStartDate": "2007-01-22",
      "certificateEndDate": "2006-05-08",
      "object": "A) LA FABRICACIÓN, COMERCIALIZACIÓN Y MANTENIMIENTO DE EQUIPOS DE ELECTROMEDICINA  Y EQUIPOS Y APARATOS COMPLEMENTARIOS DE AQUELLOS.\r\nB) TENENCIA DE ACCIONES, PARTICIPACIONES Y DERECHOS DE OTRAS SOCIEDADES POR CUENTA PROPIA, EXCLUYENDO LA INTERMEDIACIÓN, Y CON EXCLUSIÓN DE CUALQUIER ACTIVIDAD SUJETA A LEGISLACIÓN ESPECIAL, Y, ESPRESAMENTE, LEGISLACIÓN SOBRE INSTITUCIONES DE INVERSIONES COLECTIVAS Y DE MERCADO DE VALORES.",
      "mainEntityOfPage": "https://www.contratacion.euskadi.eus/webkpe00-kperoc/es/ac71aBusquedaRegistrosWar/empresa/02718",
      "_links": {
        "self": {
          "name": "GE MEDICAL SYSTEMS INFORMATION TECHNOLOGIES ESPAÑA, S.A.",
          "href": "https://api.euskadi.eus/procurements/companies/02718"
        }
      }
    }
  ]
}