{
  "totalItems": 9042,
  "totalPages": 905,
  "currentPage": 201,
  "itemsOfPage": 10,
  "items": [
    {
      "name": "MARÍA ESCALADA MARCO-GARDOQUI",
      "registrationNumber": "06639",
      "identificationNumber": "78907710T",
      "address": "C/ASTARLOA 3, 1º DERECHA",
      "location": {
        "postalCode": "48001",
        "municipality": "Bilbao",
        "county": "Bizkaia",
        "municipalityId": "020",
        "countyId": "48"
      },
      "economicActivities": [
        {
          "id": "2.411",
          "name": "Arquitectos",
          "_links": {
            "self": {
              "name": "Arquitectos",
              "href": "https://api.euskadi.eus/procurements/companies/economic-activities/2.411"
            }
          }
        }
      ],
      "certificateStartDate": "2025-10-22",
      "certificateEndDate": "2026-04-21",
      "object": "ARQUITECTOS",
      "mainEntityOfPage": "https://www.contratacion.euskadi.eus/webkpe00-kperoc/es/ac71aBusquedaRegistrosWar/empresa/06639",
      "_links": {
        "self": {
          "name": "MARÍA ESCALADA MARCO-GARDOQUI",
          "href": "https://api.euskadi.eus/procurements/companies/06639"
        }
      }
    },
    {
      "name": "CLUB AJEDREZ SANTURTZI",
      "registrationNumber": "09247",
      "identificationNumber": "G48875314",
      "address": "C/JOSE GURRUCHAGA Nº2 ",
      "location": {
        "postalCode": "48980",
        "municipality": "Santurtzi",
        "county": "Bizkaia",
        "municipalityId": "082",
        "countyId": "48"
      },
      "economicActivities": [
        {
          "id": "1.934",
          "name": "Enseñanza fuera de establecimiento permanente",
          "_links": {
            "self": {
              "name": "Enseñanza fuera de establecimiento permanente",
              "href": "https://api.euskadi.eus/procurements/companies/economic-activities/1.934"
            }
          }
        }
      ],
      "certificateStartDate": "2025-10-22",
      "certificateEndDate": "2026-04-20",
      "object": "EL FOMENTO Y LA PRÁCTICA DE LA(S) SIGUIENTE(S) MODALIDAD(ES) DEPORTIVA(S): - MODALIDAD PRINCIPAL: AJEDREZ. EL CLUB FOMENTARÁ, DE ACUERDO CON LA DEMANDA EXISTENTE Y SUS RECURSOS HUMANOS Y MATERIALES, EL DEPORTE PARA PERSONAS CON DISCAPACIDAD. ASIMISMO, EL CLUB PROMOVERÁ EL DEPORTE FEMENINO FAVORECIENDO LA APERTURA DE LAS DISCIPLINAS DEPORTIVAS A LAS MUJERES.",
      "mainEntityOfPage": "https://www.contratacion.euskadi.eus/webkpe00-kperoc/es/ac71aBusquedaRegistrosWar/empresa/09247",
      "_links": {
        "self": {
          "name": "CLUB AJEDREZ SANTURTZI",
          "href": "https://api.euskadi.eus/procurements/companies/09247"
        }
      }
    },
    {
      "name": "ICDQ INSTITUTO DE CERTIFICACIÓN, S.L.",
      "registrationNumber": "06966",
      "identificationNumber": "B66084591",
      "address": "Av. Ernest Lluch 32 TecnoCampus Mataró_Maresme  Edificio TCM 2 Planta 6",
      "location": {
        "postalCode": "08302",
        "municipality": "Mataró",
        "county": "Barcelona",
        "municipalityId": "121",
        "countyId": "08"
      },
      "economicActivities": [
        {
          "id": "1.843.9",
          "name": "Otros servicios técnicos n.c.o.p",
          "_links": {
            "self": {
              "name": "Otros servicios técnicos n.c.o.p",
              "href": "https://api.euskadi.eus/procurements/companies/economic-activities/1.843.9"
            }
          }
        }
      ],
      "certificateStartDate": "2025-10-22",
      "certificateEndDate": "2026-04-21",
      "object": "LA PRESTACIÓN DE SERVICIOS DE AUDITORIA Y CERTIFICACIÓN DE SISTEMAS, PRODUCTOS, PERSONAS Y SERVICIOS, DE CONFORMIDAD CON NORMATIVAS TÉCNICAS INTERNACIONALES Y REGLAMENTOS EUROPEOS. MARCADO CE. AUDITORIA DE LOS SISTEMAS DE PREVENCIÓN DE RIESGOS LABORALES. LA ADMINISTRACIÓN, GESTIÓN, DIRECCIÓN, ORGANIZACIÓN Y/O IMPARTICIÓN DE TODA CLASE DE PROGRAMAS Y ACCIONES FORMATIVAS, ENTRE ELLAS LAS DE FORMACIÓN PROFESIONAL, FORMACIÓN CONTINUADA DE LOS TRABAJADORES Y SIMILARES. EXPLOTACIONES COMERCIALES Y TELEMARKETING",
      "mainEntityOfPage": "https://www.contratacion.euskadi.eus/webkpe00-kperoc/es/ac71aBusquedaRegistrosWar/empresa/06966",
      "_links": {
        "self": {
          "name": "ICDQ INSTITUTO DE CERTIFICACIÓN, S.L.",
          "href": "https://api.euskadi.eus/procurements/companies/06966"
        }
      }
    },
    {
      "name": "KIROLETAN SPORT SL",
      "registrationNumber": "06030",
      "identificationNumber": "B95583076",
      "address": "Luis Lopez Oses 8, lonja 3",
      "location": {
        "postalCode": "48930",
        "municipality": "Getxo",
        "county": "Bizkaia",
        "municipalityId": "044",
        "countyId": "48"
      },
      "economicActivities": [
        {
          "id": "1.849.9",
          "name": "Otros servicios independientes n.c.o.p",
          "_links": {
            "self": {
              "name": "Otros servicios independientes n.c.o.p",
              "href": "https://api.euskadi.eus/procurements/companies/economic-activities/1.849.9"
            }
          }
        },
        {
          "id": "1.933.9",
          "name": "Otras actividades de enseñanza tales como idiomas, mecanografía",
          "_links": {
            "self": {
              "name": "Otras actividades de enseñanza tales como idiomas, mecanografía",
              "href": "https://api.euskadi.eus/procurements/companies/economic-activities/1.933.9"
            }
          }
        },
        {
          "id": "1.934",
          "name": "Enseñanza fuera de establecimiento permanente",
          "_links": {
            "self": {
              "name": "Enseñanza fuera de establecimiento permanente",
              "href": "https://api.euskadi.eus/procurements/companies/economic-activities/1.934"
            }
          }
        }
      ],
      "certificateStartDate": "2025-10-22",
      "certificateEndDate": "2026-04-18",
      "object": "LA GESTIÓN, FORMACIÓN Y DESARROLLO DE ACTIVIDADES DEPORTIVAS, CULTURALES Y DE OCIO",
      "mainEntityOfPage": "https://www.contratacion.euskadi.eus/webkpe00-kperoc/es/ac71aBusquedaRegistrosWar/empresa/06030",
      "_links": {
        "self": {
          "name": "KIROLETAN SPORT SL",
          "href": "https://api.euskadi.eus/procurements/companies/06030"
        }
      }
    },
    {
      "name": "NETYA FERHIGIENE, S.L.",
      "registrationNumber": "08709",
      "identificationNumber": "B75192617",
      "address": "JOXE MARI KORTA INDUSTRIGUNEA, A6, NAVE 6",
      "location": {
        "postalCode": "20750",
        "municipality": "Zumaia",
        "county": "Gipuzkoa",
        "municipalityId": "081",
        "countyId": "20"
      },
      "economicActivities": [
        {
          "id": "1.614.2",
          "name": "Venta al por mayor de productos de perfumería, droguería, higiene y belleza",
          "_links": {
            "self": {
              "name": "Venta al por mayor de productos de perfumería, droguería, higiene y belleza",
              "href": "https://api.euskadi.eus/procurements/companies/economic-activities/1.614.2"
            }
          }
        }
      ],
      "certificateStartDate": "2025-10-22",
      "certificateEndDate": "2026-04-07",
      "object": "EL DESARROLLO DE PRODUCTOS, SISTEMAS Y SERVICIOS DE MANTENIMIENTO INDUSTRIAL; LA FABRICACIÓN Y VENTA DE PRODUCTOS DE HIGIENE, ASEO Y ACCESORIOS DE LIMPIEZA; LOS SERVICIOS DE LIMPIEZA, DESINFECCIÓN, DESINSECTACIÓN E HIGIENE DE INMUEBLES; LA IMPARTICIÓN DE CURSOS, SEMINARIOS Y CONFERENCIAS; Y LA REPRESENTACIÓN COMERCIAL DE EMPRESAS. CÓDIGO DE ACTIVIDAD (CNAE): NÚMERO 5170.",
      "mainEntityOfPage": "https://www.contratacion.euskadi.eus/webkpe00-kperoc/es/ac71aBusquedaRegistrosWar/empresa/08709",
      "_links": {
        "self": {
          "name": "NETYA FERHIGIENE, S.L.",
          "href": "https://api.euskadi.eus/procurements/companies/08709"
        }
      }
    },
    {
      "name": "ANDRES CORDOBA DE SAMANIEGO GARCIA",
      "registrationNumber": "09917",
      "identificationNumber": "16620036Y",
      "address": "ZABALGANA HIRIBIDEA 19, 6A",
      "location": {
        "postalCode": "01015",
        "municipality": "Vitoria-Gasteiz",
        "county": "Araba/Álava",
        "municipalityId": "059",
        "countyId": "01"
      },
      "economicActivities": [
        {
          "id": "2.411",
          "name": "Arquitectos",
          "_links": {
            "self": {
              "name": "Arquitectos",
              "href": "https://api.euskadi.eus/procurements/companies/economic-activities/2.411"
            }
          }
        }
      ],
      "certificateStartDate": "2025-10-22",
      "certificateEndDate": "2026-04-21",
      "object": "ARQUITECTOS.",
      "mainEntityOfPage": "https://www.contratacion.euskadi.eus/webkpe00-kperoc/es/ac71aBusquedaRegistrosWar/empresa/09917",
      "_links": {
        "self": {
          "name": "ANDRES CORDOBA DE SAMANIEGO GARCIA",
          "href": "https://api.euskadi.eus/procurements/companies/09917"
        }
      }
    },
    {
      "name": "ABOGADOS Y TÉCNICOS ASOCIADOS, S.L.",
      "registrationNumber": "01245",
      "identificationNumber": "B48268221",
      "address": "PLAZA CIRCULAR, 4-8ª PLANTA (EDIFICIO DON DIEGO LOPEZ DE HARO)",
      "location": {
        "postalCode": "48001",
        "municipality": "Bilbao",
        "county": "Bizkaia",
        "municipalityId": "020",
        "countyId": "48"
      },
      "economicActivities": [
        {
          "id": "1.843.1",
          "name": "Servicios técnicos de ingeniería",
          "_links": {
            "self": {
              "name": "Servicios técnicos de ingeniería",
              "href": "https://api.euskadi.eus/procurements/companies/economic-activities/1.843.1"
            }
          }
        },
        {
          "id": "1.843.2",
          "name": "Servicios técnicos de arquitectura y urbanismo",
          "_links": {
            "self": {
              "name": "Servicios técnicos de arquitectura y urbanismo",
              "href": "https://api.euskadi.eus/procurements/companies/economic-activities/1.843.2"
            }
          }
        },
        {
          "id": "1.847",
          "name": "Servicios de consultoría",
          "_links": {
            "self": {
              "name": "Servicios de consultoría",
              "href": "https://api.euskadi.eus/procurements/companies/economic-activities/1.847"
            }
          }
        }
      ],
      "certificateStartDate": "2025-10-22",
      "certificateEndDate": "2026-04-14",
      "object": "LA ADMINISTRACION DE BIENES, DERECHOS Y EMPRESAS, PRESTACION DE SERVICIOS DE GESTION DE TODA CLASE, A SOCIEDADES Y PERSONAS JURIDICAS O FISICAS Y LA ASISTENCIA PERIODICA (JURIDICA, COMERCIAL Y TECNICA), A LAS MISMAS; LA REALIZACION DE TODA CLASE DE ESTUDIOS SOBRE PROBLEMAS DE ECONOMIA GENERAL Y DE LA EMPRESA Y LA PRESTACION DE TODOS LOS SERVICIOS DE ASESORAMIENTO A LAS MISMAS, SOBRE MATERIAS DE ASESORAMIENTO A LAS MISMAS, SOBRE MATERIAS RELACIONADAS CON LA TRIBUTACION, CONTABILIDAD, DIRECCION, ADMINISTRACION, REVISION Y AUDITORIA CONTABLE Y ORGANIZACION EN SU MAS AMPLIO SENTIDO, INCLUSO LA PRESTACION DE TODA CLASE DE SERVICIOS INFORMATICOS; EL ASESORAMIENTO Y ESTUDIO DE CUALQUIER PROBLEMA DE CARACTER JURIDICO, ECONOMICO, INDUSTRIAL, COMERCIAL, FINANCIERO, ADMINISTRATIVO, CONTABLE Y DE OTRA INDOLE Y SU APLICACION A FIN DE MEJORAR LA GESTION Y PRODUCCION DE CUALQUIER GENERO DE EMPRESAS, INDIVIDUALES O JURIDICAS, ASI COMO LA VALORACION Y TASACION DE FINCAS RUSTICAS Y URBANAS, INCLUYENDO LA PROMOCION Y CONSTITUCION DE NUEVAS EMPRESAS, ASI COMO LA ADQUISICION O PARTICIPACION EN EMPRESAS YA EXISTENTES Y EL DISFRUTE DE TITULOS Y VALORES",
      "mainEntityOfPage": "https://www.contratacion.euskadi.eus/webkpe00-kperoc/es/ac71aBusquedaRegistrosWar/empresa/01245",
      "_links": {
        "self": {
          "name": "ABOGADOS Y TÉCNICOS ASOCIADOS, S.L.",
          "href": "https://api.euskadi.eus/procurements/companies/01245"
        }
      }
    },
    {
      "name": "GURUTZE AUTOAK, S.L.",
      "registrationNumber": "05367",
      "identificationNumber": "B20468633",
      "address": "Pol. Industrial Benta Aldea s/n",
      "location": {
        "postalCode": "20270",
        "municipality": "Anoeta",
        "county": "Gipuzkoa",
        "municipalityId": "010",
        "countyId": "20"
      },
      "economicActivities": [
        {
          "id": "1.654.1",
          "name": "Venta al por menor de vehículos terrestres",
          "_links": {
            "self": {
              "name": "Venta al por menor de vehículos terrestres",
              "href": "https://api.euskadi.eus/procurements/companies/economic-activities/1.654.1"
            }
          }
        },
        {
          "id": "1.691.2",
          "name": "Reparación de vehículos automóviles, bicicletas y otros vehículos",
          "_links": {
            "self": {
              "name": "Reparación de vehículos automóviles, bicicletas y otros vehículos",
              "href": "https://api.euskadi.eus/procurements/companies/economic-activities/1.691.2"
            }
          }
        }
      ],
      "certificateStartDate": "2025-10-22",
      "certificateEndDate": "2026-04-22",
      "object": "LA EXPLOTACIÓN DE UN NEGOCIO DEDICADO A LA IMPORTACIÓN, EXPORTACIÓN, REPRESENTACIÓN, VENTA Y REPARACIÓN DE VEHÍCULOS DE MOTOR NUEVOS Y USADOS, TANTO EN LO REFERENTE A REPARACIÓN DE MOTORES Y MECÁNICA EN GENERAL, COMO A LA REPARACIÓN Y CONSTRUCCIÓN DE CARROCERÍAS, RECAMBIO DE PIEZAS Y ALMACÉN DE REPUESTOS.",
      "mainEntityOfPage": "https://www.contratacion.euskadi.eus/webkpe00-kperoc/es/ac71aBusquedaRegistrosWar/empresa/05367",
      "_links": {
        "self": {
          "name": "GURUTZE AUTOAK, S.L.",
          "href": "https://api.euskadi.eus/procurements/companies/05367"
        }
      }
    },
    {
      "name": "BERMEOSOLO, S.A.",
      "registrationNumber": "05132",
      "identificationNumber": "A48298426",
      "address": "POLIGONO INDUSTRIAL ERTZILLA,1-PABELLON  17B",
      "location": {
        "postalCode": "48215",
        "municipality": "Iurreta",
        "county": "Bizkaia",
        "municipalityId": "910",
        "countyId": "48"
      },
      "economicActivities": [
        {
          "id": "1.501.1",
          "name": "Construcción completa, reparación y conservación de edificaciones",
          "_links": {
            "self": {
              "name": "Construcción completa, reparación y conservación de edificaciones",
              "href": "https://api.euskadi.eus/procurements/companies/economic-activities/1.501.1"
            }
          }
        },
        {
          "id": "1.501.2",
          "name": "Construcción completa, reparación y conservación obras civiles",
          "_links": {
            "self": {
              "name": "Construcción completa, reparación y conservación obras civiles",
              "href": "https://api.euskadi.eus/procurements/companies/economic-activities/1.501.2"
            }
          }
        },
        {
          "id": "1.502.2",
          "name": "Consolidación y preparación de terrenos para la construcción de edificaciones",
          "_links": {
            "self": {
              "name": "Consolidación y preparación de terrenos para la construcción de edificaciones",
              "href": "https://api.euskadi.eus/procurements/companies/economic-activities/1.502.2"
            }
          }
        },
        {
          "id": "1.722",
          "name": "Transporte de mercancías por carretera",
          "_links": {
            "self": {
              "name": "Transporte de mercancías por carretera",
              "href": "https://api.euskadi.eus/procurements/companies/economic-activities/1.722"
            }
          }
        }
      ],
      "certificateStartDate": "2025-10-22",
      "certificateEndDate": "2026-04-04",
      "object": "LA ACTIVIDAD DE PROMOCION Y EJECUCIÓN COMPLETA O POR RAMOS DE TODA CLASE DE OBRAS DE CONSTRUCCIÓN, URBANIZACIÓN, SERVICIOS, REPARACIÓN, CONSERVACIÓN, REFORMAS Y EXPLOTACIÓN DE TODA CLASE DE EDIFICACIONES, ASÍ COMO LA COORDINACIÓN DE GREMIOS INTERVINIENTES EN LAS ANTERIORES ACTIVIDADES. EXCAVACIONES Y TRANSPORTES DE MERCANCÍAS, AGENCIA DE MERCANCÍAS TANTO DE CARGA COMPLETA COMO FRACCIONADA, ALMACENAJE Y DISTRIBUCIÓN DE LOS MISMOS, SERVICIOS DE REPARACIÓN Y MANTENIMIENTO DE VEHÍCULOS, TANTO PROPIO COMO AJENOS. ALQUILER DE MAQUINARIA INDUSTRIAL. LA ADQUISICIÓN, TENENCIA, EXPLOTACIÓN Y ENAJENACIÓN DE TODA CLASE DE BIENES INMUEBLES, TALES COMO VIVIENDAS, LOCALES COMERCIALES, PABELLONES INDUSTRIALES O TERRENOS, TANTO RÚSTICOS COMO URBANOS, SU PLANTACIÓN, CULTIVO, URBANIZACIÓN O PARCELACIÓN; LA CONSTRUCCIÓN DE EDIFICIOS DE TODAS CLASES; EL USO, ARRENDAMIENTO, VENTAS O TRANMISIÓN POR CUALQUIER OTRO TÍTULO LOS EDIFICIOS, VIENDAS O LOCALES DE LOS MISMOS. LA ADQUISICIÓN, TENENCIA Y ADMINISTRACIÓN DE VALORES, ACCIONES O PARTICIPACIONES EN SOCIEDADES CIVILES O MERCANTILES",
      "mainEntityOfPage": "https://www.contratacion.euskadi.eus/webkpe00-kperoc/es/ac71aBusquedaRegistrosWar/empresa/05132",
      "_links": {
        "self": {
          "name": "BERMEOSOLO, S.A.",
          "href": "https://api.euskadi.eus/procurements/companies/05132"
        }
      }
    },
    {
      "name": "N WORLD ZONA NORTE, S.L.",
      "registrationNumber": "08257",
      "identificationNumber": "B06796189",
      "address": "Calle Joaquín Arellano 6 Bajo 3",
      "location": {
        "postalCode": "48930",
        "municipality": "Getxo",
        "county": "Bizkaia",
        "municipalityId": "044",
        "countyId": "48"
      },
      "economicActivities": [
        {
          "id": "1.845",
          "name": "Explotación electrónica por cuenta de terceros",
          "_links": {
            "self": {
              "name": "Explotación electrónica por cuenta de terceros",
              "href": "https://api.euskadi.eus/procurements/companies/economic-activities/1.845"
            }
          }
        }
      ],
      "certificateStartDate": "2025-10-22",
      "certificateEndDate": "2026-04-10",
      "object": "EL DESARROLLO DE LAS ACTIVIDADES CORRESPONDIENTES A LOS SIGUIENTES CÓDIGOS Y DESCRIPCIONES DE CLASIFICACIÓN NACIONAL DE ACTIVIDADES ECONÓMICAS: ACTIVIDAD PRINCIPAL: 62.02 / ACTIVIDADES DE CONSULTORÍA INFORMÁTICAS. OTRAS ACTIVIDADES: 70.22 / OTRAS ACTIVIDADES DE CONSULTORÍA DE GESTIÓN EMPRESARIAL, 69.20 / ACTIVIDADES DE CONTABILIDAD, TENEDURÍA DE LIBROS, AUDITORÍA Y ASESORÍA FISCAL, 71.12 / SERVICIOS TÉCNICOS DE INGENIERÍA Y OTRAS ACTIVIDADES RELACIONADAS CON EL ASESORAMIENTO TÉCNICO, 82.99 / OTRAS ACTIVIDADES DE APOYO A LAS EMPRESAS.",
      "mainEntityOfPage": "https://www.contratacion.euskadi.eus/webkpe00-kperoc/es/ac71aBusquedaRegistrosWar/empresa/08257",
      "_links": {
        "self": {
          "name": "N WORLD ZONA NORTE, S.L.",
          "href": "https://api.euskadi.eus/procurements/companies/08257"
        }
      }
    }
  ]
}