{
  "totalItems": 9042,
  "totalPages": 905,
  "currentPage": 842,
  "itemsOfPage": 10,
  "items": [
    {
      "name": "ESEICE SERVICIOS INTEGRALES DE CONGRESOS, S.L.L.",
      "registrationNumber": "02433",
      "identificationNumber": "B95134318",
      "address": "GRAN VÍA, 17 - 4  DPTO.12",
      "location": {
        "postalCode": "48001",
        "municipality": "Bilbao",
        "county": "Bizkaia",
        "municipalityId": "020",
        "countyId": "48"
      },
      "object": "ORGANIZACION DE CONGRESOS",
      "mainEntityOfPage": "https://www.contratacion.euskadi.eus/webkpe00-kperoc/es/ac71aBusquedaRegistrosWar/empresa/02433",
      "_links": {
        "self": {
          "name": "ESEICE SERVICIOS INTEGRALES DE CONGRESOS, S.L.L.",
          "href": "https://api.euskadi.eus/procurements/companies/02433"
        }
      }
    },
    {
      "name": "MOBISER EQUIPAMIENTOS, S.A.",
      "registrationNumber": "02434",
      "identificationNumber": "A48842066",
      "address": "POLÍGONO INDUSTRIAL TORRELARRAGOITI P-5-H, Nº 24",
      "location": {
        "postalCode": "48170",
        "municipality": "Zamudio",
        "county": "Bizkaia",
        "municipalityId": "905",
        "countyId": "48"
      },
      "object": "PAEQUES INFANTILES",
      "mainEntityOfPage": "https://www.contratacion.euskadi.eus/webkpe00-kperoc/es/ac71aBusquedaRegistrosWar/empresa/02434",
      "_links": {
        "self": {
          "name": "MOBISER EQUIPAMIENTOS, S.A.",
          "href": "https://api.euskadi.eus/procurements/companies/02434"
        }
      }
    },
    {
      "name": "REDYTEL INGENIERÍA DE TELECOMUNICACIONES, S.A.",
      "registrationNumber": "02440",
      "identificationNumber": "A48960611",
      "address": "C/ OLITE, 2 BAJO",
      "location": {
        "postalCode": "48012",
        "municipality": "Bilbao",
        "county": "Bizkaia",
        "municipalityId": "020",
        "countyId": "48"
      },
      "object": "PENDIENTE",
      "mainEntityOfPage": "https://www.contratacion.euskadi.eus/webkpe00-kperoc/es/ac71aBusquedaRegistrosWar/empresa/02440",
      "_links": {
        "self": {
          "name": "REDYTEL INGENIERÍA DE TELECOMUNICACIONES, S.A.",
          "href": "https://api.euskadi.eus/procurements/companies/02440"
        }
      }
    },
    {
      "name": "PROMOCIONES SOLINOR, S.L.",
      "registrationNumber": "02471",
      "identificationNumber": "B48543326",
      "address": "AVDA. SABINO ARANA, 14 BAJO",
      "location": {
        "postalCode": "48013",
        "municipality": "Bilbao",
        "county": "Bizkaia",
        "municipalityId": "020",
        "countyId": "48"
      },
      "object": "cualquier cosa",
      "mainEntityOfPage": "https://www.contratacion.euskadi.eus/webkpe00-kperoc/es/ac71aBusquedaRegistrosWar/empresa/02471",
      "_links": {
        "self": {
          "name": "PROMOCIONES SOLINOR, S.L.",
          "href": "https://api.euskadi.eus/procurements/companies/02471"
        }
      }
    },
    {
      "name": "EUSKALCOMTV, S.L.",
      "registrationNumber": "02500",
      "identificationNumber": "B20665147",
      "address": "ZUBEROA KALEA, 22",
      "location": {
        "postalCode": "20800",
        "municipality": "Zarautz",
        "county": "Gipuzkoa",
        "municipalityId": "079",
        "countyId": "20"
      },
      "object": "sin pasar\r\n",
      "mainEntityOfPage": "https://www.contratacion.euskadi.eus/webkpe00-kperoc/es/ac71aBusquedaRegistrosWar/empresa/02500",
      "_links": {
        "self": {
          "name": "EUSKALCOMTV, S.L.",
          "href": "https://api.euskadi.eus/procurements/companies/02500"
        }
      }
    },
    {
      "name": "RECISUELOS, S.A.",
      "registrationNumber": "02507",
      "identificationNumber": "A48760912",
      "address": "ALDA. URQUIJO, 10-*2º",
      "location": {
        "postalCode": "48008",
        "municipality": "Bilbao",
        "county": "Bizkaia",
        "municipalityId": "020",
        "countyId": "48"
      },
      "object": "PENDIENTE",
      "mainEntityOfPage": "https://www.contratacion.euskadi.eus/webkpe00-kperoc/es/ac71aBusquedaRegistrosWar/empresa/02507",
      "_links": {
        "self": {
          "name": "RECISUELOS, S.A.",
          "href": "https://api.euskadi.eus/procurements/companies/02507"
        }
      }
    },
    {
      "name": "EUSKALTRANS, S.L.",
      "registrationNumber": "02527",
      "identificationNumber": "B48281422",
      "address": "C/ TELLAGORRI, 14",
      "location": {
        "postalCode": "48012",
        "municipality": "Bilbao",
        "county": "Bizkaia",
        "municipalityId": "020",
        "countyId": "48"
      },
      "object": "ESCRITURAS",
      "mainEntityOfPage": "https://www.contratacion.euskadi.eus/webkpe00-kperoc/es/ac71aBusquedaRegistrosWar/empresa/02527",
      "_links": {
        "self": {
          "name": "EUSKALTRANS, S.L.",
          "href": "https://api.euskadi.eus/procurements/companies/02527"
        }
      }
    },
    {
      "name": "LAUAXETA IKASTOLA, S.COOP.LTDA.",
      "registrationNumber": "02530",
      "identificationNumber": "F48090922",
      "address": "Bº SAN MIGUEL, S/N",
      "location": {
        "postalCode": "48290",
        "municipality": "Amorebieta-Etxano",
        "county": "Bizkaia",
        "municipalityId": "003",
        "countyId": "48"
      },
      "object": "pendiente",
      "mainEntityOfPage": "https://www.contratacion.euskadi.eus/webkpe00-kperoc/es/ac71aBusquedaRegistrosWar/empresa/02530",
      "_links": {
        "self": {
          "name": "LAUAXETA IKASTOLA, S.COOP.LTDA.",
          "href": "https://api.euskadi.eus/procurements/companies/02530"
        }
      }
    },
    {
      "name": "COPISPORT, S.C.L.",
      "registrationNumber": "02542",
      "identificationNumber": "F01053776",
      "address": "DUQUE DE WELLINGTON, 9 - 1ºIZDA. ",
      "location": {
        "postalCode": "01010",
        "municipality": "Vitoria-Gasteiz",
        "county": "Araba/Álava",
        "municipalityId": "059",
        "countyId": "01"
      },
      "object": "PENDIENTE",
      "mainEntityOfPage": "https://www.contratacion.euskadi.eus/webkpe00-kperoc/es/ac71aBusquedaRegistrosWar/empresa/02542",
      "_links": {
        "self": {
          "name": "COPISPORT, S.C.L.",
          "href": "https://api.euskadi.eus/procurements/companies/02542"
        }
      }
    },
    {
      "name": "JOSÉ RAMÓN GALAPERO HERMOSILLA",
      "registrationNumber": "02543",
      "identificationNumber": "16272442B",
      "address": "GORBEA, 15 -2º IZDA.",
      "location": {
        "postalCode": "01012",
        "municipality": "Vitoria-Gasteiz",
        "county": "Araba/Álava",
        "municipalityId": "059",
        "countyId": "01"
      },
      "object": "ACT DEPORTIVAS Y CCOMEDORES",
      "mainEntityOfPage": "https://www.contratacion.euskadi.eus/webkpe00-kperoc/es/ac71aBusquedaRegistrosWar/empresa/02543",
      "_links": {
        "self": {
          "name": "JOSÉ RAMÓN GALAPERO HERMOSILLA",
          "href": "https://api.euskadi.eus/procurements/companies/02543"
        }
      }
    }
  ]
}