{
  "totalItems": 9042,
  "totalPages": 905,
  "currentPage": 735,
  "itemsOfPage": 10,
  "items": [
    {
      "name": "BK SISTEMAS Y DESARROLLOS DEL MUEBLE",
      "registrationNumber": "04306",
      "identificationNumber": "A82431412",
      "address": "AMUTALDE, 5",
      "location": {
        "postalCode": "20280",
        "municipality": "Hondarribia",
        "county": "Gipuzkoa",
        "municipalityId": "036",
        "countyId": "20"
      },
      "economicActivities": [
        {
          "id": "1.468.2",
          "name": "Fabricación de mobiliario de madera escolar y de oficina",
          "_links": {
            "self": {
              "name": "Fabricación de mobiliario de madera escolar y de oficina",
              "href": "https://api.euskadi.eus/procurements/companies/economic-activities/1.468.2"
            }
          }
        }
      ],
      "certificateStartDate": "2010-02-02",
      "certificateEndDate": "2010-03-25",
      "object": "LA COMERCIALIZACIÓN DE TODO TIPO DE MOBILIARIO.",
      "mainEntityOfPage": "https://www.contratacion.euskadi.eus/webkpe00-kperoc/es/ac71aBusquedaRegistrosWar/empresa/04306",
      "_links": {
        "self": {
          "name": "BK SISTEMAS Y DESARROLLOS DEL MUEBLE",
          "href": "https://api.euskadi.eus/procurements/companies/04306"
        }
      }
    },
    {
      "name": "BAS ASESORES ABOGADOS, S.L.P.",
      "registrationNumber": "04321",
      "identificationNumber": "B20979639",
      "address": "SEGUNDO IZPIZUA 37 - BAJO",
      "location": {
        "postalCode": "20001",
        "municipality": "Donostia / San Sebastián",
        "county": "Gipuzkoa",
        "municipalityId": "069",
        "countyId": "20"
      },
      "economicActivities": [
        {
          "id": "1.841",
          "name": "Servicios jurídicos",
          "_links": {
            "self": {
              "name": "Servicios jurídicos",
              "href": "https://api.euskadi.eus/procurements/companies/economic-activities/1.841"
            }
          }
        }
      ],
      "certificateStartDate": "2010-02-02",
      "certificateEndDate": "2010-03-16",
      "object": "LA ACTIVIDAD PROPIA DE LOS PROFESIONALES DE LA ABOGACÍA. EL OBJETO SOCIAL PODRA DESARROLLARSE MEDIANTE SU PARTICIPACIÓN EN OTRAS SOCIEDADES PROFESIONALES.\r\nQUEDAN EXCLUIDAS TODAS AQUELLAS ACTIVIDADES PARA CUYO EJERCICIO LA LEY EXIJA REQUISITOS ESPECIALES, QUE NO QUEDEN CUMPLIDOS POR ESTA SOCIEDAD.",
      "mainEntityOfPage": "https://www.contratacion.euskadi.eus/webkpe00-kperoc/es/ac71aBusquedaRegistrosWar/empresa/04321",
      "_links": {
        "self": {
          "name": "BAS ASESORES ABOGADOS, S.L.P.",
          "href": "https://api.euskadi.eus/procurements/companies/04321"
        }
      }
    },
    {
      "name": "YOUNG CONTRACTORS, S.L.",
      "registrationNumber": "04325",
      "identificationNumber": "B95263984",
      "address": "BARRIO IBARRA 27-BJ-B",
      "location": {
        "postalCode": "48393",
        "municipality": "Forua",
        "county": "Bizkaia",
        "municipalityId": "906",
        "countyId": "48"
      },
      "economicActivities": [
        {
          "id": "1.501.1",
          "name": "Construcción completa, reparación y conservación de edificaciones",
          "_links": {
            "self": {
              "name": "Construcción completa, reparación y conservación de edificaciones",
              "href": "https://api.euskadi.eus/procurements/companies/economic-activities/1.501.1"
            }
          }
        },
        {
          "id": "1.504.8",
          "name": "Montajes metálicos e instalaciones industriales completas",
          "_links": {
            "self": {
              "name": "Montajes metálicos e instalaciones industriales completas",
              "href": "https://api.euskadi.eus/procurements/companies/economic-activities/1.504.8"
            }
          }
        }
      ],
      "certificateStartDate": "2010-02-02",
      "certificateEndDate": "2010-04-06",
      "object": "1.- LA INSTALACIÓN, MONTAJE DE ANDAMIOS, CARPAS, ESTANTES, EXPOSITORES, ESTRUCTURAS PROVISIONALES, MOBILIARIO Y DEMÁS INSTALACIONES DE ANÁLOGA NATURALEZA DESTINADOS A LA MUESTRA DE PRODUCTOS EN FERIAS Y CERTÁMENES.\r\n2.- LA ADQUISICIÓN Y ENAJENACIÓN, POR CUALQUIER TÍTULO, DE FINCAS RÚSTICAS Y URBANAS, YA SEAN TIERRAS, SOLARES O EDIFICIOS; LA PROMOCIÓN Y CONSTRUCCIÓN DE ESTOS, INCLUIDAS VIVIENDAS DE PROTECCIÓN OFICIAL EN TODAS SUS CATEGORÍAS, Y LA ADMINISTRACIÓN, TENENCIA, EXPLOTACIÓN Y ARRENDAMIENTO, YA SEA ACTIVO O PASIVO, DE TALES BIENES Y SU VENTA, TOTAL O PARCIAL, SEGÚN CONVENGA, PARA SU APROVECHAMIENTO AGRÍCOLA, FORESTAL, URBANO O CUALQUIER OTRO.\r\n3- LA EJECUCIÓN DE OBRAS DE ALBAÑILERIA Y TRATAMIENTOS DE FACHADAS Y TEJADOS.",
      "mainEntityOfPage": "https://www.contratacion.euskadi.eus/webkpe00-kperoc/es/ac71aBusquedaRegistrosWar/empresa/04325",
      "_links": {
        "self": {
          "name": "YOUNG CONTRACTORS, S.L.",
          "href": "https://api.euskadi.eus/procurements/companies/04325"
        }
      }
    },
    {
      "name": "HABITAT ARS TECNIA SOCIETAS MMVIII, S.L.",
      "registrationNumber": "04333",
      "identificationNumber": "B95547675",
      "address": "GARDOQUI 3, 6º A, DPTO. 1",
      "location": {
        "postalCode": "48008",
        "municipality": "Bilbao",
        "county": "Bizkaia",
        "municipalityId": "020",
        "countyId": "48"
      },
      "economicActivities": [
        {
          "id": "1.501.1",
          "name": "Construcción completa, reparación y conservación de edificaciones",
          "_links": {
            "self": {
              "name": "Construcción completa, reparación y conservación de edificaciones",
              "href": "https://api.euskadi.eus/procurements/companies/economic-activities/1.501.1"
            }
          }
        }
      ],
      "certificateStartDate": "2010-02-02",
      "certificateEndDate": "2010-04-15",
      "object": "-) LA CONSTRUCCIÓN Y REHABILITACIÓN DE TODA CLASE DE EDIFICIOS, EL ASESORAMIENTO TÉCNICO, LA REALIZACIÓN DE PROYECTOS Y LA PRESTACIÓN DE TODO TIPO DE SERVICIOS DE INGENIERÍA Y ARQUITECTURA.  -) LA ADQUISICIÓN Y ENAJENACIÓN, POR CUALQUIER TÍTULO, DE FINCAS RÚSTICAS Y URBANAS, YA SEAN TIERRAS, SOLARES, EDIFICIOS, LA CONSTRUCCIÓN DE ÉSTOS Y LA ADMINISTRACIÓN, TENENCIA, EXPLOTACIÓN Y ARRENDAMIENTO, YA SEA ACTIVO O PASIVO DE TALES BIENES Y SU COMPRAVENTA, TOTAL O PARCIAL, SEGÚN CONVENGA PARA SU APROVECHAMIENTO URBANO, INDUSTRIAL, COMERCIAL O CUALQUIER OTRO.   -) EL COMERCIO TANTO AL POR MAYOR COMO AL POR MENOR, EN LAS ´MÁS VARIADAS FORMAS DE USO, COMPRENDIDAS AQUELLAS POR CORRESPONDENCIA SOBRE CATÁLOGO, Y EL COMERCIO ELECTRÓNICO A TRAVÉS DE INTERNET O DE CUALQUIER OTRA RED QUE PUEDA CREARSE EN EL FUTURO, DE CUALESQUIERA PRODUCTOS DE CONSUMO.  -) LA IMPORTACIÓN Y EXPORTACIÓN DE LOS MENCIONADOS PRODUCTOS, LA UTILIZACIÓN Y APROVECHAMIENTO DE LAS MARCAS COMERCIALES EN GENERAL, EL DESEMPEÑO DE COMISIONES Y REPRESENTACIONES PARA TODO GÉNERO DE OPERACIONES DE LÍCITO COMERCIO, PUDIENDO ACTUAR COMO REPRESENTANTE, AGENTE, COMISIONISTA, DELEGADO O BAJO CUALQUIER OTRA FORMA DE MEDIACIÓN MERCANTIL DE TODA CLASE DE EMPRESAS NACIONALES O EXTRANJERAS.",
      "mainEntityOfPage": "https://www.contratacion.euskadi.eus/webkpe00-kperoc/es/ac71aBusquedaRegistrosWar/empresa/04333",
      "_links": {
        "self": {
          "name": "HABITAT ARS TECNIA SOCIETAS MMVIII, S.L.",
          "href": "https://api.euskadi.eus/procurements/companies/04333"
        }
      }
    },
    {
      "name": "UNDERLINK, S.L.",
      "registrationNumber": "04334",
      "identificationNumber": "B95175840",
      "address": "ERCILLA, 26- 1º DCHA.",
      "location": {
        "postalCode": "48011",
        "municipality": "Bilbao",
        "county": "Bizkaia",
        "municipalityId": "020",
        "countyId": "48"
      },
      "economicActivities": [
        {
          "id": "1.844",
          "name": "Servicios de publicidad, relaciones públicas y similares",
          "_links": {
            "self": {
              "name": "Servicios de publicidad, relaciones públicas y similares",
              "href": "https://api.euskadi.eus/procurements/companies/economic-activities/1.844"
            }
          }
        }
      ],
      "certificateStartDate": "2010-02-02",
      "certificateEndDate": "2010-05-19",
      "object": "A) CREACIÓN, SEGUIMIENTO Y PUBLICACIÓN, DIVULGACIÓN, PROMULGACIÓN Y PROPAGANDA DE ANUNCIOS, SPORTS. CAMPAÑAS PUBLICITARIAS Y MARKETING. B) ASESORAMIENTO, CONSULTORÍA EN MATERIA INFORMÁTICA A TRAVÉS DE INTERNET",
      "mainEntityOfPage": "https://www.contratacion.euskadi.eus/webkpe00-kperoc/es/ac71aBusquedaRegistrosWar/empresa/04334",
      "_links": {
        "self": {
          "name": "UNDERLINK, S.L.",
          "href": "https://api.euskadi.eus/procurements/companies/04334"
        }
      }
    },
    {
      "name": "COMERCIAL PRADA, S.A.",
      "registrationNumber": "00740",
      "identificationNumber": "A01022912",
      "address": "C/ ZURRUPITIETA, Nº 15 - POL. IND. JÚNDIZ",
      "location": {
        "postalCode": "01015",
        "municipality": "Vitoria-Gasteiz",
        "county": "Araba/Álava",
        "municipalityId": "059",
        "countyId": "01"
      },
      "economicActivities": [
        {
          "id": "1.501.1",
          "name": "Construcción completa, reparación y conservación de edificaciones",
          "_links": {
            "self": {
              "name": "Construcción completa, reparación y conservación de edificaciones",
              "href": "https://api.euskadi.eus/procurements/companies/economic-activities/1.501.1"
            }
          }
        }
      ],
      "certificateStartDate": "2010-01-29",
      "certificateEndDate": "2010-04-26",
      "object": "EL EJERCICIO DE REPRESENTACIONES MERCANTILES Y COMERCIALES ASÍ COMO LA COMPRAVENTA Y COMERCIALIZACIÓN DE TODA CLASE DE MARCAS COMERCIALES Y ARTÍCULOS DE CONSUMO, ESPECIALMENTE LOS DE MATERIALES DE CONSTRUCCIÓN, MUEBLES, APARATOS ELECTRODOMÉSTICOS, ALIMENTOS Y CUALESQUIERA OTROS BIENES DE CONSUMO. LA GESTIÓN DE TODO TIPO DE OBRAS PÚBLICAS O PRIVADAS. LA PROMOCIÓN DE URBANIZACIONES Y TODA CLASE DE EDIFICACIONES, SU GESTIÓN, CONSTRUCCIÓN, EXPLOTACIÓN Y VENTA O ENAJENACIÓN POR CUALQUIER TÍTULO. LA EXPLOTACIÓN DE NEGOCIOS DE HOSTELERÍA Y TURISMO EN EL SENTIDO MÁS AMPLIO",
      "mainEntityOfPage": "https://www.contratacion.euskadi.eus/webkpe00-kperoc/es/ac71aBusquedaRegistrosWar/empresa/00740",
      "_links": {
        "self": {
          "name": "COMERCIAL PRADA, S.A.",
          "href": "https://api.euskadi.eus/procurements/companies/00740"
        }
      }
    },
    {
      "name": "HUCOA ERLÖSS, S.A.",
      "registrationNumber": "01176",
      "identificationNumber": "A28096691",
      "address": "C/ LUIS I, 9",
      "location": {
        "postalCode": "28031",
        "municipality": "Madrid",
        "county": "Madrid",
        "municipalityId": "079",
        "countyId": "28"
      },
      "economicActivities": [
        {
          "id": "1.619.7",
          "name": "Venta al por mayor de instrumentos de precisión, medida y similares",
          "_links": {
            "self": {
              "name": "Venta al por mayor de instrumentos de precisión, medida y similares",
              "href": "https://api.euskadi.eus/procurements/companies/economic-activities/1.619.7"
            }
          }
        }
      ],
      "certificateStartDate": "2010-01-27",
      "certificateEndDate": "2009-09-30",
      "object": "LA VENTA Y REPRESENTACIÓN DE MATERIAL CIENTÍFICO E INDUSTRIAL Y CUALQUIER OTRA ACTIVIDAD CON ELLO RELACIONADA O QUE SUPONGA ASESORAMIENTO O COLABORACIÓN A PERSONAS O ENTIDADES QUE SE DEDIQUEN AL CULTIVO DE UNA CIENCIA EXPERIMENTAL PURA Y APLICADA",
      "mainEntityOfPage": "https://www.contratacion.euskadi.eus/webkpe00-kperoc/es/ac71aBusquedaRegistrosWar/empresa/01176",
      "_links": {
        "self": {
          "name": "HUCOA ERLÖSS, S.A.",
          "href": "https://api.euskadi.eus/procurements/companies/01176"
        }
      }
    },
    {
      "name": "ESRI ESPAÑA GEOSISTEMAS, S.A.",
      "registrationNumber": "02907",
      "identificationNumber": "A79851382",
      "address": "C/ARAPILES, 14-5º",
      "location": {
        "postalCode": "28015",
        "municipality": "Madrid",
        "county": "Madrid",
        "municipalityId": "079",
        "countyId": "28"
      },
      "economicActivities": [
        {
          "id": "1.845",
          "name": "Explotación electrónica por cuenta de terceros",
          "_links": {
            "self": {
              "name": "Explotación electrónica por cuenta de terceros",
              "href": "https://api.euskadi.eus/procurements/companies/economic-activities/1.845"
            }
          }
        }
      ],
      "certificateStartDate": "2010-01-27",
      "certificateEndDate": "2010-03-21",
      "mainEntityOfPage": "https://www.contratacion.euskadi.eus/webkpe00-kperoc/es/ac71aBusquedaRegistrosWar/empresa/02907",
      "_links": {
        "self": {
          "name": "ESRI ESPAÑA GEOSISTEMAS, S.A.",
          "href": "https://api.euskadi.eus/procurements/companies/02907"
        }
      }
    },
    {
      "name": "GARAPE 96, S.L.",
      "registrationNumber": "02307",
      "identificationNumber": "B48824692",
      "address": "Bº UGARTE, EL JUNCAL S/N",
      "location": {
        "postalCode": "48510",
        "municipality": "Valle de Trápaga-Trapagaran",
        "county": "Bizkaia",
        "municipalityId": "080",
        "countyId": "48"
      },
      "economicActivities": [
        {
          "id": "1.507",
          "name": "Construcción, reparación y conservación de toda clase obras",
          "_links": {
            "self": {
              "name": "Construcción, reparación y conservación de toda clase obras",
              "href": "https://api.euskadi.eus/procurements/companies/economic-activities/1.507"
            }
          }
        },
        {
          "id": "1.722",
          "name": "Transporte de mercancías por carretera",
          "_links": {
            "self": {
              "name": "Transporte de mercancías por carretera",
              "href": "https://api.euskadi.eus/procurements/companies/economic-activities/1.722"
            }
          }
        }
      ],
      "certificateStartDate": "2010-01-25",
      "certificateEndDate": "2010-06-10",
      "object": "1) LA CONSTRUCCIÓN Y EJECUCIÓN DE OBRAS DE CARÁCTER PÚBLICO Y/O PRIVADO. 2) EL ESTUDIO, PROMOCIÓN, ASESORAMIENTO, ADMINISTRACIÓN, GESTIÓN, ADQUISICIÓN, VENTA Y EXPLOTAICÓN EN CUALQUIER FORMA DE SOLARES, TERRENOS, CONJUNTOS RESIDENCIALES, URBANIZACIONES O PROMOCIONES INMOBILIARIAS Y, EN GENERAL DE TODA CLASE DE BIENES INMUEBLES. 3) LA PRESTACIÓN, POR MEDIOS PROPIOS O AJENOS, DE SERVICIOS DE TRANSPORTES EN GENERAL POR CUALQUIER MEDIO, TERRESTRE, MARTÍTIMO, FLUVIAL O AÉREO, YA SEA COMO PORTEADOR, TRANSITARIO O COMISIONISTA, TANTO NACIONALES COMO EXTRANJEROS, DE TALLE MECÁNICO. LA RECEPCIÓN Y ENVÍO DE TODO TIPO DE MERCANCÍAS, CONTRATANDO SU TRANSPORTE, POR SÍ O POR OTRO, CON COMPAÑÍAS NACIONALES O EXTRANJERAS; SU GUARDA, ALMACENAJE Y DEPÓSITO, EN INSTALACIONES O LOCALES PROPIOS  Y/O AJENOS, DENTRO O FUERA DEL TERRITORIO NACIONAL, CON MOTIVO DEL TRÁNSITO, ENVÍO Y REEXPEDICIÓN; SU CONSERVACIÓN Y MANTENIMIENTO; LA ADECUACIÓN Y GRUPAJE DE LAS MISMAS Y CUALESQUIERA OPERACIONES DERIVADAS DE SU RECEPCIÓN Y TRANSPORTE, HASTA SU ENTREGA EN DESTINO. Y EN GENERAL, CUANTO SE RELACIONE CON EL SERVICIO DE TRANSPORTE, PUDIENDO, POR ACUERDO DE LOS SOCIOS, EJERCER CUALQUIER OPERACIÓN LÍCITA DENTRO DE LOS LÍMITES PREVENIDOS EN LA LEGISLACIÓN VIGENTE",
      "mainEntityOfPage": "https://www.contratacion.euskadi.eus/webkpe00-kperoc/es/ac71aBusquedaRegistrosWar/empresa/02307",
      "_links": {
        "self": {
          "name": "GARAPE 96, S.L.",
          "href": "https://api.euskadi.eus/procurements/companies/02307"
        }
      }
    },
    {
      "name": "PUBLICIDAD CATORCE, S.A.",
      "registrationNumber": "00236",
      "identificationNumber": "A48215677",
      "address": "C/ VIUDA DE EPALZA, Nº 1 - 1º D.",
      "location": {
        "postalCode": "48005",
        "municipality": "Bilbao",
        "county": "Bizkaia",
        "municipalityId": "020",
        "countyId": "48"
      },
      "economicActivities": [
        {
          "id": "1.844",
          "name": "Servicios de publicidad, relaciones públicas y similares",
          "_links": {
            "self": {
              "name": "Servicios de publicidad, relaciones públicas y similares",
              "href": "https://api.euskadi.eus/procurements/companies/economic-activities/1.844"
            }
          }
        }
      ],
      "certificateStartDate": "2010-01-20",
      "certificateEndDate": "2010-06-15",
      "object": "CONTRATACIÓN DE PUBLICIDAD EN GENERAL Y ASESORAMIENTO DE PUBLICIDAD",
      "mainEntityOfPage": "https://www.contratacion.euskadi.eus/webkpe00-kperoc/es/ac71aBusquedaRegistrosWar/empresa/00236",
      "_links": {
        "self": {
          "name": "PUBLICIDAD CATORCE, S.A.",
          "href": "https://api.euskadi.eus/procurements/companies/00236"
        }
      }
    }
  ]
}