{
  "totalItems": 9042,
  "totalPages": 905,
  "currentPage": 237,
  "itemsOfPage": 10,
  "items": [
    {
      "name": "ALFILSTORE, S.L.",
      "registrationNumber": "10149",
      "identificationNumber": "B95818993",
      "address": "P.I. LEGUIZAMON C/ ARABA, 14",
      "location": {
        "postalCode": "48450",
        "municipality": "Etxebarri",
        "county": "Bizkaia",
        "municipalityId": "029",
        "countyId": "48"
      },
      "economicActivities": [
        {
          "id": "1.617.8",
          "name": "Venta al por mayor de máquinas y material de oficina",
          "_links": {
            "self": {
              "name": "Venta al por mayor de máquinas y material de oficina",
              "href": "https://api.euskadi.eus/procurements/companies/economic-activities/1.617.8"
            }
          }
        }
      ],
      "certificateStartDate": "2025-10-01",
      "certificateEndDate": "2026-04-01",
      "object": "SUMINISTRO DE MATERIAL DE OFICINA, PAPEL, CONSUMIBLES DE IMPRESORAS, IMPRENTA, MOBILIARIO, Y MATERIAL ESCOLAR A EMPRESAS, CENTROS OFICIALES Y COLEGIOS.",
      "mainEntityOfPage": "https://www.contratacion.euskadi.eus/webkpe00-kperoc/es/ac71aBusquedaRegistrosWar/empresa/10149",
      "_links": {
        "self": {
          "name": "ALFILSTORE, S.L.",
          "href": "https://api.euskadi.eus/procurements/companies/10149"
        }
      }
    },
    {
      "name": "OBRAS Y SERVICIOS DAYKER, S.L.",
      "registrationNumber": "08860",
      "identificationNumber": "B01560580",
      "address": "Calle Antonio Machado (01010) 15, bajo",
      "location": {
        "postalCode": "01010",
        "municipality": "Vitoria-Gasteiz",
        "county": "Araba/Álava",
        "municipalityId": "059",
        "countyId": "01"
      },
      "economicActivities": [
        {
          "id": "1.501.1",
          "name": "Construcción completa, reparación y conservación de edificaciones",
          "_links": {
            "self": {
              "name": "Construcción completa, reparación y conservación de edificaciones",
              "href": "https://api.euskadi.eus/procurements/companies/economic-activities/1.501.1"
            }
          }
        }
      ],
      "certificateStartDate": "2025-10-01",
      "certificateEndDate": "2026-04-01",
      "object": "LA PROMOCIÓN Y EJECUCIÓN DE TODA CLASE DE OBRAS DE CONSTRUCCIÓN Y SERVICIOS, REPARACIÓN Y CONSERVACIÓN.- CNAE 41.00",
      "mainEntityOfPage": "https://www.contratacion.euskadi.eus/webkpe00-kperoc/es/ac71aBusquedaRegistrosWar/empresa/08860",
      "_links": {
        "self": {
          "name": "OBRAS Y SERVICIOS DAYKER, S.L.",
          "href": "https://api.euskadi.eus/procurements/companies/08860"
        }
      }
    },
    {
      "name": "ITESA PRODUCCIONES, S.L.",
      "registrationNumber": "10145",
      "identificationNumber": "B95058244",
      "address": "Calle Henao Nº7 - 4ª Planta - Dpto 1",
      "location": {
        "postalCode": "48009",
        "municipality": "Bilbao",
        "county": "Bizkaia",
        "municipalityId": "020",
        "countyId": "48"
      },
      "economicActivities": [
        {
          "id": "1.961.1",
          "name": "Producción de películas cinematográficas (incluso vídeos)",
          "_links": {
            "self": {
              "name": "Producción de películas cinematográficas (incluso vídeos)",
              "href": "https://api.euskadi.eus/procurements/companies/economic-activities/1.961.1"
            }
          }
        }
      ],
      "certificateStartDate": "2025-10-01",
      "certificateEndDate": "2026-04-01",
      "object": "LA PRESTACIÓN, INTERMEDIACIÓN Y COMERCIALIZACIÓN DE TODA CLASE DE SERVICIOS DE FILMACIÓN, REPRODUCCIÓN, GRABACIÓN Y DOBLAJE DE IMÁGENES Y SONIDOS, INCLUIDA SU DISTRIBUCIÓN Y EXHIBICIÓN PÚBLICA. LA PRODUCCIÓN, DIRECCIÓN Y REALIZACIÓN DE PELÍCULAS CINEMATOGRÁFICAS, DOCUMENTALES, CORTOMETRAJES, AUDIOVISUALES, SPOTS PUBLICITARIOS, GRABACIONES CON FINALIDAD PUBLICITARIA, DE INFORMACIÓN O DIFUSIÓN. LA FABRICACIÓN, ADQUISICIÓN, ENAJENACIÓN, IMPORTACIÓN, EXPORTACIÓN DE APARATOS RELACIONADOS CON LA ELABORACIÓN Y TRANSMISIÓN DE IMÁGENES Y SONIDOS, SUS ACCESORIOS Y COMPLEMENTOS ASÍ COMO SU COMERCIALIZACIÓN Y ARRENDAMIENTO, INSTALACIÓN, REPARACIÓN Y PRESTACIÓN DE SERVICIOS DE ASISTENCIA TÉCNICA Y MANTENIMIENTO. LA EXPLOTACIÓN DE PATENTES, MARCAR, MÉTODOS Y PROCEDIMIENTOS INDUSTRIALES O COMERCIALES Y DEMÁS DERECHOS CONTEMPLADOS EN EL ESTATUTO DE PROPIEDAD INDUSTRIAL RELACIONADOS CON LA IMAGEN Y EL SONIDO, INCLUIDAS SU ELABORACIÓN Y TRANSMISIÓN. LA PRESTACIÓN A TERCEROS DE SERVICIOS PUBLICITARIOS, DE INFORMACIÓN Y DE DIFUSIÓN, RELACIONADOS CON CUALQUIER MÉTODO DE COMUNICACIÓN AUDIOVISUAL Y EN ESPECIAL, A TRAVÉS DE DISCOS, CINTAS MAGNETOFÓNICAS Y/O SONIDOS. LA FORMACIÓN, ENSEÑANZA Y ADIESTRAMIENTO DE PERSONAS, QUE PUEDAN DESARROLLAR ACTIVIDADES EN LOS MEDIOS DE DIFUSIÓN O DE COMUNICACIÓN, CINEMATOGRÁFICA Y ESPECTÁCULOS, ASÍ COMO LA ENSEÑANZA DEL USO Y UTILIZACIÓN DE LOS APARATOS Y SISTEMA DE IMAGEN Y/O SONIDO ACTUALES O FUTUROS. LA CREACIÓN, INSTALACIÓN Y EXPLOTACIÓN COMERCIAL DE EMISORAS Y CADENAS DE EMISORAS DE RADIODIFUSIÓN, TELEVISIÓN, TELEMÁTICA, UTILIZANDO TANTO PROCEDIMIENTO DE TRANSMISIÓN MEDIANTE ANTENAS COMO POR HILOS O CABLES TELEFÓNICOS, VÍA SATÉLITE O CUALESQUIERA OTROS POSIBLES ACTUALMENTE O QUE PUEDAN IDEARSE EN EL FUTURO.",
      "mainEntityOfPage": "https://www.contratacion.euskadi.eus/webkpe00-kperoc/es/ac71aBusquedaRegistrosWar/empresa/10145",
      "_links": {
        "self": {
          "name": "ITESA PRODUCCIONES, S.L.",
          "href": "https://api.euskadi.eus/procurements/companies/10145"
        }
      }
    },
    {
      "name": "ZETA COMUNICACION VISUAL, S.L.",
      "registrationNumber": "10141",
      "identificationNumber": "B95904611",
      "address": "Calle Jose María Escuza 17 6º DCH (48013)",
      "location": {
        "postalCode": "48013",
        "municipality": "Bilbao",
        "county": "Bizkaia",
        "municipalityId": "020",
        "countyId": "48"
      },
      "economicActivities": [
        {
          "id": "1.844",
          "name": "Servicios de publicidad, relaciones públicas y similares",
          "_links": {
            "self": {
              "name": "Servicios de publicidad, relaciones públicas y similares",
              "href": "https://api.euskadi.eus/procurements/companies/economic-activities/1.844"
            }
          }
        }
      ],
      "certificateStartDate": "2025-10-01",
      "certificateEndDate": "2026-04-01",
      "object": "ACTIVIDAD PRINCIPAL: CNAE. 7311.- AGENCIA DE PUBLICIDAD.",
      "mainEntityOfPage": "https://www.contratacion.euskadi.eus/webkpe00-kperoc/es/ac71aBusquedaRegistrosWar/empresa/10141",
      "_links": {
        "self": {
          "name": "ZETA COMUNICACION VISUAL, S.L.",
          "href": "https://api.euskadi.eus/procurements/companies/10141"
        }
      }
    },
    {
      "name": "CENTRO DE DIAGNOSTICO SAN JUAN DE DIOS SA",
      "registrationNumber": "10362",
      "identificationNumber": "A95302592",
      "address": "Avenida Cristóbal de Murrieta",
      "location": {
        "postalCode": "48980",
        "municipality": "Santurtzi",
        "county": "Bizkaia",
        "municipalityId": "082",
        "countyId": "48"
      },
      "economicActivities": [
        {
          "id": "1.942.1",
          "name": "Consultorios médicos, centros de socorro sanitarios y urgencias",
          "_links": {
            "self": {
              "name": "Consultorios médicos, centros de socorro sanitarios y urgencias",
              "href": "https://api.euskadi.eus/procurements/companies/economic-activities/1.942.1"
            }
          }
        }
      ],
      "certificateStartDate": "2025-10-01",
      "certificateEndDate": "2026-03-11",
      "object": "LAS ACTIVIDADES Y SERVICIOS DERIVADOS DE LAS CONSIDERADAS COMO ALTAS TECNOLOGÍAS DE RADIODIAGNÓSTICO (RESONANCIA MAGNÉTICA, SCANNER, ETC..).",
      "mainEntityOfPage": "https://www.contratacion.euskadi.eus/webkpe00-kperoc/es/ac71aBusquedaRegistrosWar/empresa/10362",
      "_links": {
        "self": {
          "name": "CENTRO DE DIAGNOSTICO SAN JUAN DE DIOS SA",
          "href": "https://api.euskadi.eus/procurements/companies/10362"
        }
      }
    },
    {
      "name": "CENTRO DE DIAGNOSTICO DURANGO SL",
      "registrationNumber": "10361",
      "identificationNumber": "B95699583",
      "address": "Calle Intxaurrondo",
      "location": {
        "postalCode": "48200",
        "municipality": "Durango",
        "county": "Bizkaia",
        "municipalityId": "027",
        "countyId": "48"
      },
      "economicActivities": [
        {
          "id": "1.942.1",
          "name": "Consultorios médicos, centros de socorro sanitarios y urgencias",
          "_links": {
            "self": {
              "name": "Consultorios médicos, centros de socorro sanitarios y urgencias",
              "href": "https://api.euskadi.eus/procurements/companies/economic-activities/1.942.1"
            }
          }
        }
      ],
      "certificateStartDate": "2025-10-01",
      "certificateEndDate": "2026-03-10",
      "object": "LAS ACTIVIDADES Y SERVICIOS DERIVADOS DE LAS CONSIDERADAS COMO ALTAS TECNOLOGÍAS DE RADIODIAGNÓSTICO (RESONANCIA, MAGNÉTICA, SCANNER, ETC.)",
      "mainEntityOfPage": "https://www.contratacion.euskadi.eus/webkpe00-kperoc/es/ac71aBusquedaRegistrosWar/empresa/10361",
      "_links": {
        "self": {
          "name": "CENTRO DE DIAGNOSTICO DURANGO SL",
          "href": "https://api.euskadi.eus/procurements/companies/10361"
        }
      }
    },
    {
      "name": "CREATING HOMES 2017, S.L.",
      "registrationNumber": "08464",
      "identificationNumber": "B95922969",
      "address": "POL. ARTUNDUAGA, 4 - PAB.17 - 1º",
      "location": {
        "postalCode": "48970",
        "municipality": "Basauri",
        "county": "Bizkaia",
        "municipalityId": "015",
        "countyId": "48"
      },
      "economicActivities": [
        {
          "id": "1.501.1",
          "name": "Construcción completa, reparación y conservación de edificaciones",
          "_links": {
            "self": {
              "name": "Construcción completa, reparación y conservación de edificaciones",
              "href": "https://api.euskadi.eus/procurements/companies/economic-activities/1.501.1"
            }
          }
        }
      ],
      "certificateStartDate": "2025-10-01",
      "certificateEndDate": "2026-03-19",
      "object": "LA SOCIEDAD TENDRÁ POR OBJETO LAS SIGUIENTES ACTIVIDADES: 1) LA ADQUISICIÓN, PLANIFICACIÓN, URBANIZACIÓN, PARCELACIÓN PROMOCIÓN, VENTA Y APROVECHAMIENTO EN CUALQUIER FORMA DE FINCAS RÚSTICAS Y URBANAS. LA CONSTRUCCIÓN DE TODA CLASE DE OBRA PÚBLICAS Y PRIVADAS, EDIFICACIÓN DE VIVIENDAS, APARTAMENTOS, BUNGALOW, CHALETS, COMPLEJOS URBANÍSTICOS, INSTALACIONES DE CARÁCTER TURÍSTICO Y DEPORTIVO, PABELLONES INDUSTRIALES Y COMERCIALES, PROMOCIONANDO SU EXPLOTACIÓN Y VENTA, MOVIMIENTO DE TIERRAS Y PERFORACIONES. EDIFICACIONES. OBRAS HIDRÁULICAS, MARÍTIMAS, VIAJES Y PISTAS, INSTALACIONES ELÉCTRICAS. INSTALACIONES MECÁNICAS CONSTRUCCIONES ESPECIALES TALES COMO LA RESTAURACIÓN DE BIENES INMUEBLES HISTÓRICOS-ARTÍSTICOS INSTALACIONES DE SISTEMAS CONTRA INCENDIOS TRANSPORTE POR CARRETERA DE MERCANCÍAS, 2) LA COMERCIALIZACIÓN DE PRODUCTOS INMOBILIARIOS ENTENDIDA COMO LA COMPRA, CONSTRUCCIÓN, VENTA, ARRENDAMIENTO Y CUALQUIER OTRA FORMA DE EXPLOTACIÓN ADMITIDA EN DERECHO DE TODA CLASE DE BIENES INMUEBLES, ESPECIALMENTE TERRENOS VIVIENDAS, CHALETS, PABELLONES INDUSTRIALES Y COMERCIALES, LOCALES, OFICINAS, APARCAMIENTOS, NAVES INDUSTRIALES Y COMPLEJOS TURÍSTICOS Y HOTELEROS Y DEPORTIVOS. ASIMISMO LA PRESTACIÓN DE SERVICIOS DE COLABORACIÓN EMPRESARIAL DE TODO TIPO PARA LA COMERCIALIZACIÓN DE PRODUCTOS PROPIOS DE LAS AGENDAS DE PROPIEDAD INMOBILIARIA PROMOTORAS, CONSTRUCTORAS Y DEMÁS SOCIEDADES DEDICADAS A LA INTERMEDIACIÓN INMOBILIARIA, DICHOS TRABAJOS INCLUIRÁN ENTRE OTROS EN TODO CASO, LA REALIZACIÓN DE LAS ACTIVIDADES DE PROMOCIÓN Y PUBLICITARIAS QUE FUERAN REQUERIDAS PARA LA MEJOR COMERCIALIZACIÓN DE REFERIDOS PRODUCTOS INMOBILIARIOS, 3) LA CONSTRUCCIÓN POR MEDIO DE OTRA U OTRAS PERSONAS O EMPRESA, DE EDIFICACIONES DE CUALQUIER TIPOLOGÍA, PABELLONES INDUSTRIALES Y EN GENERAL, LA REALIZACIÓN BAJO CUALQUIER FORMA Y LA EJECUCIÓN DE TODA CLASE DE OBRAS PÚBLICAS Y PRIVADAS, 4) LA ADQUISICIÓN, NEGOCIACIÓN, EXPLOTACIÓN Y ENAJENACIÓN DE VALORES MERCANTILES O INDUSTRIALES DE CUALQUIER CLASE. 5) LA EXPLOTACIÓN DE LICENCIAS, PATENTES, PERMISOS, MARCAS. MODELOS Y PROCEDIMIENTOS DE FABRICACIÓN DE CUALQUIER MATERIAL O PRODUCTO RELACIONADO CON LA CONSTRUCCIÓN, 6) REALIZAR OPERACIONES PATRIMONIALES, ADQUIRIR, VENDER Y ARRENDAR BIENES MUEBLES E INMUEBLES; ADQUIRIR, OSTENTAR Y VENDER VALORES, ASÍ COMO LLEVAR A CABO OPERACIONES FINANCIERAS, CON EXCEPCIÓN DE AQUELLAS ACTIVIDADES DE LAS ANTES EXPRESADAS QUE ESTÉN RESERVADAS POR LEY A ENTIDADES ESPECÍFICAS, TALES COMO ENTIDADES DE FINANCIACIÓN, DE ARRENDAMIENTO FINANCIERO, SOCIEDADES DE INVERSIÓN COLECTIVA, SOCIEDADES Y AGENCIAS DE VALORES Y DEMÁS. 7) LA PRESTACIÓN DE SERVICIOS EMPRESARIALES DE TODO TIPO PARA LA COMERCIALIZACIÓN DE PRODUCTOS Y SERVICIOS DE TELECOMUNICACIONES, ELECTRICIDAD E ILUMINACIÓN, GAS Y TELEFONÍA. DICHA PRESTACIÓN DE SERVICIOS, INCLUIRÁ EN TODO CASO Y EN LA MEDIDA PERMITIDA POR LA LEGISLACIÓN APLICABLE, LA COMERCIALIZACIÓN DE LOS REFERIDOS PRODUCTOS Y SERVICIOS. 8) EL DESARROLLO DE ACTIVIDADES Y LA PRESTACIÓN DE SERVICIOS EN EL ÁREA DE INVERSIONES INMOBILIARIAS Y MOBILIARIAS, PATRIMONIAL DE ASESORÍA FISCAL LABORAL Y CONTABLE; EN PARTICULAR, LA SOCIEDAD PODRÁ DESARROLLAR TAMBIÉN ACTIVIDADES RELACIONADAS CON INTERNET Y CUALESQUIERA OTRAS REDES, INCLUYENDO ACTIVIDADES DE ACCESO, ACTIVIDADES PUBLICITARIAS, ACTIVIDADES DE DISEÑO, GESTIÓN, PUBLICIDAD Y DESARROLLO DE MEDIOS DE PAGO Y MONEDAS VIRTUALES DE CARÁCTER PROMOCIONAL CUYA DISTRIBUCIÓN SE REALICE ESPECIALMENTE, A TRAVÉS DEL COMERCIO ELECTRÓNICO, ACTIVIDADES DE PRODUCCIÓN, DISTRIBUCIÓN Y/O EXHIBICIÓN DE CONTENIDOS PROPIO O AJENOS, ACTIVIDADES DE PORTAL, ACTIVIDADES DE COMERCIO ELECTRÓNICO. 9) INGENIERÍA EN TODAS SUS ESPECIALIDADES TALES COMO LA ARQUITECTURA, INGENIERÍA CIVIL, INDUSTRIAL MEDIOAMBIENTAL, ELÉCTRICA, MECÁNICA, ETC. 10) CONSULTORÍA EN TODAS SUS ESPECIALIDADES, INCLUYENDO EN ELLAS LA CONSULTARÍA EN INGENIERÍA, EN ECONOMÍA, SOCIAL, EN ORGANIZACIÓN Y GESTIÓN EMPRESARIAL INFORMÁTICA, FORMACIÓN Y CAPACITACIÓN PROFESIONAL ASÍ COMO LA INVESTIGACIÓN, DESARROLLO EN INNOVACIÓN TECNOLÓGICA. 11) GESTIÓN DE LA PROMOCIÓN, CONSTRUCCIÓN, EXPLOTACIÓN Y CONSERVACIÓN DE CUALQUIER TIPO DE OBRAS, SERVICIOS E INSTALACIONES, INCLUSO FORMANDO PARTE DE CONTRATOS LLAVE EN MANO O CUALQUIER OTRA FÓRMULA LEGALMENTE ACEPTADA 12) CONSULTORÍA Y PROYECTOS DE EFICIENCIA ENERGÉTICA, ASESORAMIENTO, DISTRIBUCIÓN, COMERCIALIZACIÓN E INSTALACIÓN DE TODOS LOS PRODUCTOS Y TECNOLOGÍAS ASOCIADAS A LAS ENERGÍAS RENOVABLES Y ALTERNATIVAS. 13) FABRICACIÓN, COMERCIALIZACIÓN Y ASESORAMIENTO EN MATERIA DE PRODUCTOS RELACIONADOS CON LA AUTOMATIZACIÓN Y, EN GENERAL EN TODO TIPO DE ELEMENTOS ELECTRÓNICOS, Y EN ESPECIAL, LA REALIZACIÓN DE LAS INSTALACIONES NECESARIAS PARA ELLO. ",
      "mainEntityOfPage": "https://www.contratacion.euskadi.eus/webkpe00-kperoc/es/ac71aBusquedaRegistrosWar/empresa/08464",
      "_links": {
        "self": {
          "name": "CREATING HOMES 2017, S.L.",
          "href": "https://api.euskadi.eus/procurements/companies/08464"
        }
      }
    },
    {
      "name": "LOIOLA ERDIGUNE, S.L.",
      "registrationNumber": "10360",
      "identificationNumber": "B13705082",
      "address": "Loiola auzoa nº25, bajo",
      "location": {
        "postalCode": "20730",
        "municipality": "Azpeitia",
        "county": "Gipuzkoa",
        "municipalityId": "018",
        "countyId": "20"
      },
      "economicActivities": [
        {
          "id": "1.833.2",
          "name": "Promoción de edificaciones",
          "_links": {
            "self": {
              "name": "Promoción de edificaciones",
              "href": "https://api.euskadi.eus/procurements/companies/economic-activities/1.833.2"
            }
          }
        }
      ],
      "certificateStartDate": "2025-10-01",
      "certificateEndDate": "2026-04-01",
      "object": "LA PARTICIPACIÓN EN TODO TIPO DE PROYECTOS DE PROMOCIÓN, CONSTRUCCIÓN, EJECUCIÓN OBRA, REHABILITACIÓN Y REPARACIÓN, POR CUENTA PROPIA O AJENA, DE TODA CLASE DE OBRAS, URBANIZACIONES, TERRENOS E INMUEBLES EN TERRITORIO NACIONAL O EXTRANJERO DE FORMA DIRECTA O INDIRECTA MEDIANTE LA PARTICIPACIÓN EN ENTIDADES CIVILES O MERCANTILES NACIONALES O EXTRANJERAS DE CUALQUIER CLASE; SUSCRIBIR O ADQUIRIR, POR CUALQUIER TÍTULO, ASÍ COMO LA TRANSMISIÓN Y/O VENTA DE ACCIONES O PARTICIPACIONES DE SOCIEDADES DEDICADAS A ACTIVIDADES DE CARÁCTER EMPRESARIAL; LA GESTIÓN Y ADMINISTRACIÓN DE PARTICIPACIONES EN SOCIEDADES MERCANTILES MEDIANTE LA INVERSIÓN Y DESINVERSIÓN EN ACCIONES Y PARTICIPACIONES ; ADQUISICIÓN, TENENCIA, DISFRUTE, ADMINISTRACIÓN Y ENAJENACIÓN DE TODA CLASE DE ACTIVOS FINANCIEROS, VALORES MOBILIARIOS, CUOTAS O PARTICIPACIONES EN EMPRESAS INDIVIDUALES O SOCIALES POR CUENTA PROPIA;  ADQUISICIÓN, TENENCIA, ARRENDAMIENTO, EXPLOTACIÓN Y ENAJENACIÓN, POR CUALQUIER TÍTULO DE EDIFICACIONES, FINCAS, URBANAS Y RÚSTICAS, EN GENERAL,  TRANSFORMACIÓN Y URBANIZACIÓN DE ELLAS.",
      "mainEntityOfPage": "https://www.contratacion.euskadi.eus/webkpe00-kperoc/es/ac71aBusquedaRegistrosWar/empresa/10360",
      "_links": {
        "self": {
          "name": "LOIOLA ERDIGUNE, S.L.",
          "href": "https://api.euskadi.eus/procurements/companies/10360"
        }
      }
    },
    {
      "name": "ROS ROCA, S.A.",
      "registrationNumber": "06244",
      "identificationNumber": "A25014382",
      "address": "AVINGUDA CERVERA SN",
      "location": {
        "postalCode": "25300",
        "municipality": "Tàrrega",
        "county": "Lleida",
        "municipalityId": "217",
        "countyId": "25"
      },
      "economicActivities": [
        {
          "id": "1.362.1",
          "name": "Construcción de carrocerías para vehículos automóviles y remolques",
          "_links": {
            "self": {
              "name": "Construcción de carrocerías para vehículos automóviles y remolques",
              "href": "https://api.euskadi.eus/procurements/companies/economic-activities/1.362.1"
            }
          }
        },
        {
          "id": "1.617.9",
          "name": "Venta al por mayor interindustrial de otros productos n.c.o.p",
          "_links": {
            "self": {
              "name": "Venta al por mayor interindustrial de otros productos n.c.o.p",
              "href": "https://api.euskadi.eus/procurements/companies/economic-activities/1.617.9"
            }
          }
        },
        {
          "id": "1.654.1",
          "name": "Venta al por menor de vehículos terrestres",
          "_links": {
            "self": {
              "name": "Venta al por menor de vehículos terrestres",
              "href": "https://api.euskadi.eus/procurements/companies/economic-activities/1.654.1"
            }
          }
        },
        {
          "id": "1.692",
          "name": "Reparación de maquinaria industrial",
          "_links": {
            "self": {
              "name": "Reparación de maquinaria industrial",
              "href": "https://api.euskadi.eus/procurements/companies/economic-activities/1.692"
            }
          }
        },
        {
          "id": "1.842",
          "name": "Servicios financieros y contables",
          "_links": {
            "self": {
              "name": "Servicios financieros y contables",
              "href": "https://api.euskadi.eus/procurements/companies/economic-activities/1.842"
            }
          }
        },
        {
          "id": "1.854.1",
          "name": "Alquiler de automóviles sin conductor",
          "_links": {
            "self": {
              "name": "Alquiler de automóviles sin conductor",
              "href": "https://api.euskadi.eus/procurements/companies/economic-activities/1.854.1"
            }
          }
        }
      ],
      "certificateStartDate": "2025-10-01",
      "certificateEndDate": "2026-03-25",
      "object": "A) LA FABRICACIÓN, TRANSFORMACIÓN, ADQUISICIÓN, IMPORTACIÓN, COMERCIALIZACIÓN, TRANSMISIÓN, EXPORTACIÓN DE MAQUINARIA Y EN GENERAL DE BIENES DE EQUIPOS PARA CUALQUIER ACTIVIDAD Y EN ESPECIAL PARA  SERVICIOS DE LIMPIEZA, ALMACENAMIENTO, TRANSPORTE Y RECOGIDA  DE RESIDUOS.\n\nB) LA EJECUCIÓN DE OBRAS, SERVICIOS, ESTUDIOS, PROYECTOS E INFORMES PÚBLICOS Y PRIVADOS, TANTO DE O PARA EL ESTADO, COMUNIDADES AUTÓNOMAS, PROVINCIA, MUNICIPIOS, ASÍ COMO OTRAS ENTIDADES U ORGANISMOS DE ELLOS DEPENDIENTES O INCLUSO ENTIDADES PRIVADAS, INCLUYENDO EXPLÍCITAMENTE MANTENIMIENTO, CONSERVACIÓN Y REPARACIÓN DE BIENES, EQUIPOS E INSTALACIONES.\n\nC) LA SOCIEDAD SE DEDICARÁ A LA MEDIACIÓN, COORDINACIÓN E INTERMEDIACIÓN EN LA PRESTACIÓN DE LOS SERVICIOS PROFESIONALES QUE CORRESPONDAN, MANIFESTANDO, A SU VEZ, QUE LA SOCIEDAD NO TIENE POR OBJETO EL EJERCICIO DE UNA ACTIVIDAD PROFESIONAL TITULADA O COLEGIADA, NI LA PRESTACIÓN DE SERVICIOS PROFESIONALES, POR LO QUE SE HACE CONSTAR EXPRESAMENTE QUE LA SOCIEDAD ESTÁ EXCLUIDA DEL ÁMBITO DE APLICACIÓN DE LA LEY 2/2007 DE SOCIEDADES PROFESIONALES",
      "mainEntityOfPage": "https://www.contratacion.euskadi.eus/webkpe00-kperoc/es/ac71aBusquedaRegistrosWar/empresa/06244",
      "_links": {
        "self": {
          "name": "ROS ROCA, S.A.",
          "href": "https://api.euskadi.eus/procurements/companies/06244"
        }
      }
    },
    {
      "name": "SUMINISTROS, IMPORTACIONES Y MANTENIMIENTOS ELECTRÓNICOS, S.A.",
      "registrationNumber": "03002",
      "identificationNumber": "A78032315",
      "address": "C/ Pradillo 48-50",
      "location": {
        "postalCode": "28002",
        "municipality": "Madrid",
        "county": "Madrid",
        "municipalityId": "079",
        "countyId": "28"
      },
      "economicActivities": [
        {
          "id": "1.617.8",
          "name": "Venta al por mayor de máquinas y material de oficina",
          "_links": {
            "self": {
              "name": "Venta al por mayor de máquinas y material de oficina",
              "href": "https://api.euskadi.eus/procurements/companies/economic-activities/1.617.8"
            }
          }
        },
        {
          "id": "1.699",
          "name": "Otras reparaciones n.c.o.p",
          "_links": {
            "self": {
              "name": "Otras reparaciones n.c.o.p",
              "href": "https://api.euskadi.eus/procurements/companies/economic-activities/1.699"
            }
          }
        },
        {
          "id": "1.845",
          "name": "Explotación electrónica por cuenta de terceros",
          "_links": {
            "self": {
              "name": "Explotación electrónica por cuenta de terceros",
              "href": "https://api.euskadi.eus/procurements/companies/economic-activities/1.845"
            }
          }
        }
      ],
      "certificateStartDate": "2025-10-01",
      "certificateEndDate": "2026-03-26",
      "object": "1) LA COMPRA, VENTA, IMPORTACIÓN, EXPORTACION, DESARROLLO, COMERCIALIZACIÓN, PRODUCCIÓN, FABRICACIÓN, MONTAJE, INSTALACIÓN, MANTENIMIENTO, EXPLOTACIÓN Y REPARACIÓN DE MÁQUINAS DE OFICINA, MATERIALES Y APARATOS MECÁNICOS, MÉDICOS, ELECTRÓNICOS, ELÉCTRICOS, ÓPTICOS, INFORMÁTICOS, ROBÓTICOS DE TELECOMUNICACIÓN, MEGAFONÍA, TELEFONÍA MÓVIL Y FIJA, SISTEMAS DE DIGITALIZACIÓN Y GESTIÓN DOCUMENTAL, MONITORIZACIÓN Y RADIOFRECUENDIA, SISTEMAS DIRIGIDOS POR ORDENADOR, SOFTWARE Y PROGRAMAS O BASES DE DATOS PARA LA GESTIÓN EMPRESARIAL E INDUSTRIAL; ASÍ COMO SUS   PIEZAS, ELEMENTOS Y ACCESORIOS. 2) LA EXPLOTACIÓN, COMPRA, VENTA, REPRESENTACIÓN Y CESIÓN DE LICENCIAS, PATENTES, MARCAS, PROCEDIMIENTOS O FÓRMULAS RELACIONADAS CON LOS MATERIALES RESEÑADOS EN EL APARTADO ANTERIOR, YA SEAN NACIONALES COMO EXTRANJERAS. 3) EL ESTUDIO, PROMOCIÓN, ASESORAMIENTO, GESTIÓN, ADQUISICIÓN, VENTA Y EXPLOTACIÓN EN CUALQUIER FORMA DE, SOLARES, TERRENOS, CONJUNTOS RESIDENCIALES, LOCALES COMERCIALES, URBANIZACIONES O PROMOCIONES INMOBILIARIAS Y,  EN GENERAL, DE TODA CLASE DE BIENES INMUEBLES, INCLUYENDO EL DEPÓSITO, ALMACENAMIENTO Y DISTRIBUCIÓN DE MERCANCÍAS. 4) LA CONSTRUCCIÓN Y EJECUCIÓN DE OBRAS  PÚBLICAS O PRIVADAS. 5) LA REPARACIÓN DE BIENES DE CONSUMO. 6) LA REPARACIÓN DE SERVICIOS, ASISTENCIA, ASESORAMIENTO Y GESTIÓN, EN MATERIA ECONÓMICA, FINANCIERA, COMERCIAL Y DE GESTIÓN EMPRESARIAL. 7) ADQUIRIR, NEGOCIAR Y POSEER ACCIONES, OBLIGACIONES, BONOS, PAGARÉS, LETRAS Y OTROS VALORES PÚBLICOS Y PRIVADOS, Y, EN GENERAL, ACTIVOS FINANCIEROS POR  CUENTA PROPIA, SIN NINGUNA DE LAS CARACTERÍSTICA PROPIAS DE LAS ACTIVIDADES RESERVADAS A LAS SOCIEDADES DE INVERSIÓN COLECTIVA Y DEJANDO A SALVO LA NORMATIVA REGULADORA DEL  MERCADO DE VALORES. 8) SERVICIOS DE  SECRETARÍA Y TRADUCCIONES, SUMINISTROS DE SERVICIOS DE INFORMACIÓN Y FORMACIÓN, CREACIÓN DE CONTENIDOS EDUCATIVOS EN CUALQUIER FORMATO, IMPARTICIÓN DE CURSOS Y SERVICIOS DE ENSEÑANZA DE TODO TIPO Y MODALIDAD, ATENCIÓN TELEFÓNICA PARA CLIENTES Y REALIZACIÓN DE ACTIVIDADES RELACIONADAS CON INTERNET. 9) LA PRESENTACIÓN DE SERVICIOS AUXILIARES EN CENTROS COMERCIALES, ORGANISMOS OFICIALES Y DEPENDENCIAS ADMINISTRATIVAS, RECINTOS FERIALES, SALAS DE EXPOSICIONES, CONFERENCIAS Y CONGRESOS, HOSPITALES, CONVENCIONES, INAUGURACIONES, CENTROS CULTURALES, RECEPCIONES, CENTROS DOCENTES, POR MEDIO DE CONSERJES, ORDENANZAS, BEDELES, UJIERES, CELADORES O CONTROLADORES, OPERADORES DE CONSOLA, PERSONAL DE SALA, PORTEROS, RECEPCIONISTAS, TAQUILLEROS, INCLUYENDO RECOGIDA DE ENTRADAS, TELEFONISTAS, PERSONAL DE SALA Y PROFESIONALES  AFINES",
      "mainEntityOfPage": "https://www.contratacion.euskadi.eus/webkpe00-kperoc/es/ac71aBusquedaRegistrosWar/empresa/03002",
      "_links": {
        "self": {
          "name": "SUMINISTROS, IMPORTACIONES Y MANTENIMIENTOS ELECTRÓNICOS, S.A.",
          "href": "https://api.euskadi.eus/procurements/companies/03002"
        }
      }
    }
  ]
}