{
  "totalItems": 9042,
  "totalPages": 905,
  "currentPage": 113,
  "itemsOfPage": 10,
  "items": [
    {
      "name": "LATAPADERA CREACIONES, S.L.",
      "registrationNumber": "04933",
      "identificationNumber": "B95545612",
      "address": "C/ Jon Arróspide, 17-1º. Dpto. 5",
      "location": {
        "postalCode": "48014",
        "municipality": "Bilbao",
        "county": "Bizkaia",
        "municipalityId": "020",
        "countyId": "48"
      },
      "economicActivities": [
        {
          "id": "1.844",
          "name": "Servicios de publicidad, relaciones públicas y similares",
          "_links": {
            "self": {
              "name": "Servicios de publicidad, relaciones públicas y similares",
              "href": "https://api.euskadi.eus/procurements/companies/economic-activities/1.844"
            }
          }
        },
        {
          "id": "1.961.1",
          "name": "Producción de películas cinematográficas (incluso vídeos)",
          "_links": {
            "self": {
              "name": "Producción de películas cinematográficas (incluso vídeos)",
              "href": "https://api.euskadi.eus/procurements/companies/economic-activities/1.961.1"
            }
          }
        }
      ],
      "certificateStartDate": "2025-12-17",
      "certificateEndDate": "2026-06-08",
      "object": "EL ESTUDIO DE DISEÑO GRÁFICO Y COMUNICACIÓN PUBLICITARIA, DISEÑO EDITORIAL, DISEÑO DE IMAGEN CORPORATIVA, IMAGEN DE MARCA Y PRODUCTO, AGENCIA DE PUBLICIDAD, ORGANIZACIÓN DE EVENTOS, EXPOSICIONES Y ESPECTÁCULOS. INDUSTRIA DE ARTES GRÁFICAS Y AUDIOVISUALES DE SOPORTES PUBLICITARIOS EN TODOS LOS FORMATOS Y MATERIALES, YA SEAN FÍSICOS COMO VIRTUALES. COMPRAVENTA, EXPLOTACIÓN Y ARRENDAMIENTO DE TODA CLASE DE BIENES INMUEBLES",
      "mainEntityOfPage": "https://www.contratacion.euskadi.eus/webkpe00-kperoc/es/ac71aBusquedaRegistrosWar/empresa/04933",
      "_links": {
        "self": {
          "name": "LATAPADERA CREACIONES, S.L.",
          "href": "https://api.euskadi.eus/procurements/companies/04933"
        }
      }
    },
    {
      "name": "MUGIKORTASUN KUDEAKETA ZERBITZUAK - SERVICIOS DE GESTIÓN DE MOVILIDAD, S.L.",
      "registrationNumber": "05458",
      "identificationNumber": "B75001750",
      "address": "Erretxindi kalea 3",
      "location": {
        "postalCode": "20870",
        "municipality": "Elgoibar",
        "county": "Gipuzkoa",
        "municipalityId": "032",
        "countyId": "20"
      },
      "economicActivities": [
        {
          "id": "1.843.9",
          "name": "Otros servicios técnicos n.c.o.p",
          "_links": {
            "self": {
              "name": "Otros servicios técnicos n.c.o.p",
              "href": "https://api.euskadi.eus/procurements/companies/economic-activities/1.843.9"
            }
          }
        },
        {
          "id": "1.854.1",
          "name": "Alquiler de automóviles sin conductor",
          "_links": {
            "self": {
              "name": "Alquiler de automóviles sin conductor",
              "href": "https://api.euskadi.eus/procurements/companies/economic-activities/1.854.1"
            }
          }
        }
      ],
      "certificateStartDate": "2025-12-17",
      "certificateEndDate": "2026-06-07",
      "classification": [
        {
          "id": "S",
          "name": "Servicios",
          "groups": [
            {
              "id": "V",
              "subgroups": [
                {
                  "id": "05",
                  "name": "Explotación y control de sistemas informáticos e infraestructuras telemáticas.",
                  "categories": [
                    {
                      "id": "1",
                      "name": "Desde 0 Hasta 150.000",
                      "_links": {
                        "self": {
                          "name": "Desde 0 Hasta 150.000",
                          "href": "https://api.euskadi.eus/procurements/companies/types/S/categories/1"
                        }
                      }
                    }
                  ],
                  "_links": {
                    "self": {
                      "name": "Explotación y control de sistemas informáticos e infraestructuras telemáticas.",
                      "href": "https://api.euskadi.eus/procurements/companies/types/S/groups/V/subgroups/05"
                    }
                  }
                }
              ],
              "_links": {
                "self": {
                  "href": "https://api.euskadi.eus/procurements/companies/types/S/groups/V"
                }
              }
            }
          ],
          "_links": {
            "self": {
              "name": "Servicios",
              "href": "https://api.euskadi.eus/procurements/companies/types/S"
            }
          }
        }
      ],
      "object": "LA REALIZACIÓN DE CUANTAS ACTUACIONES SEAN PRECISAS PARA EL DISEÑO, IMPLANTACIÓN, GESTIÓN, ORGANIZACIÓN, ADMINISTRACIÓN, DESARROLLO, FINANCIACIÓN Y, EN GENERAL, DE TODAS AQUELLAS ACTIVIDADES QUE TENGAN COMO OBJETO LA PROMOCIÓN DE UNA MOVILIDAD MÁS RESPONSABLE Y SOSTENIBLE MEDIANTE EL EMPLEO DE HERRAMIENTAS ORIENTADAS A LA GESTIÓN DE LA MOVILIDAD. EL DESARROLLO DE CUANTAS ACTIVIDADES SEAN NECESARIAS PARA MEJORAR LA EFICIENCIA DE LOS RECURSOS DEL SECTOR DEL TRANSPORTE Y LA MOVILIDAD, MEDIANTE LA INVESTIGACIÓN, EL DESARROLLO, LA INNOVACIÓN Y EL USO DE TECNOLOGÍAS QUE IMPULSE NUEVAS CONDUCTAS DE MOVILIDAD, GENERANDO INSTRUMENTOS QUE FACILITEN SU ACCESO MEDIANTE: CREACIÓN DE TÉCNICAS, IDEAS E INICIATIVAS PARA LA UTILIZACIÓN DE NUEVAS FORMAS DE GESTIÓN DE MOVILIDAD COMO SON EL COCHE MULTIUSUARIO (CAR SHARING), COMPARTIR COCHE (CAR POOLING), BICICLETA, ETC. DESARROLLO DE METODOLOGÍAS Y MODELOS PARA GENERAR NUEVOS HÁBITOS DE MOVILIDAD. ELABORACIÓN, DIVULGACIÓN Y DIFUSIÓN DE LOS VALORES DE LA ACCESIBILIDAD SOSTENIBLE Y LA MOVILIDAD RESPONSABLE PARA TODAS LAS PERSONAS. REALIZACIÓN DE ESTUDIOS Y PROYECTOS QUE FOMENTEN UNA NUEVA CULTURA DE MOVILIDAD. LA REALIZACIÓN DE ACTIVIDADES DE FORMACIÓN, ASESORÍA Y ASISTENCIA TÉCNICA SOBRE TRANSPORTE Y MOVILIDAD. LA REALIZACIÓN DE CUANTAS ACTIVIDADES SEAN NECESARIAS SIEMPRE QUE RESULTEN COMPLEMENTARIAS A LAS ANTERIORES O, EN GENERAL, AYUDEN A ASEGURAR LA INNOVACIÓN, LA EFICIENCIA Y EL DESARROLLO EN LAS PAUTAS DE UNA MOVILIDAD RESPONSABLE Y COMPROMETIDA CON LOS VALORES DE LA SOSTENIBILIDAD ",
      "mainEntityOfPage": "https://www.contratacion.euskadi.eus/webkpe00-kperoc/es/ac71aBusquedaRegistrosWar/empresa/05458",
      "_links": {
        "self": {
          "name": "MUGIKORTASUN KUDEAKETA ZERBITZUAK - SERVICIOS DE GESTIÓN DE MOVILIDAD, S.L.",
          "href": "https://api.euskadi.eus/procurements/companies/05458"
        }
      }
    },
    {
      "name": "OREGUI ASESORES, S.L.",
      "registrationNumber": "09883",
      "identificationNumber": "B95021283",
      "address": "Calle Ibáñez de Bilbao (48001) 12 PBJ IZ",
      "location": {
        "postalCode": "48001",
        "municipality": "Bilbao",
        "county": "Bizkaia",
        "municipalityId": "020",
        "countyId": "48"
      },
      "economicActivities": [
        {
          "id": "1.842",
          "name": "Servicios financieros y contables",
          "_links": {
            "self": {
              "name": "Servicios financieros y contables",
              "href": "https://api.euskadi.eus/procurements/companies/economic-activities/1.842"
            }
          }
        }
      ],
      "certificateStartDate": "2025-12-17",
      "certificateEndDate": "2026-06-11",
      "object": "EL ASESORAMIENTO ECONÓMICO, JURÍDICO, FISCAL, CONTABLE, LABORAL, INFORMÁTICO, FINANCIERO, LOGÍSTICO, INMOBILIARIO Y DE CUALQUIER TIPO, Y LA REALIZACIÓN DE LAS TAREAS PROPIAS DE GESTORÍAS ADMINISTRATIVAS. LA REALIZACIÓN DE ESTUDIOS TÉCNICOS, ECONÓMICOS, FINANCIEROS, PATRIMONIALES, COMERCIALES, DE MERCADO, DE ESTRUCTURA Y ORGANIZACIÓN EMPRESARIAL, ESTUDIOS SOCIECONÓMICOS, DE VIABILIDAD, ESTUDIOS SOBRE ASPECTOS TÉCNICOS Y COMERCIALES. LA PRESTACIÓN DE SERVICIOS ADMINISTRATIVOS, MERCANTILES Y TODOS AQUELLOS QUE PRECISE CUALQUIER PERSONA FÍSICA O JURÍDICA, PÚBLICA O PRIVADA. LA REALIZACIÓN DE ACTIVIDADES DE CONSULTING EMPRESARIAL. SERVICIOS DIRIGIDOS AL ÁREA DE RECURSOS HUMANOS, INCLUYENDO LA SELECCIÓN DE PERSONAL. SERVICIOS DE AUDITORIA, DE INFORMÁTICA Y COMERCIO EXTERIOR. LA INTERMEDIACIÓN EN TODO TIPO DE OPERACIONES COMERCIALES E INMOBILIARIAS, COMO COMPRA, VENTA, ARRIENDO O EXPLOTACIÓN EN CUALQUIER FORMA DE EDIFICIOS, PISOS, OFICINAS, LOCALES COMERCIALES, CHALETS O FINCAS RÚSTICAS O URBANAS.",
      "mainEntityOfPage": "https://www.contratacion.euskadi.eus/webkpe00-kperoc/es/ac71aBusquedaRegistrosWar/empresa/09883",
      "_links": {
        "self": {
          "name": "OREGUI ASESORES, S.L.",
          "href": "https://api.euskadi.eus/procurements/companies/09883"
        }
      }
    },
    {
      "name": "MURGIBE SL Consultoria de Igualdad de Oportunidades",
      "registrationNumber": "03855",
      "identificationNumber": "B48729719",
      "address": "LEHENDAKARI AGUIRRE 11 - 2º OFIC. 8",
      "location": {
        "postalCode": "48014",
        "municipality": "Bilbao",
        "county": "Bizkaia",
        "municipalityId": "020",
        "countyId": "48"
      },
      "economicActivities": [
        {
          "id": "1.849.9",
          "name": "Otros servicios independientes n.c.o.p",
          "_links": {
            "self": {
              "name": "Otros servicios independientes n.c.o.p",
              "href": "https://api.euskadi.eus/procurements/companies/economic-activities/1.849.9"
            }
          }
        },
        {
          "id": "1.934",
          "name": "Enseñanza fuera de establecimiento permanente",
          "_links": {
            "self": {
              "name": "Enseñanza fuera de establecimiento permanente",
              "href": "https://api.euskadi.eus/procurements/companies/economic-activities/1.934"
            }
          }
        }
      ],
      "certificateStartDate": "2025-12-17",
      "certificateEndDate": "2026-06-11",
      "object": "LA REALIZACIÓN DE LAS SIGUIENTES ACTIVIDADES: A) FORMACIÓN EN MATERIA DE IGUALDAD DE OPORTUNIDADES Y DE GÉNERO: CONCILIACIÓN, VIOLENCIA DE GÉNERO, COEDUCACIÓN. B) FORMACIÓN PARA LA ORIENTACIÓN, INSERCIÓN Y MEJORA LABORAL. C) FORMACIÓN GENERAL EN RECURSOS HUMANOS. D)CONSULTORÍA DE RECURSOS HUMANOS, IGUALDAD DE OPORTUNIDADES Y DE GÉNERO. E) ESTUDIOS Y DIAGNÓSTICOS EN MATERIA SOCIAL, IGUALDAD DE OPORTUNIDADES Y GÉNERO. F) ELABORACIÓN DE PLANES DE IGUALDAD Y DE CONCILIACIÓN.  G) GESTIÓN DE SERVICIOS Y PROYECTOS EN MATERIA DE IGUALDAD. H) ELABORACIÓN DE MATERIALES DE IGUALDAD Y GÉNERO. I) GESTIÓN DE ACTIVIDADES DE SENSIBILIZACIÓN EN MATERIA DE IGUALDAD Y CONCILIACIÓN. J) LA ADQUISICIÓN, USO, DISFRUTE, ARRENDAMIENTO, VENTA Y ENAJENACIÓN DE TODA CLASE DE BIENES INMUEBLES, SU PARCELACIÓN Y URBANIZACIÓN",
      "mainEntityOfPage": "https://www.contratacion.euskadi.eus/webkpe00-kperoc/es/ac71aBusquedaRegistrosWar/empresa/03855",
      "_links": {
        "self": {
          "name": "MURGIBE SL Consultoria de Igualdad de Oportunidades",
          "href": "https://api.euskadi.eus/procurements/companies/03855"
        }
      }
    },
    {
      "name": "ENEKO ITURREGUI LARRINAGA",
      "registrationNumber": "10482",
      "identificationNumber": "16078057E",
      "address": "Diseminado Galdona (20830), 22",
      "location": {
        "postalCode": "20830",
        "municipality": "Mutriku",
        "county": "Gipuzkoa",
        "municipalityId": "056",
        "countyId": "20"
      },
      "economicActivities": [
        {
          "id": "1.911",
          "name": "Servicios agrícolas y ganaderos",
          "_links": {
            "self": {
              "name": "Servicios agrícolas y ganaderos",
              "href": "https://api.euskadi.eus/procurements/companies/economic-activities/1.911"
            }
          }
        }
      ],
      "certificateStartDate": "2025-12-17",
      "certificateEndDate": "2026-06-16",
      "object": "SERVICIOS AGRÍCOLAS Y GANADEROS.",
      "mainEntityOfPage": "https://www.contratacion.euskadi.eus/webkpe00-kperoc/es/ac71aBusquedaRegistrosWar/empresa/10482",
      "_links": {
        "self": {
          "name": "ENEKO ITURREGUI LARRINAGA",
          "href": "https://api.euskadi.eus/procurements/companies/10482"
        }
      }
    },
    {
      "name": "IVAN CAMPON BACAICOA",
      "registrationNumber": "08642",
      "identificationNumber": "44560601X",
      "address": "Santiago 8, 2º izquierda",
      "location": {
        "postalCode": "20304",
        "municipality": "Irun",
        "county": "Gipuzkoa",
        "municipalityId": "045",
        "countyId": "20"
      },
      "economicActivities": [
        {
          "id": "2.899",
          "name": "Otros profesionales",
          "_links": {
            "self": {
              "name": "Otros profesionales",
              "href": "https://api.euskadi.eus/procurements/companies/economic-activities/2.899"
            }
          }
        }
      ],
      "certificateStartDate": "2025-12-17",
      "certificateEndDate": "2026-06-10",
      "object": "OTROS PROFESIONALES.",
      "mainEntityOfPage": "https://www.contratacion.euskadi.eus/webkpe00-kperoc/es/ac71aBusquedaRegistrosWar/empresa/08642",
      "_links": {
        "self": {
          "name": "IVAN CAMPON BACAICOA",
          "href": "https://api.euskadi.eus/procurements/companies/08642"
        }
      }
    },
    {
      "name": "LABORARTEA, S.L.",
      "registrationNumber": "07089",
      "identificationNumber": "B95976296",
      "address": "SANDAMENDI 14 A",
      "location": {
        "postalCode": "48192",
        "municipality": "Gordexola",
        "county": "Bizkaia",
        "municipalityId": "042",
        "countyId": "48"
      },
      "economicActivities": [
        {
          "id": "1.849.9",
          "name": "Otros servicios independientes n.c.o.p",
          "_links": {
            "self": {
              "name": "Otros servicios independientes n.c.o.p",
              "href": "https://api.euskadi.eus/procurements/companies/economic-activities/1.849.9"
            }
          }
        },
        {
          "id": "1.965.4",
          "name": "Empresas de espectáculos",
          "_links": {
            "self": {
              "name": "Empresas de espectáculos",
              "href": "https://api.euskadi.eus/procurements/companies/economic-activities/1.965.4"
            }
          }
        }
      ],
      "certificateStartDate": "2025-12-17",
      "certificateEndDate": "2026-06-06",
      "object": "LA CREACIÓN, CONTRATACIÓN, ORGANIZACIÓN, GESTIÓN, PROMOCIÓN Y PRODUCCIÓN DE TODO TIPO DE ESPECTÁCULOS, FESTIVALES, EVENTOS Y ACTIVIDADES CULTURALES (TALES COMO CONCIERTOS, MUSICALES, DANZA, TEATRO, ACTIVIDADES INFANTILES Y DE ENTRETENIMIENTO EN SALA O AL AIRE LIBRE), CABALGATAS Y DESFILES. EXPLOTACIÓN Y GESTIÓN DE ESPACIOS CULTURALES. REPRESENTACIÓN, MANAGEMENT, BOOKING Y PROMOCIÓN DE TODO TIPO DE ARTISTAS Y MARCAS. ORGANIZACIÓN, DIRECCIÓN Y GESTIÓN DE CONGRESOS, FERIAS, EXPOSICIONES Y EVENTOS EMPRESARIALES Y SOCIALES. PRODUCCIÓN Y ORGANIZACIÓN DE PROMOCIONES, PUDIENDO INCLUSIVE REALIZAR PLANES VACACIONALES. REALIZACIÓN DE ACTIVIDADES PUBLICITARIAS DE CUALQUIER CLASE, DISEÑO Y MONTAJE DE OBRAS TEATRALES, CINEMATOGRÁFICAS Y COREOGRÁFICAS. PRESTACIÓN DE SERVICIOS DE CATERING, PREPARACIÓN, DISTRIBUCIÓN Y COMERCIALIZACIÓN DE ALIMENTOS PARA EVENTOS Y AFINES. ACTIVIDADES AUXILIARES A LAS ARTES ESCÉNICAS",
      "mainEntityOfPage": "https://www.contratacion.euskadi.eus/webkpe00-kperoc/es/ac71aBusquedaRegistrosWar/empresa/07089",
      "_links": {
        "self": {
          "name": "LABORARTEA, S.L.",
          "href": "https://api.euskadi.eus/procurements/companies/07089"
        }
      }
    },
    {
      "name": "TRINMER TELECOMUNICACIONES, S.L.",
      "registrationNumber": "09372",
      "identificationNumber": "B20988770",
      "address": "Calle Ego-Gain (20600) 2 BAC",
      "location": {
        "postalCode": "20600",
        "municipality": "Eibar",
        "county": "Gipuzkoa",
        "municipalityId": "030",
        "countyId": "20"
      },
      "economicActivities": [
        {
          "id": "1.653.2",
          "name": "Venta al por menor de material y aparatos eléctricos, electrodomésticos y cocina",
          "_links": {
            "self": {
              "name": "Venta al por menor de material y aparatos eléctricos, electrodomésticos y cocina",
              "href": "https://api.euskadi.eus/procurements/companies/economic-activities/1.653.2"
            }
          }
        }
      ],
      "certificateStartDate": "2025-12-17",
      "certificateEndDate": "2026-05-26",
      "object": "LA VENTA E INSTALACIÓN DE SISTEMAS DE TELECOMUNICACIONES.",
      "mainEntityOfPage": "https://www.contratacion.euskadi.eus/webkpe00-kperoc/es/ac71aBusquedaRegistrosWar/empresa/09372",
      "_links": {
        "self": {
          "name": "TRINMER TELECOMUNICACIONES, S.L.",
          "href": "https://api.euskadi.eus/procurements/companies/09372"
        }
      }
    },
    {
      "name": "EVENTO KIT S.L.",
      "registrationNumber": "04842",
      "identificationNumber": "B01483783",
      "address": "AVENIDA DE GASTEIZ 89 7ºA",
      "location": {
        "postalCode": "01009",
        "municipality": "Vitoria-Gasteiz",
        "county": "Araba/Álava",
        "municipalityId": "059",
        "countyId": "01"
      },
      "economicActivities": [
        {
          "id": "1.856.1",
          "name": "Alquiler de bienes de consumo",
          "_links": {
            "self": {
              "name": "Alquiler de bienes de consumo",
              "href": "https://api.euskadi.eus/procurements/companies/economic-activities/1.856.1"
            }
          }
        },
        {
          "id": "1.989.2",
          "name": "Servicios de organización de congresos, asambleas y similares",
          "_links": {
            "self": {
              "name": "Servicios de organización de congresos, asambleas y similares",
              "href": "https://api.euskadi.eus/procurements/companies/economic-activities/1.989.2"
            }
          }
        }
      ],
      "certificateStartDate": "2025-12-17",
      "certificateEndDate": "2026-06-10",
      "object": "A) PLANIFICACIÓN, ORGANIZACIÓN DE ACCIONES  CULTURALES, LÚDICAS, SOCIALES, DEPORTIVAS, EDUCATIVAS Y COMUNICATIVAS ENTRE LA QUE CABE DESTACAR GESTIÓN DE EQUIPAMIENTOS Y SERVICIOS, CAMPAÑAS DE COMUNICACIÓN Y ORGANIZACIÓN TÉCNICA DE ACTOS, REPRESENTACIÓN DE TERCEROS PARA DICHAS ACCIONES. B) EL MONTAJE, INSTALACIÓN, VENTA Y ALQUILER DE PABELLONES INDUSTRIALES Y DEPORTIVOS MÓVILES PARA EL DESARROLLO DE ACTIVIDADES LÚDICAS, ESPECTÁCULOS FERIAS, PRODUCCIÓN Y FABRICACIÓN SUSCEPTIBLES DE REALIZARSE EN ESTOS RECINTOS. LA REALIZACIÓN DEL MONTAJE PODRÁ REALIZARSE PARA TERCEROS EN PABELLONES DE SU ACTIVIDAD O ALQUILADOS. C) LA ADQUISICIÓN, TENENECIA, DISFRUTE, ADMINISTRACIÓN Y ENAJENACIÓN DE TODA CLASE DE VALORES MOBILIARIOS, CON EXCEPCIÓN DE LA INTERMEDIACÍÓN, DEJANDO SIEMPRE FUERA LAS ACTIVIDADES OBJETO DE LA LEGISLACIÓN DE INSTITUCIONES DE INVERSIÓN COLECTIVA Y DE MERCADO DE VALORES. D) LA ADQUISICIÓN, URBANIZACIÓN, PARCELACIÓN, CONSTRUCCIÓN Y EDIFICACIÓN, CONSTITUCIÓN EN PROPIEDAD HORIZONTAL, REFORMA, REHABILITACIÓN, AMPLIACIÓN, REPARACIÓN, EXPLOTACIÓN DIRECTA E INDIRECTA DE BIENES INMUEBLES RÚSTICOS Y URBANOS Y LA REALIZACIÓN DE OBRAS PÚBLICAS Y PRIVADA.",
      "mainEntityOfPage": "https://www.contratacion.euskadi.eus/webkpe00-kperoc/es/ac71aBusquedaRegistrosWar/empresa/04842",
      "_links": {
        "self": {
          "name": "EVENTO KIT S.L.",
          "href": "https://api.euskadi.eus/procurements/companies/04842"
        }
      }
    },
    {
      "name": "ALAVA SOLUCIONES GRAFICAS, S.L.",
      "registrationNumber": "02255",
      "identificationNumber": "B01294941",
      "address": "C/ SAN BLAS, 11. EDIFICIO D. 1º DCHA.",
      "location": {
        "postalCode": "01170",
        "municipality": "Legutio",
        "county": "Araba/Álava",
        "municipalityId": "058",
        "countyId": "01"
      },
      "economicActivities": [
        {
          "id": "1.474",
          "name": "Artes gráficas (impresión gráfica)",
          "_links": {
            "self": {
              "name": "Artes gráficas (impresión gráfica)",
              "href": "https://api.euskadi.eus/procurements/companies/economic-activities/1.474"
            }
          }
        }
      ],
      "certificateStartDate": "2025-12-17",
      "certificateEndDate": "2026-06-09",
      "object": "LA REALIZACIÓN DE ACTIVIDADES CONSIDERADAS COMO DE ARTES GRÁFICAS O INFORMÁTICA, EN ESPECIAL LA IMPRESIÓN DE TODO TIPO DE DOCUMENTOS EN PAPEL CONTINUO O PLANO, ETIQUETACIÓN, NUMERACIÓN Y CODIFICACIÓN DE DOCUMENTOS",
      "mainEntityOfPage": "https://www.contratacion.euskadi.eus/webkpe00-kperoc/es/ac71aBusquedaRegistrosWar/empresa/02255",
      "_links": {
        "self": {
          "name": "ALAVA SOLUCIONES GRAFICAS, S.L.",
          "href": "https://api.euskadi.eus/procurements/companies/02255"
        }
      }
    }
  ]
}