{
  "totalItems": 9042,
  "totalPages": 905,
  "currentPage": 229,
  "itemsOfPage": 10,
  "items": [
    {
      "name": "FERRUELO Y VELASCO, S.L.",
      "registrationNumber": "05550",
      "identificationNumber": "B48907117",
      "address": "Calle Marqués del Puerto",
      "location": {
        "postalCode": "48009",
        "municipality": "Bilbao",
        "county": "Bizkaia",
        "municipalityId": "020",
        "countyId": "48"
      },
      "economicActivities": [
        {
          "id": "1.847",
          "name": "Servicios de consultoría",
          "_links": {
            "self": {
              "name": "Servicios de consultoría",
              "href": "https://api.euskadi.eus/procurements/companies/economic-activities/1.847"
            }
          }
        },
        {
          "id": "1.849.6",
          "name": "Servicios de colocación y suministro de personal",
          "_links": {
            "self": {
              "name": "Servicios de colocación y suministro de personal",
              "href": "https://api.euskadi.eus/procurements/companies/economic-activities/1.849.6"
            }
          }
        }
      ],
      "certificateStartDate": "2025-10-07",
      "certificateEndDate": "2026-04-07",
      "object": "LA FORMACIÓN Y SELECCIÓN DE PERSONAL DE EMPRESAS E INSTITUCIONES PÚBLICAS. LA ORGANIZACIÓN, GESTIÓN, PUESTA EN MARCHA DE PROYECTOS Y PLANIFICACIÓN DE LOS RECURSOS HUMANOS EN CUALQUIER TIPO DE EMPRESAS O ENTIDADES",
      "mainEntityOfPage": "https://www.contratacion.euskadi.eus/webkpe00-kperoc/es/ac71aBusquedaRegistrosWar/empresa/05550",
      "_links": {
        "self": {
          "name": "FERRUELO Y VELASCO, S.L.",
          "href": "https://api.euskadi.eus/procurements/companies/05550"
        }
      }
    },
    {
      "name": "ANTONIO JESÚS FERNÁNDEZ GONZÁLEZ",
      "registrationNumber": "03076",
      "identificationNumber": "24209084C",
      "address": "Urkizu Pasealekua, 14 -1º A",
      "location": {
        "postalCode": "20600",
        "municipality": "Eibar",
        "county": "Gipuzkoa",
        "municipalityId": "030",
        "countyId": "20"
      },
      "economicActivities": [
        {
          "id": "1.722",
          "name": "Transporte de mercancías por carretera",
          "_links": {
            "self": {
              "name": "Transporte de mercancías por carretera",
              "href": "https://api.euskadi.eus/procurements/companies/economic-activities/1.722"
            }
          }
        }
      ],
      "certificateStartDate": "2025-10-07",
      "certificateEndDate": "2026-04-07",
      "object": "TRANSPORTE DE MERCANCÍAS POR CARRETERA",
      "mainEntityOfPage": "https://www.contratacion.euskadi.eus/webkpe00-kperoc/es/ac71aBusquedaRegistrosWar/empresa/03076",
      "_links": {
        "self": {
          "name": "ANTONIO JESÚS FERNÁNDEZ GONZÁLEZ",
          "href": "https://api.euskadi.eus/procurements/companies/03076"
        }
      }
    },
    {
      "name": "OPEN ENERGY 2012, S.L.",
      "registrationNumber": "08415",
      "identificationNumber": "B66022963",
      "address": "HORTA, 23",
      "location": {
        "postalCode": "08031",
        "municipality": "Barcelona",
        "county": "Barcelona",
        "municipalityId": "019",
        "countyId": "08"
      },
      "economicActivities": [
        {
          "id": "1.843.1",
          "name": "Servicios técnicos de ingeniería",
          "_links": {
            "self": {
              "name": "Servicios técnicos de ingeniería",
              "href": "https://api.euskadi.eus/procurements/companies/economic-activities/1.843.1"
            }
          }
        }
      ],
      "certificateStartDate": "2025-10-07",
      "certificateEndDate": "2026-04-07",
      "object": "EL DESARROLLO Y EXPLOTACIÓN DE SISTEMAS Y APLICACIONES INFORMÁTICAS Y DE COMUNICACIONES PARA LA GESTIÓN DE CONSUMOS ENERGÉTICOS, ENTRE OTROS, Y LA PRESTACIÓN DE SERVICIOS RELACIONADOS, INCLUYENDO CONSULTORÍA, FINANCIACIÓN DE LOS SISTEMAS Y EXPLOTACIÓN DE LOS DATOS VINCULADOS.",
      "mainEntityOfPage": "https://www.contratacion.euskadi.eus/webkpe00-kperoc/es/ac71aBusquedaRegistrosWar/empresa/08415",
      "_links": {
        "self": {
          "name": "OPEN ENERGY 2012, S.L.",
          "href": "https://api.euskadi.eus/procurements/companies/08415"
        }
      }
    },
    {
      "name": "MIREN BAKARNE MARTINEZ MAQUIBAR",
      "registrationNumber": "08480",
      "identificationNumber": "72571040Z",
      "address": "Aizkorri, 24",
      "location": {
        "postalCode": "20230",
        "municipality": "Legazpi",
        "county": "Gipuzkoa",
        "municipalityId": "051",
        "countyId": "20"
      },
      "economicActivities": [
        {
          "id": "1.849.2",
          "name": "Servicios mecanográficos, taquigráficos, de reproducción de escritos",
          "_links": {
            "self": {
              "name": "Servicios mecanográficos, taquigráficos, de reproducción de escritos",
              "href": "https://api.euskadi.eus/procurements/companies/economic-activities/1.849.2"
            }
          }
        }
      ],
      "certificateStartDate": "2025-10-07",
      "certificateEndDate": "2026-04-07",
      "object": "SERVICIOS MECANOGRÁFICOS, TAQUIGRÁFICOS, DE REPRODUCCIÓN DE ESCRITOS.",
      "mainEntityOfPage": "https://www.contratacion.euskadi.eus/webkpe00-kperoc/es/ac71aBusquedaRegistrosWar/empresa/08480",
      "_links": {
        "self": {
          "name": "MIREN BAKARNE MARTINEZ MAQUIBAR",
          "href": "https://api.euskadi.eus/procurements/companies/08480"
        }
      }
    },
    {
      "name": "BUS ALCONADA SOCIEDAD LIMITADA",
      "registrationNumber": "04578",
      "identificationNumber": "B95635140",
      "address": "C/ ZUBIAURRE, 24, 7ºA",
      "location": {
        "postalCode": "48260",
        "municipality": "Ermua",
        "county": "Bizkaia",
        "municipalityId": "034",
        "countyId": "48"
      },
      "economicActivities": [
        {
          "id": "1.721.3",
          "name": "Transporte de viajeros por carretera",
          "_links": {
            "self": {
              "name": "Transporte de viajeros por carretera",
              "href": "https://api.euskadi.eus/procurements/companies/economic-activities/1.721.3"
            }
          }
        }
      ],
      "certificateStartDate": "2025-10-07",
      "certificateEndDate": "2026-04-07",
      "classification": [
        {
          "id": "S",
          "name": "Servicios",
          "groups": [
            {
              "id": "R",
              "subgroups": [
                {
                  "id": "01",
                  "name": "Transporte de viajeros por carretera",
                  "categories": [
                    {
                      "id": "3",
                      "name": "Desde 300.001 Hasta 600.000",
                      "_links": {
                        "self": {
                          "name": "Desde 300.001 Hasta 600.000",
                          "href": "https://api.euskadi.eus/procurements/companies/types/S/categories/3"
                        }
                      }
                    }
                  ],
                  "_links": {
                    "self": {
                      "name": "Transporte de viajeros por carretera",
                      "href": "https://api.euskadi.eus/procurements/companies/types/S/groups/R/subgroups/01"
                    }
                  }
                }
              ],
              "_links": {
                "self": {
                  "href": "https://api.euskadi.eus/procurements/companies/types/S/groups/R"
                }
              }
            }
          ],
          "_links": {
            "self": {
              "name": "Servicios",
              "href": "https://api.euskadi.eus/procurements/companies/types/S"
            }
          }
        }
      ],
      "object": "EL TRANSPORTE DE VIAJEROS POR CARRETERA, TANTO DE ÍNDOLE DISCRECIONAL COMO REGULAR; TRANSPORTE DE MERCANCÍAS POR CARRETERA, POR AUTOTAXIS, SANITARIO EN AMBULANCIAS, AGENCIA DE VIAJES, SERVICIOS A OTRAS AGENCIAS DE VIAJES, INTERMEDIACIÓN PARA ORGANIZACIÓN DE VIAJES E INTERMEDIARIOS DEL TRANSPORTE, SERVICIOS DE MUDANZAS, MECÁNICA Y REPARACIÓN DE VEHÍCULOS EN GENERAL",
      "mainEntityOfPage": "https://www.contratacion.euskadi.eus/webkpe00-kperoc/es/ac71aBusquedaRegistrosWar/empresa/04578",
      "_links": {
        "self": {
          "name": "BUS ALCONADA SOCIEDAD LIMITADA",
          "href": "https://api.euskadi.eus/procurements/companies/04578"
        }
      }
    },
    {
      "name": "IPLAN MOVILIDAD, S.L.",
      "registrationNumber": "09085",
      "identificationNumber": "B27789767",
      "address": "Plaza Europa, portal 10A 6º A Edificio Área Central",
      "location": {
        "postalCode": "15707",
        "municipality": "Santiago de Compostela",
        "county": "Coruña, A",
        "municipalityId": "078",
        "countyId": "15"
      },
      "economicActivities": [
        {
          "id": "1.849.9",
          "name": "Otros servicios independientes n.c.o.p",
          "_links": {
            "self": {
              "name": "Otros servicios independientes n.c.o.p",
              "href": "https://api.euskadi.eus/procurements/companies/economic-activities/1.849.9"
            }
          }
        }
      ],
      "certificateStartDate": "2025-10-07",
      "certificateEndDate": "2026-04-07",
      "object": "LA PRESTACIÓN DE SERVICIOS: ELABORACIÓN Y DESARROLLO DE INFORMES, ESTUDIOS, PROYECTOS Y CONSULTORÍA SOBRE MOVILIDAD.\n",
      "mainEntityOfPage": "https://www.contratacion.euskadi.eus/webkpe00-kperoc/es/ac71aBusquedaRegistrosWar/empresa/09085",
      "_links": {
        "self": {
          "name": "IPLAN MOVILIDAD, S.L.",
          "href": "https://api.euskadi.eus/procurements/companies/09085"
        }
      }
    },
    {
      "name": "GESTIOMA CONSULTORES, S.L.",
      "registrationNumber": "09616",
      "identificationNumber": "B01659457",
      "address": "POLIGONO INDUSTRIAL URAZANDI BLOQUE B NAVE 3B",
      "location": {
        "postalCode": "48950",
        "municipality": "Erandio",
        "county": "Bizkaia",
        "municipalityId": "902",
        "countyId": "48"
      },
      "economicActivities": [
        {
          "id": "1.843.1",
          "name": "Servicios técnicos de ingeniería",
          "_links": {
            "self": {
              "name": "Servicios técnicos de ingeniería",
              "href": "https://api.euskadi.eus/procurements/companies/economic-activities/1.843.1"
            }
          }
        }
      ],
      "certificateStartDate": "2025-10-07",
      "certificateEndDate": "2026-04-07",
      "object": "LA REALIZACIÓN DE TODO TIPO DE INFORMES, ESTUDIOS, PROYECTOS Y ASESORAMIENTO TÉCNICO RELACIONADO CON LA INGENIERÍA Y LA INFORMÁTICA, APLICADA A LAS INFRAESTRUCTURAS, ASÍ COMO CUALQUIER OTRO TIPO DE LABORES DE CONSULTORÍA TÉCNICA. EL CNAE CORRESPONDIENTE A LA ACTIVIDAD PRINCIPAL ES 7112.- (SERVICIOS TÉCNICOS DE INGENIERÍA Y OTRAS ACTIVIDADES RELACIONADAS CON EL ASESORAMIENTO TÉCNICO).",
      "mainEntityOfPage": "https://www.contratacion.euskadi.eus/webkpe00-kperoc/es/ac71aBusquedaRegistrosWar/empresa/09616",
      "_links": {
        "self": {
          "name": "GESTIOMA CONSULTORES, S.L.",
          "href": "https://api.euskadi.eus/procurements/companies/09616"
        }
      }
    },
    {
      "name": "DI-DA KOOPERATIBA ELKARTEA",
      "registrationNumber": "03353",
      "identificationNumber": "F95164745",
      "address": "TXANPORTA PLAZA 4",
      "location": {
        "postalCode": "48220",
        "municipality": "Abadiño",
        "county": "Bizkaia",
        "municipalityId": "001",
        "countyId": "48"
      },
      "economicActivities": [
        {
          "id": "1.843.9",
          "name": "Otros servicios técnicos n.c.o.p",
          "_links": {
            "self": {
              "name": "Otros servicios técnicos n.c.o.p",
              "href": "https://api.euskadi.eus/procurements/companies/economic-activities/1.843.9"
            }
          }
        }
      ],
      "certificateStartDate": "2025-10-07",
      "certificateEndDate": "2026-03-30",
      "object": "BAT. KOOPERATIBAREN EGINKIZUNA KOMUNIKAZIOAREKIN ERLAZIONATUTAKO ZEREGIN GUZTIAK LANDUAZ, ENPRESA ETA ERAKUNDEEN MARKA-INDARRA BULTZATUZ BERAUEN EZAGUTZA ETA BIDERAGARRITASUNA HOBETZEN LAGUNTZEA DA. ETA EGINKIZUN HORI KALITATE HANDIZ BETEAZ EUSKARA ENPRESA MUNDUAN TXERTATZEA. BI. KOOPERATIBA ELKARTE HONEN HELBURUA, BERAZ, KOMUNIKAZIOAK SUPOSATZEN DUEN ALOR OROTAN LAN EGITEA DA ETA EUSKAREN SUSTAPENEAN LAGUNTZEA ARLO HONETAN.",
      "mainEntityOfPage": "https://www.contratacion.euskadi.eus/webkpe00-kperoc/es/ac71aBusquedaRegistrosWar/empresa/03353",
      "_links": {
        "self": {
          "name": "DI-DA KOOPERATIBA ELKARTEA",
          "href": "https://api.euskadi.eus/procurements/companies/03353"
        }
      }
    },
    {
      "name": "FELIPE ARTIGUE RODRIGUEZ",
      "registrationNumber": "10370",
      "identificationNumber": "71342747J",
      "address": "FRANCISCO MARDONES, 6. 1ºA",
      "location": {
        "postalCode": "09200",
        "municipality": "Miranda de Ebro",
        "county": "Burgos",
        "municipalityId": "219",
        "countyId": "09"
      },
      "economicActivities": [
        {
          "id": "1.501.1",
          "name": "Construcción completa, reparación y conservación de edificaciones",
          "_links": {
            "self": {
              "name": "Construcción completa, reparación y conservación de edificaciones",
              "href": "https://api.euskadi.eus/procurements/companies/economic-activities/1.501.1"
            }
          }
        }
      ],
      "certificateStartDate": "2025-10-07",
      "certificateEndDate": "2026-04-05",
      "object": "CONSTRUCCIÓN COMPLETA, REPARACIÓN Y CONSERVACIÓN DE EDIFICACIONES.",
      "mainEntityOfPage": "https://www.contratacion.euskadi.eus/webkpe00-kperoc/es/ac71aBusquedaRegistrosWar/empresa/10370",
      "_links": {
        "self": {
          "name": "FELIPE ARTIGUE RODRIGUEZ",
          "href": "https://api.euskadi.eus/procurements/companies/10370"
        }
      }
    },
    {
      "name": "MG90 ARQUITECTOS, S.L.",
      "registrationNumber": "08261",
      "identificationNumber": "B20549432",
      "address": "calle urdaneta 6 1ºizquierda",
      "location": {
        "postalCode": "20006",
        "municipality": "Donostia / San Sebastián",
        "county": "Gipuzkoa",
        "municipalityId": "069",
        "countyId": "20"
      },
      "economicActivities": [
        {
          "id": "1.843.2",
          "name": "Servicios técnicos de arquitectura y urbanismo",
          "_links": {
            "self": {
              "name": "Servicios técnicos de arquitectura y urbanismo",
              "href": "https://api.euskadi.eus/procurements/companies/economic-activities/1.843.2"
            }
          }
        },
        {
          "id": "1.861.2",
          "name": "Alquiler de locales industriales y otros alquileres n.c.o.p",
          "_links": {
            "self": {
              "name": "Alquiler de locales industriales y otros alquileres n.c.o.p",
              "href": "https://api.euskadi.eus/procurements/companies/economic-activities/1.861.2"
            }
          }
        }
      ],
      "certificateStartDate": "2025-10-07",
      "certificateEndDate": "2026-04-06",
      "object": "EL EJERCICIO DE LA ARQUITECTURA, A TRAVÉS DE LOS PROFESIONALES COLEGIADOS CORRESPONDIENTES Y DE TODAS AQUELLAS ACTIVIDADES PROFESIONALES PROPIAS DE LOS SOCIOS ARQUITECTOS, CON SUJECIÓN A LO DISPUESTO POR LAS LEYES EN MATERIA DE INCOMPATIBILIDADES Y A LA NORMATIVA COLEGIAL CORRESPONDIENTE.",
      "mainEntityOfPage": "https://www.contratacion.euskadi.eus/webkpe00-kperoc/es/ac71aBusquedaRegistrosWar/empresa/08261",
      "_links": {
        "self": {
          "name": "MG90 ARQUITECTOS, S.L.",
          "href": "https://api.euskadi.eus/procurements/companies/08261"
        }
      }
    }
  ]
}