{
  "totalItems": 9042,
  "totalPages": 905,
  "currentPage": 772,
  "itemsOfPage": 10,
  "items": [
    {
      "name": "TRAUMÉDICA, S.A.",
      "registrationNumber": "00417",
      "identificationNumber": "A48215354",
      "address": "C/ EGAÑA, 17 - 4º. DPTOS.: 7 y 8.",
      "location": {
        "postalCode": "48010",
        "municipality": "Bilbao",
        "county": "Bizkaia",
        "municipalityId": "020",
        "countyId": "48"
      },
      "economicActivities": [
        {
          "id": "1.619.2",
          "name": "Venta al por mayor de aparatos e instrumentos médicos, ortopédicos, ópticos",
          "_links": {
            "self": {
              "name": "Venta al por mayor de aparatos e instrumentos médicos, ortopédicos, ópticos",
              "href": "https://api.euskadi.eus/procurements/companies/economic-activities/1.619.2"
            }
          }
        }
      ],
      "certificateStartDate": "2007-05-30",
      "certificateEndDate": "2007-11-03",
      "object": "LA VENTA Y COMERCIALIZACIÓN DE APARATOS CLÍNICA-QUIRÚRGICA",
      "mainEntityOfPage": "https://www.contratacion.euskadi.eus/webkpe00-kperoc/es/ac71aBusquedaRegistrosWar/empresa/00417",
      "_links": {
        "self": {
          "name": "TRAUMÉDICA, S.A.",
          "href": "https://api.euskadi.eus/procurements/companies/00417"
        }
      }
    },
    {
      "name": "SUGAR FACTORY, S.L. UNIPERSONAL",
      "registrationNumber": "03357",
      "identificationNumber": "B01406966",
      "address": "AVDA. DE LOS HUETOS, Nº 79",
      "location": {
        "postalCode": "01010",
        "municipality": "Vitoria-Gasteiz",
        "county": "Araba/Álava",
        "municipalityId": "059",
        "countyId": "01"
      },
      "economicActivities": [
        {
          "id": "1.849.9",
          "name": "Otros servicios independientes n.c.o.p",
          "_links": {
            "self": {
              "name": "Otros servicios independientes n.c.o.p",
              "href": "https://api.euskadi.eus/procurements/companies/economic-activities/1.849.9"
            }
          }
        }
      ],
      "certificateStartDate": "2007-05-23",
      "certificateEndDate": "2007-09-08",
      "object": "REALIZAR Y PRODUCIR: PROGRAMAS DE JUEGO DE REALIDAD VIRTUAL; PELICULAS (FILMES) IMPRESIONADAS; PROGRAMAS DE ORDENADOR (PROGRAMAS GRABADOS); INSTRUMENTOS METEOROLÓGICOS; METRÓNMOS; APARATOS E INSTRUMENTOS CIENTÍFICOS; NAÚTICOS; GEODÉSICOS; FOTOGRÁFICOS; CINEMATOGRÁFICOS, ÓPTICOS, DE PESAR, DE SOCORRO (SALVAMENTO), Y DE ENSENANZA; APARATOS E INSTRUMENTOS PARA LA CONDUCCIÓN, DISTRIBUCIÓN, TRANSFORMACIÓN, ACUMULACIÓN, REGULACIÓN O CONTROL DE ELECTRICIDAD; APARATOS PARA EL REGISTRO, TRANSMISIÓN, REPRODUCCIÓN DE SONIDO O IMÁGENES; SOPORTES DE REGISTRO MAGNÉTICOS; DISCOS ACÚSTICOS; DISTRIBUIDORES AUTOMÁTICOS Y MECANISMOS PARA APARATOS DE PREVIO PAGO; CAJAS REGISTRADORAS, MÁQUINAS CALCULADORAS, EQUIPOS PARA EL TRATAMIENTO DE LA INFORMACIÓN Y ORDENADORES; EXTINTORES. PRESTAR SERVICIOS DE TELECOMUNICACIONES, SERVICIOS DE DIFUSIÓN DE PROGRAMAS DE TELEVISIÓN Y RADIODIFUSIÓN. REALIZAR MONTAJES DE PROGRAMAS RADIOFÓNICOS Y DE TV; ENTRETENIMIENTO TELEVISADO; PRODUCCIÓN DE PELÍCULAS (FILMES); ESTUDIOS DE CINE; ORGANIZACIÓN Y DIRECCIÓN DE CONGRESOS; PUBLICACIÓN ELECTRÓNICA DE PERIÓDICOS Y LIBROS EN LÍNEA; PRODUCCIÓN, PUBLICACIÓN Y EDICIÓN DE CASETES Y PELÍCULAS DE VIDEO, DISCOS COMPACTOS Y SOPORTES DE REGISTRO MAGNÉTICOS. SERVICIOS DE DESARROLLO DE SOFTWARE; INVESTIGACIÓN Y DESARROLLO EN LAS ÁREAS DE DISEÑO DE PRODUCTOS, DESARROLLO DE DISEÑO DE PRODUCTOS Y DESARROLLO DE PROCESOS, SERVICIOS DE ASESORAMIENTO TÉCNICO; SERVICIOS DE PROGRAMACIÓN DE ORDENADORES; SERVICIOS DE DISEÑO INDUSTRIAL; SERVICIOS INFORMÁTICOS.",
      "mainEntityOfPage": "https://www.contratacion.euskadi.eus/webkpe00-kperoc/es/ac71aBusquedaRegistrosWar/empresa/03357",
      "_links": {
        "self": {
          "name": "SUGAR FACTORY, S.L. UNIPERSONAL",
          "href": "https://api.euskadi.eus/procurements/companies/03357"
        }
      }
    },
    {
      "name": "KATAIA CONSULTING, S.L.",
      "registrationNumber": "03374",
      "identificationNumber": "B01387315",
      "address": "ETXEZARRA 35",
      "location": {
        "postalCode": "01007",
        "municipality": "Vitoria-Gasteiz",
        "county": "Araba/Álava",
        "municipalityId": "059",
        "countyId": "01"
      },
      "economicActivities": [
        {
          "id": "1.847",
          "name": "Servicios de consultoría",
          "_links": {
            "self": {
              "name": "Servicios de consultoría",
              "href": "https://api.euskadi.eus/procurements/companies/economic-activities/1.847"
            }
          }
        }
      ],
      "certificateStartDate": "2007-05-23",
      "certificateEndDate": "2007-09-22",
      "object": "EL ASESORAMIENTO A PERSONAS FÍSICAS Y JURÍDICAS EN TODOS LOS ÁMBITOS DE SU ACTIVIDAD, ESTABLECIENDO LOS MECANISMOS OPORTUNOS PARA DAR SOLUCIONES INTEGRALES A LAS NECESIDADES DEL CLIENTE.",
      "mainEntityOfPage": "https://www.contratacion.euskadi.eus/webkpe00-kperoc/es/ac71aBusquedaRegistrosWar/empresa/03374",
      "_links": {
        "self": {
          "name": "KATAIA CONSULTING, S.L.",
          "href": "https://api.euskadi.eus/procurements/companies/03374"
        }
      }
    },
    {
      "name": "ÉMFASIS BILLING & MARKETING SERVICES, S.L.",
      "registrationNumber": "03375",
      "identificationNumber": "B84309616",
      "address": "GORBEIA, 1. POL IND LEGUIZAMON",
      "location": {
        "postalCode": "48450",
        "municipality": "Etxebarri",
        "county": "Bizkaia",
        "municipalityId": "029",
        "countyId": "48"
      },
      "economicActivities": [
        {
          "id": "1.474",
          "name": "Artes gráficas (impresión gráfica)",
          "_links": {
            "self": {
              "name": "Artes gráficas (impresión gráfica)",
              "href": "https://api.euskadi.eus/procurements/companies/economic-activities/1.474"
            }
          }
        },
        {
          "id": "1.844",
          "name": "Servicios de publicidad, relaciones públicas y similares",
          "_links": {
            "self": {
              "name": "Servicios de publicidad, relaciones públicas y similares",
              "href": "https://api.euskadi.eus/procurements/companies/economic-activities/1.844"
            }
          }
        }
      ],
      "certificateStartDate": "2007-05-23",
      "certificateEndDate": "2007-09-07",
      "object": "1. ADQUISICIÓN, TENENCIA Y DISFRUTE DE TODA CLASE DE VALORES Y ACTIVOS MOBILIARIOS POR CUENTA PROPIA. 2- ASESORAMIENTO Y GESTIÓN DE ENTIDADES MERCANTILES EN LAS QUE LA SOCIEDAD MANTENGA DIRECTA O INDIRECTAMENTE UNA PARTICIPACIÓN ACCIONARIAL. 3- NEGOCIAR Y POSEER ACCIONES, PARTICIPACIONES, OBLIGACIONES, BONOS, PAGARÉS, LETRAS DE CAMBIO, ASÍ COMO OTROS VALORES PÚBLICOS O PRIVADOS, Y EN GENERAL, ACTIVOS FINANCIEROS SIN NINGUNA DE LAS CARACTERÍSTICAS PROPIAS DE ACTIVIDADES REGULADAS POR LAS LEYES DEL MERCADO DE VALORES O DE INVERSIÓN COLECTIVA; Y 4- PRESTACIÓN DE SERVICIOS INTEGRALES DE MARKETING DIRECTO ASÍ COMO DESARROLLO DE ACTIVIDADES PUBLICITARIAS, QUEDANDO COMPRENDIDAS EN EL MISMO, ENTRE OTRAS ACTIVIDADES, LAS SIGUIENTES: CREACIÓN Y ORGANIZACIÓN DE CAMPAÑAS PUBLICITARIAS, QUEDANDO COMPRENDIDAS EN EL MISMO, ENTRE OTRAS ACTIVIDADES, LAS SIGUIENTES: CREACIÓN Y ORGANIZACIÓN DE CAMPAÑAS PUBLICITARIAS; DESPACHO Y ENTREGA A DOMICILIO DE CORRESPONDENCIA POR CUALQUIER MEDIO DE DISTRIBUCIÓN; SERVICIOS INFORMÁTICOS, CÁLCULO, IMPRESIONES, PERSONALIZACIONES, GRABACIÓN DE DATOS, DESARROLLO DE PROGRAMAS Y PROCESAMIENTO DE INFORMACIÓN; IMPRESIÓN GRÁFICA DE LIBROS, FOLLETOS, CARTAS Y REVISTAS;  EMPAQUETADO, ENSOBRADO, RETRACTILADO DE REVISTAS, FOLLETOS Y LIBROS; ORGANIZACIÓN DE ARCHIVOS Y ALMACÉN, GUARDA Y CUSTODIA DE DOCUMENTACIÓN; Y LA REALIZACIÓN DE CUALESQUIERA ACTIVIDADES DIRECTAMENTE RELACIONADAS Y NECESARIAS PARA LLEVAR A CABO DICHO OBJETO.",
      "mainEntityOfPage": "https://www.contratacion.euskadi.eus/webkpe00-kperoc/es/ac71aBusquedaRegistrosWar/empresa/03375",
      "_links": {
        "self": {
          "name": "ÉMFASIS BILLING & MARKETING SERVICES, S.L.",
          "href": "https://api.euskadi.eus/procurements/companies/03375"
        }
      }
    },
    {
      "name": "ORTZI MUGA, S.L.",
      "registrationNumber": "03368",
      "identificationNumber": "B01401777",
      "address": "C/VICENTE GOIKOETXEA, 6-6º",
      "location": {
        "postalCode": "01008",
        "municipality": "Vitoria-Gasteiz",
        "county": "Araba/Álava",
        "municipalityId": "059",
        "countyId": "01"
      },
      "economicActivities": [
        {
          "id": "1.849.7",
          "name": "Servicios de gestión administrativa",
          "_links": {
            "self": {
              "name": "Servicios de gestión administrativa",
              "href": "https://api.euskadi.eus/procurements/companies/economic-activities/1.849.7"
            }
          }
        }
      ],
      "certificateStartDate": "2007-05-22",
      "certificateEndDate": "2007-10-04",
      "object": "LA PRESTACIÓN DE SERVICIOS DE ASESORAMIENTO LEGAL Y FISCAL A EMPRESAS Y PARTICULARES.",
      "mainEntityOfPage": "https://www.contratacion.euskadi.eus/webkpe00-kperoc/es/ac71aBusquedaRegistrosWar/empresa/03368",
      "_links": {
        "self": {
          "name": "ORTZI MUGA, S.L.",
          "href": "https://api.euskadi.eus/procurements/companies/03368"
        }
      }
    },
    {
      "name": "DERRIBOS PETRALANDA, S.A.",
      "registrationNumber": "00205",
      "identificationNumber": "A48112981",
      "address": "TXORIERRI ETORBIDEA 26-D",
      "location": {
        "postalCode": "48180",
        "municipality": "Loiu",
        "county": "Bizkaia",
        "municipalityId": "903",
        "countyId": "48"
      },
      "economicActivities": [
        {
          "id": "1.501.1",
          "name": "Construcción completa, reparación y conservación de edificaciones",
          "_links": {
            "self": {
              "name": "Construcción completa, reparación y conservación de edificaciones",
              "href": "https://api.euskadi.eus/procurements/companies/economic-activities/1.501.1"
            }
          }
        },
        {
          "id": "1.502.1",
          "name": "Demoliciones y derribos en general",
          "_links": {
            "self": {
              "name": "Demoliciones y derribos en general",
              "href": "https://api.euskadi.eus/procurements/companies/economic-activities/1.502.1"
            }
          }
        }
      ],
      "certificateStartDate": "2007-05-10",
      "certificateEndDate": "2007-10-23",
      "object": "DEMOLICIONES Y DESGUACES CON APROVECHAMIENTO DE MATERIALES RESIDUALES, RECONSTRUCCIÓN O CONSTRUCCIÓN DE ACERAS Y URBANIZACIÓN DE CALLES",
      "mainEntityOfPage": "https://www.contratacion.euskadi.eus/webkpe00-kperoc/es/ac71aBusquedaRegistrosWar/empresa/00205",
      "_links": {
        "self": {
          "name": "DERRIBOS PETRALANDA, S.A.",
          "href": "https://api.euskadi.eus/procurements/companies/00205"
        }
      }
    },
    {
      "name": "GREYHOUND, S.L.",
      "registrationNumber": "03099",
      "identificationNumber": "B32169898",
      "address": "POL. IND. AZITAIN PAR. B PAB. A ",
      "location": {
        "postalCode": "20600",
        "municipality": "Eibar",
        "county": "Gipuzkoa",
        "municipalityId": "030",
        "countyId": "20"
      },
      "economicActivities": [
        {
          "id": "1.501.1",
          "name": "Construcción completa, reparación y conservación de edificaciones",
          "_links": {
            "self": {
              "name": "Construcción completa, reparación y conservación de edificaciones",
              "href": "https://api.euskadi.eus/procurements/companies/economic-activities/1.501.1"
            }
          }
        }
      ],
      "certificateStartDate": "2007-05-08",
      "certificateEndDate": "2007-10-13",
      "object": "1. -LA REALIZACIÓN DE NEGOCIOS INMOBILIARIOS, PRINCIPALMENTE LOS DE COMPRA Y VENTA DE TODA CLASE DE TERRENOS O EDIFICIOS; LA CONSTRUCCIÓN DE VIVIENDAS DE PROTECCIÓN OFICIAL O NO, ACOGIDAS A REGÍMENES ESPECIALES O LIBRES; PROMOCIÓN DE POLÍGONOS RESIDENCIALES O INDUSTRIALES, INCLUSO SU URBANIZACIÓN DE FORMA AISLADA O EN COMUNIDAD CON OTRAS ENTIDADES DE CUALQUIER TIPO; CONSTITUCIÓN DE ENTIDADES URBANÍSTICAS; CONSTRUCCIÓN DE CUALQUIER CLASE DE EDIFICIOS Y, EN GENERAL, LA REALIZACIÓN POR CUENTA PROPIA O AJENA DE TODA CLASE DE OBRAS PROPIAS DEL RAMO DE LA CONSTRUCCIÓN Y EXPLOTACIÓN DE INMUEBLES DE  SU PROPIEDAD, URBANOS Ó RÚSTICOS.\r\n\r\n2. -EL TRANSPORTE POR CARRETERA EN TODAS SUS MODALIDADES.\r\n\r\n3. -EXCAVACIONES Y MOVIMIENTOS DE TIERRAS  ",
      "mainEntityOfPage": "https://www.contratacion.euskadi.eus/webkpe00-kperoc/es/ac71aBusquedaRegistrosWar/empresa/03099",
      "_links": {
        "self": {
          "name": "GREYHOUND, S.L.",
          "href": "https://api.euskadi.eus/procurements/companies/03099"
        }
      }
    },
    {
      "name": "TÜV INTERNACIONAL - GRUPO TÜV RHEINLAND, S.L.",
      "registrationNumber": "02913",
      "identificationNumber": "B82889296",
      "address": "Bº PERURI, 33 ED. 8 1ºC ",
      "location": {
        "postalCode": "48940",
        "municipality": "Leioa",
        "county": "Bizkaia",
        "municipalityId": "054",
        "countyId": "48"
      },
      "economicActivities": [
        {
          "id": "1.843.1",
          "name": "Servicios técnicos de ingeniería",
          "_links": {
            "self": {
              "name": "Servicios técnicos de ingeniería",
              "href": "https://api.euskadi.eus/procurements/companies/economic-activities/1.843.1"
            }
          }
        },
        {
          "id": "1.843.9",
          "name": "Otros servicios técnicos n.c.o.p",
          "_links": {
            "self": {
              "name": "Otros servicios técnicos n.c.o.p",
              "href": "https://api.euskadi.eus/procurements/companies/economic-activities/1.843.9"
            }
          }
        }
      ],
      "certificateStartDate": "2007-04-30",
      "certificateEndDate": "2007-08-08",
      "object": "LA PRESTACIÓN DE TODO TIPO DE SERVICIOS TÉCNICOS DE CONTROL, REVISIÓN, INSPECCIÓN, VERIFICACIÓN, HOMOLOGACIÓN, CERTIFICACIÓN O ENSAYO PARA FABRICANTES, EMPRESAS, ESTAMENTOS  OFICIALES, ENTIDADES O PERSONAS, EN VEHÍCULOS Y OTRAS UNIDADES DE TRANSPORTE, EN LAS TÉCNICAS DE SEGURIDAD PARA LA INDUSTRIA, EL COMERCIO, EL HOGAR E INSTALACIONES DE OCIO, EN LA PROTECCIÓN DEL MEDIO AMBIENTE Y EN LAS TÉCNICAS ENERGÉTICAS, EN LA PREVENCIÓN DE RIESGOS LABORALES, EN LA SEGURIDAD Y CALIDAD DE PRODUCTOS, SISTEMAS E INSTALACIONES, EN LA CONSTRUCCIÓN PARA LA OBTENCIÓN DE LAS PÓLIZAS DE SEGUROS DECENALES Y OTROS CONTROLES Y CERTIFICADOS, LA FORMACIÓN GENERAL, NO PARA CLIENTES INDIVIDUALIZADOS, EN LOS MISMOS CAMPOS. INSPECCIÓN Y CONTROL METROLÓGICO. LA HOMOLOGACIÓN, VERIFICACIÓN, REVISIÓN, CONTROL TÉCNICO E INSPECCIÓN DE EMBARCACIONES DE RECREO Y/O DE SUS PARTES Y EQUIPOS",
      "mainEntityOfPage": "https://www.contratacion.euskadi.eus/webkpe00-kperoc/es/ac71aBusquedaRegistrosWar/empresa/02913",
      "_links": {
        "self": {
          "name": "TÜV INTERNACIONAL - GRUPO TÜV RHEINLAND, S.L.",
          "href": "https://api.euskadi.eus/procurements/companies/02913"
        }
      }
    },
    {
      "name": "PROMOCIÓN Y PROYECTOS, S.L.",
      "registrationNumber": "02929",
      "identificationNumber": "B28199594",
      "address": "C/ JOSE ECHEGARAY, 14",
      "location": {
        "postalCode": "28230",
        "municipality": "Rozas de Madrid, Las",
        "county": "Madrid",
        "municipalityId": "127",
        "countyId": "28"
      },
      "economicActivities": [
        {
          "id": "1.843.1",
          "name": "Servicios técnicos de ingeniería",
          "_links": {
            "self": {
              "name": "Servicios técnicos de ingeniería",
              "href": "https://api.euskadi.eus/procurements/companies/economic-activities/1.843.1"
            }
          }
        }
      ],
      "certificateStartDate": "2007-04-30",
      "certificateEndDate": "2007-09-26",
      "object": "A) PROMOCIONAR TODA CLASE DE ACTIVIDADES RELACIONADAS CON LA ARQUITECTURA Y LA INGENIERÍA; B) REALIZAR TODA ACTIVIDAD RELACIONADA CON LA REDACCIÓN DE PROYECTOS O ESTUDIOS Y CON LA CONSTRUCCIÓN DEOBRAS PÚBLICAS Y PRIVADAS, ASÍ COMO CON LOS MATERIALES Y ELEMENTOS QUE LAS CONSTITUYEN; C) REALIZAR TODA CLASE DE CONTROLES DE OBRAS, ASÍ COMO LLEVAR A CABO LA DIRECCIÓN FACULTATIVA DE LAS MISMAS; D) REALIZAR TODO TIPO DE VALORACIONES Y OPERACIONES CONDUCENTES A LA EXPROPIACIÓN TANTO DE TERRENOS COMO DE CONSTRUCCIONES E INSTALACIONES POR CUENTA DE TERCEROS; E) REALIZAR LA COORDINACIÓN DE SEGURIDAD Y SALUD EN TODO TIPO DE OBRAS E INSTALACIONES",
      "mainEntityOfPage": "https://www.contratacion.euskadi.eus/webkpe00-kperoc/es/ac71aBusquedaRegistrosWar/empresa/02929",
      "_links": {
        "self": {
          "name": "PROMOCIÓN Y PROYECTOS, S.L.",
          "href": "https://api.euskadi.eus/procurements/companies/02929"
        }
      }
    },
    {
      "name": "OLACIREGUI TOLOSA, ANGEL. TRANSPORTES OLA",
      "registrationNumber": "02347",
      "identificationNumber": "15994593W",
      "address": "PLAZA CONSTITUCIÓN, 8- 3º IZDA. ",
      "location": {
        "postalCode": "20003",
        "municipality": "Donostia / San Sebastián",
        "county": "Gipuzkoa",
        "municipalityId": "069",
        "countyId": "20"
      },
      "economicActivities": [
        {
          "id": "1.722",
          "name": "Transporte de mercancías por carretera",
          "_links": {
            "self": {
              "name": "Transporte de mercancías por carretera",
              "href": "https://api.euskadi.eus/procurements/companies/economic-activities/1.722"
            }
          }
        },
        {
          "id": "1.757",
          "name": "Servicio de mudanzas",
          "_links": {
            "self": {
              "name": "Servicio de mudanzas",
              "href": "https://api.euskadi.eus/procurements/companies/economic-activities/1.757"
            }
          }
        }
      ],
      "certificateStartDate": "2007-04-23",
      "certificateEndDate": "2007-09-13",
      "object": "TRANSPORTE DE MERCANCÍAS POR CARRETERA",
      "mainEntityOfPage": "https://www.contratacion.euskadi.eus/webkpe00-kperoc/es/ac71aBusquedaRegistrosWar/empresa/02347",
      "_links": {
        "self": {
          "name": "OLACIREGUI TOLOSA, ANGEL. TRANSPORTES OLA",
          "href": "https://api.euskadi.eus/procurements/companies/02347"
        }
      }
    }
  ]
}