{
  "totalItems": 9042,
  "totalPages": 905,
  "currentPage": 236,
  "itemsOfPage": 10,
  "items": [
    {
      "name": "PRICEWATERHOUSECOOOPERS ASESORES DE NEGOCIOS, S.L.",
      "registrationNumber": "02343",
      "identificationNumber": "B78016375",
      "address": "Pº DE LA CASTELLANA, Nº 259-B",
      "location": {
        "postalCode": "28046",
        "municipality": "Madrid",
        "county": "Madrid",
        "municipalityId": "079",
        "countyId": "28"
      },
      "economicActivities": [
        {
          "id": "1.842",
          "name": "Servicios financieros y contables",
          "_links": {
            "self": {
              "name": "Servicios financieros y contables",
              "href": "https://api.euskadi.eus/procurements/companies/economic-activities/1.842"
            }
          }
        },
        {
          "id": "1.845",
          "name": "Explotación electrónica por cuenta de terceros",
          "_links": {
            "self": {
              "name": "Explotación electrónica por cuenta de terceros",
              "href": "https://api.euskadi.eus/procurements/companies/economic-activities/1.845"
            }
          }
        }
      ],
      "certificateStartDate": "2025-10-03",
      "certificateEndDate": "2026-04-02",
      "object": "LA PRESTACIÓN DE SERVICIOS LABORALES, DE GESTIÓN, CONTABLES, INFORMÁTIVOS O DE APOYO A LA GESTIÓN DE OTRAS SOCIEDADES. TAMBIÉN TENDRÁ  POR OBJETO LA ADMINISTRACIÓN DE EMPRESAS ASÍ COMO SU ASESORAMIENTO, COMPRENDIENDO CUALQUIER ACTIVIDAD QUE SE RELACIONE CON EL FUNCIONAMIENTO, MARCHA Y DESARROLLO DE CUALQUIER TIPO DE EMPRESA. ADEMÁS TENDRÁ POR OBJETO  LA PRESTACIÓN DE SERVICIOS DE ASESORAMIENTO FINANCIERO EMPRESARIAL Y DE NEGOCIOS, Y DE ESTUDIOS DE REVISIÓN Y VERIFICACIÓN CONTABLE, FINANCIEROS Y ECONÓMICOS. IGUALMENTE TENDRÁ POR OBJETO LA PRESTACIÓN DE SERVICIOS PROFESIONALES RELACIONADOS CON LA GESTIÓN Y DESARROLLO DE LOS PROYECTOS SUBVENCIONADOS POR LA ADMINISTRACIÓN PÚBLICA DEL ESTADO, PROVINCIA, MUNICIPIO O ENTES AUTONÓMICOS, ASÍ COMO LOS DE LA UNIÓN EUROPEA.\nREALIZACIÓN DE PROGRAMAS DE APOYO A ENTIDADES DE TODO TIPO TANTO PÚBLICAS COMO PRIVADAS PARA LA GESTIÓN Y EL DESARROLLO INTEGRAL DE SUS OBRAS SOCIALES, SERVICIOS INTEGRALES PARA FUNDACIONES Y OTRAS ENDIDADES DENTRO DEL ÁMBITO SOCIAL",
      "mainEntityOfPage": "https://www.contratacion.euskadi.eus/webkpe00-kperoc/es/ac71aBusquedaRegistrosWar/empresa/02343",
      "_links": {
        "self": {
          "name": "PRICEWATERHOUSECOOOPERS ASESORES DE NEGOCIOS, S.L.",
          "href": "https://api.euskadi.eus/procurements/companies/02343"
        }
      }
    },
    {
      "name": "CENTRO SAN VIATOR",
      "registrationNumber": "10365",
      "identificationNumber": "G95426797",
      "address": "Barrio San Cristóbal",
      "location": {
        "postalCode": "48190",
        "municipality": "Sopuerta",
        "county": "Bizkaia",
        "municipalityId": "086",
        "countyId": "48"
      },
      "economicActivities": [
        {
          "id": "1.151.4",
          "name": "Producción de energía no especificada en otros epígrafes",
          "_links": {
            "self": {
              "name": "Producción de energía no especificada en otros epígrafes",
              "href": "https://api.euskadi.eus/procurements/companies/economic-activities/1.151.4"
            }
          }
        },
        {
          "id": "1.861.2",
          "name": "Alquiler de locales industriales y otros alquileres n.c.o.p",
          "_links": {
            "self": {
              "name": "Alquiler de locales industriales y otros alquileres n.c.o.p",
              "href": "https://api.euskadi.eus/procurements/companies/economic-activities/1.861.2"
            }
          }
        },
        {
          "id": "1.931.4",
          "name": "Enseñanza de varias modalidades regladas",
          "_links": {
            "self": {
              "name": "Enseñanza de varias modalidades regladas",
              "href": "https://api.euskadi.eus/procurements/companies/economic-activities/1.931.4"
            }
          }
        }
      ],
      "certificateStartDate": "2025-10-02",
      "certificateEndDate": "2026-04-02",
      "object": "PROMOVER EN SUS BENEFICIARIOS LA ENSEÑANZA CONFESIONAL, CONFORME A LOS PRINCIPIOS Y VALORES PROPIOS DE LA DOCTRINA DE LA IGLESIA CATÓLICA. A) PARA EL CUMPLIMIENTO DE ESTA FINALIDAD LA FUNDACIÓN DESARROLLARÁ LAS ACTIVIDADES EDUCATIVAS Y FORMATIVAS QUE EL PATRONATO ESTIME CONVENIENTES, Y PODRÁ OSTENTAR LA TITULARIDAD DE CENTROS EDUCATIVOS. ESTOS DEBERÁN CONTENER UNA CLÁUSULA EXPLÍCITA DE SU IDENTIDIAD RELIGIOSA CATÓLICA; SU DIRECCIÓN DEBERÁ SER EJERCIDA POR PERSONA NOMBRADA POR SU PROPIO ORDINARIO Y BAJO SU DEPENDENCIA; IMPARTIRÁN DE MANERA REGULAR ENSEÑANZA RELIGIOSA CATÓLICA DENTRO DE LOS PLANES DE ESTUDIOS PARA AQUELLOS ALUMNOS CUYOS PADRES, TUTORES LEGALES O ELLOS MISMOS, SI SON MAYORES DE EDAD, LIBREMENTE LO DESEEN; CONTARÁN CON UN SERVICIO DE ASISTENCIA RELIGIOSA INSTITUCIONALIZADO PARA LOS ALUMNOS QUE LIBREMENTE DESEEN ACOGERSE A ÉL; Y DISPONDRÁN DE CAPILLA O LUGAR DE CULTO APROPIADO PARA LA CELEBRACIÓN DE ACTOS RELIGIOSOS. ",
      "mainEntityOfPage": "https://www.contratacion.euskadi.eus/webkpe00-kperoc/es/ac71aBusquedaRegistrosWar/empresa/10365",
      "_links": {
        "self": {
          "name": "CENTRO SAN VIATOR",
          "href": "https://api.euskadi.eus/procurements/companies/10365"
        }
      }
    },
    {
      "name": "EULEN SEGURIDAD, S.A.",
      "registrationNumber": "03085",
      "identificationNumber": "A28369395",
      "address": "AVDA. LEHENDAKARI AGUIRRE, 29-5º",
      "location": {
        "postalCode": "48014",
        "municipality": "Bilbao",
        "county": "Bizkaia",
        "municipalityId": "020",
        "countyId": "48"
      },
      "economicActivities": [
        {
          "id": "1.849.4",
          "name": "Servicios de custodia, seguridad y protección",
          "_links": {
            "self": {
              "name": "Servicios de custodia, seguridad y protección",
              "href": "https://api.euskadi.eus/procurements/companies/economic-activities/1.849.4"
            }
          }
        }
      ],
      "certificateStartDate": "2025-10-02",
      "certificateEndDate": "2026-04-01",
      "object": "LA REALIZACIÓN DE LAS SIGUIENTES ACTIVIDADES, CON SUJECIÓN A LO DISPUESTO EN LA LEY 5/2014 DE 4 DE ABRIL, DE SEGURIDAD PRIVADA: 1) LA VIGILANCIA Y PROTECCIÓN DE BIENES, ESTABLECIMIENTOS,LUGARS Y EVENTOS, TANTO PÚBLICOS COMO PRIVADOS, ASÍ COMO DE LAS PERSONAS QUE PUDIERAN ENCONTRARSE EN LOS MISMOS. 2) EL ACOMPAÑAMIENTO, DEFENSA Y PROTECCIÓN DE PESONAS FÍSICAS DETERMINADAS, INCLUÍDAS LAS QUE OSTENTEN LA CONDICIÓN LEGAL DE AUTORIDAD. 3) EL DEPÓSITO, CUSTODIA, RECUENTO Y CLASIFICACIÓN DE MONEDAS Y BILLETES, TÍTULOS-VALORES, JOYAS, METALES PRECIOSOS, ANTIGÜEDADES, OBRAS DE ARTE U OTROS OBJETOS QUE, POR SU VALOR ECONÓMICO, HITÓRICO O CULTURAL, Y EXPECTATIVAS QUE GENEREN, PUEDAN REQUERIR VIGILANCIA Y PROTECCIÓN ESPECIAL. 4) EL DEPÓSITO Y CUSTODIA DE EXPLOSIVOS, ARMAS, CARTUCHERÍA METÁLICA, SUSTANCIAS, MATERIAS, MERCANCÍAS Y CUALESQUIERA OBJETOS QUE POR SU PELIGROSIDAD PRECISEN DE VIGILANCIA Y PROTECCIÓN ESPECIAL. 5) EL TRANSPORTE Y DISTRIBUCIÓN DE LOS OBJETOS A QUE SE REFIEREN LOS DOS PÁRRAFOS ANTERIORES. 6) LA INSTALACIÓN Y MANTENIMIENTO DE APARATOS, EQUIPOS, DISPOSITIVOS Y SISTEMAS DE SEGURIDAD CONECTADOS A CENTRALES RECEPTORAS DE ALARMAS O A CENTROS DE CONTROL O DE VIDEOVIGILANCIA. 7) LA EXPLOTACIÓN DE CENTRALES PARA LA CONEXIÓN, RECEPCIÓN, VERIFICACIÓN Y EN SU CASO, RESPUESTA Y TRANSMISIÓN DE LAS SEÑALES DE ALARMA, ASÍ COMO LA MONITORIZACIÓN DE CUALESQUIERA SEÑALES DE DISPOSITIVOS AUXILIARES PARA LA SEGURIDAD DE PERSONAS, DE BIENES MUEBLES O INMUEBLES O DE CUMPLIMIENTO DE MEDIDAS IMPUESTAS, Y LA COMUNICACIÓN A LAS FUERZAS Y CUERPOS DE SEGURIDAD COMPETENTES EN ESTOS CASOS. 8) LA FABRICACIÓN, COMERCIALIZACIÓN, VENTA, ENTREGA, INSTALACIÓN O MANTENIMIENTO DE ELEMENTOS O PRODUCTOS DE SEGURIDAD Y DE CERRAJERÍA DE SEGURIDAD. 9) LA FABRICACIÓN, COMERCIALIZACIÓN, VENTA O ENTREGA DE EQUIPOS TÉCNICOS DE SEGURIDAD ELECTRÓNICA, ASÍ COMO LA INSTALACIÓN O MANTENIMIENTO DE DICHOS EQUIPOS. 10) LA CONEXIÓN A CENTRALES RECEPTORAS DE ALARMAS DE SISTEMAS DE PREVENCIÓN O PROTECCIÓN CONTRA INCENDIOS O DE ALARMAS DE TIPO TÉCNICO O ASISTENCIAL O DE SISTEMAS O SERVICIOS DE CONTROL O MANTENIMIENTO. 11) LA PLANIFICACIÓN, CONSULTORÍA Y ASESORAMIENTO EN MATEIRA DE ACTIVIDADES DE SEGURIDAD PRIVADA QUE CONSISTIRÁ EN LA ELABORACIÓN DE ESTUDIOS DE INFORMES DE SEGURIDAD, ANÁLISIS DE RIESGOS Y PLANES DE SEGURIDAD REFERIDOS A LA PROTECCIÓN FRENTE A TODO TIPO DE RIESGOS, ASÍ COMO EN AUDITORÍAS SOBRE LA PRESTACIÓN DE LOS ERVICIOS DE SEGURIDAD. 12) SERVICIOS DE INFORMACIÓN O DE CONTROL EN LOS ACCESOS  A INSTALACIONES, COMPRENDIENDO EL CUIDADO Y CUSTODIA DE LAS LLAVES, LA APERTURA Y CIERRE DE PUERTAS, LA AYUDA EN EL ACCESO DE PERSONAS O VEHÍCULOS, EL CUMPLIMIENTO DE LA NORMATIVA INTERNA DE LOS LOCALES DONDE PRESTEN DICHO SERVICIO, ASÍ COMO LA EJECUCIÓN DE TAREAS AUXILIARES O SUBORDINADAS DE AYUDA O SOCORRO, TODAS ELLAS REALIZADAS EN LAS PUERTAS O EN EL INTERIOR DE INMUEBLES, LOCALES PÚBLICOS, APARCAMIENTOS, GARAJES, AUTOPISTAS, INCLUYENDO SUS ZONAS DE PEAJES, ÁREAS DE SERVICIO, MANTENIMIENTO Y DESCANSO, POR PORTEROS, CONSERJES Y DEMÁS PERSONAL AUXILIAR ANÁLOGO. 13) LAS TAREAS DE RECEPCIÓN, COMPROBACIÓN DE VISITANTES Y ORIENTACIÓN DE LOS MISMO, ASÍ COMO LAS DE COMPROBACIÓN DE ENTRADAS, DOCUMENTOS O CARNÉS, EN CUALQUIER CLASE DE EDIFICIOS O INMUEBLES, Y DE CUMPLIMIENTO DE LA NORMATIVA INTERNA DE LOS LOCALES DONDE PRESTEN DICHO SERVICIO. 14) EL CONTROL DE TRÁNSITO EN ZONAS RESERVADAS O DE CIRCULACIÓN RESTRINGIDA EN EL INTERIOR DE INSTALACIONES EN CUMPLIMIENTO DE LA NORMATIVA INTERNA DE LOS MISMOS. 15) COMPROBACIÓN Y CONTROL DEL ESTADO Y FUNCIONAMIENTO DE CALDERAS, BIENES E INSTALACIONES EN GENERAL, EN CUALQUIER CLASE DE INMUEBLES, PARA GARANTIZAR SU CONSERVACIÓN Y FUNCIONAMIENTO",
      "mainEntityOfPage": "https://www.contratacion.euskadi.eus/webkpe00-kperoc/es/ac71aBusquedaRegistrosWar/empresa/03085",
      "_links": {
        "self": {
          "name": "EULEN SEGURIDAD, S.A.",
          "href": "https://api.euskadi.eus/procurements/companies/03085"
        }
      }
    },
    {
      "name": "JUAN CARLOS PEREZ DE ONRAITA MENDIA",
      "registrationNumber": "07264",
      "identificationNumber": "16272840H",
      "address": "Calle Mayor, Nº 8 1º DRCHA",
      "location": {
        "postalCode": "01117",
        "municipality": "Harana/Valle de Arana",
        "county": "Araba/Álava",
        "municipalityId": "056",
        "countyId": "01"
      },
      "economicActivities": [
        {
          "id": "1.721.2",
          "name": "Transporte por autotaxis",
          "_links": {
            "self": {
              "name": "Transporte por autotaxis",
              "href": "https://api.euskadi.eus/procurements/companies/economic-activities/1.721.2"
            }
          }
        }
      ],
      "certificateStartDate": "2025-10-02",
      "certificateEndDate": "2026-03-30",
      "object": "TRANSPORTE POR AUTOTAXIS",
      "mainEntityOfPage": "https://www.contratacion.euskadi.eus/webkpe00-kperoc/es/ac71aBusquedaRegistrosWar/empresa/07264",
      "_links": {
        "self": {
          "name": "JUAN CARLOS PEREZ DE ONRAITA MENDIA",
          "href": "https://api.euskadi.eus/procurements/companies/07264"
        }
      }
    },
    {
      "name": "DATABLES SOLUTIONS, S.L.",
      "registrationNumber": "09586",
      "identificationNumber": "B16364663",
      "address": "Calle Barroeta Aldamar, nº 6-7º Puerta 1",
      "location": {
        "postalCode": "48001",
        "municipality": "Bilbao",
        "county": "Bizkaia",
        "municipalityId": "020",
        "countyId": "48"
      },
      "economicActivities": [
        {
          "id": "1.845",
          "name": "Explotación electrónica por cuenta de terceros",
          "_links": {
            "self": {
              "name": "Explotación electrónica por cuenta de terceros",
              "href": "https://api.euskadi.eus/procurements/companies/economic-activities/1.845"
            }
          }
        }
      ],
      "certificateStartDate": "2025-10-02",
      "certificateEndDate": "2026-03-30",
      "object": "- GESTIÓN DE SERVICIOS Y RECURSOS INFORMÁTICOS - LA PRESTACIÓN DE TODO TIPO DE SERVICIOS INFORMÁTICOS INCLUYENDO: - CONSULTORÍA INFORMÁTICA. - AUDITORIA INFORMÁTICA. - FORMACIÓN EN EL ÁMBITO DE LAS NUEVAS TECNOLOGÍAS. - GESTIÓN DE RIESGOS INFORMÁTICOS. - SOPORTE Y MANTENIMIENTO DE EQUIPAMIENTO INFORMÁTICO Y REDES TELEMÁTICAS. - TERCERIZACIÓN (OUTSOURCING) DE SERVICIOS INFORMÁTICOS. - DESARROLLO Y COMERCIALIZACIÓN DE TODO TIPO DE SOFTWARE Y HARDWARE. - FIRMA DE PROYECTOS DE TELECOMUNICACIONES SERVICIOS CLOUD, CIBERSEGURIDAD, INTELIGENCIA ARTIFICIAL, COMPUTACIÓN, VIRTUALIZACIÓN, ALMACENAMIENTO, BACKUP Y CUALQUIER OTRO PROYECTO DE INFRAESTRUCTURA IT. - LA FABRICACIÓN, ELABORACIÓN, TRANSFORMACIÓN, MANIPULADO, IMPORTACIÓN, EXPORTACIÓN, COMPRAVENTA, COMERCIO AL POR MAYOR Y MENOR (INCLUYENDO LA VENTA POR CATÁLOGO, CORRESPONDENCIA E INTERNET), ASÍ COMO LA DISTRIBUCIÓN, INTERMEDIACIÓN Y SERVICIOS Y PRODUCTOS HARDWARE Y SOFTWARE RELACIONADOS CON LA INFORMÁTICA Y LAS NUEVAS TECNOLOGÍAS.",
      "mainEntityOfPage": "https://www.contratacion.euskadi.eus/webkpe00-kperoc/es/ac71aBusquedaRegistrosWar/empresa/09586",
      "_links": {
        "self": {
          "name": "DATABLES SOLUTIONS, S.L.",
          "href": "https://api.euskadi.eus/procurements/companies/09586"
        }
      }
    },
    {
      "name": "MIGUEL RODRIGUEZ GUTIERREZ",
      "registrationNumber": "10364",
      "identificationNumber": "72715676A",
      "address": "Calle El Onzal (01110), 6",
      "location": {
        "postalCode": "01110",
        "municipality": "Campezo/Kanpezu",
        "county": "Araba/Álava",
        "municipalityId": "017",
        "countyId": "01"
      },
      "economicActivities": [
        {
          "id": "1.505.6",
          "name": "Pintura, revestimientos y terminación y decoración de locales",
          "_links": {
            "self": {
              "name": "Pintura, revestimientos y terminación y decoración de locales",
              "href": "https://api.euskadi.eus/procurements/companies/economic-activities/1.505.6"
            }
          }
        },
        {
          "id": "1.922",
          "name": "Servicios de limpieza",
          "_links": {
            "self": {
              "name": "Servicios de limpieza",
              "href": "https://api.euskadi.eus/procurements/companies/economic-activities/1.922"
            }
          }
        }
      ],
      "certificateStartDate": "2025-10-02",
      "certificateEndDate": "2026-03-29",
      "object": "PINTURA, REVESTIMIENTOS Y TERMINACIÓN Y DECORACIÓN DE LOCALES, SERVICIOS DE LIMPIEZA.",
      "mainEntityOfPage": "https://www.contratacion.euskadi.eus/webkpe00-kperoc/es/ac71aBusquedaRegistrosWar/empresa/10364",
      "_links": {
        "self": {
          "name": "MIGUEL RODRIGUEZ GUTIERREZ",
          "href": "https://api.euskadi.eus/procurements/companies/10364"
        }
      }
    },
    {
      "name": "CENTRO DE DIAGNOSTICO BILBAO SL",
      "registrationNumber": "10363",
      "identificationNumber": "B44593747",
      "address": "Calle Gran Vía Don Diego López de Haro",
      "location": {
        "postalCode": "48009",
        "municipality": "Bilbao",
        "county": "Bizkaia",
        "municipalityId": "020",
        "countyId": "48"
      },
      "economicActivities": [
        {
          "id": "1.942.1",
          "name": "Consultorios médicos, centros de socorro sanitarios y urgencias",
          "_links": {
            "self": {
              "name": "Consultorios médicos, centros de socorro sanitarios y urgencias",
              "href": "https://api.euskadi.eus/procurements/companies/economic-activities/1.942.1"
            }
          }
        }
      ],
      "certificateStartDate": "2025-10-01",
      "certificateEndDate": "2026-03-10",
      "object": "ACTIVIDADES Y SERVICIOS DERIVADOS DE LAS CONSIDERADAS COMO ALTAS TECNOLOGÍAS DE RADIODIAGNÓSTICO (RESONANCIA MAGNÉTICA, ESCÁNER, ECOGRAFÍA, ETC.) ASÍ COMO, EN GENERAL, CUANTAS ACTIVIDADES Y SERVICIOS RELACIONADOS CON EL RADIODIAGNÓSTICO LE SEAN ENCOMENDADAS POR SUS ÓRGANOS DE DIRECCIÓN EN EL MARCO DEL OBJETO Y FINALIDAD GENERAL DE LA SOCIEDAD, YA SEA DIRECTAMENTE O EN COLABORACIÓN CON TERCEROS, INCLUSO MEDIANTE LA TITULARIDAD DE ACCIONES O PARTICIPACIONES EN SOCIEDADES DE IDÉNTICO O ANÁLOGO OBJETO.",
      "mainEntityOfPage": "https://www.contratacion.euskadi.eus/webkpe00-kperoc/es/ac71aBusquedaRegistrosWar/empresa/10363",
      "_links": {
        "self": {
          "name": "CENTRO DE DIAGNOSTICO BILBAO SL",
          "href": "https://api.euskadi.eus/procurements/companies/10363"
        }
      }
    },
    {
      "name": "SILVANMIRACLE, ESTRATEGIAS DE ASUNTOS PUBLICOS, S.L.",
      "registrationNumber": "08975",
      "identificationNumber": "B67945352",
      "address": "C/ Las Escuelas, 10 - Oficina 1",
      "location": {
        "postalCode": "01001",
        "municipality": "Vitoria-Gasteiz",
        "county": "Araba/Álava",
        "municipalityId": "059",
        "countyId": "01"
      },
      "economicActivities": [
        {
          "id": "1.847",
          "name": "Servicios de consultoría",
          "_links": {
            "self": {
              "name": "Servicios de consultoría",
              "href": "https://api.euskadi.eus/procurements/companies/economic-activities/1.847"
            }
          }
        }
      ],
      "certificateStartDate": "2025-10-01",
      "certificateEndDate": "2026-04-01",
      "object": "CONSULTORÍA DE EMPRESA INSTITUCIONAL, DESARROLLO DE PLANES DE AGENDA PÚBLICA, CONSULTORÍA A ENTIDADES PÚBLICAS Y PRIVADAS, UNIVERSIDADES, AYUNTAMIENTOS Y RESTO DE INSTITUCIONES. DESARROLLO DE CAMPAÑAS DE MARKETING Y COMUNICACIÓN. DESARROLLO DE PLANES DE VIABILIDAD PÚBLICOS Y PRIVADOS.",
      "mainEntityOfPage": "https://www.contratacion.euskadi.eus/webkpe00-kperoc/es/ac71aBusquedaRegistrosWar/empresa/08975",
      "_links": {
        "self": {
          "name": "SILVANMIRACLE, ESTRATEGIAS DE ASUNTOS PUBLICOS, S.L.",
          "href": "https://api.euskadi.eus/procurements/companies/08975"
        }
      }
    },
    {
      "name": "NARCISA FARCAS",
      "registrationNumber": "10144",
      "identificationNumber": "X8789421V",
      "address": "argindegi 1-1º A",
      "location": {
        "postalCode": "20400",
        "municipality": "Ibarra",
        "county": "Gipuzkoa",
        "municipalityId": "042",
        "countyId": "20"
      },
      "economicActivities": [
        {
          "id": "1.673.2",
          "name": "Otros cafés y bares",
          "_links": {
            "self": {
              "name": "Otros cafés y bares",
              "href": "https://api.euskadi.eus/procurements/companies/economic-activities/1.673.2"
            }
          }
        }
      ],
      "certificateStartDate": "2025-10-01",
      "certificateEndDate": "2026-04-01",
      "object": "OTROS CAFÉS Y BARES.",
      "mainEntityOfPage": "https://www.contratacion.euskadi.eus/webkpe00-kperoc/es/ac71aBusquedaRegistrosWar/empresa/10144",
      "_links": {
        "self": {
          "name": "NARCISA FARCAS",
          "href": "https://api.euskadi.eus/procurements/companies/10144"
        }
      }
    },
    {
      "name": "ELIZONDO ARKITEKTURA, S.L.",
      "registrationNumber": "10147",
      "identificationNumber": "B95710000",
      "address": "C/BIDEBARRI Nº17-PB",
      "location": {
        "postalCode": "48991",
        "municipality": "Getxo",
        "county": "Bizkaia",
        "municipalityId": "044",
        "countyId": "48"
      },
      "economicActivities": [
        {
          "id": "1.843.2",
          "name": "Servicios técnicos de arquitectura y urbanismo",
          "_links": {
            "self": {
              "name": "Servicios técnicos de arquitectura y urbanismo",
              "href": "https://api.euskadi.eus/procurements/companies/economic-activities/1.843.2"
            }
          }
        }
      ],
      "certificateStartDate": "2025-10-01",
      "certificateEndDate": "2026-04-01",
      "object": "LA GESTIÓN, COORDINACIÓN Y PRESTACIÓN DE SERVICIOS INTEGRALES DE INVESTIGACIÓN, ELABORACIÓN Y CONSTRUCCIÓN DE PROYECTOS DE ARQUITECTURA, DISEÑO Y URBANISMO, DESDE EL GERMEN TEÓRICO DEL PROYECTO HASTA LA CONSTRUCCIÓN TERMINADA Y DIVULGADA, LOS CUALES INCLUYEN LA GESTIÓN COMPLETA, LA PRESTACIÓN DE SERVICIOS Y LA INTERMEDIACIÓN DE SERVICIOS PROFESIONALES, ASÍ COMO LAS ACTIVIDADES DE ASESORAMIENTO, COORDINACIÓN, GESTIÓN PROPIA Y ADMINISTRACIÓN. ENTRE OTROS, FORMAN PARTE DE LOS CITADOS SERVICIOS INTEGRALES: LA INVESTIGACIÓN EN PROYECTOS ARQUITECTÓNICOS; EL DESARROLLO Y SUSCRIPCIÓN DE PROYECTOS ARQUITECTÓNICOS, URBANÍSTICOS, DE INTERIORISMO O DE DISEÑO INDUSTRIAL; LA PRESTACIÓN DE CONSULTORÍA DE DESARROLLOS ESPECÍFICOS DE PROYECTOS; LA CONTRATACIÓN, CONTROL Y SEGUIMIENTO DE PROFESIONALES Y CONSULTORÍAS ESPECIALIZADAS; LA PRESTACIÓN DE CONSULTORÍA DE CONTROL DE PROYECTOS Y OBRAS; LA CONTRATACIÓN, DIRECCIÓN, CONTROL, COORDINACIÓN, SEGUIMIENTO Y LIQUIDACIÓN DE OBRAS; LA CONTRATACIÓN Y EJECUCIÓN DE ACTUACIONES DE INTERIORISMO O SIMILARES; LA PUBLICACIÓN Y DIVULGACIÓN DE PROYECTOS Y OBRAS Y DE INVESTIGACIONES EN PROYECTOS Y OBRAS.",
      "mainEntityOfPage": "https://www.contratacion.euskadi.eus/webkpe00-kperoc/es/ac71aBusquedaRegistrosWar/empresa/10147",
      "_links": {
        "self": {
          "name": "ELIZONDO ARKITEKTURA, S.L.",
          "href": "https://api.euskadi.eus/procurements/companies/10147"
        }
      }
    }
  ]
}