{
  "totalItems": 9042,
  "totalPages": 905,
  "currentPage": 847,
  "itemsOfPage": 10,
  "items": [
    {
      "name": "CANALIZACIONES Y LÍNEAS, S.L.",
      "registrationNumber": "02918",
      "identificationNumber": "B20181590",
      "address": "ASTIGARAGAKO BIDEA, EDIF. MAMUT, 2 - 2º 4ª",
      "location": {
        "postalCode": "20180",
        "municipality": "Oiartzun",
        "county": "Gipuzkoa",
        "municipalityId": "063",
        "countyId": "20"
      },
      "object": "pte",
      "mainEntityOfPage": "https://www.contratacion.euskadi.eus/webkpe00-kperoc/es/ac71aBusquedaRegistrosWar/empresa/02918",
      "_links": {
        "self": {
          "name": "CANALIZACIONES Y LÍNEAS, S.L.",
          "href": "https://api.euskadi.eus/procurements/companies/02918"
        }
      }
    },
    {
      "name": "AGUSTÍN CUBAS GÓMEZ",
      "registrationNumber": "02920",
      "identificationNumber": "16227746G",
      "address": "HEGOALDE, 2",
      "location": {
        "postalCode": "01138",
        "municipality": "Zigoitia",
        "county": "Araba/Álava",
        "municipalityId": "018",
        "countyId": "01"
      },
      "object": "Tpte",
      "mainEntityOfPage": "https://www.contratacion.euskadi.eus/webkpe00-kperoc/es/ac71aBusquedaRegistrosWar/empresa/02920",
      "_links": {
        "self": {
          "name": "AGUSTÍN CUBAS GÓMEZ",
          "href": "https://api.euskadi.eus/procurements/companies/02920"
        }
      }
    },
    {
      "name": "TELESPEED, S.L.",
      "registrationNumber": "02921",
      "identificationNumber": "B95060844",
      "address": "BEHURKO VIEJO, EDIFICIO GARVE, 2º-2",
      "location": {
        "postalCode": "48902",
        "municipality": "Barakaldo",
        "county": "Bizkaia",
        "municipalityId": "013",
        "countyId": "48"
      },
      "object": "pte",
      "mainEntityOfPage": "https://www.contratacion.euskadi.eus/webkpe00-kperoc/es/ac71aBusquedaRegistrosWar/empresa/02921",
      "_links": {
        "self": {
          "name": "TELESPEED, S.L.",
          "href": "https://api.euskadi.eus/procurements/companies/02921"
        }
      }
    },
    {
      "name": "ZABALKUNDE, S.L.",
      "registrationNumber": "02938",
      "identificationNumber": "B95292546",
      "address": "C/ COLÓN DE LARREÁTEGUI, 32, BAJO",
      "location": {
        "postalCode": "49009",
        "municipality": "Bilbao",
        "county": "Bizkaia",
        "municipalityId": "020",
        "countyId": "48"
      },
      "object": "pte.",
      "mainEntityOfPage": "https://www.contratacion.euskadi.eus/webkpe00-kperoc/es/ac71aBusquedaRegistrosWar/empresa/02938",
      "_links": {
        "self": {
          "name": "ZABALKUNDE, S.L.",
          "href": "https://api.euskadi.eus/procurements/companies/02938"
        }
      }
    },
    {
      "name": "DRAGADOS DEL CANTÁBRICO, S.L.",
      "registrationNumber": "02939",
      "identificationNumber": "B95161485",
      "address": "Muelle de Tomás Olabarri, 4º-5º",
      "location": {
        "postalCode": "48930",
        "municipality": "Getxo",
        "county": "Bizkaia",
        "municipalityId": "044",
        "countyId": "48"
      },
      "object": ".pte",
      "mainEntityOfPage": "https://www.contratacion.euskadi.eus/webkpe00-kperoc/es/ac71aBusquedaRegistrosWar/empresa/02939",
      "_links": {
        "self": {
          "name": "DRAGADOS DEL CANTÁBRICO, S.L.",
          "href": "https://api.euskadi.eus/procurements/companies/02939"
        }
      }
    },
    {
      "name": "ARRI LORALAN JARDINERÍA, S.L.",
      "registrationNumber": "02947",
      "identificationNumber": "B95240057",
      "address": "POLÍGONO MARTIARTU, CALLE 2 P, Nº 19",
      "location": {
        "postalCode": "48480",
        "municipality": "Arrigorriaga",
        "county": "Bizkaia",
        "municipalityId": "011",
        "countyId": "48"
      },
      "object": ".",
      "mainEntityOfPage": "https://www.contratacion.euskadi.eus/webkpe00-kperoc/es/ac71aBusquedaRegistrosWar/empresa/02947",
      "_links": {
        "self": {
          "name": "ARRI LORALAN JARDINERÍA, S.L.",
          "href": "https://api.euskadi.eus/procurements/companies/02947"
        }
      }
    },
    {
      "name": "EUZKO BENDINA, S.A.",
      "registrationNumber": "02950",
      "identificationNumber": "A20822052",
      "address": "PG. UGALDETXO. C/ZUAZNABAR, 13",
      "location": {
        "postalCode": "20180",
        "municipality": "Oiartzun",
        "county": "Gipuzkoa",
        "municipalityId": "063",
        "countyId": "20"
      },
      "object": "pte",
      "mainEntityOfPage": "https://www.contratacion.euskadi.eus/webkpe00-kperoc/es/ac71aBusquedaRegistrosWar/empresa/02950",
      "_links": {
        "self": {
          "name": "EUZKO BENDINA, S.A.",
          "href": "https://api.euskadi.eus/procurements/companies/02950"
        }
      }
    },
    {
      "name": "ROLOMI, S.L.",
      "registrationNumber": "02951",
      "identificationNumber": "B48497051",
      "address": "AITA ROMÁN URTIAGA, 24 F ",
      "location": {
        "postalCode": "48340",
        "municipality": "Amorebieta-Etxano",
        "county": "Bizkaia",
        "municipalityId": "003",
        "countyId": "48"
      },
      "object": "pte",
      "mainEntityOfPage": "https://www.contratacion.euskadi.eus/webkpe00-kperoc/es/ac71aBusquedaRegistrosWar/empresa/02951",
      "_links": {
        "self": {
          "name": "ROLOMI, S.L.",
          "href": "https://api.euskadi.eus/procurements/companies/02951"
        }
      }
    },
    {
      "name": "COVIGARDEN, S.L.",
      "registrationNumber": "02952",
      "identificationNumber": "B01216993",
      "address": "GASTEIZBIDEA, 57",
      "location": {
        "postalCode": "01240",
        "municipality": "Alegría-Dulantzi",
        "county": "Araba/Álava",
        "municipalityId": "001",
        "countyId": "01"
      },
      "object": "pte.",
      "mainEntityOfPage": "https://www.contratacion.euskadi.eus/webkpe00-kperoc/es/ac71aBusquedaRegistrosWar/empresa/02952",
      "_links": {
        "self": {
          "name": "COVIGARDEN, S.L.",
          "href": "https://api.euskadi.eus/procurements/companies/02952"
        }
      }
    },
    {
      "name": "PINE EQUIPOS ELÉCTRICOS, S.A.",
      "registrationNumber": "02954",
      "identificationNumber": "A95212536",
      "address": "POLÍGONO UGALDEGUREN II - PABELLÓN 9",
      "location": {
        "postalCode": "48170",
        "municipality": "Zamudio",
        "county": "Bizkaia",
        "municipalityId": "905",
        "countyId": "48"
      },
      "economicActivities": [
        {
          "id": "1.399.6",
          "name": "Fabricación de aparatos de control, contadores de tiempo y otros instrumentos",
          "_links": {
            "self": {
              "name": "Fabricación de aparatos de control, contadores de tiempo y otros instrumentos",
              "href": "https://api.euskadi.eus/procurements/companies/economic-activities/1.399.6"
            }
          }
        }
      ],
      "object": "Diseño, construcción y comercialización de equipos eléctricos y electrónicos de potencia, mando, regulación y control.",
      "mainEntityOfPage": "https://www.contratacion.euskadi.eus/webkpe00-kperoc/es/ac71aBusquedaRegistrosWar/empresa/02954",
      "_links": {
        "self": {
          "name": "PINE EQUIPOS ELÉCTRICOS, S.A.",
          "href": "https://api.euskadi.eus/procurements/companies/02954"
        }
      }
    }
  ]
}