{
  "totalItems": 9042,
  "totalPages": 905,
  "currentPage": 345,
  "itemsOfPage": 10,
  "items": [
    {
      "name": "MANU ATRISTAIN ARQUITECTO, S.L.P.",
      "registrationNumber": "07173",
      "identificationNumber": "B20733960",
      "address": "JOSE MARIA SOROA 15 BAJO",
      "location": {
        "postalCode": "20013",
        "municipality": "Donostia / San Sebastián",
        "county": "Gipuzkoa",
        "municipalityId": "069",
        "countyId": "20"
      },
      "economicActivities": [
        {
          "id": "1.843.2",
          "name": "Servicios técnicos de arquitectura y urbanismo",
          "_links": {
            "self": {
              "name": "Servicios técnicos de arquitectura y urbanismo",
              "href": "https://api.euskadi.eus/procurements/companies/economic-activities/1.843.2"
            }
          }
        },
        {
          "id": "1.861.2",
          "name": "Alquiler de locales industriales y otros alquileres n.c.o.p",
          "_links": {
            "self": {
              "name": "Alquiler de locales industriales y otros alquileres n.c.o.p",
              "href": "https://api.euskadi.eus/procurements/companies/economic-activities/1.861.2"
            }
          }
        }
      ],
      "certificateStartDate": "2025-07-01",
      "certificateEndDate": "2025-12-30",
      "object": "LA ACTIVIDAD PROPIA DE LOS PROFESIONALES DE LA ARQUITECTURA. EL OBJETO SOCIAL PODRÁ DESARROLLARSE MEDIANTE SU PARTICIPACIÓN EN OTRAS SOCIEDADES PROFESIONALES",
      "mainEntityOfPage": "https://www.contratacion.euskadi.eus/webkpe00-kperoc/es/ac71aBusquedaRegistrosWar/empresa/07173",
      "_links": {
        "self": {
          "name": "MANU ATRISTAIN ARQUITECTO, S.L.P.",
          "href": "https://api.euskadi.eus/procurements/companies/07173"
        }
      }
    },
    {
      "name": "ALAND SERVICIOS Y REFORMAS DEL NORTE, S.L.",
      "registrationNumber": "07639",
      "identificationNumber": "B95882080",
      "address": "C/ TORRETXU BIDEA NR 5 - 7B",
      "location": {
        "postalCode": "48150",
        "municipality": "Sondika",
        "county": "Bizkaia",
        "municipalityId": "904",
        "countyId": "48"
      },
      "economicActivities": [
        {
          "id": "1.501.1",
          "name": "Construcción completa, reparación y conservación de edificaciones",
          "_links": {
            "self": {
              "name": "Construcción completa, reparación y conservación de edificaciones",
              "href": "https://api.euskadi.eus/procurements/companies/economic-activities/1.501.1"
            }
          }
        }
      ],
      "certificateStartDate": "2025-07-01",
      "certificateEndDate": "2026-01-01",
      "object": "EL DESARROLLO DE LAS ACTIVIDADES CORRESPONDIENTES A LOS SIGUIENTES CÓDIGOS Y DESCRIPCIONES DE LA CLASIFICACIÓN NACIONAL DE ACTIVIDADES ECONÓMICAS: 4329.-OTRAS INSTALACIONES EN OBRAS DE CONSTRUCCIÓN. (ACTIVIDAD PRINCIPAL). 4399.-OTRAS ACTIVIDADES DE CONSTRUCCIÓN ESPECIALIZADA N.C.O.P. 4299.-CONSTRUCCIÓN DE OTROS PROYECTOS DE INGENIERÍA CIVIL N.C.O.P. 4339.-OTRO ACABADO DE EDIFICIOS. 4322.-FONTANERÍA, INSTALACIONES DE SISTEMAS DE CALEFACCIÓN Y AIRE ACONDICIONADO. 4332.-INSTALACIÓN DE CARPINTERÍA. 4333.-REVESTIMIENTO DE SUELOS Y PAREDES",
      "mainEntityOfPage": "https://www.contratacion.euskadi.eus/webkpe00-kperoc/es/ac71aBusquedaRegistrosWar/empresa/07639",
      "_links": {
        "self": {
          "name": "ALAND SERVICIOS Y REFORMAS DEL NORTE, S.L.",
          "href": "https://api.euskadi.eus/procurements/companies/07639"
        }
      }
    },
    {
      "name": "ASISTENCIAS TÉCNICAS CLAVE, S.L.",
      "registrationNumber": "07902",
      "identificationNumber": "B41696204",
      "address": "C/ PROGRESO, 5",
      "location": {
        "postalCode": "41013",
        "municipality": "Sevilla",
        "county": "Sevilla",
        "municipalityId": "091",
        "countyId": "41"
      },
      "economicActivities": [
        {
          "id": "1.476.9",
          "name": "Otras ediciones n.c.o.p",
          "_links": {
            "self": {
              "name": "Otras ediciones n.c.o.p",
              "href": "https://api.euskadi.eus/procurements/companies/economic-activities/1.476.9"
            }
          }
        },
        {
          "id": "1.843.1",
          "name": "Servicios técnicos de ingeniería",
          "_links": {
            "self": {
              "name": "Servicios técnicos de ingeniería",
              "href": "https://api.euskadi.eus/procurements/companies/economic-activities/1.843.1"
            }
          }
        },
        {
          "id": "1.843.9",
          "name": "Otros servicios técnicos n.c.o.p",
          "_links": {
            "self": {
              "name": "Otros servicios técnicos n.c.o.p",
              "href": "https://api.euskadi.eus/procurements/companies/economic-activities/1.843.9"
            }
          }
        },
        {
          "id": "1.845",
          "name": "Explotación electrónica por cuenta de terceros",
          "_links": {
            "self": {
              "name": "Explotación electrónica por cuenta de terceros",
              "href": "https://api.euskadi.eus/procurements/companies/economic-activities/1.845"
            }
          }
        }
      ],
      "certificateStartDate": "2025-07-01",
      "certificateEndDate": "2025-07-15",
      "object": "CONSULTORIA DE PLANIFICACIÓN EN MATERIA DE ANÁLISIS TERRITORIAL, AMBIENTAL Y ECONÓMICO. CONSULTORÍA DE COMUNICACIÓN Y DISEÑO GRÁFICO. CONSULTORÍA EN DESARROLLO Y GESTION DE SISTEMAS DE INFORMACIÓN",
      "mainEntityOfPage": "https://www.contratacion.euskadi.eus/webkpe00-kperoc/es/ac71aBusquedaRegistrosWar/empresa/07902",
      "_links": {
        "self": {
          "name": "ASISTENCIAS TÉCNICAS CLAVE, S.L.",
          "href": "https://api.euskadi.eus/procurements/companies/07902"
        }
      }
    },
    {
      "name": "SOCIEDAD ESPAÑOLA DE CARBUROS METÁLICOS, S.A.",
      "registrationNumber": "00376",
      "identificationNumber": "A08015646",
      "address": "Avda. Fama, 1",
      "location": {
        "postalCode": "08940",
        "municipality": "Cornellà de Llobregat",
        "county": "Barcelona",
        "municipalityId": "073",
        "countyId": "08"
      },
      "economicActivities": [
        {
          "id": "1.253.1",
          "name": "Fabricación de gases comprimidos",
          "_links": {
            "self": {
              "name": "Fabricación de gases comprimidos",
              "href": "https://api.euskadi.eus/procurements/companies/economic-activities/1.253.1"
            }
          }
        },
        {
          "id": "1.504.2",
          "name": "Instalaciones de fontanería",
          "_links": {
            "self": {
              "name": "Instalaciones de fontanería",
              "href": "https://api.euskadi.eus/procurements/companies/economic-activities/1.504.2"
            }
          }
        },
        {
          "id": "1.616.5",
          "name": "Venta al por mayor de petróleo y lubricantes",
          "_links": {
            "self": {
              "name": "Venta al por mayor de petróleo y lubricantes",
              "href": "https://api.euskadi.eus/procurements/companies/economic-activities/1.616.5"
            }
          }
        },
        {
          "id": "1.616.6",
          "name": "Venta al por mayor de productos químicos industriales",
          "_links": {
            "self": {
              "name": "Venta al por mayor de productos químicos industriales",
              "href": "https://api.euskadi.eus/procurements/companies/economic-activities/1.616.6"
            }
          }
        },
        {
          "id": "1.617.9",
          "name": "Venta al por mayor interindustrial de otros productos n.c.o.p",
          "_links": {
            "self": {
              "name": "Venta al por mayor interindustrial de otros productos n.c.o.p",
              "href": "https://api.euskadi.eus/procurements/companies/economic-activities/1.617.9"
            }
          }
        }
      ],
      "certificateStartDate": "2025-07-01",
      "certificateEndDate": "2025-12-23",
      "object": "1.- PRODUCCIÓN, COMERCIALIZACIÓN Y VENTA DE PRODUCTOS QUÍMICOS Y ESPECIALMENTE DE TODO TIPO DE GASES INDUSTRIALES PARA TODAS SUS APLICACIONES, TANTO EN LA PROPIA INDUSTRIA COMO EN EL MERCADO DOMÉSTICO O MEDICINAL, EN CUALQUIERA DE SUS ESTADOS, ASÍ COMO LA PRODUCCIÓN, COMERCIALIZACIÓN, VENTA, Y EN SU CASO ARRENDAMIENTO, DE TODO TIPO DE MAQUINARIA, MATERIA PRIMA, PRODUCTOS, SUBPRODUCTOS Y DEMAS MATERIALES NECESARIOS PARA LA PRODUCCIÓN, COMERCIALIZACIÓN Y VENTA DE DICHOS GASES.\n\n2.- PRESTACIÓN DE TODO TIPO DE SERVICIOS Y TRATAMIENTOS MÉDICOS DOMICILIARIOS O EN GABINETES Y LOCALES ADECUADOS AL RESPECTO, ASÍ COMO LA PRODUCCIÓN, COMERCIALIZACIÓN, VENTA, Y EN SU CASO ARRENDAMIENTO, DE TODO TIPO DE PRODUCTOS, MAQUINARIA E INSTALACIONES NECESARIOS PARA LA PRESTACIÓN DE DICHOS SERVICIOS, CON EXCLUSIÓN DE MEDICAMENTOS.\n\n3.- PRODUCCIÓN, COMERCIALIZACIÓN, VENTA, Y EN SU CASO ARRENDAMIENTO, DE TODO TIPO DE MAQUINARIA, PRODUCTOS Y MATERIALES RELACIONADOS CON LA SOLDADURA.\n\n4.- PRODUCCIÓN DE TODO TIPO DE ENERGÍA ELÉCTRICA PARA SU UTILIZACIÓN TOTAL O PARCIAL EN LAS INSTALACIONES PRODUCTIVAS DE LA COMPAÑÍA, ASÍ COMO LA VENTA DE LOS EXCEDENTES NO AUTOCONSUMIDOS.\n\n5.- PRODUCCIÓN, COMERCIALIZACIÓN Y VENTA DE TODO TIPO DE FERROALEACIONES Y DEMAS PRODUCTOS OBTENIDOS EN HORNO DE ARCO ELÉCTRICO, ASÍ COMO LA EXTRACCIÓN, PRODUCCIÓN, COMERCIALIZACIÓN Y VENTA DE TODO TIPO DE MATERIAS PRIMAS, PRODUCTOS, SUBPRODUCTOS, MAQUINARIA E INSTALACIONES, Y EN SU CASO ARRENDAMIENTO, NECESARIOS PARA LA PRODUCCIÓN, COMERCIALIZACIÓN Y VENTA DE DICHOS PRODUCTOS.\n\n6.- COMERCIALIZACIÓN Y VENTA DE PRODUCTOS INFORMÁTICOS, TANTO DE HARDWARE COMO DE SOFTWARE.\n\n7.- COMERCIALIZACIÓN, VENTA Y APROVECHAMIENTO DE LOS SERVICIOS Y DE LAS TECNOLOGÍAS RELATIVAS A LOS PROCESOS, USOS Y APLICACIONES RELACIONADOS CON LOS PUNTOS ANTERIORES",
      "mainEntityOfPage": "https://www.contratacion.euskadi.eus/webkpe00-kperoc/es/ac71aBusquedaRegistrosWar/empresa/00376",
      "_links": {
        "self": {
          "name": "SOCIEDAD ESPAÑOLA DE CARBUROS METÁLICOS, S.A.",
          "href": "https://api.euskadi.eus/procurements/companies/00376"
        }
      }
    },
    {
      "name": "JON UNAI URRUTICOECHEA GUTIERREZ",
      "registrationNumber": "08754",
      "identificationNumber": "16085459H",
      "address": "Calle Fontecha y Salazar (48007) 3, 1º CN",
      "location": {
        "postalCode": "48007",
        "municipality": "Bilbao",
        "county": "Bizkaia",
        "municipalityId": "020",
        "countyId": "48"
      },
      "economicActivities": [
        {
          "id": "2.411",
          "name": "Arquitectos",
          "_links": {
            "self": {
              "name": "Arquitectos",
              "href": "https://api.euskadi.eus/procurements/companies/economic-activities/2.411"
            }
          }
        }
      ],
      "certificateStartDate": "2025-07-01",
      "certificateEndDate": "2025-12-20",
      "object": "ARQUITECTOS",
      "mainEntityOfPage": "https://www.contratacion.euskadi.eus/webkpe00-kperoc/es/ac71aBusquedaRegistrosWar/empresa/08754",
      "_links": {
        "self": {
          "name": "JON UNAI URRUTICOECHEA GUTIERREZ",
          "href": "https://api.euskadi.eus/procurements/companies/08754"
        }
      }
    },
    {
      "name": "CAMARA OFICIAL DE COMERCIO, INDUSTRIA Y SERVICIOS DE ÁLAVA",
      "registrationNumber": "06255",
      "identificationNumber": "Q0173001I",
      "address": "C/ Eduardo Dato 38",
      "location": {
        "postalCode": "01005",
        "municipality": "Vitoria-Gasteiz",
        "county": "Araba/Álava",
        "municipalityId": "059",
        "countyId": "01"
      },
      "economicActivities": [
        {
          "id": "1.847",
          "name": "Servicios de consultoría",
          "_links": {
            "self": {
              "name": "Servicios de consultoría",
              "href": "https://api.euskadi.eus/procurements/companies/economic-activities/1.847"
            }
          }
        }
      ],
      "certificateStartDate": "2025-07-01",
      "certificateEndDate": "2025-12-28",
      "object": "SUS FINES SON EL RESPONDER A LAS NECESIDADES DE LAS EMPRESAS Y DEL DESARROLLO SOCIO-ECONÓMICO DE ALAVA A TRAVÉS DE LA EFICIENCIA EN LA PRESTACIÓN DE SERVICIOS Y LA DEFENSA DEL INTERÉS GENERAL DEL TERRITORIO",
      "mainEntityOfPage": "https://www.contratacion.euskadi.eus/webkpe00-kperoc/es/ac71aBusquedaRegistrosWar/empresa/06255",
      "_links": {
        "self": {
          "name": "CAMARA OFICIAL DE COMERCIO, INDUSTRIA Y SERVICIOS DE ÁLAVA",
          "href": "https://api.euskadi.eus/procurements/companies/06255"
        }
      }
    },
    {
      "name": "CANDIDO JAVIER CUETOS",
      "registrationNumber": "10262",
      "identificationNumber": "30639954K",
      "address": "IBAIALDE, 2   1º D-I",
      "location": {
        "postalCode": "48003",
        "municipality": "Bilbao",
        "county": "Bizkaia",
        "municipalityId": "020",
        "countyId": "48"
      },
      "economicActivities": [
        {
          "id": "2.826",
          "name": "Personal docente de enseñanzas diversas",
          "_links": {
            "self": {
              "name": "Personal docente de enseñanzas diversas",
              "href": "https://api.euskadi.eus/procurements/companies/economic-activities/2.826"
            }
          }
        }
      ],
      "certificateStartDate": "2025-07-01",
      "certificateEndDate": "2025-12-26",
      "object": "PERSONAL DOCENTE DE ENSEÑANZAS DIVERSAS.",
      "mainEntityOfPage": "https://www.contratacion.euskadi.eus/webkpe00-kperoc/es/ac71aBusquedaRegistrosWar/empresa/10262",
      "_links": {
        "self": {
          "name": "CANDIDO JAVIER CUETOS",
          "href": "https://api.euskadi.eus/procurements/companies/10262"
        }
      }
    },
    {
      "name": "BI-ONDO MOTOR, S.L.",
      "registrationNumber": "01458",
      "identificationNumber": "B01141571",
      "address": "C/ CARRETERA DE GAMARRA, Km. 3.",
      "location": {
        "postalCode": "01013",
        "municipality": "Vitoria-Gasteiz",
        "county": "Araba/Álava",
        "municipalityId": "059",
        "countyId": "01"
      },
      "economicActivities": [
        {
          "id": "1.654.1",
          "name": "Venta al por menor de vehículos terrestres",
          "_links": {
            "self": {
              "name": "Venta al por menor de vehículos terrestres",
              "href": "https://api.euskadi.eus/procurements/companies/economic-activities/1.654.1"
            }
          }
        },
        {
          "id": "1.691.2",
          "name": "Reparación de vehículos automóviles, bicicletas y otros vehículos",
          "_links": {
            "self": {
              "name": "Reparación de vehículos automóviles, bicicletas y otros vehículos",
              "href": "https://api.euskadi.eus/procurements/companies/economic-activities/1.691.2"
            }
          }
        }
      ],
      "certificateStartDate": "2025-06-30",
      "certificateEndDate": "2025-12-30",
      "object": "LA COMPRAVENTA DE VEHÍCULOS, TURISMOS E INDUSTRIALES, DE SUS RECAMBIOS Y ACCESORIOS, INCLUSO IMPORTACIÓN Y EXPORTACIÓN DE LOS MISMOS",
      "mainEntityOfPage": "https://www.contratacion.euskadi.eus/webkpe00-kperoc/es/ac71aBusquedaRegistrosWar/empresa/01458",
      "_links": {
        "self": {
          "name": "BI-ONDO MOTOR, S.L.",
          "href": "https://api.euskadi.eus/procurements/companies/01458"
        }
      }
    },
    {
      "name": "CARPINTERIA ATARI, S.L.",
      "registrationNumber": "09955",
      "identificationNumber": "B55387468",
      "address": "URTAKI 27",
      "location": {
        "postalCode": "20150",
        "municipality": "Aduna",
        "county": "Gipuzkoa",
        "municipalityId": "002",
        "countyId": "20"
      },
      "economicActivities": [
        {
          "id": "1.463.1",
          "name": "Puertas y ventanas de madera",
          "_links": {
            "self": {
              "name": "Puertas y ventanas de madera",
              "href": "https://api.euskadi.eus/procurements/companies/economic-activities/1.463.1"
            }
          }
        }
      ],
      "certificateStartDate": "2025-06-30",
      "certificateEndDate": "2025-12-27",
      "object": "TALLER DE CARPINTERÍA PARA LA CONSTRUCCIÓN Y FABRICACIÓN DE TODO TIPO DE MUEBLES.",
      "mainEntityOfPage": "https://www.contratacion.euskadi.eus/webkpe00-kperoc/es/ac71aBusquedaRegistrosWar/empresa/09955",
      "_links": {
        "self": {
          "name": "CARPINTERIA ATARI, S.L.",
          "href": "https://api.euskadi.eus/procurements/companies/09955"
        }
      }
    },
    {
      "name": "ACADEMIA DE IDIOMAS PEOPLE, S.L.",
      "registrationNumber": "10256",
      "identificationNumber": "B01158724",
      "address": "C/Jacinto Benavente, 40",
      "location": {
        "postalCode": "01003",
        "municipality": "Vitoria-Gasteiz",
        "county": "Araba/Álava",
        "municipalityId": "059",
        "countyId": "01"
      },
      "economicActivities": [
        {
          "id": "1.933.9",
          "name": "Otras actividades de enseñanza tales como idiomas, mecanografía",
          "_links": {
            "self": {
              "name": "Otras actividades de enseñanza tales como idiomas, mecanografía",
              "href": "https://api.euskadi.eus/procurements/companies/economic-activities/1.933.9"
            }
          }
        }
      ],
      "certificateStartDate": "2025-06-30",
      "certificateEndDate": "2025-12-30",
      "object": "LA ENSEÑANZA Y DOCENCIA, EN TODAS SUS MODALIDADES, DE IDIOMAS Y OTRAS DISCIPLINAS DE FORMACIÓN COMPLEMENTARIA, ASÍ COMO CUALQUIER OTRA ACTIVIDAD QUE SIRVA AL OBJETO DE PROMOVER Y COADYUVAR AL DESARROLLA DE LA PRIMERA.",
      "mainEntityOfPage": "https://www.contratacion.euskadi.eus/webkpe00-kperoc/es/ac71aBusquedaRegistrosWar/empresa/10256",
      "_links": {
        "self": {
          "name": "ACADEMIA DE IDIOMAS PEOPLE, S.L.",
          "href": "https://api.euskadi.eus/procurements/companies/10256"
        }
      }
    }
  ]
}