{
  "totalItems": 9042,
  "totalPages": 905,
  "currentPage": 769,
  "itemsOfPage": 10,
  "items": [
    {
      "name": "LABORATORIOS FARMACÉUTICOS GUERBET, S.A.",
      "registrationNumber": "03319",
      "identificationNumber": "A81487829",
      "address": "C/ MONTE ESQUINZA, 28-4º IZDA.",
      "location": {
        "postalCode": "28010",
        "municipality": "Madrid",
        "county": "Madrid",
        "municipalityId": "079",
        "countyId": "28"
      },
      "economicActivities": [
        {
          "id": "1.614.1",
          "name": "Venta al por mayor de productos farmacéuticos y medicamentos",
          "_links": {
            "self": {
              "name": "Venta al por mayor de productos farmacéuticos y medicamentos",
              "href": "https://api.euskadi.eus/procurements/companies/economic-activities/1.614.1"
            }
          }
        }
      ],
      "certificateStartDate": "2007-09-07",
      "certificateEndDate": "2008-02-10",
      "object": "LA IMPORTACIÓN, EXPORTACIÓN, VENTA, PROMOCIÓN E INVESTIGACIÓN DE PRODUCTOS FARMACÉUTICOS, MATERIAL MÉDICO QUIRÚRGICO Y SANITARIO, PARA USO HUMANO O VETERINARIO; ASÍ COMO SU FABRICACIÓN, YA SEA DE FORMA DIRECTA, O POR TERCEROS BAJO LA CORRESPONDIENTE LICENCIA DE FABRICACIÓN",
      "mainEntityOfPage": "https://www.contratacion.euskadi.eus/webkpe00-kperoc/es/ac71aBusquedaRegistrosWar/empresa/03319",
      "_links": {
        "self": {
          "name": "LABORATORIOS FARMACÉUTICOS GUERBET, S.A.",
          "href": "https://api.euskadi.eus/procurements/companies/03319"
        }
      }
    },
    {
      "name": "LANTEK BUSINESS SOLUTIONS, S.L.",
      "registrationNumber": "03415",
      "identificationNumber": "B01291327",
      "address": "PARQUE TECNOLÓGICO DE ÁLAVA - ALBERT EINSTEIN, 36",
      "location": {
        "postalCode": "01510",
        "municipality": "Vitoria-Gasteiz",
        "county": "Araba/Álava",
        "municipalityId": "059",
        "countyId": "01"
      },
      "economicActivities": [
        {
          "id": "1.845",
          "name": "Explotación electrónica por cuenta de terceros",
          "_links": {
            "self": {
              "name": "Explotación electrónica por cuenta de terceros",
              "href": "https://api.euskadi.eus/procurements/companies/economic-activities/1.845"
            }
          }
        }
      ],
      "certificateStartDate": "2007-09-04",
      "certificateEndDate": "2007-11-03",
      "object": "VENTA DE APLICACIONES INFORMÁTICAS Y SERVICIOS DE CONSULTORÍA INFORMÁTICA Y DE PRODUCCIÓN",
      "mainEntityOfPage": "https://www.contratacion.euskadi.eus/webkpe00-kperoc/es/ac71aBusquedaRegistrosWar/empresa/03415",
      "_links": {
        "self": {
          "name": "LANTEK BUSINESS SOLUTIONS, S.L.",
          "href": "https://api.euskadi.eus/procurements/companies/03415"
        }
      }
    },
    {
      "name": "CONSTRUCCIONES DEL NORTE DELIKAS, S.A.",
      "registrationNumber": "03416",
      "identificationNumber": "A95341350",
      "address": "C/ SANTA MARINA Nº 44 BJ",
      "location": {
        "postalCode": "48450",
        "municipality": "Etxebarri",
        "county": "Bizkaia",
        "municipalityId": "029",
        "countyId": "48"
      },
      "economicActivities": [
        {
          "id": "1.501.1",
          "name": "Construcción completa, reparación y conservación de edificaciones",
          "_links": {
            "self": {
              "name": "Construcción completa, reparación y conservación de edificaciones",
              "href": "https://api.euskadi.eus/procurements/companies/economic-activities/1.501.1"
            }
          }
        }
      ],
      "certificateStartDate": "2007-09-04",
      "certificateEndDate": "2008-01-03",
      "object": "A) LA REALIZACIÓN DIRECTA O INDIRECTA, EN SUS MÁS AMPLIOS TÉRMINOS, DE OBRAS DE ALBAÑILERÍA Y TRABAJOS DE CONSTRUCCIÓN, REPARACIÓN Y CONSERVACIÓN DE OBRAS EN GENERAL, REFORMAS DE PISOS Y LOCALES, ACABADOS DE OBRAS, REVESTIMIETNOS EXTERIORES E INTERIORES, SOLADOS DE OBRAS Y PAVIMENTOS, AISLAMIENTOS E IMPERMEABLIZACIÓN, TERMINACIÓN Y DECORACIÓN DE EDIFICIOS Y LOCALES. B) INSTALACIONES DE TODO TIPO: ELÉCTRICAS, GONTANERÍA, GASES Y LÍQUIDOS, FRÍO Y CALOR. C) MONTAJES METÁLICOS E INSTALACIONES INDUSTRIALES. D) OBRAS DE FERRALLADO. E) COMPRAVENTA Y ARRENDAMIENTOS DE TODA CLASE DE BIENES INMUEBLES. F) SERVICIOS AGRÍCOLAS Y GANADEROS",
      "mainEntityOfPage": "https://www.contratacion.euskadi.eus/webkpe00-kperoc/es/ac71aBusquedaRegistrosWar/empresa/03416",
      "_links": {
        "self": {
          "name": "CONSTRUCCIONES DEL NORTE DELIKAS, S.A.",
          "href": "https://api.euskadi.eus/procurements/companies/03416"
        }
      }
    },
    {
      "name": "BILGAL DESARROLLOS EMPRESARIALES, S.L.",
      "registrationNumber": "03361",
      "identificationNumber": "B95456687",
      "address": "CENTRO EMPRESAS ZAMUDIO. AVDA. PINOA 8. PABELLÓN 17",
      "location": {
        "postalCode": "48170",
        "municipality": "Zamudio",
        "county": "Bizkaia",
        "municipalityId": "905",
        "countyId": "48"
      },
      "economicActivities": [
        {
          "id": "1.615.3",
          "name": "Venta al por mayor de aparatos electrodomésticos y ferretería",
          "_links": {
            "self": {
              "name": "Venta al por mayor de aparatos electrodomésticos y ferretería",
              "href": "https://api.euskadi.eus/procurements/companies/economic-activities/1.615.3"
            }
          }
        }
      ],
      "certificateStartDate": "2007-08-31",
      "certificateEndDate": "2008-02-29",
      "object": "EL DISEÑO, SERVICIO Y SUMINISTRO DE EQUIPOS Y PRODUCTOS DE PROTECCIÓN INDIVIDUAL, SEGURIDAD Y MANTENIMIENTO. LA GESTIÓN DE CONTRATOS DE LOGÍSTICA Y AVANZADOS DE PROVEEDOR INTEGRADOR. DISEÑO Y DESARROLLO DE INSTALACIONES DE PROTECCIÓN MEDIOAMBIENTAL. LA COMPRA, VENTA, IMPORTACIÓN, EXPORTACIÓN Y COMERCIALIZACIÓN EN GENERAL DE TODA CLASE DE EQUIPOS Y PRODUCTOS DE PROTECCIÓN INDIVIDUAL, SEGURIDAD Y MANTENIMIENTO Y CONTRA INCENDIOS, ASÍ COMO LA PRESENTACIÓN COMO DELEGADO, COMISIONISTA O CUALQUIER OTRA FORMA DE REPRESENTACIÓN MERCANTIL DE TODA CLASE DE EMPRESAS NACIONALES Y EXTRANJERAS RELACIONADAS CON DICHOS PRODUCTOS Y EQUIPOS. LA ADQUISICIÓN, CESIÓN, TENENCIA, DISFRUTE, ADMINISTRACIÓN, GESTIÓN Y NEGOCIACIÓN EN GENERAL DE VALORES MOBILIARIOS E INMUEBLES, PARTICIPACIONES SOCIALES O COPROPIEDAD DE TODA CLASE DE BIENES. LA CONSTITUCIÓN CON LA CONCURRENCIA DE OTRAS PERSONAS DE TODA CLASE DE SOCIEDADES MERCANTILES, LA PARTICIPACIÓN EN OTRAS CONSTITUIDAS, PUDIENDO OSTENTAR EN TODAS ELLAS CARGOS DE ADMINISTRACIÓN, DIRECCIÓN O CONTROL MEDIANTE LA OPORTUNA DELEGACIÓN EN PERSONA FÍSICA. LA ADQUISICIÓN Y ENAJENACIÓN POR CUALQUIER TÍTULO DE FINCAS RÚSTICAS Y URBANAS, YA SEAN TIERRAS SOLARES, EDIFICIOS O SUS PARTES DETERMINADAS, LA CONSTRUCCIÓN EN ÉSTOS, Y LA TENENCIA, EXPLOTACIÓN Y ARRENDAMIENTO, YA SEA ACTIVO O PASIVO DE TALES BIENES Y SU VENTA TOTAL O PARCIAL, SEGÚN CONVENGA. EL ARRENDAMIENTO Y CUALQUIER FÓRMULA DE CESIÓN, USO O DISFRUTE QUE ABARQUE TODO O PARTE DE LOS EPÍGRAFES ANTERIORES",
      "mainEntityOfPage": "https://www.contratacion.euskadi.eus/webkpe00-kperoc/es/ac71aBusquedaRegistrosWar/empresa/03361",
      "_links": {
        "self": {
          "name": "BILGAL DESARROLLOS EMPRESARIALES, S.L.",
          "href": "https://api.euskadi.eus/procurements/companies/03361"
        }
      }
    },
    {
      "name": "GESYPRO CONSTRUCCIONES Y PROMOCIONES 2000 S.L.",
      "registrationNumber": "02344",
      "identificationNumber": "B01290337",
      "address": "PLAZA SAN MARTIN, 6 BAJO",
      "location": {
        "postalCode": "01009",
        "municipality": "Vitoria-Gasteiz",
        "county": "Araba/Álava",
        "municipalityId": "059",
        "countyId": "01"
      },
      "economicActivities": [
        {
          "id": "1.507",
          "name": "Construcción, reparación y conservación de toda clase obras",
          "_links": {
            "self": {
              "name": "Construcción, reparación y conservación de toda clase obras",
              "href": "https://api.euskadi.eus/procurements/companies/economic-activities/1.507"
            }
          }
        }
      ],
      "certificateStartDate": "2007-08-27",
      "certificateEndDate": "2008-01-19",
      "object": "TODA CLASE DE OPERACIONES INMOBILIRIAS SOBRE FINCAS RÚSTICAS Y URBANAS, PRMOCIÓN, CONTRATOS O REALIZACIONES DE PARCELACIONES, URBANIZACIONES, CONSTRUCCIONES Y OBRAS PRIVADAS Ó PÚBLICAS, LA VENTA, HIPOTECA, ARRENDAMIENTO, TRANSFORMACIÓN, MEJORA, ADMINISTRACIÓN, PUESTA EN EXPLOTACIÓN Y LA EXPLOTACIÓN MISMA, BAJO CUALQUIER MODALIDAD DE FINCAS DE CUALQUIER CLASE, LA ORGANIZACIÓN, PROMOCIÓN Y ASESORAMIENTO (SALVO LAS OPERACIONES RESERVADAS A LA BANCA) Y GESTIÓN EN SU CASO DE SOCIEDADES, COOPERATIVAS, COMUNIDADES, ENTIDADES, GRUPOS O EMPRESAS PARTICULARES ORIENTADAS A LA CONSTRUCCIÓN O URBANIZACIÓN, LA PLANIFICACIÓN Y ESTUDIO DE MERCADOS EN MATERIA INMOBILIARIA.\r\nLA CONSTRUCCIÓN DE VIVIENDAS DE PROTECCIÓN OFICIAL O DE CUALQUIER OTRA CLASE, SIN LIMITACIÓN, COMO ASÍMISMO LOCALES DE TODO TIPO, CONTRATAS DE OBRAS PÚBLICAS O PARTICULARES, CONTRATOS DE EJECUCIÓN DE OBRAS Y SERVICIOS, OBTENCIÓN Y EXPLOTACIÓN DE CONCESIONES DE SERVICIOS PÚBLICOS Y DE CUALQUIER OTRA CLASE DE ADQUISICIÓN, USO ARRENDAMIENTO, VENTA Y ENAJENACIÓN POR CUALQTUIER TIPO DE EDIFICACIONES, PISOS, LOCALES Y CONSTRUCCIONES DE TODO GÉNERO, LA ADQUISICIÓN, USO, ARARENDAMIENTO Y ENAJENACIÓN DE FINCAS, TERRENOS Y SOLARES, SU PARCELACIÓN Y URBANIZACÓN, LA PROMOCIÓN Y CONSTITUCIÓN DE COMUNIDADES DE PROPIETARIOS O CUALQUIER OTRA FORMA DE ASOCIACIÓN  O SOCIEDAD CON FINES DE EDIFICACIÓN Y URBANIZACIÓN .\r\n\r\nLA COMPRA VENTA, ADMINISTRACIÓN, ARRIENDO Y EXPLOTACIÓN DE TERRENOS RÚSTICOS Y URBANOS, SOLARES, CONSTRUCCIONES, EDIFICACIONES, VIVIENDAS Y EXPLOTACIONES INDUSTRIALES, MINERAS, AGRICOLAS, PESQUERAS, PERCUARIAS Y FORESTALES.",
      "mainEntityOfPage": "https://www.contratacion.euskadi.eus/webkpe00-kperoc/es/ac71aBusquedaRegistrosWar/empresa/02344",
      "_links": {
        "self": {
          "name": "GESYPRO CONSTRUCCIONES Y PROMOCIONES 2000 S.L.",
          "href": "https://api.euskadi.eus/procurements/companies/02344"
        }
      }
    },
    {
      "name": "OBRAS Y EDIFICACIONES SEIXO, S.L.",
      "registrationNumber": "03343",
      "identificationNumber": "B36290963",
      "address": "C/ LA ESTRADA, Nº 26-BAJO",
      "location": {
        "postalCode": "36004",
        "municipality": "Pontevedra",
        "county": "Pontevedra",
        "municipalityId": "038",
        "countyId": "36"
      },
      "economicActivities": [
        {
          "id": "1.507",
          "name": "Construcción, reparación y conservación de toda clase obras",
          "_links": {
            "self": {
              "name": "Construcción, reparación y conservación de toda clase obras",
              "href": "https://api.euskadi.eus/procurements/companies/economic-activities/1.507"
            }
          }
        }
      ],
      "certificateStartDate": "2007-08-27",
      "certificateEndDate": "2008-02-21",
      "object": "1.- MANTENIMIENTO Y REPARACIÓN DE TODO TIPO DE OBRAS Y EDIFICACIONES E INSTALACIONES MERCANTILES DE TODO TIPO, TANTO PÚBLICOS COMO PRIVADOS, INCLUIDA LA LIMPIEZA DE LOS MISMOS. 2.- LA COMPRA Y VENTA DE TERRENOS Y TODA CLASE DE EDIFICACIONES. LA PROMOCIÓN, CONSTRUCCIÓN, POR CUENTA PROPIA O AJENA, DE TODA CLASE DE EDIFICACIONES; Y, LA VENTA Y ALQUILER DE DEPARTAMENTOS RESULTANTES DE LA DIVISIÓN HORIZONTAL DE LOS INMUEBLES COMPRADOS O PROMOVIDOS POR LA PROPIA ENTIDAD. LA REALIZACIÓN POR CUENTA AJENA DE TODO TIPO DE EDIFICACIONES Y CONSTRUCCIONES. LOS TRABAJOS DE ADAPTACIÓN INTERIOR DE LOCALES Y DEPARTAMENTOS, PARA LOCALES COMERCIALES, OFICINAS, ESTUDIOS Y VIVIENDAS. Y, EN GENERAL, TODA LA ACTIVIDAD PROPIA DE EMPRESAS CONSTRUCTORAS Y/O PROMOTORAS SIN LIMITACIÓN ALGUNA, TANTO EN RÉGIMEN DE PROMOCIÓN PRIVADA COMO DE PROMOCIÓN PÚBLICA.",
      "mainEntityOfPage": "https://www.contratacion.euskadi.eus/webkpe00-kperoc/es/ac71aBusquedaRegistrosWar/empresa/03343",
      "_links": {
        "self": {
          "name": "OBRAS Y EDIFICACIONES SEIXO, S.L.",
          "href": "https://api.euskadi.eus/procurements/companies/03343"
        }
      }
    },
    {
      "name": "PROFESSIONAL INTERSERVICES, S.A.",
      "registrationNumber": "03245",
      "identificationNumber": "A36336139",
      "address": "ZONA COMERCIAL DE BERGAZOS, N 525, KM.293",
      "location": {
        "postalCode": "36500",
        "municipality": "Lalín",
        "county": "Pontevedra",
        "municipalityId": "024",
        "countyId": "36"
      },
      "economicActivities": [
        {
          "id": "1.507",
          "name": "Construcción, reparación y conservación de toda clase obras",
          "_links": {
            "self": {
              "name": "Construcción, reparación y conservación de toda clase obras",
              "href": "https://api.euskadi.eus/procurements/companies/economic-activities/1.507"
            }
          }
        }
      ],
      "certificateStartDate": "2007-08-24",
      "certificateEndDate": "2008-02-06",
      "object": "A) LA MEDIACIÓN ENTRE EMPRESAS Y PRESTACIONES DE SERVICIO; B) LA CONSTRUCCIÓN DE TODO TIPO DE OBRAS PÚBLICAS Y PRIVADAS",
      "mainEntityOfPage": "https://www.contratacion.euskadi.eus/webkpe00-kperoc/es/ac71aBusquedaRegistrosWar/empresa/03245",
      "_links": {
        "self": {
          "name": "PROFESSIONAL INTERSERVICES, S.A.",
          "href": "https://api.euskadi.eus/procurements/companies/03245"
        }
      }
    },
    {
      "name": "SANEMAR, S.L.",
      "registrationNumber": "01748",
      "identificationNumber": "B20357372",
      "address": "C/ PLAZA DEL CEDRO, Nº 2 - 9º C.",
      "location": {
        "postalCode": "20016",
        "municipality": "Donostia / San Sebastián",
        "county": "Gipuzkoa",
        "municipalityId": "069",
        "countyId": "20"
      },
      "economicActivities": [
        {
          "id": "1.501.1",
          "name": "Construcción completa, reparación y conservación de edificaciones",
          "_links": {
            "self": {
              "name": "Construcción completa, reparación y conservación de edificaciones",
              "href": "https://api.euskadi.eus/procurements/companies/economic-activities/1.501.1"
            }
          }
        }
      ],
      "certificateStartDate": "2007-08-22",
      "certificateEndDate": "2008-01-27",
      "object": "1.- LA GESTIÓN, RECOGIDA Y COMERCIO DE SÓLIDOS, LÍQUIDOS Y GASEOSOS, PROCEDENTES O PRECISOS EN LA INDUSTRIA EN GENERAL.\r\n\r\n2.- EL COMERCIO DE TODA CLASE DE SUMINISTROS, PERTRECHOS Y ESTUDIOS A LA INDUSTRIA EN GENERAL.\r\n \r\n3.- PRESTACIÓN DE SERVICIOS:\r\na) MANTENIMIENTO INTEGRAL DE INMUEBLES.\r\nb) MANTENIMIENTO INTEGRAL DE INSTALACIONES.\r\nc) SERVICIOS DE LIMPIEZA PRESTADOS CON CARÁCTER ESTABLE.\r\n\r\n4.- LA PRESTACIÓN DEL SERVICIO \"MARPOL\" DE RECOGIDA DE RESIDUOS SÓLIDOS Y LÍQUIDOS (OLEOSOS), EN APLICACIÓN DE LOS DISTINTOS ANEXOS DE LA CONVENCIÓN MARPOL, A LOS BUQUES.\r\n\r\n5.- ACTIVIDAD DE EQUIPAMIENTO DE MOBILIARIO Y ELEMENTOS DE OCIO PARA PLAYAS.\r\n\r\n6.- SERVICIO DE INSPECCIÓN, GUARDERÍA Y VIGILANCIA DE TODA CLASE, TANTO EN TIERRA COMO EN EL MAR, INCLUYENDO TODOS LOS TEMAS RELACIONADOS CON EL MEDIO AMBIENTE Y OTROS SERVICIOS QUE NO SE ESPECIFICAN Y PUDIERAN SER SUBCONTRADOS POR LA ADMINISTRACIÓN.\r\n\r\n7.- GESTIÓN, ADMINISTRACIÓN Y PRESTACIÓN DE SERVICIOS A CENTROS HOSPITALARIOS, RESIDENCIAS DE ANCIANOS, INFANTILES Y DE CUALQUIER OTRO TIPO DE ATENCIÓN A TERCERAS PERSONAS.\r\n\r\n8.- LA GESTIÓN, USO Y DISFRUTE DE CONCESIONES ADMINISTRATIVAS RELACIONADAS CON LOS APARTADOS ANTERIORES",
      "mainEntityOfPage": "https://www.contratacion.euskadi.eus/webkpe00-kperoc/es/ac71aBusquedaRegistrosWar/empresa/01748",
      "_links": {
        "self": {
          "name": "SANEMAR, S.L.",
          "href": "https://api.euskadi.eus/procurements/companies/01748"
        }
      }
    },
    {
      "name": "PROMOCIONES OLAUR",
      "registrationNumber": "03261",
      "identificationNumber": "B95271722",
      "address": "PLAZA SAGRADO CORAZÓN, 4.PLANTA 1ª,  DPTO. 4",
      "location": {
        "postalCode": "48011",
        "municipality": "Bilbao",
        "county": "Bizkaia",
        "municipalityId": "020",
        "countyId": "48"
      },
      "economicActivities": [
        {
          "id": "1.833.2",
          "name": "Promoción de edificaciones",
          "_links": {
            "self": {
              "name": "Promoción de edificaciones",
              "href": "https://api.euskadi.eus/procurements/companies/economic-activities/1.833.2"
            }
          }
        }
      ],
      "certificateStartDate": "2007-08-22",
      "certificateEndDate": "2007-12-19",
      "object": "A) TODA CLASE DE OPERACIONES INMOBILIARIAS SOBRE FINCAS RÚSTICAS Y URBANAS, PROMOCIÓN DE CONTRATOS O REALIZACIONES DE PARCELACIONES, URBANIZACIONES, CONSTRUCCIONES Y OBRAS PRIVADAS O PÚBLICAS, LA VENTA, HIPOTECA, ARRENDAMIENTO, TRANSFORMACIÓN, MEJORA, ADMINISTRACIÓN PUESTA EN EXPLOTACIÓN Y LA EXPLOTACIÓN MISMA, DE FINCAS RÚSTICAS Y URBANAS, LA ORGANIZACIÓN, PROMOCIÓN Y ASESORAMIENTO Y GESTIÓN EN SU CASO DE SOCIEDADES, COOPERATIVA, COMUNIDADES, ENTIDADES, GRUPOS O EMPRESAS PARTICULARES ORIENTADAS A LA CONSTRUCCIÓN O URBANIZACIÓN, LA PLANIFICACIÓN Y ESTUDIO DE MERCADOS EN MATERIA INMOBILIARIA. B) LA COMPRA DE INMUEBLES, PARA LA CONSTRUCCIÓN O EXPLOTACIÓN DE LOS MISMOS, ASÍ COMO SU VENTA POSTERIOR; LA CONSTRUCCIÓN, POR CUENTA PROPIA O AJENA, ASÍ COMO LA URBANIZACIÓN DE TODA CLASE DE TERRENOS. C) EL ASESORAMIENTO FINANCIERO Y PARA LA REALIZACIÓN DE OBRAS, INCLUSO DE CONSTRUCCIÓN, Y LAS CORRESPONDIENTES TAREAS DE CONSULTORÍA. D) LA GESTIÓN, DIRECCIÓN  Y EJECUCIÓN DE OBRAS DE CONSTRUCCIÓN POR CUENTA PROPIA O AJENA, LA REALIZACIÓN DE CONTRATAS; LA REHABILITACIÓN, URBANIZACIÓN, RESTAURACIÓN EXTERNA E INTERNA DE ESTRUCTURAS Y REVESTIMIENTOS DE EDIFICIOS Y MONUMENTOS; LIMPIEZA, IMPERMEABILIZACIÓN, TRATAMEINTO, PINTURA, RECONSTRUCCIÓN Y LA IMPLANTACIÓN, CUIDADO Y MANTENIMIENTO DE JARDINES Y EXPOLOTACIONES FORESTALES. D) EL ESTUDIO Y RESOLUCIÓN DE TODAS CUANTAS CUESTIONES TÉCNICAS Y DE CUALQUIER ORDEN, RELACIONADAS CON EL OBJETO Y OBJETOS PRINCIPALES PUEDAN PLANTEARSE.",
      "mainEntityOfPage": "https://www.contratacion.euskadi.eus/webkpe00-kperoc/es/ac71aBusquedaRegistrosWar/empresa/03261",
      "_links": {
        "self": {
          "name": "PROMOCIONES OLAUR",
          "href": "https://api.euskadi.eus/procurements/companies/03261"
        }
      }
    },
    {
      "name": "SIEMSA NORTE, S.A.",
      "registrationNumber": "02603",
      "identificationNumber": "A48482087",
      "address": "C/ PUERTO REAL BIDEA, 1",
      "location": {
        "postalCode": "48950",
        "municipality": "Erandio",
        "county": "Bizkaia",
        "municipalityId": "902",
        "countyId": "48"
      },
      "economicActivities": [
        {
          "id": "1.504.1",
          "name": "Instalaciones eléctricas en general",
          "_links": {
            "self": {
              "name": "Instalaciones eléctricas en general",
              "href": "https://api.euskadi.eus/procurements/companies/economic-activities/1.504.1"
            }
          }
        }
      ],
      "certificateStartDate": "2007-08-16",
      "certificateEndDate": "2007-03-05",
      "object": "A) LA FABRICACIÓN, REPRESENTACIÓN, COMERCIALIZACIÓN, DISTRIBUCIÓN, IMPORTACIÓN Y EXPORTACIÓN DE PANELES Y EQUIPOS, ELÉCTRICOS, ELECTRÓNICOS, RADIOFRECUENCIA Y  MECÁNICOS.\r\n\r\nB) LA REALIZACIÓN DE ESTUDIOS, PROYECTOS, CONSULTORÍA Y ASESORAMIENTO TÉCNICO A OTRAS EMPRESAS Y LA REALIZACIÓN DE CUALQUIER CLASE DE TRABAJOS DE INGENIERÍA, Y EN ESPECIAL, LOS TRABAJOS DE INGENIERÍA ELÉCTRICA, ELECTRÓNICA, RADIOELÉCTRICA Y MECÁNICA.\r\n\r\nC) LA REALIZACIÓN DE PROYECTOS, MONTAJES Y MANTENIMIENTOS DE CUALQUIER TIPO DE INSTALACINES Y EQUIPOS ELÉCTRICOS DE BAJA Y ALTA TENSIÓN DE ELÉCTRONICA, INSTRUMENTACIÓN Y TELECOMUNICACIONES.\r\n\r\nD) LA REALIZACIÓN DE ESTUDIOS Y TRABAJOS RELACIONADOS CON TODAS LAS ACTIVIDADES INDUSTRIALES O COMERCIALES QUE TENGAN POR OBJETO LA REGULACIÓN Y EL CONTROL AUTOMÁTICO, ES DECIR, DE UN MODO GENERAL, LA AUTOMATIZACIÓN.\r\n\r\nE) LA CONSERVACIÓN Y MANTENIMIENTO DE INMUEBLES Y EQUIPOS E INSTALACIONES ELÉCTRICAS, ELECTRÓNICAS, CLIMATIZACIÓN, ELEVACIÓN Y ALUMBRADO, Y CUALESQUIERA OTRAS  ACTIVIDADES RELACIONADAS CON EL MANTENIMIENTO EN GENERAL.\r\n\r\nF) LA REALIZACIÓN DE PROYECTOS Y DIRECCIÓN DE OBRA DE INSTALACIONES PARA LA INDUSTRIA, ENERGÍA Y MINERÍA, OBRAS PÚBLICAS, EDIFICACIONES Y MONTAJES E INSTALACIONES EN GENERAL.\r\n\r\nG) LA PRESTACIÓN DE SERVICIOS DE LECTURA DE CONTADORES DE ENERGÍA ELÉCTRICA Y OTROS FLUÍDOS COMO EL AGUA Y GAS, PARA COMPAÑÍAS SUMINISTRADORAS Y DISTRIBUIDORAS DE LOS CITADOS FLUÍDOS, ASÍ COMO EL SERVICIO DE LOCALIZACIÓN Y ENTREGA AL DESTINATARIO DE NOTIFICACIONES.\r\n\r\nH) LA REALIZACIÓN DE PROYECTOS, MONTAJES Y MANTENIMIENTOS DE INSTALACIONES RELACIONADAS CON LA SEGURIDAD INDUSTRIAL, ACCESOS, INCENDIOS, PARA LA INDUSTRIA, ENERGÍA, MINERÍA, EDIFICACIÓN, URBANISMO Y CUALQUIER INSTALACIÓN EN GENERAL ",
      "mainEntityOfPage": "https://www.contratacion.euskadi.eus/webkpe00-kperoc/es/ac71aBusquedaRegistrosWar/empresa/02603",
      "_links": {
        "self": {
          "name": "SIEMSA NORTE, S.A.",
          "href": "https://api.euskadi.eus/procurements/companies/02603"
        }
      }
    }
  ]
}