{
  "totalItems": 9042,
  "totalPages": 905,
  "currentPage": 462,
  "itemsOfPage": 10,
  "items": [
    {
      "name": "11BARRI, S.L.",
      "registrationNumber": "08448",
      "identificationNumber": "B95274072",
      "address": "Arretxinaga Etorbidea, 1 - bajua",
      "location": {
        "postalCode": "48270",
        "municipality": "Markina-Xemein",
        "county": "Bizkaia",
        "municipalityId": "060",
        "countyId": "48"
      },
      "economicActivities": [
        {
          "id": "1.476.2",
          "name": "Edición de periódicos y revistas",
          "_links": {
            "self": {
              "name": "Edición de periódicos y revistas",
              "href": "https://api.euskadi.eus/procurements/companies/economic-activities/1.476.2"
            }
          }
        },
        {
          "id": "1.844",
          "name": "Servicios de publicidad, relaciones públicas y similares",
          "_links": {
            "self": {
              "name": "Servicios de publicidad, relaciones públicas y similares",
              "href": "https://api.euskadi.eus/procurements/companies/economic-activities/1.844"
            }
          }
        }
      ],
      "certificateStartDate": "2023-05-02",
      "certificateEndDate": "2023-11-02",
      "object": "REALIZACIÓN Y EDICIÓN DE CUALQUIER TIPO DE PUBLICACIÓN ESCRITA, DIGITAL, AUDITIVA Y GRÁFICA. SERVICIOS DE PUBLICIDAD. TRADUCCIÓN DE TODO TIPO DE DOCUMENTOS Y DISEÑO GRÁFICO.",
      "mainEntityOfPage": "https://www.contratacion.euskadi.eus/webkpe00-kperoc/es/ac71aBusquedaRegistrosWar/empresa/08448",
      "_links": {
        "self": {
          "name": "11BARRI, S.L.",
          "href": "https://api.euskadi.eus/procurements/companies/08448"
        }
      }
    },
    {
      "name": "BAULAN CONSULTORÍA DE DISEÑO, S.L.",
      "registrationNumber": "04513",
      "identificationNumber": "B95217931",
      "address": "ANSELMA DE SALCES 18",
      "location": {
        "postalCode": "48007",
        "municipality": "Bilbao",
        "county": "Bizkaia",
        "municipalityId": "020",
        "countyId": "48"
      },
      "economicActivities": [
        {
          "id": "1.501.1",
          "name": "Construcción completa, reparación y conservación de edificaciones",
          "_links": {
            "self": {
              "name": "Construcción completa, reparación y conservación de edificaciones",
              "href": "https://api.euskadi.eus/procurements/companies/economic-activities/1.501.1"
            }
          }
        },
        {
          "id": "1.843.9",
          "name": "Otros servicios técnicos n.c.o.p",
          "_links": {
            "self": {
              "name": "Otros servicios técnicos n.c.o.p",
              "href": "https://api.euskadi.eus/procurements/companies/economic-activities/1.843.9"
            }
          }
        }
      ],
      "certificateStartDate": "2023-04-30",
      "certificateEndDate": "2023-10-30",
      "object": "A) LA CONSULTORÍA DE DISEÑO, EL DISEÑO GRÁFICO, DISEÑO INDUSTRIAL, EL DISEÑO, ORGANIZACIÓN Y EJECUCIÓN DE STANDS PUBLICITARIOS EN EVENTOS, FERIAS Y EXPOSICIONES, Y EL INTERIORISMO EN GENERAL. B) LA COMPRA, TENENCIA, ADMINISTRACIÓN, PERMUTA Y VENTA DE TODA CLASE DE VALORES MOBILIARIOS, TANTO PÚBLICOS COMO PRIVADOS. C) LA COMPRA VENTA, TENENCIA, ALQUILER, PARCELACIÓN, URBANIZACIÓN Y EXPLOTACIÓN DE BIENES INMUEBLES, PUDIENDO PROCEDER A LA EDIFICACIÓN DE LOS MISMOS Y A SU ENAJENACIÓN, ÍNTEGRAMENTE, EN FORMA PARCIAL A EN RÉGIMEN DE PROPIEDAD HORIZONTAL. LAS ACTIVIDADES COMPRENDIDAS EN EL APARTADO B) ANTERIOR ÚNICAMENTE PODRÁN SER DESARROLLADAS POR LA SOCIEDAD POR CUENTA PROPIA Y CON EXCEPCIÓN DE LA INTERMEDIACIÓN EN OPERACIONES SOBRE TÍTULOS VALORES, Y DEJANDO SIEMPRE FUERA LAS ACTIVIDADES OBJETO DE LA LEGISLACIÓN DE INSTITUCIONES DE INVERSIÓN COLECTIVA Y DE MERCADO DE VALORES",
      "mainEntityOfPage": "https://www.contratacion.euskadi.eus/webkpe00-kperoc/es/ac71aBusquedaRegistrosWar/empresa/04513",
      "_links": {
        "self": {
          "name": "BAULAN CONSULTORÍA DE DISEÑO, S.L.",
          "href": "https://api.euskadi.eus/procurements/companies/04513"
        }
      }
    },
    {
      "name": "ARREMANITZ KOOP ELKARTE TXIKIA",
      "registrationNumber": "06245",
      "identificationNumber": "F75030965",
      "address": "SANTA BARBARA 24 BAJO IZQUIERDA",
      "location": {
        "postalCode": "20120",
        "municipality": "Hernani",
        "county": "Gipuzkoa",
        "municipalityId": "040",
        "countyId": "20"
      },
      "economicActivities": [
        {
          "id": "1.933.9",
          "name": "Otras actividades de enseñanza tales como idiomas, mecanografía",
          "_links": {
            "self": {
              "name": "Otras actividades de enseñanza tales como idiomas, mecanografía",
              "href": "https://api.euskadi.eus/procurements/companies/economic-activities/1.933.9"
            }
          }
        },
        {
          "id": "1.966.9",
          "name": "Otros servicios culturales n.c.o.p",
          "_links": {
            "self": {
              "name": "Otros servicios culturales n.c.o.p",
              "href": "https://api.euskadi.eus/procurements/companies/economic-activities/1.966.9"
            }
          }
        }
      ],
      "certificateStartDate": "2023-04-30",
      "certificateEndDate": "2023-10-30",
      "object": "1) PROMOVER LA IGUALDAD, LA PARIDAD Y LA PLURALIDAD SEXUAL. 2) Y PARA LOGRAR LOS OBJETIVOS ARRIBA SEÑALADOS: -LA PRESTACIÓN SERVICIOS DE IGUALDAD. -LA PRESTACIÓN DE SERVICIOS DE SEXOLOGÍA. -LA PRESTACIÓN DE SERVICIOS DE FORMACIÓN. -LA PRESTACIÓN DE SERVICIOS DE ORIENTACIÓN. -LA ORGANIZACIÓN DE DISTINTAS ACTIVIDADES. -DISEÑAR, DESARROLLAR Y EVALUAR PROYECTOS EN ESE SENTIDO. -CREACIÓN Y DIFUSIÓN DE MEDIOS PEDAGÓGICOS Y DE DIVULGACIÓN. - CREACIÓN Y GESTIÓN DE LAS INFRAESTRUCTURAS NECESARIAS. -COLABORACIÓN CON EL RESTO DE AGENTES SOCIALES QUE TRABAJAN EN ESTE CAMPO",
      "mainEntityOfPage": "https://www.contratacion.euskadi.eus/webkpe00-kperoc/es/ac71aBusquedaRegistrosWar/empresa/06245",
      "_links": {
        "self": {
          "name": "ARREMANITZ KOOP ELKARTE TXIKIA",
          "href": "https://api.euskadi.eus/procurements/companies/06245"
        }
      }
    },
    {
      "name": "INNOBASQUE, AGENCIA VASCA DE LA INNOVACIÓN",
      "registrationNumber": "05798",
      "identificationNumber": "G48997159",
      "address": "LAIDA BIDEA EDIFCIO 203",
      "location": {
        "postalCode": "48170",
        "municipality": "Zamudio",
        "county": "Bizkaia",
        "municipalityId": "905",
        "countyId": "48"
      },
      "economicActivities": [
        {
          "id": "1.843.9",
          "name": "Otros servicios técnicos n.c.o.p",
          "_links": {
            "self": {
              "name": "Otros servicios técnicos n.c.o.p",
              "href": "https://api.euskadi.eus/procurements/companies/economic-activities/1.843.9"
            }
          }
        },
        {
          "id": "1.861.2",
          "name": "Alquiler de locales industriales y otros alquileres n.c.o.p",
          "_links": {
            "self": {
              "name": "Alquiler de locales industriales y otros alquileres n.c.o.p",
              "href": "https://api.euskadi.eus/procurements/companies/economic-activities/1.861.2"
            }
          }
        }
      ],
      "certificateStartDate": "2023-04-30",
      "certificateEndDate": "2023-10-30",
      "object": "FAVORECER E IMPULSAR EL DESARROLLO DE LA INNOVACIÓN EN EUSKADI, TANTO LA TECNOLÓGICA COMO LA NO TECNOLÓGICA, FOMENTANDO EL ESPÍRITU EMPRENDEDOR Y LA CREATIVIDAD, CON EL FIN DE ELEVAR LA COMPETITIVIDAD DE LAS ORGANIZACIONES VASCAS DE TODO TIPO Y DE SU ECONOMÍA, EN LOS SECTORES PRIMARIO, SECUNDARIO Y TERCIARIO Y MEJORAR LA CALIDAD DE VIDA PRESENTE Y FUTURA DE TODA LA SOCIEDAD VASCA",
      "mainEntityOfPage": "https://www.contratacion.euskadi.eus/webkpe00-kperoc/es/ac71aBusquedaRegistrosWar/empresa/05798",
      "_links": {
        "self": {
          "name": "INNOBASQUE, AGENCIA VASCA DE LA INNOVACIÓN",
          "href": "https://api.euskadi.eus/procurements/companies/05798"
        }
      }
    },
    {
      "name": "MARIA BELEN PANIAGUA MONTES",
      "registrationNumber": "08974",
      "identificationNumber": "72740781S",
      "address": "Calle Jacinto Benavente",
      "location": {
        "postalCode": "01003",
        "municipality": "Vitoria-Gasteiz",
        "county": "Araba/Álava",
        "municipalityId": "059",
        "countyId": "01"
      },
      "economicActivities": [
        {
          "id": "1.501.3",
          "name": "Albañilería y pequeños trabajos de construcción en general",
          "_links": {
            "self": {
              "name": "Albañilería y pequeños trabajos de construcción en general",
              "href": "https://api.euskadi.eus/procurements/companies/economic-activities/1.501.3"
            }
          }
        },
        {
          "id": "1.653.1",
          "name": "Venta al por menor de muebles (excepto los de oficina)",
          "_links": {
            "self": {
              "name": "Venta al por menor de muebles (excepto los de oficina)",
              "href": "https://api.euskadi.eus/procurements/companies/economic-activities/1.653.1"
            }
          }
        },
        {
          "id": "1.659.2",
          "name": "Venta al por menor de muebles de oficina y máquinas y equipos de oficina",
          "_links": {
            "self": {
              "name": "Venta al por menor de muebles de oficina y máquinas y equipos de oficina",
              "href": "https://api.euskadi.eus/procurements/companies/economic-activities/1.659.2"
            }
          }
        },
        {
          "id": "1.843.9",
          "name": "Otros servicios técnicos n.c.o.p",
          "_links": {
            "self": {
              "name": "Otros servicios técnicos n.c.o.p",
              "href": "https://api.euskadi.eus/procurements/companies/economic-activities/1.843.9"
            }
          }
        }
      ],
      "certificateStartDate": "2023-04-27",
      "certificateEndDate": "2023-09-30",
      "object": "ALBAÑILERÍA Y PEQUEÑOS TRABAJOS DE CONSTRUCCIÓN EN GENERAL. VENTA AL POR MENOR DE MUEBLAS (EXCEPTO LOS DE OFICINA) Y VENTA AL POR MENOR DE MUEBLES DE OFICINA Y MÁQUINAS Y EQUIPOS DE OFICINA. OTROS SERVICIOS TÉCNICOS N.C.O.P.",
      "mainEntityOfPage": "https://www.contratacion.euskadi.eus/webkpe00-kperoc/es/ac71aBusquedaRegistrosWar/empresa/08974",
      "_links": {
        "self": {
          "name": "MARIA BELEN PANIAGUA MONTES",
          "href": "https://api.euskadi.eus/procurements/companies/08974"
        }
      }
    },
    {
      "name": "HIARTEK SOLUCIONES HIDRAULICAS, S.L.",
      "registrationNumber": "08973",
      "identificationNumber": "B01578848",
      "address": "Mendigorritxu, 138 Pabellón 11",
      "location": {
        "postalCode": "01015",
        "municipality": "Vitoria-Gasteiz",
        "county": "Araba/Álava",
        "municipalityId": "059",
        "countyId": "01"
      },
      "economicActivities": [
        {
          "id": "1.843.1",
          "name": "Servicios técnicos de ingeniería",
          "_links": {
            "self": {
              "name": "Servicios técnicos de ingeniería",
              "href": "https://api.euskadi.eus/procurements/companies/economic-activities/1.843.1"
            }
          }
        }
      ],
      "certificateStartDate": "2023-04-27",
      "certificateEndDate": "2023-10-27",
      "object": "- FABRICACIÓN E INGENIERÍA (I+D+I) DE PROYECTOS RELACIONADOS CON EL CICLO DEL AGUA, LA EFICIENCIA ENERGÉTICA Y ENERGÍAS RENOVABLES. CONSULTORÍA DE PROYECTOS PERSONALIZADOS EN EQUIPOS PARA CICLO DEL AGUA, ENERGÍAS RENOVABLES Y EFICIENCIA ENERGÉTICA. INSTALACIÓN, MANTENIMIENTO Y PROYECTOS LLAVE EN MANO, EPC A DEMANDA DEL CLIENTE. SERVICIOS POST-VENTA DE LOS SISTEMAS COMERCIALIZADOS. DESARROLLOS DE NUEVAS TECNOLOGÍAS PARA LOS SECTORES DEL AGUA, ENERGÍA Y MEDIO AMBIENTE CNAE 7219. LA SOCIEDAD PODRÁ REALIZAR TAMBIÉN LOS SIGUIENTES OBJETOS: - LA PRESTACIÓN DE SERVICIOS DE GESTIÓN Y ADMINISTRACIÓN DE LAS EMPRESAS PARTICIPADAS, Y EN ESPECIAL, LAS DEL GRUPO EMPRESARIAL. CNAE -6420. - LA ADQUISICIÓN, TENENCIA, DISFRUTE Y ADMINISTRACIÓN DE VALORES MOBILIARIOS Y CUALESQUIERA OTROS ACTIVOS FINANCIEROS, POR CUENTA PROPIA, EN TODO TIPO DE SOCIEDADES, DEJANDO SIEMPRE FUERA LAS ACTIVIDADES OBJETO DE LA LEGISLACIÓN DE INSTITUCIONES DE INVERSIÓN COLECTIVA Y DE MERCADO DE VALORES. CNAE -6420. LA COMPRAVENTA DE TODO TIPO DE SOLARES, TERRENOS Y BIENES INMUEBLES. CNAE - 411 - EL ARRENDAMIENTO DE TODO TIPO DE SOLARES, TERRENOS Y BIENES INMUEBLES. CNAE - 6820 - LA PROMOCIÓN DE EMPRESAS, ENTENDIENDO POR ELLO TODOS LOS ESTUDIOS, GESTIONES, NEGOCIACIONES, ACTOS Y CONTRATOS QUE TENGA POR OBJETO LA CONSTITUCIÓN Y ESTABLECIMIENTO DE NUEVAS SOCIEDADES MERCANTILES CON ACTIVIDAD INDUSTRIAL, COMERCIAL, DE SERVICIOS Y FINANCIERA, ASÍ COMO TODAS LAS GESTIONES ORIENTADAS AL DESARROLLO, FUSIÓN, ESCISIÓN O CONSTITUCIÓN DE GRUPOS DE SOCIEDADES Y CONCENTRACIÓN DE EMPRESAS. CNAE -6420.",
      "mainEntityOfPage": "https://www.contratacion.euskadi.eus/webkpe00-kperoc/es/ac71aBusquedaRegistrosWar/empresa/08973",
      "_links": {
        "self": {
          "name": "HIARTEK SOLUCIONES HIDRAULICAS, S.L.",
          "href": "https://api.euskadi.eus/procurements/companies/08973"
        }
      }
    },
    {
      "name": "KLARA GOROSABEL ZALDIBIA",
      "registrationNumber": "08972",
      "identificationNumber": "44349436P",
      "address": "Calle Aizkibel 14 solairuartea B",
      "location": {
        "postalCode": "20720",
        "municipality": "Azkoitia",
        "county": "Gipuzkoa",
        "municipalityId": "017",
        "countyId": "20"
      },
      "economicActivities": [
        {
          "id": "2.778",
          "name": "Diplomados en biblioteconomía y documentación",
          "_links": {
            "self": {
              "name": "Diplomados en biblioteconomía y documentación",
              "href": "https://api.euskadi.eus/procurements/companies/economic-activities/2.778"
            }
          }
        }
      ],
      "certificateStartDate": "2023-04-27",
      "certificateEndDate": "2023-10-27",
      "object": "DIPLOMADOS EN BIBLIOTECONOMÍA Y DOCUMENTACIÓN.",
      "mainEntityOfPage": "https://www.contratacion.euskadi.eus/webkpe00-kperoc/es/ac71aBusquedaRegistrosWar/empresa/08972",
      "_links": {
        "self": {
          "name": "KLARA GOROSABEL ZALDIBIA",
          "href": "https://api.euskadi.eus/procurements/companies/08972"
        }
      }
    },
    {
      "name": "ALMACENES ELÉCTRICOS VITORIA, S.A.",
      "registrationNumber": "01031",
      "identificationNumber": "A01024421",
      "address": "c/VITORIABIDEA 21",
      "location": {
        "postalCode": "01010",
        "municipality": "Vitoria-Gasteiz",
        "county": "Araba/Álava",
        "municipalityId": "059",
        "countyId": "01"
      },
      "economicActivities": [
        {
          "id": "1.617.9",
          "name": "Venta al por mayor interindustrial de otros productos n.c.o.p",
          "_links": {
            "self": {
              "name": "Venta al por mayor interindustrial de otros productos n.c.o.p",
              "href": "https://api.euskadi.eus/procurements/companies/economic-activities/1.617.9"
            }
          }
        }
      ],
      "certificateStartDate": "2023-04-26",
      "certificateEndDate": "2020-12-22",
      "object": "LA COMERCIALIZACIÓN, VENTA Y REVENTA, TANTO AL POR MAYOR COMO AL DETALLE DE TODO TIPO DE MAQUINARIA Y MATERIAL ELÉCTRICO, PUDIENDO DEDICARSE A CUANTAS OTRAS ACTIVIDADES ESTEN RELACIONADAS CON EL FIN EXPRESADO, TANTO DE UNA MANERA DIRECTA COMO INDIRECTA, CUALQUIER OTRO NEGOCIO, ACTIVIDAD U OPERACIÓN MERCANTIL DE LÍCITO COMERCIO",
      "mainEntityOfPage": "https://www.contratacion.euskadi.eus/webkpe00-kperoc/es/ac71aBusquedaRegistrosWar/empresa/01031",
      "_links": {
        "self": {
          "name": "ALMACENES ELÉCTRICOS VITORIA, S.A.",
          "href": "https://api.euskadi.eus/procurements/companies/01031"
        }
      }
    },
    {
      "name": "IZASKUN AGIRREZABALAGA BERISTAIN",
      "registrationNumber": "08967",
      "identificationNumber": "72454167G",
      "address": "SANTA MARINA 16, 1 ESK",
      "location": {
        "postalCode": "20800",
        "municipality": "Zarautz",
        "county": "Gipuzkoa",
        "municipalityId": "079",
        "countyId": "20"
      },
      "economicActivities": [
        {
          "id": "2.011",
          "name": "Doctores y licenciados en ciencias biológicas",
          "_links": {
            "self": {
              "name": "Doctores y licenciados en ciencias biológicas",
              "href": "https://api.euskadi.eus/procurements/companies/economic-activities/2.011"
            }
          }
        }
      ],
      "certificateStartDate": "2023-04-25",
      "certificateEndDate": "2023-10-25",
      "object": "DOCTORES Y LICENCIADOS EN CIENCIAS BIOLOGICAS.",
      "mainEntityOfPage": "https://www.contratacion.euskadi.eus/webkpe00-kperoc/es/ac71aBusquedaRegistrosWar/empresa/08967",
      "_links": {
        "self": {
          "name": "IZASKUN AGIRREZABALAGA BERISTAIN",
          "href": "https://api.euskadi.eus/procurements/companies/08967"
        }
      }
    },
    {
      "name": "TRANSPORTES HIJOS DE ANGEL CARRASCO, S.L.",
      "registrationNumber": "03915",
      "identificationNumber": "B01239854",
      "address": "ARTAPADURA Nº 13 BAJO",
      "location": {
        "postalCode": "01013",
        "municipality": "Vitoria-Gasteiz",
        "county": "Araba/Álava",
        "municipalityId": "059",
        "countyId": "01"
      },
      "economicActivities": [
        {
          "id": "1.721.3",
          "name": "Transporte de viajeros por carretera",
          "_links": {
            "self": {
              "name": "Transporte de viajeros por carretera",
              "href": "https://api.euskadi.eus/procurements/companies/economic-activities/1.721.3"
            }
          }
        }
      ],
      "certificateStartDate": "2023-04-20",
      "certificateEndDate": "2023-10-04",
      "object": "TIENE POR OBJETO: EL TRANSPORTE DE VIAJEROS POR CARRETERA.",
      "mainEntityOfPage": "https://www.contratacion.euskadi.eus/webkpe00-kperoc/es/ac71aBusquedaRegistrosWar/empresa/03915",
      "_links": {
        "self": {
          "name": "TRANSPORTES HIJOS DE ANGEL CARRASCO, S.L.",
          "href": "https://api.euskadi.eus/procurements/companies/03915"
        }
      }
    }
  ]
}