{
  "totalItems": 9042,
  "totalPages": 905,
  "currentPage": 350,
  "itemsOfPage": 10,
  "items": [
    {
      "name": "SPIE ENERGY SYSTEMS IBERICA,SLU",
      "registrationNumber": "09740",
      "identificationNumber": "B71241673",
      "address": "PASEO SARASATE, 38 - 1º",
      "location": {
        "postalCode": "31001",
        "municipality": "Pamplona/Iruña",
        "county": "Navarra",
        "municipalityId": "201",
        "countyId": "31"
      },
      "economicActivities": [
        {
          "id": "1.504.1",
          "name": "Instalaciones eléctricas en general",
          "_links": {
            "self": {
              "name": "Instalaciones eléctricas en general",
              "href": "https://api.euskadi.eus/procurements/companies/economic-activities/1.504.1"
            }
          }
        }
      ],
      "certificateStartDate": "2025-06-11",
      "certificateEndDate": "2025-12-04",
      "object": "-LA PARTICIPACIÓN EN CUALQUIER CLASE DE SOCIEDADES O COMPAÑÍAS MERCANTILES, INDUSTRIALES O INMOBILIARIAS INDEPENDIENTEMENTE DE SU FORMA, TANTO EN ESPAÑA COMO EN EL EXTRANJERO, ESPECIALMENTE MEDIANTE SUSCRIPCIÓN O ADQUISICIÓN DE ACCIONES O PARTICIPACIONES U OTROS DERECHOS SOCIALES POR CUENTA PROPIA. - LA GESTIÓN DE PARTICIPACIONES O INTERESES QUE ÉSTA PUEDA TENER EN OTRAS SOCIEADADES O EMPRESAS ESPAÑOLAS O EXTRANJERAS. - TODA ACTIVIDAD LIGADA A LA INSTALACIÓN DE LÍNEAS ELÉCTRICAS DE ALTA O BAJA TENSIÓN, AL EQUIPAMIENTO DE CENTROS DE TRANSFORMACIÓN, AL ALUMBRADO PÚBLICO, A LA COORDINACIÓN DE TODOS LOS TRABAJOS Y OPERACIONES LIGADAS A ÉSTAS, ASÍ COMO A LA EJECUCIÓN DE TODAS LAS ACTIVIDADES DE ESTUDIO E INVESTIGACIÓN NECESARIAS PARA EL DISEÑO, CREACIÓN, COMERCIALIZACIÓN Y MANTENIMIENTO DE CUALQUIER SISTEMA DE DISTRIBUCIÓN DE ENERGÍA. - TODA LABOR DE CONSTRUCCIÓN, OBRA, E INGENIERÍA CIVIL Y EN GENERAL TODA OBRA PÚBLICA; CUALQUIER INSTALACIÓN ELÉCTRICA EN EDIFICIOS Y NAVES INDUSTRIALES.",
      "mainEntityOfPage": "https://www.contratacion.euskadi.eus/webkpe00-kperoc/es/ac71aBusquedaRegistrosWar/empresa/09740",
      "_links": {
        "self": {
          "name": "SPIE ENERGY SYSTEMS IBERICA,SLU",
          "href": "https://api.euskadi.eus/procurements/companies/09740"
        }
      }
    },
    {
      "name": "VESTUARIO LABORAL MUSKIZ, S.L.",
      "registrationNumber": "07009",
      "identificationNumber": "B95972873",
      "address": "el crucero auzoa 13",
      "location": {
        "postalCode": "48550",
        "municipality": "Muskiz",
        "county": "Bizkaia",
        "municipalityId": "071",
        "countyId": "48"
      },
      "economicActivities": [
        {
          "id": "1.613.3",
          "name": "Venta al por mayor de prendas exteriores de vestir",
          "_links": {
            "self": {
              "name": "Venta al por mayor de prendas exteriores de vestir",
              "href": "https://api.euskadi.eus/procurements/companies/economic-activities/1.613.3"
            }
          }
        },
        {
          "id": "1.651.5",
          "name": "Venta al por menor de prendas especiales",
          "_links": {
            "self": {
              "name": "Venta al por menor de prendas especiales",
              "href": "https://api.euskadi.eus/procurements/companies/economic-activities/1.651.5"
            }
          }
        }
      ],
      "certificateStartDate": "2025-06-10",
      "certificateEndDate": "2025-12-08",
      "object": "COMERCIO AL POR MAYOR Y AL POR MENOR DE PRODUCTOS TEXTILES, PRENDAS DE TRABAJO, UNIFORMES, PRENDAS DE CUERO Y SIMILARES, PRENDAS ESPECIALES PARA LLUVIA COSIDAS O DE PLÁSTICO SOLDADO, PRENDAS DEPORTIVAS Y MILITARES. COMERCIO AL POR MAYOR Y POR MENOR DE CALZADO, CINTURONES, CARTERAS, BOLSOS, MALETAS, ARTÍCULOS DE VIAJE Y ARTÍCULOS DE MERCERÍA, PAQUETERÍA Y MATERIAL DE OFICINA. COMERCIO AL POR MAYOR Y POR MENOR DE ARTÍCULOS DE REGALO Y PUBLICITARIOS, MERCHANDISING, JUGUETES, ARTÍCULOS DE DEPORTE, TROFEOS, INSIGNIAS Y MEDALLAS CONMEMORATIVAS. SERVICIOS DE MARKETING Y PUBLICIDAD Y RELACIONES PUBLICAS",
      "mainEntityOfPage": "https://www.contratacion.euskadi.eus/webkpe00-kperoc/es/ac71aBusquedaRegistrosWar/empresa/07009",
      "_links": {
        "self": {
          "name": "VESTUARIO LABORAL MUSKIZ, S.L.",
          "href": "https://api.euskadi.eus/procurements/companies/07009"
        }
      }
    },
    {
      "name": "IGO EGUR ERAINKUNTZA, S.L.",
      "registrationNumber": "09708",
      "identificationNumber": "B44952406",
      "address": "Z/G KORTAZAR AUZOA",
      "location": {
        "postalCode": "48288",
        "municipality": "Ispaster",
        "county": "Bizkaia",
        "municipalityId": "049",
        "countyId": "48"
      },
      "economicActivities": [
        {
          "id": "1.461",
          "name": "Aserrado y preparación industrial de la madera",
          "_links": {
            "self": {
              "name": "Aserrado y preparación industrial de la madera",
              "href": "https://api.euskadi.eus/procurements/companies/economic-activities/1.461"
            }
          }
        },
        {
          "id": "1.501.1",
          "name": "Construcción completa, reparación y conservación de edificaciones",
          "_links": {
            "self": {
              "name": "Construcción completa, reparación y conservación de edificaciones",
              "href": "https://api.euskadi.eus/procurements/companies/economic-activities/1.501.1"
            }
          }
        },
        {
          "id": "1.501.2",
          "name": "Construcción completa, reparación y conservación obras civiles",
          "_links": {
            "self": {
              "name": "Construcción completa, reparación y conservación obras civiles",
              "href": "https://api.euskadi.eus/procurements/companies/economic-activities/1.501.2"
            }
          }
        }
      ],
      "certificateStartDate": "2025-06-10",
      "certificateEndDate": "2025-12-10",
      "object": "1.- CONSTRUCCIÓN COMPLETA, EDIFICACIÓN, REPARACIÓN Y CONSERVACIÓN DE OBRAS CIVILES, TANTO EN MADERA COMO CON TODO TIPO DE MATERIALES DE CONSTRUCCIÓN, ASÍ COMO DE TODA CLASE DE ESTRUCTURAS DE MADERAS Y DE TODO TIPO DE INMUEBLES. ALBAÑILERÍA Y PEQUEÑOS TRABAJOS DE LA CONSTRUCCIÓN. CONSOLIDACIÓN Y PREPARACIÓN DE TERRENOS, DEMOLICIONES, DERRIBOS, PERFORACIONES PARA ALUMBRAMIENTO DE AGUAS, CIMENTACIONES Y PAVIMENTACIONES, SE INCLUYEN LOS SISTEMAS DE AGOTAMIENTO Y DRAGADOS TANTO PARA LA REALIZACIÓN DE OBRAS CIVILES COMO PARA LA CONSTRUCCIÓN DE EDIFICIOS. PREPARACIÓN Y MONTAJE DE ESTRUCTURAS Y CUBIERTAS EN EDIFICACIONES Y OBRAS CIVILES. MONTAJE E INSTALACIÓN DE ESTRUCTURAS METÁLICAS PARA TRANSPORTES, PUERTOS, OBRAS HIDRÁULICAS, PUENTES, POSTES Y TORRES METÁLICAS, CARRILES, COMPUERTAS, GRÚAS. INSTALACIONES ELÉCTRICAS EN GENERAL. INSTALACIONES DE REDES TELEGRÁFICAS, TELEFONÍAS, TELEFONÍA SIN HILOS Y TELEVISIÓN. INSTALACIONES DE SISTEMAS DE BALIDACIÓN DE PUERTOS Y AEROPUERTOS. ACABADO DE OBRAS DE TODO TIPO EN EDIFICACIONES Y OBRAS CIVILES. SERVICIOS AUXILIARES DE LA CONSTRUCCIÓN Y DRAGADOS. EL MONTAJE Y MANTENIMIENTO, REPRESENTACIÓN, ALMACENAJE Y DISTRIBUCIÓN, DE TODO TIPO DE ESTRUCTURAS DE MADERA, CONSTRUCCIÓN DE MOBILIARIO Y ELEMENTOS DE DICHOS MATERIALES PARA OBRAS, EDIFICACIONES, HOGAR, EL COMERCIO Y LA INDUSTRIA; Y LA INDUSTRIA DE LA MADERA EN GENERAL, DE SUS DERIVADOS Y AFINES, INCLUIDOS LOS MATERIALES SINTÉTICOS Y LOS DE FIBRA, EN TODAS SUS MANIFESTACIONES. 2.- CARPINTERÍA DE TODO TIPO DE MATERIALES, CERRAMIENTOS EN OBRAS PÚBLICAS Y CIVILES. 3.- LA COMPRAVENTA, PROMOCIÓN, ARRENDAMIENTO, ADMINISTRACIÓN, GESTIÓN, TENENCIA Y EXPLOTACIÓN DE TODO TIPO DE FINCAS E INMUEBLES Y LA PRESTACIÓN DE TODO TIPO DE SERVICIOS INMOBILIARIOS, LA GESTIÓN Y MEDIACIÓN INMOBILIARIA, Y EN GENERAL, LA INTERMEDIACIÓN EN EL SECTOR INMOBILIARIO. 4.- COMERCIO AL POR MENOR Y AL POR MAYOR DE TODO TIPO DE ARTÍCULOS Y MATERIALES PARA EL EQUIPAMIENTO DEL HOGAR Y LA CONSTRUCCIÓN. 5.- LA ADQUISICIÓN, TENENCIA, DISFRUTE, ADMINISTRACIÓN Y ENAJENACIÓN DE TODA CLASE DE VALORES MOBILIARIOS Y PARTICIPACIONES SOCIALES O ACCIONES, POR CUENTA PROPIA, QUEDANDO EXCLUIDAS LAS ACTIVIDADES QUE LA LEGISLACIÓN ESPECIAL Y BÁSICAMENTE LA LEY DE MERCADO DE VALORES ATRIBUYE CON CARÁCTER EXCLUSIVO A OTRAS ENTIDADES. ",
      "mainEntityOfPage": "https://www.contratacion.euskadi.eus/webkpe00-kperoc/es/ac71aBusquedaRegistrosWar/empresa/09708",
      "_links": {
        "self": {
          "name": "IGO EGUR ERAINKUNTZA, S.L.",
          "href": "https://api.euskadi.eus/procurements/companies/09708"
        }
      }
    },
    {
      "name": "BARNETIK KOOP. ELK. TXIKIA",
      "registrationNumber": "09950",
      "identificationNumber": "F95780987",
      "address": "Avenida Xemein (48270) 12A",
      "location": {
        "postalCode": "48270",
        "municipality": "Markina-Xemein",
        "county": "Bizkaia",
        "municipalityId": "060",
        "countyId": "48"
      },
      "economicActivities": [
        {
          "id": "1.845",
          "name": "Explotación electrónica por cuenta de terceros",
          "_links": {
            "self": {
              "name": "Explotación electrónica por cuenta de terceros",
              "href": "https://api.euskadi.eus/procurements/companies/economic-activities/1.845"
            }
          }
        }
      ],
      "certificateStartDate": "2025-06-10",
      "certificateEndDate": "2025-12-09",
      "object": "LA PRESTACIÓN DE SERVICIOS INFORMÁTICOS, BASADOS EN UN MODELO EMPRESARIAL E INFORMÁTICO JUSTO Y EN LA DOTACIÓN DE LAS HERRAMIENTAS INFORMÁTICAS NECESARIAS PARA SU DESARROLLO.",
      "mainEntityOfPage": "https://www.contratacion.euskadi.eus/webkpe00-kperoc/es/ac71aBusquedaRegistrosWar/empresa/09950",
      "_links": {
        "self": {
          "name": "BARNETIK KOOP. ELK. TXIKIA",
          "href": "https://api.euskadi.eus/procurements/companies/09950"
        }
      }
    },
    {
      "name": "MONTAKETAK, S.L.",
      "registrationNumber": "07572",
      "identificationNumber": "B95325452",
      "address": "CL/ LAPATZA NAVE 10",
      "location": {
        "postalCode": "48970",
        "municipality": "Basauri",
        "county": "Bizkaia",
        "municipalityId": "015",
        "countyId": "48"
      },
      "economicActivities": [
        {
          "id": "1.504.8",
          "name": "Montajes metálicos e instalaciones industriales completas",
          "_links": {
            "self": {
              "name": "Montajes metálicos e instalaciones industriales completas",
              "href": "https://api.euskadi.eus/procurements/companies/economic-activities/1.504.8"
            }
          }
        }
      ],
      "certificateStartDate": "2025-06-10",
      "certificateEndDate": "2025-12-02",
      "object": "EL DISEÑO, CONSTRUCCIÓN, MONTAJE, INSTALACIÓN, MANTENIMIENTO, ALQUILER, Y LA COMPRA Y VENTA DE TODO TIPO DE CONSTRUCCIONES DE METAL Y MADERA PRINCIPALMENTE, CON EL OBJETO DE FAVORECER LA INSERCIÓN SOCIAL Y LABORAL DE COLECTIVOS EN SITUACIÓN O EN RIESGO DE EXCLUSIÓN, COMO PUEDEN SER JÓVENES, MUJERES, PERSONAS DESEMPLEADAS, PERSONAS CON DISCAPACIDAD, ETC.",
      "mainEntityOfPage": "https://www.contratacion.euskadi.eus/webkpe00-kperoc/es/ac71aBusquedaRegistrosWar/empresa/07572",
      "_links": {
        "self": {
          "name": "MONTAKETAK, S.L.",
          "href": "https://api.euskadi.eus/procurements/companies/07572"
        }
      }
    },
    {
      "name": "LANBAST, S.L.",
      "registrationNumber": "05259",
      "identificationNumber": "B48966303",
      "address": "Iturralde, 1 - Entreplanta",
      "location": {
        "postalCode": "01470",
        "municipality": "Amurrio",
        "county": "Araba/Álava",
        "municipalityId": "002",
        "countyId": "01"
      },
      "economicActivities": [
        {
          "id": "1.849.7",
          "name": "Servicios de gestión administrativa",
          "_links": {
            "self": {
              "name": "Servicios de gestión administrativa",
              "href": "https://api.euskadi.eus/procurements/companies/economic-activities/1.849.7"
            }
          }
        }
      ],
      "certificateStartDate": "2025-06-09",
      "certificateEndDate": "2025-11-28",
      "object": "LA PRESTACIÓN DE SERVICIOS Y APOYO TÉCNICO A TODO TIPO DE EMPESAS, BIEN SEAN PERSONALES, INDIVIDUALES, O JURÍDICAS, PÚBLICAS O PRIVADAS EN MATERIA LABORAL Y SOCIAL",
      "mainEntityOfPage": "https://www.contratacion.euskadi.eus/webkpe00-kperoc/es/ac71aBusquedaRegistrosWar/empresa/05259",
      "_links": {
        "self": {
          "name": "LANBAST, S.L.",
          "href": "https://api.euskadi.eus/procurements/companies/05259"
        }
      }
    },
    {
      "name": "SATIE ARQUITECTOS, S.L.P.",
      "registrationNumber": "05164",
      "identificationNumber": "B20991964",
      "address": "Camino Marrutxipi Beheko, 26",
      "location": {
        "postalCode": "20013",
        "municipality": "Donostia / San Sebastián",
        "county": "Gipuzkoa",
        "municipalityId": "069",
        "countyId": "20"
      },
      "economicActivities": [
        {
          "id": "1.843.2",
          "name": "Servicios técnicos de arquitectura y urbanismo",
          "_links": {
            "self": {
              "name": "Servicios técnicos de arquitectura y urbanismo",
              "href": "https://api.euskadi.eus/procurements/companies/economic-activities/1.843.2"
            }
          }
        }
      ],
      "certificateStartDate": "2025-06-09",
      "certificateEndDate": "2025-12-02",
      "object": "EL EJERCICIO EN COMÚN DE LA SIGUIENTE ACTIVIDAD, DE CARÁCTER PROFESIONAL: - EL EJERCICIO DE LA ARQUITECTURA. - EL EJERCICIO DE LA ARQUITECTURA TÉCNICA",
      "mainEntityOfPage": "https://www.contratacion.euskadi.eus/webkpe00-kperoc/es/ac71aBusquedaRegistrosWar/empresa/05164",
      "_links": {
        "self": {
          "name": "SATIE ARQUITECTOS, S.L.P.",
          "href": "https://api.euskadi.eus/procurements/companies/05164"
        }
      }
    },
    {
      "name": "ANGELA MARIA GIRALDO COCOMA",
      "registrationNumber": "10229",
      "identificationNumber": "X6900120M",
      "address": "Calle Zurbaran",
      "location": {
        "postalCode": "48903",
        "municipality": "Barakaldo",
        "county": "Bizkaia",
        "municipalityId": "013",
        "countyId": "48"
      },
      "economicActivities": [
        {
          "id": "1.673.2",
          "name": "Otros cafés y bares",
          "_links": {
            "self": {
              "name": "Otros cafés y bares",
              "href": "https://api.euskadi.eus/procurements/companies/economic-activities/1.673.2"
            }
          }
        }
      ],
      "certificateStartDate": "2025-06-09",
      "certificateEndDate": "2025-12-06",
      "object": "OTROS CAFÉS Y BARES.",
      "mainEntityOfPage": "https://www.contratacion.euskadi.eus/webkpe00-kperoc/es/ac71aBusquedaRegistrosWar/empresa/10229",
      "_links": {
        "self": {
          "name": "ANGELA MARIA GIRALDO COCOMA",
          "href": "https://api.euskadi.eus/procurements/companies/10229"
        }
      }
    },
    {
      "name": "IVAN ROGEL MAROTO",
      "registrationNumber": "10228",
      "identificationNumber": "72607133C",
      "address": "Santa klara kalea 32e",
      "location": {
        "postalCode": "20870",
        "municipality": "Elgoibar",
        "county": "Gipuzkoa",
        "municipalityId": "032",
        "countyId": "20"
      },
      "economicActivities": [
        {
          "id": "1.921.9",
          "name": "Otros servicios de saneamiento y similares n.c.o.p",
          "_links": {
            "self": {
              "name": "Otros servicios de saneamiento y similares n.c.o.p",
              "href": "https://api.euskadi.eus/procurements/companies/economic-activities/1.921.9"
            }
          }
        }
      ],
      "certificateStartDate": "2025-06-09",
      "certificateEndDate": "2025-12-05",
      "object": "OTROS SERVICIOS DE SANEAMIENTO Y SIMILARES N.C.O.P.",
      "mainEntityOfPage": "https://www.contratacion.euskadi.eus/webkpe00-kperoc/es/ac71aBusquedaRegistrosWar/empresa/10228",
      "_links": {
        "self": {
          "name": "IVAN ROGEL MAROTO",
          "href": "https://api.euskadi.eus/procurements/companies/10228"
        }
      }
    },
    {
      "name": "ANTTON ARANBURU OSORIO",
      "registrationNumber": "05751",
      "identificationNumber": "44685129Q",
      "address": "Av. Iruña Veleia, 87-3º B",
      "location": {
        "postalCode": "01015",
        "municipality": "Vitoria-Gasteiz",
        "county": "Araba/Álava",
        "municipalityId": "059",
        "countyId": "01"
      },
      "economicActivities": [
        {
          "id": "1.390",
          "name": "OTRAS ACTIVIDADES RELACIONADAS CON LA MUSICA",
          "_links": {
            "self": {
              "name": "OTRAS ACTIVIDADES RELACIONADAS CON LA MUSICA",
              "href": "https://api.euskadi.eus/procurements/companies/economic-activities/1.390"
            }
          }
        },
        {
          "id": "2.826",
          "name": "Personal docente de enseñanzas diversas",
          "_links": {
            "self": {
              "name": "Personal docente de enseñanzas diversas",
              "href": "https://api.euskadi.eus/procurements/companies/economic-activities/2.826"
            }
          }
        }
      ],
      "certificateStartDate": "2025-06-09",
      "certificateEndDate": "2025-12-06",
      "object": "PERSONAL DOCENTE DE ENSEÑANZAS DIVERSAS",
      "mainEntityOfPage": "https://www.contratacion.euskadi.eus/webkpe00-kperoc/es/ac71aBusquedaRegistrosWar/empresa/05751",
      "_links": {
        "self": {
          "name": "ANTTON ARANBURU OSORIO",
          "href": "https://api.euskadi.eus/procurements/companies/05751"
        }
      }
    }
  ]
}