{
  "totalItems": 9042,
  "totalPages": 905,
  "currentPage": 182,
  "itemsOfPage": 10,
  "items": [
    {
      "name": "CONSTRUCCIONES CASTELLANO, S.A.",
      "registrationNumber": "00078",
      "identificationNumber": "A48045843",
      "address": "Plaza Amézola, nº 2, Entreplanta-Izda. ",
      "location": {
        "postalCode": "48012",
        "municipality": "Bilbao",
        "county": "Bizkaia",
        "municipalityId": "020",
        "countyId": "48"
      },
      "economicActivities": [
        {
          "id": "1.501.1",
          "name": "Construcción completa, reparación y conservación de edificaciones",
          "_links": {
            "self": {
              "name": "Construcción completa, reparación y conservación de edificaciones",
              "href": "https://api.euskadi.eus/procurements/companies/economic-activities/1.501.1"
            }
          }
        },
        {
          "id": "1.501.2",
          "name": "Construcción completa, reparación y conservación obras civiles",
          "_links": {
            "self": {
              "name": "Construcción completa, reparación y conservación obras civiles",
              "href": "https://api.euskadi.eus/procurements/companies/economic-activities/1.501.2"
            }
          }
        }
      ],
      "certificateStartDate": "2025-10-31",
      "certificateEndDate": "2026-04-01",
      "object": "LA PROMOCIÓN Y CONSTRUCCIÓN POR CUENTA PROPIA O AJENA DE VIVIENDAS, EDIFICIOS Y OBRAS DE TODAS CLASES, MEDIANTE LA ADQUISICIÓN DE TERRENOS, SU PARCELACIÓN Y URBANIZACIÓN, USO, ARRENDAMIENTO Y VENTA DE AQUELLOS O DE LAS OBRAS TERMINADAS",
      "mainEntityOfPage": "https://www.contratacion.euskadi.eus/webkpe00-kperoc/es/ac71aBusquedaRegistrosWar/empresa/00078",
      "_links": {
        "self": {
          "name": "CONSTRUCCIONES CASTELLANO, S.A.",
          "href": "https://api.euskadi.eus/procurements/companies/00078"
        }
      }
    },
    {
      "name": "ESTUDIO AVOCADO S.L.L.",
      "registrationNumber": "08500",
      "identificationNumber": "B01579358",
      "address": "Las Escuelas 10 oficina 3",
      "location": {
        "postalCode": "01001",
        "municipality": "Vitoria-Gasteiz",
        "county": "Araba/Álava",
        "municipalityId": "059",
        "countyId": "01"
      },
      "economicActivities": [
        {
          "id": "1.844",
          "name": "Servicios de publicidad, relaciones públicas y similares",
          "_links": {
            "self": {
              "name": "Servicios de publicidad, relaciones públicas y similares",
              "href": "https://api.euskadi.eus/procurements/companies/economic-activities/1.844"
            }
          }
        }
      ],
      "certificateStartDate": "2025-10-31",
      "certificateEndDate": "2026-04-30",
      "object": "LA REALIZACIÓN DE ACTIVIDADES DE DISEÑO, COMUNICACIÓN Y PUBLICIDAD EN PROCESOS DE CREACIÓN, REINVENCIÓN O DESARROLLO DE MARCA, PRODUCTO O SERVICIO.",
      "mainEntityOfPage": "https://www.contratacion.euskadi.eus/webkpe00-kperoc/es/ac71aBusquedaRegistrosWar/empresa/08500",
      "_links": {
        "self": {
          "name": "ESTUDIO AVOCADO S.L.L.",
          "href": "https://api.euskadi.eus/procurements/companies/08500"
        }
      }
    },
    {
      "name": "BASEPACK, S.L.",
      "registrationNumber": "09123",
      "identificationNumber": "B48540413",
      "address": "calle makoaga, 10 sótano local 3 . Pol. Ind. Belako.",
      "location": {
        "postalCode": "48100",
        "municipality": "Mungia",
        "county": "Bizkaia",
        "municipalityId": "069",
        "countyId": "48"
      },
      "economicActivities": [
        {
          "id": "1.473.2",
          "name": "Fabricación de otros artículos de envase y embalaje en papel",
          "_links": {
            "self": {
              "name": "Fabricación de otros artículos de envase y embalaje en papel",
              "href": "https://api.euskadi.eus/procurements/companies/economic-activities/1.473.2"
            }
          }
        }
      ],
      "certificateStartDate": "2025-10-31",
      "certificateEndDate": "2026-04-23",
      "object": "LA FABRICACIÓN, TRANSFORMACIÓN Y COMERCIALIZACIÓN DE TODA CLASE DE IMPRESOS, TROQUELADOS Y PEGADOS - PLEGADOS EN CARTONCILLO, CARTÓN ONDULADO CONTRAENCOLADO Y TODA CLASE DE PAPELES, ASÍ COMO REPRESENTACIONES DE FIRMAS Y SUBCONTRATACIONES DEL RAMO, CON CUANTA ACTIVIDADES INDUSTRIALES COMERCIALES O DE SERVICIOS AFINES O COMPLEMENTARIAS SEAN NECESARIAS AL EFECTO, ASÍ COMO LA REPRESENTACIÓN COMERCIAL DE LOS MISMOS, OBJETO QUE PODRÁ CUMPLIRSE TANTO EN NEGOCIOS JURÍDICOS CON PERSONAS FÍSICAS, COMO EN RELACIONES CON PERSONAS JURÍDICAS Y TODO TIPO DE ENTIDADES PÚBLICAS O PRIVADAS. A TAL FIN PODRÁ CONCURRIR A PÚBLICA SUBASTA CON OTROS PARTICIPANTES CON EL FIN DE ABASTECER DE LOS ARTÍCULOS QUE FORMAN PARTE DE SU FINALIDAD PRINCIPAL, A TODOS AQUELLOS QUE LO SOLICITEN.",
      "mainEntityOfPage": "https://www.contratacion.euskadi.eus/webkpe00-kperoc/es/ac71aBusquedaRegistrosWar/empresa/09123",
      "_links": {
        "self": {
          "name": "BASEPACK, S.L.",
          "href": "https://api.euskadi.eus/procurements/companies/09123"
        }
      }
    },
    {
      "name": "BEOTIBAR RECYCLING, S.L.",
      "registrationNumber": "04266",
      "identificationNumber": "B48644231",
      "address": "Bº BOROA S/N",
      "location": {
        "postalCode": "48340",
        "municipality": "Amorebieta-Etxano",
        "county": "Bizkaia",
        "municipalityId": "003",
        "countyId": "48"
      },
      "economicActivities": [
        {
          "id": "1.622",
          "name": "Venta al por mayor de otros productos de recuperación",
          "_links": {
            "self": {
              "name": "Venta al por mayor de otros productos de recuperación",
              "href": "https://api.euskadi.eus/procurements/companies/economic-activities/1.622"
            }
          }
        },
        {
          "id": "1.722",
          "name": "Transporte de mercancías por carretera",
          "_links": {
            "self": {
              "name": "Transporte de mercancías por carretera",
              "href": "https://api.euskadi.eus/procurements/companies/economic-activities/1.722"
            }
          }
        }
      ],
      "certificateStartDate": "2025-10-31",
      "certificateEndDate": "2026-04-19",
      "classification": [
        {
          "id": "S",
          "name": "Servicios",
          "groups": [
            {
              "id": "R",
              "subgroups": [
                {
                  "id": "05",
                  "name": "Recogida y transporte de residuos",
                  "categories": [
                    {
                      "id": "2",
                      "name": "Desde 150.001 Hasta 300.000",
                      "_links": {
                        "self": {
                          "name": "Desde 150.001 Hasta 300.000",
                          "href": "https://api.euskadi.eus/procurements/companies/types/S/categories/2"
                        }
                      }
                    }
                  ],
                  "_links": {
                    "self": {
                      "name": "Recogida y transporte de residuos",
                      "href": "https://api.euskadi.eus/procurements/companies/types/S/groups/R/subgroups/05"
                    }
                  }
                }
              ],
              "_links": {
                "self": {
                  "href": "https://api.euskadi.eus/procurements/companies/types/S/groups/R"
                }
              }
            }
          ],
          "_links": {
            "self": {
              "name": "Servicios",
              "href": "https://api.euskadi.eus/procurements/companies/types/S"
            }
          }
        }
      ],
      "object": "-LA RECOGIDA, CLASIFICACIÓN, MANIPULACIÓN, RECICLADO, TRANSPORTE POR CARRETERA POR CUENTA AJENA Y COMERCIALIZACIÓN DE TODO TIPO DE RESIDUOS Y MATERIALES USADOS, ESPECIALMENTE DE PAPEL Y CARTONAJE. -EL ASESORAMIENTO E INGENIERÍA EN MATERIA MEDIOAMBIENTAL. -LA DESTRUCCIÓN CONFIDENCIAL CON SEGURIDAD DE TODO TIPO DE DOCUMENTACIÓN Y RESIDUOS",
      "mainEntityOfPage": "https://www.contratacion.euskadi.eus/webkpe00-kperoc/es/ac71aBusquedaRegistrosWar/empresa/04266",
      "_links": {
        "self": {
          "name": "BEOTIBAR RECYCLING, S.L.",
          "href": "https://api.euskadi.eus/procurements/companies/04266"
        }
      }
    },
    {
      "name": "GESTIÓN INTEGRAL DE CLÍNICAS, S.L.",
      "registrationNumber": "04872",
      "identificationNumber": "B83018168",
      "address": "SECTOR FORESTA 9 - LOCAL 12-13",
      "location": {
        "postalCode": "28760",
        "municipality": "Tres Cantos",
        "county": "Madrid",
        "municipalityId": "903",
        "countyId": "28"
      },
      "economicActivities": [
        {
          "id": "1.619.2",
          "name": "Venta al por mayor de aparatos e instrumentos médicos, ortopédicos, ópticos",
          "_links": {
            "self": {
              "name": "Venta al por mayor de aparatos e instrumentos médicos, ortopédicos, ópticos",
              "href": "https://api.euskadi.eus/procurements/companies/economic-activities/1.619.2"
            }
          }
        }
      ],
      "certificateStartDate": "2025-10-31",
      "certificateEndDate": "2026-04-30",
      "object": "LA FABRICACIÓN, VENTA, COMPRA, IMPORTACIÓN, EXPORTACIÓN, INSTALACIÓN Y MANTENIMIENTO DE MATERIAL ELECTRÓNICO, ELÉCTRICO, ELECTROMECÁNICO, MECÁNICO Y CUALQUIER OTRO PRODUCTO RELACIONADO DIRECTAMENTO CON LA MEDICINA; LA INVESTIGACIÓN, EL DESARROLLO Y EL COMERCIO DE PRODUCTOS RELACIONADOS DIRECTAMENTE CON LA MEDICINA, ASÍ COMO EL ASESORAMIENTO Y PROYECTO TÉCNICOS, Y LA REPRESENTACIÓN O DISTRIBUCIÓN DE FIRMAS INDUSTRIALES, COMERCIALES, TANTO NACIONALES COMO EXTRANJERAS RELACIONADAS DIRECTAMENTE CON LA MEDICINA",
      "mainEntityOfPage": "https://www.contratacion.euskadi.eus/webkpe00-kperoc/es/ac71aBusquedaRegistrosWar/empresa/04872",
      "_links": {
        "self": {
          "name": "GESTIÓN INTEGRAL DE CLÍNICAS, S.L.",
          "href": "https://api.euskadi.eus/procurements/companies/04872"
        }
      }
    },
    {
      "name": "CLYMAGRUP JCT SL",
      "registrationNumber": "06055",
      "identificationNumber": "B95472965",
      "address": "Pol. Atxaerandio, nave 18D",
      "location": {
        "postalCode": "48950",
        "municipality": "Erandio",
        "county": "Bizkaia",
        "municipalityId": "902",
        "countyId": "48"
      },
      "economicActivities": [
        {
          "id": "1.849.9",
          "name": "Otros servicios independientes n.c.o.p",
          "_links": {
            "self": {
              "name": "Otros servicios independientes n.c.o.p",
              "href": "https://api.euskadi.eus/procurements/companies/economic-activities/1.849.9"
            }
          }
        },
        {
          "id": "1.921.3",
          "name": "Exterminio de animales dañinos y desinfección",
          "_links": {
            "self": {
              "name": "Exterminio de animales dañinos y desinfección",
              "href": "https://api.euskadi.eus/procurements/companies/economic-activities/1.921.3"
            }
          }
        },
        {
          "id": "1.922",
          "name": "Servicios de limpieza",
          "_links": {
            "self": {
              "name": "Servicios de limpieza",
              "href": "https://api.euskadi.eus/procurements/companies/economic-activities/1.922"
            }
          }
        }
      ],
      "certificateStartDate": "2025-10-31",
      "certificateEndDate": "2026-04-28",
      "object": "LA PRESTACIÓN, POR CUENTA PROPIA O DE TERCERAS PERSONAS, DE LOS SERVICIOS DE LIMPIEZA, MANTENIMIENTO Y CONSERVACIÓN, PARA TODA CLASE DE INMUEBLES Y DE LOS ELEMENTOS COMUNES DE LOS MISMOS, TALES COMO FACHADAS, CUBIERTAS, PORTALES, ESCALERAS, POZOS, CRISTALES, CHIMENEAS, YA SEAN ESOS BIENES PRIVATIVOS O EN RÉGIMEN DE COMUNIDADES. TRATAMIENTOS PLAGUICIDAS DE DESINFECCIÓN, DESINSECTACIÓN Y DESRATIZACIÓN; LIMPIEZA DE SISTEMAS DE CLIMATIZACIÓN. SERVICIOS AUXILIARES. VENTA Y DISTRIBUCIÓN DE EQUIPOS HIGIENIZADORES Y PURIFICADORES DE AIRE. FORMACIÓN EN ASUNTOS RELACIONADOS CON LAS ACTIVIDADES ANTERIORMENTE CITADAS. TRATAMIENTOS DE LIMPIEZA Y DESINFECCIÓN PARA LA PREVENCIÓN DE LA LEGIONELLA. LA REALIZACIÓN DE ESTUDIOS AMBIENTALES. LOS SERVICIOS DE COLOCACIÓN Y SUMINISTRO DE PERSONAL. EL ALMACENAMIENTO, DISTRIBUCIÓN, COMPRA-VENTA Y ARRENDAMIENTO DE ÚTILES Y PRODUCTOS PARA LA LIMPIEZA. ADQUIRIR, ENAJENAR Y ARRENDAR BIENES MUEBLES EN GENERAL Y EN ESPECIAL LOS RELACIONADOS CON LA LIMPIEZA; INMUEBLES (CONCRETAMENTE LOS DETERMINADOS EN EL ARTÍCULO 334.1 DEL CÓDIGO CIVIL), ACCIONES, PARTICIPACIONES SOCIALES, OBLIGACIONES, BONOS DE CAJA, CERTIFICACIONES DE DEPÓSITO Y PAGARÉS DE TODA CLASE DE EMPRESAS O NEGOCIOS. LA CONSTRUCCIÓN Y REHABILITACIÓN DE VIVIENDAS, LOCALES COMERCIALES, PABELLONES INDUSTRIALES Y EDIFICIOS, ASÍ COMO LA REALIZACIÓN DE OBRAS Y REFORMAS. MONTAJE E INSTALACIÓN DE SISTEMAS DE CLIMATIZACIÓN Y REFRIGERACIÓN. MONTAJE Y DESMONTAJE DE MOTORES DE VENTILACIÓN. INSTALACIÓN DE TUBERIAS, INSTALACIÓN DE CUADROS ELÉCTRICOS. REPARACIÓN DE MOTORES DE VENTILACIÓN. MONTAJE DE CONDUCTOS DE EXTRACCIÓN DE HUMOS, SUMINISTRO DE MATERIALES Y EQUIPOS DE VENTILACIÓN, AIRE ACONDICIONADO, CONDUCTOS",
      "mainEntityOfPage": "https://www.contratacion.euskadi.eus/webkpe00-kperoc/es/ac71aBusquedaRegistrosWar/empresa/06055",
      "_links": {
        "self": {
          "name": "CLYMAGRUP JCT SL",
          "href": "https://api.euskadi.eus/procurements/companies/06055"
        }
      }
    },
    {
      "name": "PROYECTOS Y MONTAJES ELÉCTRICOS RIOJANOS, S.L.",
      "registrationNumber": "06974",
      "identificationNumber": "B26031518",
      "address": "PG.IND.I-9, C/.CARMEN MEDRANO Nº 1 PARCELA 8C",
      "location": {
        "postalCode": "26142",
        "municipality": "Villamediana de Iregua",
        "county": "Rioja, La",
        "municipalityId": "168",
        "countyId": "26"
      },
      "economicActivities": [
        {
          "id": "1.504.1",
          "name": "Instalaciones eléctricas en general",
          "_links": {
            "self": {
              "name": "Instalaciones eléctricas en general",
              "href": "https://api.euskadi.eus/procurements/companies/economic-activities/1.504.1"
            }
          }
        },
        {
          "id": "1.843.1",
          "name": "Servicios técnicos de ingeniería",
          "_links": {
            "self": {
              "name": "Servicios técnicos de ingeniería",
              "href": "https://api.euskadi.eus/procurements/companies/economic-activities/1.843.1"
            }
          }
        }
      ],
      "certificateStartDate": "2025-10-31",
      "certificateEndDate": "2026-04-30",
      "object": "1º). - LA PROMOCIÓN, DISEÑO, CONSTRUCCIÓN, MONTAJE, OPERACIÓN Y MANTENIMIENTO DE TODO TIPO DE PROYECTOS, OBRAS E INSTALACIONES ELÉCTRICAS DE BAJA O ALTA TENSIÓN, INSTALACIONES DE GENERACIÓN DE ENERGÍA RENOVABLE, TÉRMICAS Y DE CLIMATIZACIÓN, TELECOMUNICACIONES Y SUS ACCESORIOS EN SU MÁS AMPLIO SENTIDO, TANTO PARA PARTICULARES, INDUSTRIALES, COMO PARA ORGANISMOS PÚBLICOS. 2º). - SERVICIOS TÉCNICOS DE INGENIERÍA Y OTRAS ACTIVIDADES RELACIONADAS CON EL ASESORAMIENTO TÉCNICO. DISEÑAR. REDACTAR PROYECTOS E INFORMES TÉCNICOS, ELÉCTRICOS, ENERGÉTICOS, EL CONTROL Y DIRECCIÓN DE OBRAS, ASÍ COMO LA AUTOMATIZACIÓN Y PROGRAMACIÓN DE PROCESOS Y SISTEMAS INDUSTRIALES. Y TODO ELLO, SIN QUE LA SOCIEDAD TENGA LA CONSIDERACIÓN DE SOCIEDAD PROFESIONAL CONFORME A LA LEY 2/2007, DE 15 DE MARZO DE SOCIEDADES PROFESIONALES, POR SER UNA SOCIEDAD DE INTERMEDIACIÓN, QUE SIRVEN DE CANALIZACIÓN O COMUNICACIÓN ENTRE EL CLIENTE, CON QUIEN MANTIENEN LA TITULARIDAD DE LA RELACIÓN JURÍDICA, Y EL PROFESIONAL PERSONA FÍSICA QUE, VINCULADO A LA SOCIEDAD POR CUALQUIER TÍTULO (SOCIO, ASALARIADO), DESARROLLA EFECTIVAMENTE LA ACTIVIDAD PROFESIONAL, TRATÁNDOSE DE UNA SOCIEDAD CUYA FINALIDAD ES LA DE PROVEER Y GESTIONAR EN COMÚN LOS MEDIOS NECESARIOS PARA EL EJERCICIO INDIVIDUAL DE LA PROFESIÓN, EN EL SENTIDO NO DE PROPORCIONAR DIRECTAMENTE AL SOLICITANTE LA PRESTACIÓN QUE DESARROLLARÁ EL PROFESIONAL PERSONA FÍSICA, SINO DE SERVIR NO SÓLO DE INTERMEDIARIA PARA QUE SEA ÉSTE ÚLTIMO QUIEN LA REALICE, Y TAMBIÉN DE COORDINADORA DE LAS DIFERENTES PRESTACIONES ESPECÍFICAS SEGUIDAS. 3º). - DISEÑO, DESARROLLO Y COMERCIALIZACIÓN DE SISTEMAS DE ALIMENTACIÓN ELÉCTRICA CONECTADOS A RED, HIBRIDADOS O AUTÓNOMOS, SISTEMAS DE BOMBEO DE ELEVACIÓN DE AGUA, INCLUYENDO LA INSTALACIÓN, GESTIÓN ENERGÉTICA, OPERACIÓN Y MANTENIMIENTO DE ESTOS SISTEMAS. 4º). - COMPRAVENTA, FABRICACIÓN, IMPORTACIÓN, EXPORTACIÓN, COMERCIALIZACIÓN Y REALIZACIÓN DE CUALQUIER OTRO CONTRATO SOBRE TODA CLASE DE PRODUCTOS Y MATERIAL ELÉCTRICO, ELECTRÓNICO, NEUMÁTICO, MECÁNICO. 5º). - LA PRESTACIÓN DE SERVICIOS ENERGÉTICOS O DE MEJORA DE LA EFICIENCIA ENERGÉTICA EN LAS INSTALACIONES O LOCALES DEL USUARIO. 6º). - LA PRODUCCIÓN Y VENTA DE ENERGÍA ELÉCTRICA Y LA COMERCIALIZACIÓN DE TODO TIPO DE PRODUCTOS ENERGÉTICOS. 7º). - EL DISEÑO, CONSTRUCCIÓN, EXPLOTACIÓN, OPERACIÓN Y MANTENIMIENTO DE INFRAESTRUCTURAS DE PUNTOS DE RECARGA DE VEHÍCULO ELÉCTRICO. 8º). - LA PARTICIPACIÓN EN OTRAS EMPRESAS. LMPORTACIÓN-EXPORTACIÓN\n",
      "mainEntityOfPage": "https://www.contratacion.euskadi.eus/webkpe00-kperoc/es/ac71aBusquedaRegistrosWar/empresa/06974",
      "_links": {
        "self": {
          "name": "PROYECTOS Y MONTAJES ELÉCTRICOS RIOJANOS, S.L.",
          "href": "https://api.euskadi.eus/procurements/companies/06974"
        }
      }
    },
    {
      "name": "PEREZ-SASIA FALCES, S.L.",
      "registrationNumber": "09181",
      "identificationNumber": "B95264495",
      "address": "Calle Henao nº4 3ºA",
      "location": {
        "postalCode": "48009",
        "municipality": "Bilbao",
        "county": "Bizkaia",
        "municipalityId": "020",
        "countyId": "48"
      },
      "economicActivities": [
        {
          "id": "1.841",
          "name": "Servicios jurídicos",
          "_links": {
            "self": {
              "name": "Servicios jurídicos",
              "href": "https://api.euskadi.eus/procurements/companies/economic-activities/1.841"
            }
          }
        }
      ],
      "certificateStartDate": "2025-10-31",
      "certificateEndDate": "2026-04-24",
      "object": "EL ASESORAMIENTO Y CONSULTORÍA, TANTO A PERSONAS FÍSICAS COMO JURÍDICAS, PÚBLICAS O PRIVADAS, SOBRE TEMAS FISCALES, FINANCIEROS, DE GESTIÓN DE EMPRESAS, LABORALES, ADMINISTRATIVOS, URBANÍSTICOS, SOCIETARIOS Y JURÍDICOS, EN GENERAL, ASÍ COMO EL ESTUDIO Y TRAMITACIÓN DE LOS EXPEDIENTES QUE SEAN NECESARIOS PARA ELLO.",
      "mainEntityOfPage": "https://www.contratacion.euskadi.eus/webkpe00-kperoc/es/ac71aBusquedaRegistrosWar/empresa/09181",
      "_links": {
        "self": {
          "name": "PEREZ-SASIA FALCES, S.L.",
          "href": "https://api.euskadi.eus/procurements/companies/09181"
        }
      }
    },
    {
      "name": "SIEMENS HEALTHCARE, S.L.",
      "registrationNumber": "03783",
      "identificationNumber": "B60805769",
      "address": "Calle Mahonia, nº2 - Planta 4 - Edificio Pórtico - CP 28043 ",
      "location": {
        "postalCode": "28906",
        "municipality": "Madrid",
        "county": "Madrid",
        "municipalityId": "079",
        "countyId": "28"
      },
      "economicActivities": [
        {
          "id": "1.614.1",
          "name": "Venta al por mayor de productos farmacéuticos y medicamentos",
          "_links": {
            "self": {
              "name": "Venta al por mayor de productos farmacéuticos y medicamentos",
              "href": "https://api.euskadi.eus/procurements/companies/economic-activities/1.614.1"
            }
          }
        },
        {
          "id": "1.619.2",
          "name": "Venta al por mayor de aparatos e instrumentos médicos, ortopédicos, ópticos",
          "_links": {
            "self": {
              "name": "Venta al por mayor de aparatos e instrumentos médicos, ortopédicos, ópticos",
              "href": "https://api.euskadi.eus/procurements/companies/economic-activities/1.619.2"
            }
          }
        },
        {
          "id": "1.843.1",
          "name": "Servicios técnicos de ingeniería",
          "_links": {
            "self": {
              "name": "Servicios técnicos de ingeniería",
              "href": "https://api.euskadi.eus/procurements/companies/economic-activities/1.843.1"
            }
          }
        }
      ],
      "certificateStartDate": "2025-10-31",
      "certificateEndDate": "2026-04-28",
      "object": "LA INVESTIGACIÓN, FABRICACIÓN, DESARROLLO, COMPRAVENTA, IMPORTACIÓN, EXPORTACIÓN Y DISTRIBUCIÓN DE EQUIPOS, APARATOS E INSTRUMENTAL DE ELECTROMEDICINA, MÉDICO-QUIRÚRGICO, RADIODIAGNÓSTICO Y DIAGNÓSTICO POR IMAGEN, RESONANCIA MAGNÉTICA, RADIOTERAPIA, RADIOLOGÍA DÍGITAL, RADIOLÓGICO DE PRECISIÓN Y ÓPTICO; ASÍ COMO DE REACTIVOS, INSUMOS, CATALIZADORES Y CUALQUIERA OTRA CLASE DE PRODUCTOS Y ESPECIALIDADES PARA DIGANÓSTICO, TERAPIA Y ANÁLISIS CLÍNICO EN CUALQUIERA DE SUS MODALIDADES O APLICACIONES, ASÍ COMO PARTES Y PIEZAS DE LOS MISMOS INCLUYENDO LA PRESTACIÓN DE SERVICOS DE INSTALACIÓN, MANTENIMIENTO, REPARACIÓN Y FORMACIÓN EN EL USO DE LOS CITADOS EQUIPOS, APARTATOS E INSTRUMENTAL. EL COMERCIO, INSTALACIÓN, MANTENIMIENTO, REPARACIÓN Y FORMACIÓN EN EL USO DE EQUIPOS E INSTALACIONES DE ELECTROMEDICINA, INSTRUMENTACIÓN CIENTÍFICA, APARATOS, UTILLAJE, MATERIAL FUNGIBLE, REACTIVOS Y MOBILIARIO DE USO DE LA INDUSTRIA; CON DESTINO A HOSPITALES; CLÍNICAS; LABORATORIOS DE INVESTIGACIÓN, DE ANÁLISIS, SÍNTESIS Y CONTROL DE CALIDAD, FÍSICOS, CLÍNICOS, FARMACÉUTICOS E INDUSTRIALES; Y, EN GENERAL, CUALQUIER INSTALACIÓN O INDUSTRIA RELACIONADA. LA EXPLOTACIÓN, DESARROLLIO, INTEGRACIÓN, IMPLANTACIÓN, CONTROL Y EL COMERCIO DE SISTEMAS Y EQUIPOS INFORMÁTICIOS (HARDWARE Y SOFTWARE), E INFRAESTRUCTURAS TELEMÁTICAS Y DE COMUNICACIONES, ASÍ COMO LA PRESTACIÓN DE SERVICOS DE DICHA NATURALEZA PARA USO CLÍNICO, PARA GESTIÓN HOSPITALARIA Y DE LABORATORIO. LA REALIZACIÓN DE OBRAS DE CONSTRUCCIÓN, INSTALACIONES ELÉCTIRCAS, ELECTRÓNICAS Y MECÁNICAS (INCLUYENDO INSTALACIONES DE VENTILACIÓN, CALEFACCIÓN Y CLIMATIZACIÓN) QUE SEAN NECESARIAS PARA LA INSTALACIÓN Y MANTENIMIENTO DE APARATOS, MAQUINARIA Y EQUIPOS INDICADOS EN LOS APARTADOS PRECEDENTES. LA PRESTACIÓN DE SERVICIOS DE MANTNIMIENTO Y REPARACIÓN DE EQUIPOS E INSTALACIONES INFORMÁTICOS Y DE TELECOMUNICACIONES RELACIONADOS CON LOS APARATOS, MAQUINARIA Y EQUIPOS INDICADOS EN LOS APARTADOS PRECEDENTES. LA PRESTACIÓN DE SERVICOS DE DESARROLLO, DE MANTENIMIENTO Y DE ACTUALIZACIÓN DE PROGRAMAS DE ORDENADOR Y SOFTWARE Y CUALQUIER TIPO DE APLICACIONES INFORMÁTICAS Y DE COMUNICACIONES RELACIONADAS CON LOS APARATOS, MAQINARIA Y EQUIPOS INDICADOS EN LOS APARTADOS PRECEDENTES",
      "mainEntityOfPage": "https://www.contratacion.euskadi.eus/webkpe00-kperoc/es/ac71aBusquedaRegistrosWar/empresa/03783",
      "_links": {
        "self": {
          "name": "SIEMENS HEALTHCARE, S.L.",
          "href": "https://api.euskadi.eus/procurements/companies/03783"
        }
      }
    },
    {
      "name": "ILUNION LAVANDERIA EUSKALDUNA, S.L.",
      "registrationNumber": "02104",
      "identificationNumber": "B48799852",
      "address": "PABELLON 16-F POLIGONO INDUSTRIAL POZUETA",
      "location": {
        "postalCode": "48330",
        "municipality": "Lemoa",
        "county": "Bizkaia",
        "municipalityId": "055",
        "countyId": "48"
      },
      "economicActivities": [
        {
          "id": "1.971.1",
          "name": "Tinte, limpieza en seco, lavado y planchado de ropas",
          "_links": {
            "self": {
              "name": "Tinte, limpieza en seco, lavado y planchado de ropas",
              "href": "https://api.euskadi.eus/procurements/companies/economic-activities/1.971.1"
            }
          }
        }
      ],
      "certificateStartDate": "2025-10-31",
      "certificateEndDate": "2026-04-15",
      "object": "LA SOCIEDAD TIENE UNA VOCACIÓN EMINENTEMENTE SOCIAL QUE DEFINE SU OBJETO COMO LA CONSECUCIÓN DE LA PLENA INCLUSIÓN SOCIAL Y LABORAL DE LAS PERSONAS CON DISCAPACIDAD A TRAVÉS DE LA CREACION DE EMPLEO ESTABLE Y DE CALIDAD PARA ESTE COLECTIVO DE PERSONAS, QUE INTERMEDIARÁ EN EL TRÁFICO MERCANTIL ACOMETIENDO LAS SIGUIENTES ACTIVIDADES: EL DESARROLLO DE LOS SERVICIOS DE LAVANDERÍA E HIGIENIZACIÓN INDUSTRIAL DE TODO TIPO DE ROPA Y LENCERÍA. LA ADQUISICIÓN TENENCIA, SUMINISTRO Y ARRENDAMIENTO DE MATERIAL TEXTIL. LA PRESTACIÓN DE SERVICIOS DE LIMPIEZA E HIGIENIZACIÓN EN ESTABLECIMIENTOS HOTELEROS, SANITARIOS, RESIDENCIALES Y ASISTENCIALES. LA GESTIÓN Y EXPLOTACIÓN DE UNA CENTRAL DE COMPRAS PARA LA ADQUISICIÓN DE LAS MERCADERÍAS NECESARIAS PARA EL DESARROLLO DE LA ACTIVIDAD. LA COMPRA, PROMOCIÓN, ALMACENAMIENTO, EMPAQUETADO, DISTRIBUCIÓN Y SUMINISTRO DE PRODUCTOS DE ACOGIDA (AMENITIES), ASÍ COMO OTROS PRODUCTOS DE ATENCIÓN AL CLIENTE. LA ADQUISICIÓN, TENENCIA, SUMINISTRO Y ARRENDAMIENTO DE TODO TIPO DE PRODUCTOS PARA EL CONFORT Y EL DESCANSO, ASÍ COMO CUALQUIER OTRO ARTÍCULO DE EQUIPAMIENTO PARA EL SECTOR DE LA HOSTELERIA. LA PRESTACIÓN DE LOS SERVICIOS DE CONSULTORÍA Y ASESORAMIENTO EN LA EJECUCIÓN DE PROYECTOS DE DISEÑO DE INTERIORES. LA PRESTACIÓN DE LOS SERVICIOS DE CONSULTORÍA Y ASESORAMIENTO EN LA EJECUCIÓN DE PROYECTOS EMPRESARIALES RELACIONADOS CON LA IMPLANTACIÓN DE INSTALACIONES INDUSTRIALES DE LAVANDERÍA Y LA PRESTACIÓN DE SERVICIOS AUXILIARES DE HOSTELERÍA EN RÉGIMEN DE ENCLAVE LABORAL. LA GESTIÓN Y EXPLOTACIÓN DIRECTA DE ESTABLECIMIENTOS DE TINTORERÍA Y LAVANDERÍA AUTOSERVICIO ASÍ COMO LA CESIÓN DE SU GESTIÓN Y EXPLOTACIÓN A TERCEROS EN RÉGIMEN DE FRANQUICIA. LA GESTIÓN Y EXPLOTACIÓN DIRECTA DE ESTABLECIMIENTOS DE LAVADO DE VEHÍCULOS ASÍ COMO LA CESIÓN DE SU GESTIÓN Y EXPLOTACIÓN A TERCEROS EN RÉGIMEN DE FRANQUICIA. LA PROMOCIÓN, DIRECCIÓN, GESTIÓN Y ADMINISTRACIÓN DE CEES U OTRAS ENTIDADES QUE PUDIERAN CREARSE EN EL FUTURO COMO FORMA IDONEA DE PROMOCIÓN LABORAL DE LOS TRABAJADORES CON DISCAPACIDAD QUE TENGAN COMO NEGOCIO PRINCIPAL EL DESARROLLO DE LOS SERVICIOS DE LAVANDERÍA INDUSTRIAL DE TODO TIPO DE ROPA Y LENCERÍA ASÍ COMO LA ADQUISICIÓN, TENENCIA SUMINISTRO Y ARRENDAMIENTO DE LA MISMA",
      "mainEntityOfPage": "https://www.contratacion.euskadi.eus/webkpe00-kperoc/es/ac71aBusquedaRegistrosWar/empresa/02104",
      "_links": {
        "self": {
          "name": "ILUNION LAVANDERIA EUSKALDUNA, S.L.",
          "href": "https://api.euskadi.eus/procurements/companies/02104"
        }
      }
    }
  ]
}