{
  "totalItems": 9042,
  "totalPages": 905,
  "currentPage": 870,
  "itemsOfPage": 10,
  "items": [
    {
      "name": "Probiak proyectos y obras, S.L.",
      "registrationNumber": "04646",
      "identificationNumber": "B95447926",
      "address": "Larrakotorre, 2-Bis Ent. 2 Ofi. 7",
      "location": {
        "postalCode": "48015",
        "municipality": "Bilbao",
        "county": "Bizkaia",
        "municipalityId": "020",
        "countyId": "48"
      },
      "object": "- La albañilería y trabajos de construcción, demoliciones y derribos, consolidación y preparación para la construcción de edificaciones, incluidos sistemas de agotamiento y dragados, consolidación y preparación de terrenos para la realización de obras civiles, así como de sistemas de agotamiento y dragos, cimentaciones y pavimentaciones para la construcción de edificaciones, perforaciones para alumbramiento de aguas, preparación y montaje de estructuras y cubiertas, postes y torres metálicas, carriles, raíles ferroviarios, compuertas y grúas, preparación y montaje de estructuras y cubiertas y cubriciones, y montaje, instalación de estructuras metálicas para transportes, puestos, obras hidráulicas, puentes, postes, torres metálicas, y carriles, elaboración de obra en piedra natural o artificial o con materiales para la construcción, colocación de los trabajos realizados en sus talleres en las distintas obras.\r\n- La albañilería y pequeños trabajos de construcción en general.\r\n- Construcción inmobiliaria, tanto en obras y edificaciones publicas como privadas.\r\n- Todo tipo de trabajos relacionados con la herrería.\r\n- Instalaciones eléctricas en toda clase de edificios, instalaciones de redes telegráficas, telefónicas, telefonía sin hilos y televisión, instalaciones de sistemas de validación de puertos y aeropuertos, en edificios y construcciones de cualquier clase.\r\n- Instalación de fontanería, instalaciones de frio, calor y acondicionamiento de aire.\r\n- Trabajos de pintura de cualquier clase y tipo y revestimientos en papel, tejidos o plásticos y terminación y decoración de edificios y locales.\r\n- Trabajos de carpintería.\r\n- Coordinación de todo tipo de gremios relacionados con lo anteriormente citado  y compraventa de todo tipo de artículos relacionados con las actividades anteriormente descritas.\r\n",
      "mainEntityOfPage": "https://www.contratacion.euskadi.eus/webkpe00-kperoc/es/ac71aBusquedaRegistrosWar/empresa/04646",
      "_links": {
        "self": {
          "name": "Probiak proyectos y obras, S.L.",
          "href": "https://api.euskadi.eus/procurements/companies/04646"
        }
      }
    },
    {
      "name": "TOUR LOGÍSTICA Y DISTRIBUCIÓN, S.L.",
      "registrationNumber": "04647",
      "identificationNumber": "B95312567",
      "address": "GUDARI 47",
      "location": {
        "postalCode": "48340",
        "municipality": "Amorebieta-Etxano",
        "county": "Bizkaia",
        "municipalityId": "003",
        "countyId": "48"
      },
      "object": ".",
      "mainEntityOfPage": "https://www.contratacion.euskadi.eus/webkpe00-kperoc/es/ac71aBusquedaRegistrosWar/empresa/04647",
      "_links": {
        "self": {
          "name": "TOUR LOGÍSTICA Y DISTRIBUCIÓN, S.L.",
          "href": "https://api.euskadi.eus/procurements/companies/04647"
        }
      }
    },
    {
      "name": "ALFREDO CABALLERO SUCUNZA",
      "registrationNumber": "04652",
      "identificationNumber": "33432557X",
      "address": "ALDABEA, 20",
      "location": {
        "postalCode": "31190",
        "municipality": "Cizur",
        "county": "Navarra",
        "municipalityId": "076",
        "countyId": "31"
      },
      "mainEntityOfPage": "https://www.contratacion.euskadi.eus/webkpe00-kperoc/es/ac71aBusquedaRegistrosWar/empresa/04652",
      "_links": {
        "self": {
          "name": "ALFREDO CABALLERO SUCUNZA",
          "href": "https://api.euskadi.eus/procurements/companies/04652"
        }
      }
    },
    {
      "name": "BEROGAS LANGILE ELKARTEA, S.A.L.",
      "registrationNumber": "04657",
      "identificationNumber": "A20071379",
      "address": "PASEO SAN FRANCISCO, 10-BAJO",
      "location": {
        "postalCode": "20400",
        "municipality": "Tolosa",
        "county": "Gipuzkoa",
        "municipalityId": "071",
        "countyId": "20"
      },
      "object": ".",
      "mainEntityOfPage": "https://www.contratacion.euskadi.eus/webkpe00-kperoc/es/ac71aBusquedaRegistrosWar/empresa/04657",
      "_links": {
        "self": {
          "name": "BEROGAS LANGILE ELKARTEA, S.A.L.",
          "href": "https://api.euskadi.eus/procurements/companies/04657"
        }
      }
    },
    {
      "name": "FYA 2000, S.L.",
      "registrationNumber": "04681",
      "identificationNumber": "B48553804",
      "address": "POL. IND. EL CAMPILLO PAB. 21",
      "location": {
        "postalCode": "48500",
        "municipality": "Abanto y Ciérvana-Abanto Zierbena",
        "county": "Bizkaia",
        "municipalityId": "002",
        "countyId": "48"
      },
      "object": ".",
      "mainEntityOfPage": "https://www.contratacion.euskadi.eus/webkpe00-kperoc/es/ac71aBusquedaRegistrosWar/empresa/04681",
      "_links": {
        "self": {
          "name": "FYA 2000, S.L.",
          "href": "https://api.euskadi.eus/procurements/companies/04681"
        }
      }
    },
    {
      "name": "BILBAO AMONDARAIN, IÑAKI",
      "registrationNumber": "04698",
      "identificationNumber": "14241653F",
      "address": "ALDAI AZPI, 39 - BAJO",
      "location": {
        "postalCode": "48630",
        "municipality": "Gorliz",
        "county": "Bizkaia",
        "municipalityId": "043",
        "countyId": "48"
      },
      "object": ".",
      "mainEntityOfPage": "https://www.contratacion.euskadi.eus/webkpe00-kperoc/es/ac71aBusquedaRegistrosWar/empresa/04698",
      "_links": {
        "self": {
          "name": "BILBAO AMONDARAIN, IÑAKI",
          "href": "https://api.euskadi.eus/procurements/companies/04698"
        }
      }
    },
    {
      "name": "BILBAO SIGLO XXI EMPRESA DE SERVICIOS TURISTICOS SOCIEDAD LIMITADA",
      "registrationNumber": "04713",
      "identificationNumber": "B95043253",
      "address": "MARQUÉS DEL PUERTO, 9 - 2º",
      "location": {
        "postalCode": "48008",
        "municipality": "Bilbao",
        "county": "Bizkaia",
        "municipalityId": "020",
        "countyId": "48"
      },
      "classification": [
        {
          "id": "S",
          "name": "Servicios",
          "groups": [
            {
              "id": "L",
              "subgroups": [
                {
                  "id": "06",
                  "name": "Servicios de portería, control de accesos e información al público",
                  "categories": [
                    {
                      "id": "4",
                      "name": "Desde 600.001 Hasta 1.1200.000",
                      "_links": {
                        "self": {
                          "name": "Desde 600.001 Hasta 1.1200.000",
                          "href": "https://api.euskadi.eus/procurements/companies/types/S/categories/4"
                        }
                      }
                    }
                  ],
                  "_links": {
                    "self": {
                      "name": "Servicios de portería, control de accesos e información al público",
                      "href": "https://api.euskadi.eus/procurements/companies/types/S/groups/L/subgroups/06"
                    }
                  }
                }
              ],
              "_links": {
                "self": {
                  "href": "https://api.euskadi.eus/procurements/companies/types/S/groups/L"
                }
              }
            }
          ],
          "_links": {
            "self": {
              "name": "Servicios",
              "href": "https://api.euskadi.eus/procurements/companies/types/S"
            }
          }
        }
      ],
      "object": "... La prestación de toda clase de servicios de asesoramiento general, estudios de mercado y marketing, servicios de gestión y coordinación en calidad de agencia turística y/o de relaciones públicas de carácter nacional e internacional; organización y celebración de todo tipo de eventos y congresos, culturales, sociales, políticos, científicos, empresariales y deportivos, incluidos ferias, seminarios, exposiciones, salones monográficos, conferencias y acontecimientos públicos o privados con la única excepción de aquellas actividades para cuyo ejercicio la Ley exija requisitos especiales que no queden cumplidos por la sociedad.\nEl asesoramiento de empresas y particulares, el estudio, investigación, promoción y prestación de toda clase de servicios de asistencia y gestión técnica, administrativa, comercial, contable y financiera, efectuado todo ello por personas con titulación suficiente.\nLa prestación de toda clase de servicios administrativos y, en particular, servicios auxiliares para trabajos administrativos de archivo y similares, servicios de gestión de cobros, encuestas, toma de datos y servicios análogos, lectura de contadores, organización y promoción de congresos, ferias y exposiciones, y servicios de portería , control de accesos e información al público.\nLa prestación de servicios de publicidad, y servicios de traductores e intérpretes.\nLa prestación de servicios generales y, en particular, de agencias de viajes y otros servicios generales no determinados...\n",
      "mainEntityOfPage": "https://www.contratacion.euskadi.eus/webkpe00-kperoc/es/ac71aBusquedaRegistrosWar/empresa/04713",
      "_links": {
        "self": {
          "name": "BILBAO SIGLO XXI EMPRESA DE SERVICIOS TURISTICOS SOCIEDAD LIMITADA",
          "href": "https://api.euskadi.eus/procurements/companies/04713"
        }
      }
    },
    {
      "name": "AIARA INFORMATICA Y COMUNICACIONES, S.COOP.",
      "registrationNumber": "04714",
      "identificationNumber": "F01355841",
      "address": "BARRIO GARDEA S/N EDIFICIO CERÁMICA PLANTA 2. DPTO.",
      "location": {
        "postalCode": "01400",
        "municipality": "Laudio/Llodio",
        "county": "Araba/Álava",
        "municipalityId": "036",
        "countyId": "01"
      },
      "object": ".",
      "mainEntityOfPage": "https://www.contratacion.euskadi.eus/webkpe00-kperoc/es/ac71aBusquedaRegistrosWar/empresa/04714",
      "_links": {
        "self": {
          "name": "AIARA INFORMATICA Y COMUNICACIONES, S.COOP.",
          "href": "https://api.euskadi.eus/procurements/companies/04714"
        }
      }
    },
    {
      "name": "INTEGRALES BALUGASA, S.L.",
      "registrationNumber": "04716",
      "identificationNumber": "B95451993",
      "address": "CTRA. ERREKALDE-LARRASKITU, 45 - BAJO IZ",
      "location": {
        "postalCode": "48002",
        "municipality": "Bilbao",
        "county": "Bizkaia",
        "municipalityId": "020",
        "countyId": "48"
      },
      "classification": [
        {
          "id": "O",
          "name": "Obras",
          "groups": [
            {
              "id": "C",
              "name": "EDIFICACIONES",
              "subgroups": [
                {
                  "id": "01",
                  "name": "DEMOLICIONES",
                  "categories": [
                    {
                      "id": "1",
                      "name": "Desde 0 Hasta 150.000",
                      "_links": {
                        "self": {
                          "name": "Desde 0 Hasta 150.000",
                          "href": "https://api.euskadi.eus/procurements/companies/types/O/categories/1"
                        }
                      }
                    }
                  ],
                  "_links": {
                    "self": {
                      "name": "DEMOLICIONES",
                      "href": "https://api.euskadi.eus/procurements/companies/types/O/groups/C/subgroups/01"
                    }
                  }
                },
                {
                  "id": "02",
                  "name": "ESTRUCTURAS DE FABRICA U HORMIGÓN",
                  "categories": [
                    {
                      "id": "1",
                      "name": "Desde 0 Hasta 150.000",
                      "_links": {
                        "self": {
                          "name": "Desde 0 Hasta 150.000",
                          "href": "https://api.euskadi.eus/procurements/companies/types/O/categories/1"
                        }
                      }
                    }
                  ],
                  "_links": {
                    "self": {
                      "name": "ESTRUCTURAS DE FABRICA U HORMIGÓN",
                      "href": "https://api.euskadi.eus/procurements/companies/types/O/groups/C/subgroups/02"
                    }
                  }
                },
                {
                  "id": "03",
                  "name": "ESTRUCTURAS METALICAS",
                  "categories": [
                    {
                      "id": "1",
                      "name": "Desde 0 Hasta 150.000",
                      "_links": {
                        "self": {
                          "name": "Desde 0 Hasta 150.000",
                          "href": "https://api.euskadi.eus/procurements/companies/types/O/categories/1"
                        }
                      }
                    }
                  ],
                  "_links": {
                    "self": {
                      "name": "ESTRUCTURAS METALICAS",
                      "href": "https://api.euskadi.eus/procurements/companies/types/O/groups/C/subgroups/03"
                    }
                  }
                },
                {
                  "id": "04",
                  "name": "ALBAÑILERIA, REVOCOS Y REVESTIDOS",
                  "categories": [
                    {
                      "id": "1",
                      "name": "Desde 0 Hasta 150.000",
                      "_links": {
                        "self": {
                          "name": "Desde 0 Hasta 150.000",
                          "href": "https://api.euskadi.eus/procurements/companies/types/O/categories/1"
                        }
                      }
                    }
                  ],
                  "_links": {
                    "self": {
                      "name": "ALBAÑILERIA, REVOCOS Y REVESTIDOS",
                      "href": "https://api.euskadi.eus/procurements/companies/types/O/groups/C/subgroups/04"
                    }
                  }
                },
                {
                  "id": "09",
                  "name": "CARPINTERIA METALICA",
                  "categories": [
                    {
                      "id": "1",
                      "name": "Desde 0 Hasta 150.000",
                      "_links": {
                        "self": {
                          "name": "Desde 0 Hasta 150.000",
                          "href": "https://api.euskadi.eus/procurements/companies/types/O/categories/1"
                        }
                      }
                    }
                  ],
                  "_links": {
                    "self": {
                      "name": "CARPINTERIA METALICA",
                      "href": "https://api.euskadi.eus/procurements/companies/types/O/groups/C/subgroups/09"
                    }
                  }
                }
              ],
              "_links": {
                "self": {
                  "name": "EDIFICACIONES",
                  "href": "https://api.euskadi.eus/procurements/companies/types/O/groups/C"
                }
              }
            },
            {
              "id": "G",
              "name": "VIALES Y PISTAS",
              "subgroups": [
                {
                  "id": "06",
                  "name": "Obras viales sin cualificación específica",
                  "categories": [
                    {
                      "id": "1",
                      "name": "Desde 0 Hasta 150.000",
                      "_links": {
                        "self": {
                          "name": "Desde 0 Hasta 150.000",
                          "href": "https://api.euskadi.eus/procurements/companies/types/O/categories/1"
                        }
                      }
                    }
                  ],
                  "_links": {
                    "self": {
                      "name": "Obras viales sin cualificación específica",
                      "href": "https://api.euskadi.eus/procurements/companies/types/O/groups/G/subgroups/06"
                    }
                  }
                }
              ],
              "_links": {
                "self": {
                  "name": "VIALES Y PISTAS",
                  "href": "https://api.euskadi.eus/procurements/companies/types/O/groups/G"
                }
              }
            },
            {
              "id": "J",
              "name": "INSTALACIONES MECANICAS",
              "subgroups": [
                {
                  "id": "04",
                  "name": "De fontanería y sanitarias",
                  "categories": [
                    {
                      "id": "1",
                      "name": "Desde 0 Hasta 150.000",
                      "_links": {
                        "self": {
                          "name": "Desde 0 Hasta 150.000",
                          "href": "https://api.euskadi.eus/procurements/companies/types/O/categories/1"
                        }
                      }
                    }
                  ],
                  "_links": {
                    "self": {
                      "name": "De fontanería y sanitarias",
                      "href": "https://api.euskadi.eus/procurements/companies/types/O/groups/J/subgroups/04"
                    }
                  }
                }
              ],
              "_links": {
                "self": {
                  "name": "INSTALACIONES MECANICAS",
                  "href": "https://api.euskadi.eus/procurements/companies/types/O/groups/J"
                }
              }
            },
            {
              "id": "K",
              "name": "ESPECIALES",
              "subgroups": [
                {
                  "id": "04",
                  "name": "Pinturas y metalizaciones",
                  "categories": [
                    {
                      "id": "1",
                      "name": "Desde 0 Hasta 150.000",
                      "_links": {
                        "self": {
                          "name": "Desde 0 Hasta 150.000",
                          "href": "https://api.euskadi.eus/procurements/companies/types/O/categories/1"
                        }
                      }
                    }
                  ],
                  "_links": {
                    "self": {
                      "name": "Pinturas y metalizaciones",
                      "href": "https://api.euskadi.eus/procurements/companies/types/O/groups/K/subgroups/04"
                    }
                  }
                }
              ],
              "_links": {
                "self": {
                  "name": "ESPECIALES",
                  "href": "https://api.euskadi.eus/procurements/companies/types/O/groups/K"
                }
              }
            }
          ],
          "_links": {
            "self": {
              "name": "Obras",
              "href": "https://api.euskadi.eus/procurements/companies/types/O"
            }
          }
        }
      ],
      "object": ".",
      "mainEntityOfPage": "https://www.contratacion.euskadi.eus/webkpe00-kperoc/es/ac71aBusquedaRegistrosWar/empresa/04716",
      "_links": {
        "self": {
          "name": "INTEGRALES BALUGASA, S.L.",
          "href": "https://api.euskadi.eus/procurements/companies/04716"
        }
      }
    },
    {
      "name": "IBETARRI HARRILANAK ETA ERAIKUNTZAK, S.L.",
      "registrationNumber": "04717",
      "identificationNumber": "B95559621",
      "address": "OKAMIKAKO INDUSTRIALDEA, 3-PAB 6B",
      "location": {
        "postalCode": "48289",
        "municipality": "Gizaburuaga",
        "county": "Bizkaia",
        "municipalityId": "047",
        "countyId": "48"
      },
      "object": ".",
      "mainEntityOfPage": "https://www.contratacion.euskadi.eus/webkpe00-kperoc/es/ac71aBusquedaRegistrosWar/empresa/04717",
      "_links": {
        "self": {
          "name": "IBETARRI HARRILANAK ETA ERAIKUNTZAK, S.L.",
          "href": "https://api.euskadi.eus/procurements/companies/04717"
        }
      }
    }
  ]
}