{
  "totalItems": 9042,
  "totalPages": 905,
  "currentPage": 440,
  "itemsOfPage": 10,
  "items": [
    {
      "name": "ERCAM GENERACION, S.L.",
      "registrationNumber": "08007",
      "identificationNumber": "B87082160",
      "address": "RONDA DE LA LUNA, 12, 6ª PLANTA ",
      "location": {
        "postalCode": "28760",
        "municipality": "Tres Cantos",
        "county": "Madrid",
        "municipalityId": "903",
        "countyId": "28"
      },
      "economicActivities": [
        {
          "id": "1.843.1",
          "name": "Servicios técnicos de ingeniería",
          "_links": {
            "self": {
              "name": "Servicios técnicos de ingeniería",
              "href": "https://api.euskadi.eus/procurements/companies/economic-activities/1.843.1"
            }
          }
        },
        {
          "id": "1.849.9",
          "name": "Otros servicios independientes n.c.o.p",
          "_links": {
            "self": {
              "name": "Otros servicios independientes n.c.o.p",
              "href": "https://api.euskadi.eus/procurements/companies/economic-activities/1.849.9"
            }
          }
        }
      ],
      "certificateStartDate": "2023-10-18",
      "certificateEndDate": "2024-04-18",
      "object": "A) LA COMPRA, SUSCRIPCIÓN, ADQUISICIÓN, PERMUTA, CESIÓN, GESTIÓN, ADMINISTRACIÓN, ENAJENACIÓN, TRANSMISIÓN Y VENTA DE TODA CLASE DE VALORES MOBILIARIOS, NACIONALES Y EXTRANJEROS, CUALQUIERA QUE SEA LA FORMA JURÍDICA DE LA ENTIDAD EMISORA, POR CUENTA PROPIA Y SIN ACTIVIDAD DE INTERMEDIACIÓN. QUEDAN EXCEPTUADAS LAS ACTIVIDADES EXPRESAMENTE RESERVADAS POR LA LEY O LAS INSTITUCIONES DE INVERSIÓN COLECTIVA, ASÍ COMO LO EXPRESAMENTE RESERVADO POR LA LEY DEL MERCADO DE VALORES O LAS AGENCIAS Y/O SOCIEDADES DE VALORES Y BOLSA. CNAE 8299 B) LA ADQUISICIÓN, ENAJENACIÓN, COMPRAVENTA, CESIÓN, PERMUTA, ADMINISTRACIÓN, EXPLOTACIÓN, COMERCIALIZACIÓN, GRAVAMEN, PIGNORACIÓN, HIPOTECA Y CUALQUIER OTRA TRANSACCIÓN SOBRE BIENES INMUEBLES, RÚSTICOS O URBANOS. CNAE 6832 C) LA GESTIÓN DE LAS INVERSIONES Y PARTICIPACIONES EN LAS SOCIEDADES FILIALES Y PARTICIPADOS. CNAE 8299 D) EL EJERCICIO DE LAS FUNCIONES DE ADMINISTRACIÓN, ASISTENCIA, ASESORÍA, MANAGEMENT Y OTROS SERVICIOS DE NATURALEZA ANÁLOGA A LA ACTIVIDAD DE LA SOCIEDAD. CNAE 8211 E) EL ASESORAMIENTO A EMPRESAS, MEDIANTE EL ANÁLISIS, DIAGNÓSTICO DE SUS PROBLEMAS, LA SUPERVISIÓN GENERAL DE SU FUNCIONAMIENTO Y, EN ESPECIAL, LA PRESTACIÓN DE SERVICIOS DE ASISTENCIA, CONSULTORÍA Y ASESORAMIENTO. CNAE 8299.",
      "mainEntityOfPage": "https://www.contratacion.euskadi.eus/webkpe00-kperoc/es/ac71aBusquedaRegistrosWar/empresa/08007",
      "_links": {
        "self": {
          "name": "ERCAM GENERACION, S.L.",
          "href": "https://api.euskadi.eus/procurements/companies/08007"
        }
      }
    },
    {
      "name": "INGENIERIA XXI NUEVOS PROYECTOS, S.L.",
      "registrationNumber": "03537",
      "identificationNumber": "B01432673",
      "address": "CASTILLO DE QUEJANA 9",
      "location": {
        "postalCode": "01007",
        "municipality": "Vitoria-Gasteiz",
        "county": "Araba/Álava",
        "municipalityId": "059",
        "countyId": "01"
      },
      "economicActivities": [
        {
          "id": "1.843.1",
          "name": "Servicios técnicos de ingeniería",
          "_links": {
            "self": {
              "name": "Servicios técnicos de ingeniería",
              "href": "https://api.euskadi.eus/procurements/companies/economic-activities/1.843.1"
            }
          }
        }
      ],
      "certificateStartDate": "2023-10-18",
      "certificateEndDate": "2024-04-18",
      "object": "PROYECTAR, DISEÑAR, CALCULAR Y/O COORDINAR TODO TIPO DE INSTALACIONES INDUSTRIALES EN GENERAL, TANTO SEAN DE ORIGEN MECÁNICO COMO ELÉCTRICO, HIDRÁULICO, QUÍMICO, PETROQUÍMICO, NÁUTICO, AERONÁUTICO, TELECOMUNICACIÓN, INFORMÁTICO O DE OBRAS CIVILES DE PUERTOS, CAMINOS, CANALES, EDIFICIOS, JARDINES PÚBLICOS, ALUMBRADOS, REDES DE ALCANTARILLADO, AGUA, GAS, ELECTRICIDAD, TRATAMIENTO DE AGUAS, RESIDUOS INDUSTRIALES U OTROS SIMILARES",
      "mainEntityOfPage": "https://www.contratacion.euskadi.eus/webkpe00-kperoc/es/ac71aBusquedaRegistrosWar/empresa/03537",
      "_links": {
        "self": {
          "name": "INGENIERIA XXI NUEVOS PROYECTOS, S.L.",
          "href": "https://api.euskadi.eus/procurements/companies/03537"
        }
      }
    },
    {
      "name": "OTXOTORENA ARQUITECTOS S.L.P.U.",
      "registrationNumber": "07373",
      "identificationNumber": "B31871536",
      "address": "PLAZA PINTOR PARET 6, 1A",
      "location": {
        "postalCode": "31008",
        "municipality": "Pamplona/Iruña",
        "county": "Navarra",
        "municipalityId": "201",
        "countyId": "31"
      },
      "economicActivities": [
        {
          "id": "1.843.2",
          "name": "Servicios técnicos de arquitectura y urbanismo",
          "_links": {
            "self": {
              "name": "Servicios técnicos de arquitectura y urbanismo",
              "href": "https://api.euskadi.eus/procurements/companies/economic-activities/1.843.2"
            }
          }
        }
      ],
      "certificateStartDate": "2023-10-18",
      "certificateEndDate": "2024-02-14",
      "object": "LA ACTIVIDAD PROPIA DEL EJERCICIO DE LA ARQUITECTURA",
      "mainEntityOfPage": "https://www.contratacion.euskadi.eus/webkpe00-kperoc/es/ac71aBusquedaRegistrosWar/empresa/07373",
      "_links": {
        "self": {
          "name": "OTXOTORENA ARQUITECTOS S.L.P.U.",
          "href": "https://api.euskadi.eus/procurements/companies/07373"
        }
      }
    },
    {
      "name": "OSATU S. COOP. L.",
      "registrationNumber": "00382",
      "identificationNumber": "F48113161",
      "address": "\"Edificio Zearrekobuelta\" Subida Areitio, 5",
      "location": {
        "postalCode": "48260",
        "municipality": "Ermua",
        "county": "Bizkaia",
        "municipalityId": "034",
        "countyId": "48"
      },
      "economicActivities": [
        {
          "id": "1.934",
          "name": "Enseñanza fuera de establecimiento permanente",
          "_links": {
            "self": {
              "name": "Enseñanza fuera de establecimiento permanente",
              "href": "https://api.euskadi.eus/procurements/companies/economic-activities/1.934"
            }
          }
        }
      ],
      "certificateStartDate": "2023-10-17",
      "certificateEndDate": "2024-02-22",
      "object": "LA FABRICACIÓN Y VENTA DE EQUIPOS DE ELECTROMEDICINA Y CUANTAS ACTIVIDADES INDUSTRIALES, COMERCIALES O DE SERVICIOS, AFINES O COMPLEMENTARIOS A LA CITADA, DECIDA EMPRENDER",
      "mainEntityOfPage": "https://www.contratacion.euskadi.eus/webkpe00-kperoc/es/ac71aBusquedaRegistrosWar/empresa/00382",
      "_links": {
        "self": {
          "name": "OSATU S. COOP. L.",
          "href": "https://api.euskadi.eus/procurements/companies/00382"
        }
      }
    },
    {
      "name": "SARAGUETA AHOLKULARITZA, S.L.",
      "registrationNumber": "08839",
      "identificationNumber": "B31945868",
      "address": "Iparkale 5, beheak",
      "location": {
        "postalCode": "31780",
        "municipality": "Bera",
        "county": "Navarra",
        "municipalityId": "250",
        "countyId": "31"
      },
      "economicActivities": [
        {
          "id": "1.841",
          "name": "Servicios jurídicos",
          "_links": {
            "self": {
              "name": "Servicios jurídicos",
              "href": "https://api.euskadi.eus/procurements/companies/economic-activities/1.841"
            }
          }
        }
      ],
      "certificateStartDate": "2023-10-17",
      "certificateEndDate": "2023-12-28",
      "object": "1.- LA MEDIACIÓN PARA LA PRESTACIÓN DE SERVICIOS DE ASESORÍA JURÍDICA, TANTO CIVIL, LABORAL, MERCANTIL COMO ADMINISTRATIVA, ASÍ COMO PARA LA REPRESENTACIÓN JUDICIAL. 2.- LA MEDIACIÓN PARA LA GESTIÓN, PLANIFICACIÓN, DESARROLLO, MEDIANTE LOS INSTRUMENTOS Y SISTEMAS DE ACTUACIÓN Y EJECUCIÓN URBANÍSTICOS NECESARIOS DE TODA CLASE DE SUELO, TANTO RÚSTICO COMO URBANO. 3.- LA MEDIACIÓN PARA LA PLANIFICACIÓN, DISEÑO Y ESTUDIO DEL DESARROLLO URBANÍSTICO, TANTO TERRITORIAL COMO LOCAL, MEDIANTE LA REDACCIÓN DE LOS PLANES Y PROGRAMAS OPORTUNOS. 4.- LA MEDIACIÓN PARA LA CONSULTORÍA Y GESTIÓN URBANÍSTICA E INMOBILIARIA Y DESARROLLO DE ESTUDIOS DE PLANIFICACIÓN ESTRATÉGICA, ESTRUCTURAL Y DE VIABILIDAD ECONÓMICA EN EL ÁMBITO DEL URBANISMO. 5.- LA COLABORACIÓN CON OTRAS SOCIEDADES O PROFESIONALES CUYO OBJETO ESTÉ RELACIONADO CON LAS ACTIVIDADES DESCRITAS EN LOS APARTADOS ANTERIORES Y POSTERIORES, MEDIANDO LA FIRMA DE LOS CORRESPONDIENTES CONTRATOS DE ARRENDAMIENTOS DE SERVICIOS.",
      "mainEntityOfPage": "https://www.contratacion.euskadi.eus/webkpe00-kperoc/es/ac71aBusquedaRegistrosWar/empresa/08839",
      "_links": {
        "self": {
          "name": "SARAGUETA AHOLKULARITZA, S.L.",
          "href": "https://api.euskadi.eus/procurements/companies/08839"
        }
      }
    },
    {
      "name": "CGRUIZ ARQUITECTOS, S.L.P.",
      "registrationNumber": "06836",
      "identificationNumber": "B95903399",
      "address": "Calle Príncipe 5 oficina 408",
      "location": {
        "postalCode": "48001",
        "municipality": "Bilbao",
        "county": "Bizkaia",
        "municipalityId": "020",
        "countyId": "48"
      },
      "economicActivities": [
        {
          "id": "1.843.2",
          "name": "Servicios técnicos de arquitectura y urbanismo",
          "_links": {
            "self": {
              "name": "Servicios técnicos de arquitectura y urbanismo",
              "href": "https://api.euskadi.eus/procurements/companies/economic-activities/1.843.2"
            }
          }
        }
      ],
      "certificateStartDate": "2023-10-17",
      "certificateEndDate": "2023-12-25",
      "object": "LA PROPIA DE LOS PROFESIONALES DE LA ARQUITECTURA. CNAE 7111 SERVICIOS TÉCNICOS DE ARQUITECTURA",
      "mainEntityOfPage": "https://www.contratacion.euskadi.eus/webkpe00-kperoc/es/ac71aBusquedaRegistrosWar/empresa/06836",
      "_links": {
        "self": {
          "name": "CGRUIZ ARQUITECTOS, S.L.P.",
          "href": "https://api.euskadi.eus/procurements/companies/06836"
        }
      }
    },
    {
      "name": "TAPIA INSTALAZIO ELEKTRIKOAK, S.L.",
      "registrationNumber": "06700",
      "identificationNumber": "B20719456",
      "address": "zubikoeta 9-1",
      "location": {
        "postalCode": "20211",
        "municipality": "Ataun",
        "county": "Gipuzkoa",
        "municipalityId": "015",
        "countyId": "20"
      },
      "economicActivities": [
        {
          "id": "1.504.1",
          "name": "Instalaciones eléctricas en general",
          "_links": {
            "self": {
              "name": "Instalaciones eléctricas en general",
              "href": "https://api.euskadi.eus/procurements/companies/economic-activities/1.504.1"
            }
          }
        }
      ],
      "certificateStartDate": "2023-10-16",
      "certificateEndDate": "2023-11-29",
      "object": "LA EXPLOTACIÓN DE UN NEGOCIO DEDICADO A LA ACTIVIDAD DE MONTAJES Y MANTENIMIENTOS INDUSTRIALES Y ELÉCTRICOS, ASÍ COMO A LA VENTA DE ELEMENTOS, COMPONENTES Y ACCESORIOS ELÉCTRICOS",
      "mainEntityOfPage": "https://www.contratacion.euskadi.eus/webkpe00-kperoc/es/ac71aBusquedaRegistrosWar/empresa/06700",
      "_links": {
        "self": {
          "name": "TAPIA INSTALAZIO ELEKTRIKOAK, S.L.",
          "href": "https://api.euskadi.eus/procurements/companies/06700"
        }
      }
    },
    {
      "name": "RPG INFORMÁTICA, S.A.",
      "registrationNumber": "06101",
      "identificationNumber": "A79194064",
      "address": "C/ José Isbert, 12",
      "location": {
        "postalCode": "28223",
        "municipality": "Pozuelo de Alarcón",
        "county": "Madrid",
        "municipalityId": "115",
        "countyId": "28"
      },
      "economicActivities": [
        {
          "id": "1.615.4",
          "name": "Venta al por mayor de aparatos y material radioeléctrico y electrónico",
          "_links": {
            "self": {
              "name": "Venta al por mayor de aparatos y material radioeléctrico y electrónico",
              "href": "https://api.euskadi.eus/procurements/companies/economic-activities/1.615.4"
            }
          }
        }
      ],
      "certificateStartDate": "2023-10-12",
      "certificateEndDate": "2024-04-12",
      "object": "LA COMPRA, VENTA, COMERCIALIZACIÓN, IMPORTACIÓN, EXPORTACIÓN, INSTALACIÓN, REPARACIÓN Y DISTRIBUCIÓN EN GENERAL DE ELEMENTOS ELECTRÓNICOS E INFORMÁTICOS",
      "mainEntityOfPage": "https://www.contratacion.euskadi.eus/webkpe00-kperoc/es/ac71aBusquedaRegistrosWar/empresa/06101",
      "_links": {
        "self": {
          "name": "RPG INFORMÁTICA, S.A.",
          "href": "https://api.euskadi.eus/procurements/companies/06101"
        }
      }
    },
    {
      "name": "IZARRAITZPE LOREZAINTZA, S.L.L.",
      "registrationNumber": "03593",
      "identificationNumber": "B20639811",
      "address": "CTRA. AZPEITIA-URRESTILLA",
      "location": {
        "postalCode": "20730",
        "municipality": "Azpeitia",
        "county": "Gipuzkoa",
        "municipalityId": "018",
        "countyId": "20"
      },
      "economicActivities": [
        {
          "id": "1.501.3",
          "name": "Albañilería y pequeños trabajos de construcción en general",
          "_links": {
            "self": {
              "name": "Albañilería y pequeños trabajos de construcción en general",
              "href": "https://api.euskadi.eus/procurements/companies/economic-activities/1.501.3"
            }
          }
        },
        {
          "id": "1.659.7",
          "name": "Venta al por menor de semillas, abonos, flores, plantas y pequeños animales",
          "_links": {
            "self": {
              "name": "Venta al por menor de semillas, abonos, flores, plantas y pequeños animales",
              "href": "https://api.euskadi.eus/procurements/companies/economic-activities/1.659.7"
            }
          }
        },
        {
          "id": "1.911",
          "name": "Servicios agrícolas y ganaderos",
          "_links": {
            "self": {
              "name": "Servicios agrícolas y ganaderos",
              "href": "https://api.euskadi.eus/procurements/companies/economic-activities/1.911"
            }
          }
        },
        {
          "id": "1.921.1",
          "name": "Servicios de limpieza en calles, vías públicas y jardines",
          "_links": {
            "self": {
              "name": "Servicios de limpieza en calles, vías públicas y jardines",
              "href": "https://api.euskadi.eus/procurements/companies/economic-activities/1.921.1"
            }
          }
        },
        {
          "id": "1.931.3",
          "name": "Enseñanza de bachillerato, formación profesional exclusivamente",
          "_links": {
            "self": {
              "name": "Enseñanza de bachillerato, formación profesional exclusivamente",
              "href": "https://api.euskadi.eus/procurements/companies/economic-activities/1.931.3"
            }
          }
        }
      ],
      "certificateStartDate": "2023-10-11",
      "certificateEndDate": "2024-04-10",
      "object": "DISEÑO, GESTIÓN, DECORACIÓN DE ESTABLECIMIENTOS DE FLORISTERÍAS Y JARDINERÍAS, CONSULTORÍA EMPRESARIAL DE LAS MISMAS, COMPRA Y VENTA DE FLORES Y REALIZACIÓN DE TRABAJOS DE JARDINERÍA.",
      "mainEntityOfPage": "https://www.contratacion.euskadi.eus/webkpe00-kperoc/es/ac71aBusquedaRegistrosWar/empresa/03593",
      "_links": {
        "self": {
          "name": "IZARRAITZPE LOREZAINTZA, S.L.L.",
          "href": "https://api.euskadi.eus/procurements/companies/03593"
        }
      }
    },
    {
      "name": "SPECIALIZED SECURITY HUB, S.L.",
      "registrationNumber": "08016",
      "identificationNumber": "B26559583",
      "address": "VARA DE REY 41 BIS PLANTA 7 OFICINA 5",
      "location": {
        "postalCode": "26002",
        "municipality": "Logroño",
        "county": "Rioja, La",
        "municipalityId": "089",
        "countyId": "26"
      },
      "economicActivities": [
        {
          "id": "1.845",
          "name": "Explotación electrónica por cuenta de terceros",
          "_links": {
            "self": {
              "name": "Explotación electrónica por cuenta de terceros",
              "href": "https://api.euskadi.eus/procurements/companies/economic-activities/1.845"
            }
          }
        }
      ],
      "certificateStartDate": "2023-10-11",
      "certificateEndDate": "2024-04-11",
      "object": "PROGRAMACIÓN, CONSULTORÍA Y OTRAS ACTIVIDADES RELACIONADAS CON LA INFORMÁTICA, SERVICIOS DE AUDITORÍA, CONSULTORÍA, PERITAJES, INFORMES PERICIALES Y FORMACIÓN TECNOLÓGICA Y DE CIBERSEGURIDAD, TODO ELLO DIRIGIDO A LAS EMPRESAS.",
      "mainEntityOfPage": "https://www.contratacion.euskadi.eus/webkpe00-kperoc/es/ac71aBusquedaRegistrosWar/empresa/08016",
      "_links": {
        "self": {
          "name": "SPECIALIZED SECURITY HUB, S.L.",
          "href": "https://api.euskadi.eus/procurements/companies/08016"
        }
      }
    }
  ]
}