{
  "totalItems": 9042,
  "totalPages": 905,
  "currentPage": 76,
  "itemsOfPage": 10,
  "items": [
    {
      "name": "OFIMATIKA LAN, S.L.",
      "registrationNumber": "08943",
      "identificationNumber": "B48942700",
      "address": "POLIGONO GRANADA, MANZANA L, 50.1",
      "location": {
        "postalCode": "48530",
        "municipality": "Ortuella",
        "county": "Bizkaia",
        "municipalityId": "083",
        "countyId": "48"
      },
      "economicActivities": [
        {
          "id": "1.653.2",
          "name": "Venta al por menor de material y aparatos eléctricos, electrodomésticos y cocina",
          "_links": {
            "self": {
              "name": "Venta al por menor de material y aparatos eléctricos, electrodomésticos y cocina",
              "href": "https://api.euskadi.eus/procurements/companies/economic-activities/1.653.2"
            }
          }
        },
        {
          "id": "1.691.9",
          "name": "Reparación de otros bienes de consumo n.c.o.p",
          "_links": {
            "self": {
              "name": "Reparación de otros bienes de consumo n.c.o.p",
              "href": "https://api.euskadi.eus/procurements/companies/economic-activities/1.691.9"
            }
          }
        },
        {
          "id": "1.853",
          "name": "Alquiler de maquinaria y equipo contable de oficina y cálculo",
          "_links": {
            "self": {
              "name": "Alquiler de maquinaria y equipo contable de oficina y cálculo",
              "href": "https://api.euskadi.eus/procurements/companies/economic-activities/1.853"
            }
          }
        }
      ],
      "certificateStartDate": "2026-01-16",
      "certificateEndDate": "2026-07-06",
      "object": "COMERCIALIZACIÓN, VENTA Y DISTRIBUCIÓN AL POR MENOR Y MAYOR, MANTENIMIENTO Y REPARACIÓN DE TODO TIPO DE MAQUINARIA DE OFICINA.",
      "mainEntityOfPage": "https://www.contratacion.euskadi.eus/webkpe00-kperoc/es/ac71aBusquedaRegistrosWar/empresa/08943",
      "_links": {
        "self": {
          "name": "OFIMATIKA LAN, S.L.",
          "href": "https://api.euskadi.eus/procurements/companies/08943"
        }
      }
    },
    {
      "name": "EUSKO EKI, S.L.",
      "registrationNumber": "05336",
      "identificationNumber": "B20537759",
      "address": "Ardantza Bidea, nº 17-1º B",
      "location": {
        "postalCode": "20750",
        "municipality": "Zumaia",
        "county": "Gipuzkoa",
        "municipalityId": "081",
        "countyId": "20"
      },
      "economicActivities": [
        {
          "id": "1.966.1",
          "name": "Bibliotecas y museos",
          "_links": {
            "self": {
              "name": "Bibliotecas y museos",
              "href": "https://api.euskadi.eus/procurements/companies/economic-activities/1.966.1"
            }
          }
        }
      ],
      "certificateStartDate": "2026-01-16",
      "certificateEndDate": "2026-06-27",
      "object": "SERVICIOS BIBLIOTECARIOS, DE DOCUMENTACIÓN Y ARCHIVOS, Y SERVICIOS INFORMÁTICOS",
      "mainEntityOfPage": "https://www.contratacion.euskadi.eus/webkpe00-kperoc/es/ac71aBusquedaRegistrosWar/empresa/05336",
      "_links": {
        "self": {
          "name": "EUSKO EKI, S.L.",
          "href": "https://api.euskadi.eus/procurements/companies/05336"
        }
      }
    },
    {
      "name": "JOBBE ETT EVOLUS, S.L.U.",
      "registrationNumber": "05693",
      "identificationNumber": "B95781282",
      "address": "Elcano 14, 2º Izda.",
      "location": {
        "postalCode": "48008",
        "municipality": "Bilbao",
        "county": "Bizkaia",
        "municipalityId": "020",
        "countyId": "48"
      },
      "economicActivities": [
        {
          "id": "1.849.6",
          "name": "Servicios de colocación y suministro de personal",
          "_links": {
            "self": {
              "name": "Servicios de colocación y suministro de personal",
              "href": "https://api.euskadi.eus/procurements/companies/economic-activities/1.849.6"
            }
          }
        }
      ],
      "certificateStartDate": "2026-01-16",
      "certificateEndDate": "2026-06-06",
      "object": "LA PUESTA A DISPOSICIÓN DE OTRAS EMPRESAS , CON CARÁCTER TEMPORAL, DE TRABAJADORES POR ELLA CONTRATADOS , LA REALIZACIÓN DE ACTIVIDADES DE INTERMEDIACIÓN LABORAL , ORIENTACIÓN E INFORMACIÓN PROFESIONAL Y SELECCIÓN DE PERSONAL",
      "mainEntityOfPage": "https://www.contratacion.euskadi.eus/webkpe00-kperoc/es/ac71aBusquedaRegistrosWar/empresa/05693",
      "_links": {
        "self": {
          "name": "JOBBE ETT EVOLUS, S.L.U.",
          "href": "https://api.euskadi.eus/procurements/companies/05693"
        }
      }
    },
    {
      "name": "INETUM ESPAÑA, S.A.",
      "registrationNumber": "00593",
      "identificationNumber": "A28855260",
      "address": "TRAVESÍA COSTA BRAVA, 4",
      "location": {
        "postalCode": "28034",
        "municipality": "Madrid",
        "county": "Madrid",
        "municipalityId": "079",
        "countyId": "28"
      },
      "economicActivities": [
        {
          "id": "1.615.4",
          "name": "Venta al por mayor de aparatos y material radioeléctrico y electrónico",
          "_links": {
            "self": {
              "name": "Venta al por mayor de aparatos y material radioeléctrico y electrónico",
              "href": "https://api.euskadi.eus/procurements/companies/economic-activities/1.615.4"
            }
          }
        },
        {
          "id": "1.617.8",
          "name": "Venta al por mayor de máquinas y material de oficina",
          "_links": {
            "self": {
              "name": "Venta al por mayor de máquinas y material de oficina",
              "href": "https://api.euskadi.eus/procurements/companies/economic-activities/1.617.8"
            }
          }
        },
        {
          "id": "1.845",
          "name": "Explotación electrónica por cuenta de terceros",
          "_links": {
            "self": {
              "name": "Explotación electrónica por cuenta de terceros",
              "href": "https://api.euskadi.eus/procurements/companies/economic-activities/1.845"
            }
          }
        },
        {
          "id": "1.932.1",
          "name": "Enseñanza de formación y perfeccionamiento profesional no superior",
          "_links": {
            "self": {
              "name": "Enseñanza de formación y perfeccionamiento profesional no superior",
              "href": "https://api.euskadi.eus/procurements/companies/economic-activities/1.932.1"
            }
          }
        }
      ],
      "certificateStartDate": "2026-01-16",
      "certificateEndDate": "2026-06-28",
      "object": "COMERCIALIZACIÓN, ARRENDAMIENTO, INSTALACIÓN, MANTENIMIENTO, DISEÑO, PRODUCCIÓN, TRANSFORMACIÓN, ADAPTACIÓN, Y REPARACIÓN DE EQUIPOS, UNIDADES, DISPOSITIVOS, REDES Y PRODUCTOS INFORMÁTICOS, ELECTRÓNICOS Y DE COMUNICACIONES, ASÍ COMO DE SU TECNOLOGÍA NECESARIA, ELEMENTOS, PIEZAS, COMPONENTES Y ACCESORIOS; INCLUYENDO LA PRESTACIÓN DE CUALQUIER SERVICIO RELACIONADO CON ESTAS ACTIVIDADES (TALES COMO ASESORAMIENTO, REALIZACIÓN DE OBRA CIVIL PARA LA INSTALACIÓN ETC.). COMERCIALIZACIÓN, ARRENDAMIENTO, DISEÑO, DESARROLLO, PRODUCCIÓN, ADAPTACIÓN, INTEGRACIÓN, IMPLANTACIÓN, MANTENIMIENTO Y REPARACIÓN DE APLICACIONES, SISTEMAS, Y SOLUCIONES, SEAN INFORMÁTICOS, ELECTRÓNICOS, DE COMUMICACIONES, Y EN GENERAL CUALESQUIERA QUE SEAN PROPIOS O ESTÉN RELACIONADOS CON LAS TECNOLOGÍAS DE LA INFORMACIÓN EN SU MÁS AMPLIO SENTIDO, (GESTIÓN, ALMACENAMIENTO, ANÁLISIS, PROCESAMIENTO, TRANSMISIÓN, TRATAMIENTO, SEGURIDAD Y  CONTROL, AUTOMATIZACIÓN, ROBÓTICA, TOMA DE DECISIONES ETC.). IMPORTACIÓN Y EXPORTACIÓN DE LOS ELEMENTOS Y PRODUCCIONES ANTERIORMENTE CITADOS. CREACIÓN Y COMERCIALIZACIÓN DE BASES DE DATOS. CONSULTORÍA, ELABORACIÓN DE ESTUDIOS Y PROYECTOS RELACIONADOS CON LOS SISTEMAS DE INFORMACIÓN (GESTIÓN ECONÓMICO-FINANCIERA, GESTIÓN COMERCIAL, GESTIÓN DE PERSONAL, GESTIÓN DE CALIDAD Y GESTIÓN DE SEGURIDAD, GESTIÓN DOCUMENTAL ETC.) DE CUALQUIER EMPRESA O ENTIDAD PÚBLICA O PRIVADA; ASÍ COMO LA IMPLANTACIÓN, ASISTENCIA TÉCNICA Y AUDITORÍA DE LOS MISMOS. FORMACIÓN, ENTRENAMIENTO Y CAPACITACIÓN DE PROFESIONALES, EMPRESARIOS, FUNCIONARIOS; ASÍ COMO DE CUALQUIER OTRO USUARIO INFORMÁTICO. SERVICIOS DE CENTRO DE CÁLCULO Y PROCESO DE DATOS PARA LA CAPTURA, TRATAMIENTO Y PROCESO DE LA INFORMACIÓN, PROPIA O DE TERCEROS. CONSTRUCCIÓN, REFORMA Y ADAPTACIÓN DE CENTROS DE CÁLCULO O CUALQUIER OTRO LOCAL QUÉ NECESITE SER EQUIPADO CON SISTEMAS INFORMÁTICOS O DE TELECOMUNICACIONES, COMPRENDIENDO LA OBRA CIVIL Y LA INSTALACIÓN Y EQUIPAMIENTO NECESARIO PARA SU UTILIZACIÓN. SERVICIOS DE CONEXIÓN A LA RED GLOBAL DE TELECOMUNICACIONES -INTERNET- MEDIANTE APLICACIONES INFORMÁTICAS Y PROTOCOLOS DE COMUNICACIÓN, ASÍ COMO LA GESTIÓN DE CORREO ELECTRÓNICO, DESARROLLO Y ALBERGUE DE PÁGINAS WEB, GESTIÓN DE DOMINIOS Y CUALQUIER OTRO SERVICIO RELACIONADO CON INTERNET. REPRESENTACIÓN DE PROVEEDORES DE PRODUCTOS Y SERVICIOS MENCIONADOS ANTERIORMENTE BIEN SEAN NACIONALES O EXTRANJEROS. SERVICIOS DE TOPOGRAFÍA, FOTOGRAFÍA AÉREA, CARTOGRAFÍA (ANALÓGICA O DIGITAL Y A CUALQUIER ESCALA), OBTENCIÓN Y MANEJO DE INFORMACIÓN PROCEDENTE DE SENSORES AÉREOS Y TELEDETECCIÓN (TODO TIPO DE SENSORES), DISEÑO E IMPLANTACIÓN DE SISTEMAS DE INFORMACIÓN, CAPTURA DE DATOS Y FORMACIÓN DE BASES DE DATOS DENTRO DE ESTUDIOS, - PROYECTOS O ACTUACIONES EN EL TERRITORIO, TALES COMO: GEOGRAFÍA, MEDIO AMBIENTE, PLANIFICACIÓN Y DESARROLLO URBANO O RURAL, GEOLOGÍA, MINERÍA Y PROSPECCIONES, INVENTARIOS, CATASTROS, VALORACIÓN Y REGISTRO DE LA PROPIEDAD INMUEBLE, INGENIERÍA AGRÍCOLA Y FORESTAL, REDES DE DISTRIBUCIÓN, ABASTECIMIENTO Y SANEAMIENTO, INGENIERÍA DEL TRANSPORTE Y VÍAS DE COMUNICACIÓN, SISTEMAS DE INFORMACIÓN GEOGRÁFICA O INFRAESTRUCTURA DE DATOS ESPACIALES. SERVICIOS DE DESARROLLO O DISTRIBUCIÓN DE SOFTWARE, IMPLANTACIÓN DE SISTEMAS INFORMATIZADOS RELACIONADOS CON SISTEMAS DE INFORMACIÓN GEOGRÁFICA Y CON LAS ACTIVIDADES. SERVICIOS DE INGENIERÍA, INSTALACIÓN Y MANTENIMIENTO Y REPARACIÓN DE EQUIPOS ELÉCTRICOS, ELECTRÓNICOS, RADIOELÉCTRICOS, DE MEDIDA, DE ACTUACIÓN REMOTA. SERVICIOS DE DISEÑO, INSTALACIÓN Y MANTENIMIENTO DE EQUIPAMIENTO DE SEGURIDAD ELECTRÓNICA: CÁMARAS DE VIDEO, CONTROLES DE ACCESO, SISTEMAS ANTI-INTRUSIÓN Y ANTI-INCENDIOS. SERVICIOS DE EXTERNALIZACIÓN DE ACTIVIDADES Y PROCESOS PERTENECIENTES A CUALQUIER CAMPO O SECTOR",
      "mainEntityOfPage": "https://www.contratacion.euskadi.eus/webkpe00-kperoc/es/ac71aBusquedaRegistrosWar/empresa/00593",
      "_links": {
        "self": {
          "name": "INETUM ESPAÑA, S.A.",
          "href": "https://api.euskadi.eus/procurements/companies/00593"
        }
      }
    },
    {
      "name": "QARK ARQUEOLOGÍA, S.L.",
      "registrationNumber": "06815",
      "identificationNumber": "B01414945",
      "address": "Dulzaina 10, bajo",
      "location": {
        "postalCode": "01006",
        "municipality": "Vitoria-Gasteiz",
        "county": "Araba/Álava",
        "municipalityId": "059",
        "countyId": "01"
      },
      "economicActivities": [
        {
          "id": "1.843.4",
          "name": "Servicios técnicos de topografía",
          "_links": {
            "self": {
              "name": "Servicios técnicos de topografía",
              "href": "https://api.euskadi.eus/procurements/companies/economic-activities/1.843.4"
            }
          }
        },
        {
          "id": "1.843.9",
          "name": "Otros servicios técnicos n.c.o.p",
          "_links": {
            "self": {
              "name": "Otros servicios técnicos n.c.o.p",
              "href": "https://api.euskadi.eus/procurements/companies/economic-activities/1.843.9"
            }
          }
        },
        {
          "id": "1.936",
          "name": "Investigación científica y técnica",
          "_links": {
            "self": {
              "name": "Investigación científica y técnica",
              "href": "https://api.euskadi.eus/procurements/companies/economic-activities/1.936"
            }
          }
        }
      ],
      "certificateStartDate": "2026-01-16",
      "certificateEndDate": "2026-06-30",
      "object": "EL DESARROLLO DE TRABAJOS ARQUEOLÓGICOS, TANTO DE SUBSUELO COMO POR ENCIMA DE LA COTA CERO (ARQUEOLOGÍA DE LA ARQUITECTURA), ASÍ COMO TODAS LAS LABORES DE GESTIÓN RELACIONADAS COMO EL PATRIMONIO CONSTRUIDO, TANTO DESDE EL PUNTO DE VISTA DE LA CONSERVACIÓN, COMO DEL ESTUDIO, LA INVESTIGACIÓN Y LA DIFUSIÓN. LA SOCIEDAD OFERTARÁ A SU VEZ, LABORES DE TOPOGRAFÍA Y DOCUMENTACIÓN GRÁFICA, TANTO PARA EXCAVACIONES ARQUEOLÓGICAS COMO PARA LA REPRESENTACIÓN DE EDIFICACIONES. EN CUANTO A LA DIFUSIÓN DESARROLLARÁ TODO EL PROCESO DE PRESENTACIÓN DEL PATRIMONIO A LA SOCIEDAD, DESDE LA GENERACIÓN DE LOS CONTENIDOS A SU EXPRESIÓN, POR MEDIO DE MEDIOS GRÁFICOS TRADICIONALES COMO POR PRESENTACIÓN MULTIMEDIA (DIGITALES Y ANALÓGICAS), ASÍ COMO LA ORGANIZACIÓN DE VISITAS GUIADAS. ASÍ MISMO LA SOCIEDAD TENDRÁ POR OBJETO LA PRESTACIÓN DE SERVICIOS TURÍSTICOS Y LA FORMACIÓN EN TEMAS CULTURALES, DE ARQUEOLOGÍA Y PATRIMONIO HISTÓRICO",
      "mainEntityOfPage": "https://www.contratacion.euskadi.eus/webkpe00-kperoc/es/ac71aBusquedaRegistrosWar/empresa/06815",
      "_links": {
        "self": {
          "name": "QARK ARQUEOLOGÍA, S.L.",
          "href": "https://api.euskadi.eus/procurements/companies/06815"
        }
      }
    },
    {
      "name": "MUEBLES EL PARAISO, S.A.",
      "registrationNumber": "09199",
      "identificationNumber": "A48281901",
      "address": "CTRA.CARRANZA KM 26",
      "location": {
        "postalCode": "48869",
        "municipality": "Zalla",
        "county": "Bizkaia",
        "municipalityId": "096",
        "countyId": "48"
      },
      "economicActivities": [
        {
          "id": "1.653.1",
          "name": "Venta al por menor de muebles (excepto los de oficina)",
          "_links": {
            "self": {
              "name": "Venta al por menor de muebles (excepto los de oficina)",
              "href": "https://api.euskadi.eus/procurements/companies/economic-activities/1.653.1"
            }
          }
        },
        {
          "id": "1.673.2",
          "name": "Otros cafés y bares",
          "_links": {
            "self": {
              "name": "Otros cafés y bares",
              "href": "https://api.euskadi.eus/procurements/companies/economic-activities/1.673.2"
            }
          }
        }
      ],
      "certificateStartDate": "2026-01-16",
      "certificateEndDate": "2026-06-26",
      "object": "LA VENTA DE TODA CLASE DE MOBILIARIO, DECORACIÓN E INTERIORES Y CUALQUIER OTRA OPERACIÓN DIRECTA O INDIRECTAMENTE RELACIONADA CON DICHO OBJETO SOCIAL, SEGÚN LIBRE DETERMINACIÓN DE LA JUNTA GENERAL Y EN LA FORMA JURÍDICA QUE POR LA MISMA SE ACUERDE.",
      "mainEntityOfPage": "https://www.contratacion.euskadi.eus/webkpe00-kperoc/es/ac71aBusquedaRegistrosWar/empresa/09199",
      "_links": {
        "self": {
          "name": "MUEBLES EL PARAISO, S.A.",
          "href": "https://api.euskadi.eus/procurements/companies/09199"
        }
      }
    },
    {
      "name": "COMERCIAL HOSTELERA DEL NORTE VIZCAYA, S.A.",
      "registrationNumber": "00444",
      "identificationNumber": "A48091284",
      "address": "C/ TELLERIA 30B - POL. IND. SANTA ANA",
      "location": {
        "postalCode": "48004",
        "municipality": "Bilbao",
        "county": "Bizkaia",
        "municipalityId": "020",
        "countyId": "48"
      },
      "economicActivities": [
        {
          "id": "1.504.3",
          "name": "Instalaciones de frío, calor y acondicionamiento de aire",
          "_links": {
            "self": {
              "name": "Instalaciones de frío, calor y acondicionamiento de aire",
              "href": "https://api.euskadi.eus/procurements/companies/economic-activities/1.504.3"
            }
          }
        },
        {
          "id": "1.617.9",
          "name": "Venta al por mayor interindustrial de otros productos n.c.o.p",
          "_links": {
            "self": {
              "name": "Venta al por mayor interindustrial de otros productos n.c.o.p",
              "href": "https://api.euskadi.eus/procurements/companies/economic-activities/1.617.9"
            }
          }
        },
        {
          "id": "1.692",
          "name": "Reparación de maquinaria industrial",
          "_links": {
            "self": {
              "name": "Reparación de maquinaria industrial",
              "href": "https://api.euskadi.eus/procurements/companies/economic-activities/1.692"
            }
          }
        }
      ],
      "certificateStartDate": "2026-01-16",
      "certificateEndDate": "2026-07-03",
      "object": " LA COMPRAVENTA, CONSTRUCCION, REPARACION, IMPORTACION Y EXPORTACION E INSTALACION DE TODA CLASE DE MAQUINARIA INDUSTRIAL PARA HOSTELERIA Y COLECTIVIDADES, ASI COMO ELECTRODOMESTICOS, SUS ACCESORIOS Y REPUESTOS",
      "mainEntityOfPage": "https://www.contratacion.euskadi.eus/webkpe00-kperoc/es/ac71aBusquedaRegistrosWar/empresa/00444",
      "_links": {
        "self": {
          "name": "COMERCIAL HOSTELERA DEL NORTE VIZCAYA, S.A.",
          "href": "https://api.euskadi.eus/procurements/companies/00444"
        }
      }
    },
    {
      "name": "ARKIGEST ESTUDIOA S.L.",
      "registrationNumber": "05466",
      "identificationNumber": "B95466553",
      "address": "IPARRAGUIRRE 34, 1º IZQ",
      "location": {
        "postalCode": "48011",
        "municipality": "Bilbao",
        "county": "Bizkaia",
        "municipalityId": "020",
        "countyId": "48"
      },
      "economicActivities": [
        {
          "id": "1.843.2",
          "name": "Servicios técnicos de arquitectura y urbanismo",
          "_links": {
            "self": {
              "name": "Servicios técnicos de arquitectura y urbanismo",
              "href": "https://api.euskadi.eus/procurements/companies/economic-activities/1.843.2"
            }
          }
        }
      ],
      "certificateStartDate": "2026-01-16",
      "certificateEndDate": "2026-06-30",
      "object": "LA PRESTACIÓN DE SERVICIOS, ESTUDIOS, ASESORAMIENTO Y DIRECCIÓN DE OBRA, A TRAVÉS DE LOS COLEGIADOS PERTINENTES, TEMAS DE ARQUITECTURA, INGENIERÍA, URBANISMO Y DECLARACIÓN, ASÍ COMO LA GESTIÓN Y ADMINISTRACIÓN DE LOS MISMOS.",
      "mainEntityOfPage": "https://www.contratacion.euskadi.eus/webkpe00-kperoc/es/ac71aBusquedaRegistrosWar/empresa/05466",
      "_links": {
        "self": {
          "name": "ARKIGEST ESTUDIOA S.L.",
          "href": "https://api.euskadi.eus/procurements/companies/05466"
        }
      }
    },
    {
      "name": "ERAIKI TALDEA APOYO ESCOLAR, S. L.",
      "registrationNumber": "10287",
      "identificationNumber": "B01562941",
      "address": "ARANZABAL, 6-8- BJ",
      "location": {
        "postalCode": "01008",
        "municipality": "Vitoria-Gasteiz",
        "county": "Araba/Álava",
        "municipalityId": "059",
        "countyId": "01"
      },
      "economicActivities": [
        {
          "id": "1.933.9",
          "name": "Otras actividades de enseñanza tales como idiomas, mecanografía",
          "_links": {
            "self": {
              "name": "Otras actividades de enseñanza tales como idiomas, mecanografía",
              "href": "https://api.euskadi.eus/procurements/companies/economic-activities/1.933.9"
            }
          }
        },
        {
          "id": "1.942.9",
          "name": "Otros servicios sanitarios sin internados, no clasificados",
          "_links": {
            "self": {
              "name": "Otros servicios sanitarios sin internados, no clasificados",
              "href": "https://api.euskadi.eus/procurements/companies/economic-activities/1.942.9"
            }
          }
        }
      ],
      "certificateStartDate": "2026-01-16",
      "certificateEndDate": "2026-07-03",
      "object": "LA PRESTACIÓN DE SERVICIOS DE ENSEÑANZA PRIVADA Y LA PSICOLOGÍA CLÍNICA.",
      "mainEntityOfPage": "https://www.contratacion.euskadi.eus/webkpe00-kperoc/es/ac71aBusquedaRegistrosWar/empresa/10287",
      "_links": {
        "self": {
          "name": "ERAIKI TALDEA APOYO ESCOLAR, S. L.",
          "href": "https://api.euskadi.eus/procurements/companies/10287"
        }
      }
    },
    {
      "name": "MEDICAL CAÑADA, S.L.",
      "registrationNumber": "09191",
      "identificationNumber": "B73280349",
      "address": "C/ Júbilo, s/n Parcel 24 Nave C-6 Pol. Ind. Oeste · 30169 San Ginés, Murcia (España)",
      "location": {
        "postalCode": "30169",
        "municipality": "Murcia",
        "county": "Murcia",
        "municipalityId": "030",
        "countyId": "30"
      },
      "economicActivities": [
        {
          "id": "1.619.2",
          "name": "Venta al por mayor de aparatos e instrumentos médicos, ortopédicos, ópticos",
          "_links": {
            "self": {
              "name": "Venta al por mayor de aparatos e instrumentos médicos, ortopédicos, ópticos",
              "href": "https://api.euskadi.eus/procurements/companies/economic-activities/1.619.2"
            }
          }
        },
        {
          "id": "1.652.1",
          "name": "Farmacias",
          "_links": {
            "self": {
              "name": "Farmacias",
              "href": "https://api.euskadi.eus/procurements/companies/economic-activities/1.652.1"
            }
          }
        },
        {
          "id": "1.699",
          "name": "Otras reparaciones n.c.o.p",
          "_links": {
            "self": {
              "name": "Otras reparaciones n.c.o.p",
              "href": "https://api.euskadi.eus/procurements/companies/economic-activities/1.699"
            }
          }
        },
        {
          "id": "1.933.9",
          "name": "Otras actividades de enseñanza tales como idiomas, mecanografía",
          "_links": {
            "self": {
              "name": "Otras actividades de enseñanza tales como idiomas, mecanografía",
              "href": "https://api.euskadi.eus/procurements/companies/economic-activities/1.933.9"
            }
          }
        }
      ],
      "certificateStartDate": "2026-01-16",
      "certificateEndDate": "2026-06-24",
      "object": "COMERCIO Y DISTRIBUCIÓN DE MATERIAL MÉDICO Y HOSPITALARIO, MOBILIARIO, PRODUCTOS DE PERFUMERÍA, ESTÉTICA E HIGIENE. IMPORTACIÓN Y EXPORTACIÓN DE MATERIAL MÉDICO Y HOSPITALARIO. REPARACIÓN DE APARATOS ELECTRO MEDICINA, MOBILIARIO E INSTRUMENTAL. CURSOS DE FORMACIÓN. COMPRAVENTA DE INMUEBLES.",
      "mainEntityOfPage": "https://www.contratacion.euskadi.eus/webkpe00-kperoc/es/ac71aBusquedaRegistrosWar/empresa/09191",
      "_links": {
        "self": {
          "name": "MEDICAL CAÑADA, S.L.",
          "href": "https://api.euskadi.eus/procurements/companies/09191"
        }
      }
    }
  ]
}