{
  "totalItems": 9042,
  "totalPages": 905,
  "currentPage": 854,
  "itemsOfPage": 10,
  "items": [
    {
      "name": "YEREGUI DESARROLLO, S.L.",
      "registrationNumber": "03507",
      "identificationNumber": "B20827846",
      "address": "AVDA DE LA LIBERTAD 17, 2º",
      "location": {
        "postalCode": "20004",
        "municipality": "Donostia / San Sebastián",
        "county": "Gipuzkoa",
        "municipalityId": "069",
        "countyId": "20"
      },
      "object": "pte",
      "mainEntityOfPage": "https://www.contratacion.euskadi.eus/webkpe00-kperoc/es/ac71aBusquedaRegistrosWar/empresa/03507",
      "_links": {
        "self": {
          "name": "YEREGUI DESARROLLO, S.L.",
          "href": "https://api.euskadi.eus/procurements/companies/03507"
        }
      }
    },
    {
      "name": "ONE TO ONE MARKETING Y COMUNICACIÓN, SL",
      "registrationNumber": "03535",
      "identificationNumber": "B95469466",
      "address": "PARQUE TECNOLÓGICO EDIF 702",
      "location": {
        "postalCode": "48160",
        "municipality": "Derio",
        "county": "Bizkaia",
        "municipalityId": "901",
        "countyId": "48"
      },
      "object": "pte",
      "mainEntityOfPage": "https://www.contratacion.euskadi.eus/webkpe00-kperoc/es/ac71aBusquedaRegistrosWar/empresa/03535",
      "_links": {
        "self": {
          "name": "ONE TO ONE MARKETING Y COMUNICACIÓN, SL",
          "href": "https://api.euskadi.eus/procurements/companies/03535"
        }
      }
    },
    {
      "name": "PROMOCIONES ITURRIETA, S.A.",
      "registrationNumber": "03541",
      "identificationNumber": "A01035724",
      "address": "C/ IHURRALDEA, 15 BAJO",
      "location": {
        "postalCode": "01010",
        "municipality": "Vitoria-Gasteiz",
        "county": "Araba/Álava",
        "municipalityId": "059",
        "countyId": "01"
      },
      "object": "pte",
      "mainEntityOfPage": "https://www.contratacion.euskadi.eus/webkpe00-kperoc/es/ac71aBusquedaRegistrosWar/empresa/03541",
      "_links": {
        "self": {
          "name": "PROMOCIONES ITURRIETA, S.A.",
          "href": "https://api.euskadi.eus/procurements/companies/03541"
        }
      }
    },
    {
      "name": "CONSTRUCCIONES ZURLAN 2000, S.L.",
      "registrationNumber": "03555",
      "identificationNumber": "B95284477",
      "address": "TR/ SIERVAS DE MARÍA, 2 1ºC",
      "location": {
        "postalCode": "48920",
        "municipality": "Portugalete",
        "county": "Bizkaia",
        "municipalityId": "078",
        "countyId": "48"
      },
      "mainEntityOfPage": "https://www.contratacion.euskadi.eus/webkpe00-kperoc/es/ac71aBusquedaRegistrosWar/empresa/03555",
      "_links": {
        "self": {
          "name": "CONSTRUCCIONES ZURLAN 2000, S.L.",
          "href": "https://api.euskadi.eus/procurements/companies/03555"
        }
      }
    },
    {
      "name": "EYA SOFTWARE, S.A.",
      "registrationNumber": "03557",
      "identificationNumber": "A95414355",
      "address": "C/ SAN VICENTE Nº 8, 3º B",
      "location": {
        "postalCode": "48001",
        "municipality": "Bilbao",
        "county": "Bizkaia",
        "municipalityId": "020",
        "countyId": "48"
      },
      "object": "pte",
      "mainEntityOfPage": "https://www.contratacion.euskadi.eus/webkpe00-kperoc/es/ac71aBusquedaRegistrosWar/empresa/03557",
      "_links": {
        "self": {
          "name": "EYA SOFTWARE, S.A.",
          "href": "https://api.euskadi.eus/procurements/companies/03557"
        }
      }
    },
    {
      "name": "OXER SPORT, S.L.",
      "registrationNumber": "03565",
      "identificationNumber": "B20833133",
      "address": "C/ JOAQUIN GAMON, 2 1ºA",
      "location": {
        "postalCode": "20300",
        "municipality": "Irun",
        "county": "Gipuzkoa",
        "municipalityId": "045",
        "countyId": "20"
      },
      "object": ".",
      "mainEntityOfPage": "https://www.contratacion.euskadi.eus/webkpe00-kperoc/es/ac71aBusquedaRegistrosWar/empresa/03565",
      "_links": {
        "self": {
          "name": "OXER SPORT, S.L.",
          "href": "https://api.euskadi.eus/procurements/companies/03565"
        }
      }
    },
    {
      "name": "PRESERVATION TECHNOLOGIES IBÉRICA, SOCIEDAD LIMITADA",
      "registrationNumber": "03594",
      "identificationNumber": "B95495982",
      "address": "POLÍGONO INDUSTRIAL ERLETXE II, PLATAFORMA F, NAVE B 3-4",
      "location": {
        "postalCode": "48960",
        "municipality": "Galdakao",
        "county": "Bizkaia",
        "municipalityId": "036",
        "countyId": "48"
      },
      "object": "pte",
      "mainEntityOfPage": "https://www.contratacion.euskadi.eus/webkpe00-kperoc/es/ac71aBusquedaRegistrosWar/empresa/03594",
      "_links": {
        "self": {
          "name": "PRESERVATION TECHNOLOGIES IBÉRICA, SOCIEDAD LIMITADA",
          "href": "https://api.euskadi.eus/procurements/companies/03594"
        }
      }
    },
    {
      "name": "GAILUR ERAIKUNTZAK ETA ERREABILITAZIOAK, S.L.",
      "registrationNumber": "03595",
      "identificationNumber": "B95354437",
      "address": "ERRIBERA 107-BAJO",
      "location": {
        "postalCode": "48710",
        "municipality": "Berriatua",
        "county": "Bizkaia",
        "municipalityId": "018",
        "countyId": "48"
      },
      "object": "pte",
      "mainEntityOfPage": "https://www.contratacion.euskadi.eus/webkpe00-kperoc/es/ac71aBusquedaRegistrosWar/empresa/03595",
      "_links": {
        "self": {
          "name": "GAILUR ERAIKUNTZAK ETA ERREABILITAZIOAK, S.L.",
          "href": "https://api.euskadi.eus/procurements/companies/03595"
        }
      }
    },
    {
      "name": "LURLAN 2001, S.L.U.",
      "registrationNumber": "03601",
      "identificationNumber": "B95146080",
      "address": "ADOBERIA, 19 S.S. 3ºG",
      "location": {
        "postalCode": "48370",
        "municipality": "Bermeo",
        "county": "Bizkaia",
        "municipalityId": "017",
        "countyId": "48"
      },
      "object": "pte",
      "mainEntityOfPage": "https://www.contratacion.euskadi.eus/webkpe00-kperoc/es/ac71aBusquedaRegistrosWar/empresa/03601",
      "_links": {
        "self": {
          "name": "LURLAN 2001, S.L.U.",
          "href": "https://api.euskadi.eus/procurements/companies/03601"
        }
      }
    },
    {
      "name": "IZURUNTEC, S.L.",
      "registrationNumber": "03603",
      "identificationNumber": "B20808408",
      "address": "FUENTERRABÍA 50, 2º",
      "location": {
        "postalCode": "20005",
        "municipality": "Donostia / San Sebastián",
        "county": "Gipuzkoa",
        "municipalityId": "069",
        "countyId": "20"
      },
      "object": "pte",
      "mainEntityOfPage": "https://www.contratacion.euskadi.eus/webkpe00-kperoc/es/ac71aBusquedaRegistrosWar/empresa/03603",
      "_links": {
        "self": {
          "name": "IZURUNTEC, S.L.",
          "href": "https://api.euskadi.eus/procurements/companies/03603"
        }
      }
    }
  ]
}