{
  "totalItems": 9042,
  "totalPages": 905,
  "currentPage": 266,
  "itemsOfPage": 10,
  "items": [
    {
      "name": "FRANCISCO JAVIER SERRANO MORTE",
      "registrationNumber": "10340",
      "identificationNumber": "72802288C",
      "address": "Calle Felipe Gorriti nº43, bajo",
      "location": {
        "postalCode": "31003",
        "municipality": "Pamplona/Iruña",
        "county": "Navarra",
        "municipalityId": "201",
        "countyId": "31"
      },
      "economicActivities": [
        {
          "id": "2.421",
          "name": "Arquitectos técnicos y aparejadores",
          "_links": {
            "self": {
              "name": "Arquitectos técnicos y aparejadores",
              "href": "https://api.euskadi.eus/procurements/companies/economic-activities/2.421"
            }
          }
        }
      ],
      "certificateStartDate": "2025-09-19",
      "certificateEndDate": "2026-03-19",
      "object": "ARQUITECTOS TÉCNICOS Y APAREJADORES.",
      "mainEntityOfPage": "https://www.contratacion.euskadi.eus/webkpe00-kperoc/es/ac71aBusquedaRegistrosWar/empresa/10340",
      "_links": {
        "self": {
          "name": "FRANCISCO JAVIER SERRANO MORTE",
          "href": "https://api.euskadi.eus/procurements/companies/10340"
        }
      }
    },
    {
      "name": "BITGUNE DIGITALA, S.L.",
      "registrationNumber": "10339",
      "identificationNumber": "B95726832",
      "address": "Errekalde s/n",
      "location": {
        "postalCode": "48960",
        "municipality": "Galdakao",
        "county": "Bizkaia",
        "municipalityId": "036",
        "countyId": "48"
      },
      "economicActivities": [
        {
          "id": "1.845",
          "name": "Explotación electrónica por cuenta de terceros",
          "_links": {
            "self": {
              "name": "Explotación electrónica por cuenta de terceros",
              "href": "https://api.euskadi.eus/procurements/companies/economic-activities/1.845"
            }
          }
        }
      ],
      "certificateStartDate": "2025-09-19",
      "certificateEndDate": "2026-03-18",
      "object": "INFORMÁTICA, TELECOMUNICACIONES Y OFIMÁTICA.",
      "mainEntityOfPage": "https://www.contratacion.euskadi.eus/webkpe00-kperoc/es/ac71aBusquedaRegistrosWar/empresa/10339",
      "_links": {
        "self": {
          "name": "BITGUNE DIGITALA, S.L.",
          "href": "https://api.euskadi.eus/procurements/companies/10339"
        }
      }
    },
    {
      "name": "B.BRAUN SURGICAL, S.A.",
      "registrationNumber": "02592",
      "identificationNumber": "A61123782",
      "address": "CARRETERA DE TERRASA, 121",
      "location": {
        "postalCode": "08191",
        "municipality": "Rubí",
        "county": "Barcelona",
        "municipalityId": "184",
        "countyId": "08"
      },
      "economicActivities": [
        {
          "id": "1.254.2",
          "name": "Fabricación de especialidades y otros productos farmacéuticos",
          "_links": {
            "self": {
              "name": "Fabricación de especialidades y otros productos farmacéuticos",
              "href": "https://api.euskadi.eus/procurements/companies/economic-activities/1.254.2"
            }
          }
        },
        {
          "id": "1.482.2",
          "name": "Fabricación de artículos acabados de materias plásticas",
          "_links": {
            "self": {
              "name": "Fabricación de artículos acabados de materias plásticas",
              "href": "https://api.euskadi.eus/procurements/companies/economic-activities/1.482.2"
            }
          }
        },
        {
          "id": "1.619.2",
          "name": "Venta al por mayor de aparatos e instrumentos médicos, ortopédicos, ópticos",
          "_links": {
            "self": {
              "name": "Venta al por mayor de aparatos e instrumentos médicos, ortopédicos, ópticos",
              "href": "https://api.euskadi.eus/procurements/companies/economic-activities/1.619.2"
            }
          }
        }
      ],
      "certificateStartDate": "2025-09-19",
      "certificateEndDate": "2026-03-05",
      "object": "INVESTIGAR, DISEÑAR, FABRICAR, ALMACENAR Y COMERCIALIZAR (MERCADO INTERNO Y EXPORTACIÓN) EN ESPAÑA Y EN EL EXTRANJERO, TODA CLASE DE PRODUCTOS SANITARIOS Y ACCESORIOS TALES COMO SUTURAS QUIRÚRGICAS, MALLAS QUIRÚRGICAS, HEMOSTÁTICOS, ADHESIVOS QUIRÚRGICOS, SETS DE PROCEDIMIENTO QUIRÚRGICO Y PRODUCTOS PARA LA TERAPIA DE VACÍO ASÍ COMO CUALQUIER TIPO DE MATERIAL PARA USO DE MÉDICOS ESPECIALISTAS; APARATOS Y DISPOSITIVOS BIOLÓGICOS, MÉDICOS; INSTRUMENTAL QUIRÚRGICO; MATERIAL PARA VENDAJES; APARATOS Y ARTÍCULOS PARA FARMACIAS, LABORATORIOS, ESTABLECIMIENTOS SANITARIOS O VETERINARIOS CENTROS UNIVERSITARIOS Y OTROS. COMPRAR Y VENDER TODO TIPO DE MATERIAS PRIMAS EMPLEADAS EN LA ELABORACIÓN DE PRODUCTOS SANITARIOS ASÍ COMO MATERIALES SINTÉTICOS DE TODO TIPO EN ESPAÑA Y EN EL EXTRANJERO (MERCADO INTERNO, EXPORTACIÓN E IMPORTACIÓN). PRESTAR SERVICIOS DE DIRECCIÓN, CONSULTORÍA Y ASESORAMIENTO EN EL CAMPO MÉDICO EN GENERAL, INCLUYENDO PERO SIN RESTRICCIÓN A ELLO, MÉDICOS, ENFERMERAS, FARMACIAS, HOSPITALES Y OTRAS COMPAÑÍAS DE ESPAÑA Y DEL EXTRANJERO. GESTIONAR, ASESORAR Y PRESTAR SERVICIOS DE LOGÍSTICA Y DISTRIBUCIÓN, INFORMÁTICOS, CONTABLES, LABORALES, ADMINISTRATIVOS DE GESTIÓN DE EMPRESA, DE ESTRUCTURA DE LA MISMA, DE ESTRATEGIAS COMERCIALES E INDUSTRIALES, DE ORGANIZACIÓN INTERNA Y EXTERNA, DE RACIONALIZACIÓN Y PLANIFICACIÓN DE LA EMPRESA, DE LA PRODUCCIÓN Y DE LOS RECURSOS. PRESTAR SERVICIOS DE MANTENIMIENTO Y REPARACIÓN Y DE EQUIPOS O INSTRUMENTACIÓN DE TODA CLASE, ASÍ COMO DE APARATOS DE ELECTRO MEDICINA RELACIONADOS CON SU ÁMBITO DE ACTIVIDAD. GESTIONAR, ASESORAR Y PRESTAR SERVICIOS RELACIONADOS CON TEMAS REGULATORIOS, DE CALIDAD Y EN EL CAMPO DE LA INVESTIGACIÓN TANTO EN ESPAÑA COMO EN EL EXTRANJERO. PRESTAR, CEDER O ARRENDAR APARATOS, DISPOSITIVOS MÉDICO-QUIRÚRGICOS E INSTRUMENTAL QUIRÚRGICO DE TODA CLASE PARA INTERVENCIONES QUIRÚRGICAS. CREAR, DESARROLLAR APLICACIONES INFORMÁTICAS PARA EL USO Y SOPORTE A PROCESOS CLÍNICOS Y DE TRATAMIENTO EN DETERMINADAS ÁREAS, ESPECIALIDADES HOSPITALARIAS\n",
      "mainEntityOfPage": "https://www.contratacion.euskadi.eus/webkpe00-kperoc/es/ac71aBusquedaRegistrosWar/empresa/02592",
      "_links": {
        "self": {
          "name": "B.BRAUN SURGICAL, S.A.",
          "href": "https://api.euskadi.eus/procurements/companies/02592"
        }
      }
    },
    {
      "name": "GEZE IBERIA, S.L.",
      "registrationNumber": "10338",
      "identificationNumber": "B62645080",
      "address": "CARRER ANDORRA,24, 08830 SANT BOI DE LLOBREGAT",
      "location": {
        "postalCode": "08830",
        "municipality": "Sant Boi de Llobregat",
        "county": "Barcelona",
        "municipalityId": "200",
        "countyId": "08"
      },
      "economicActivities": [
        {
          "id": "1.314.1",
          "name": "Carpintería metálica",
          "_links": {
            "self": {
              "name": "Carpintería metálica",
              "href": "https://api.euskadi.eus/procurements/companies/economic-activities/1.314.1"
            }
          }
        }
      ],
      "certificateStartDate": "2025-09-19",
      "certificateEndDate": "2026-03-19",
      "object": "A) LA FABRICACIÓN DE OBJETOS METÁLICOS, EN ESPECIAL DE HERRAJES PARA LA CONSTRUCCIÓN. B) LA FABRICACIÓN E INSTALACIÓN DE ELEMENTOS DE PUERTAS Y FACHADAS, INCLUYENDO EL FUNCIONAMIENTO AUTOMÁTICO, ASÍ COMO EL CONTROL AUTOMÁTICO DE SUS INSTALACIONES. C) LA COMERCIALIZACIÓN Y DISTRIBUCIÓN DE LOS ARTÍCULOS INDICADOS EN LOS APARTADOS A) Y B) ANTERIORES, ASÍ COMO TODOS LOS SERVICIOS DE ASISTENCIA TÉCNICA RELACIONADOS CON ELLOS Y D) LA COMPRAVENTA, CESIÓN Y ARRENDAMIENTO DE TODA CLASE DE BIENES INMUEBLES.",
      "mainEntityOfPage": "https://www.contratacion.euskadi.eus/webkpe00-kperoc/es/ac71aBusquedaRegistrosWar/empresa/10338",
      "_links": {
        "self": {
          "name": "GEZE IBERIA, S.L.",
          "href": "https://api.euskadi.eus/procurements/companies/10338"
        }
      }
    },
    {
      "name": "ASOC DE YOGA TXIO",
      "registrationNumber": "08987",
      "identificationNumber": "G01523745",
      "address": "Ronzapil, 8",
      "location": {
        "postalCode": "01240",
        "municipality": "Alegría-Dulantzi",
        "county": "Araba/Álava",
        "municipalityId": "001",
        "countyId": "01"
      },
      "economicActivities": [
        {
          "id": "1.933.9",
          "name": "Otras actividades de enseñanza tales como idiomas, mecanografía",
          "_links": {
            "self": {
              "name": "Otras actividades de enseñanza tales como idiomas, mecanografía",
              "href": "https://api.euskadi.eus/procurements/companies/economic-activities/1.933.9"
            }
          }
        }
      ],
      "certificateStartDate": "2025-09-19",
      "certificateEndDate": "2026-03-16",
      "object": "LA DIFUSIÓN DEL YOGA Y EL CRECIMIENTO PERSONAL.",
      "mainEntityOfPage": "https://www.contratacion.euskadi.eus/webkpe00-kperoc/es/ac71aBusquedaRegistrosWar/empresa/08987",
      "_links": {
        "self": {
          "name": "ASOC DE YOGA TXIO",
          "href": "https://api.euskadi.eus/procurements/companies/08987"
        }
      }
    },
    {
      "name": "BEHARK ARKITEKTURA SLP",
      "registrationNumber": "06421",
      "identificationNumber": "B95923397",
      "address": "SAN FRANCISCO 38, BAJO DCHA.",
      "location": {
        "postalCode": "48003",
        "municipality": "Bilbao",
        "county": "Bizkaia",
        "municipalityId": "020",
        "countyId": "48"
      },
      "economicActivities": [
        {
          "id": "1.843.2",
          "name": "Servicios técnicos de arquitectura y urbanismo",
          "_links": {
            "self": {
              "name": "Servicios técnicos de arquitectura y urbanismo",
              "href": "https://api.euskadi.eus/procurements/companies/economic-activities/1.843.2"
            }
          }
        }
      ],
      "certificateStartDate": "2025-09-19",
      "certificateEndDate": "2026-03-18",
      "object": "LA SOCIEDAD TIENE COMO OBJETO EXCLUSIVO LA ACTIVIDAD PROPIA DEL EJERCICIO DE LA ARQUITECTURA Y EL URBANISMO",
      "mainEntityOfPage": "https://www.contratacion.euskadi.eus/webkpe00-kperoc/es/ac71aBusquedaRegistrosWar/empresa/06421",
      "_links": {
        "self": {
          "name": "BEHARK ARKITEKTURA SLP",
          "href": "https://api.euskadi.eus/procurements/companies/06421"
        }
      }
    },
    {
      "name": "LURPROMAD, S.L.",
      "registrationNumber": "09972",
      "identificationNumber": "B95504767",
      "address": "Avenida Ramón y Cajal 41-1B (48014)",
      "location": {
        "postalCode": "48014",
        "municipality": "Bilbao",
        "county": "Bizkaia",
        "municipalityId": "020",
        "countyId": "48"
      },
      "economicActivities": [
        {
          "id": "1.501.1",
          "name": "Construcción completa, reparación y conservación de edificaciones",
          "_links": {
            "self": {
              "name": "Construcción completa, reparación y conservación de edificaciones",
              "href": "https://api.euskadi.eus/procurements/companies/economic-activities/1.501.1"
            }
          }
        }
      ],
      "certificateStartDate": "2025-09-19",
      "certificateEndDate": "2026-03-17",
      "object": "1.- LA ADQUISICIÓN POR CUALQUIER TÍTULO DE TERRENOS, FINCAS RÚSTICAS Y URBANAS, LA CONSTRUCCIÓN Y PROMOCIÓN INMOBILIARIA, ASÍ COMO LA ADMINISTRACIÓN, TENENCIA, EXPLOTACIÓN Y ARRENDAMIENTO DE TALES BIENES Y SU VENTA TOTAL O PARCIAL, SEGÚN CONVENGA, PARA SU APROVECHAMIENTO AGRÍCOLA, FORESTAL, URBANO, INDUSTRIAL O CUALQUIER OTRO. 2.- LA CONSTRUCCIÓN COMPLETA, REHABILITACIÓN, REPARACIÓN Y CONSERVACIÓN DE EDIFICACIONES Y OBRAS CIVILES, VIALES, CALLES, JARDINES, AUTOPISTAS, INCLUSO LIMPIEZA Y BARRIDO DE LOS MISMOS UTILIZANDO PARA ELLO BIEN MAQUINARIA PROPIA O AJENA. 3.- EJECUCIÓN Y MANTENIMIENTO DE INSTALACIONES MECÁNICAS EN GENERAL, INSTALACIONES FRIGORÍFICAS, INSTALACIONES DE CALEFACCIÓN, VENTILACIÓN Y CLIMATIZACIÓN, INSTALACIONES ELEVADORES Y TRANSPORTADORAS E INSTALACIONES DE TRATAMIENTO DE AGUAS DE TODO TIPO. 4.- REDACCIÓN Y CONFECCIÓN DE PROYECTOS TÉCNICOS DE TODO TIPO, DIRECCIÓN DE OBRA Y CONTROL DE CALIDAD, REALIZACIÓN DE ESTUDIOS E INFORMES Y ASESORAMIENTO TÉCNICO. 5.- LA ADQUISICIÓN, CESIÓN, INVERSIÓN, TENENCIA, DISFRUTE, ADMINISTRACIÓN, GESTIÓN Y NEGOCIACIÓN DE TODA CLASE DE TÍTULOS Y VALORES MOBILIARIOS, COTIZADOS EN BOLSA O NO, SIN INCIDIR EN LAS OPERACIONES A QUE SE REFIERE LA LEY 46/84 DE INVERSIONES COLECTIVAS. 6.- CONTRATAR OBRAS Y SERVICIOS CON CUALQUIER ORGANISMO DE LAS ADMINISTRACIONES PÚBLICAS Y CON ENTIDADES Y PARTICULARES. 7.- LA REPRESENTACIÓN COMO AGENTE, COMISIONISTA, DELEGADO O CUALQUIER OTRA FORMA DE MEDIACIÓN MERCANTIL DE EMPRESAS NACIONALES O EXTRANJERAS, DE TODA ÍNDOLE, ASÍ COMO LA EXPLOTACIÓN DE PATENTES Y DEMÁS DERECHOS DE PROPIEDAD, INDUSTRIA, INCLUIDOS LOS MÉTODOS, PROCEDIMIENTOS Y ORGANIZACIÓN DE TRABAJOS INDUSTRIALES, COMERCIALES O DE OTRA ÍNDOLE.",
      "mainEntityOfPage": "https://www.contratacion.euskadi.eus/webkpe00-kperoc/es/ac71aBusquedaRegistrosWar/empresa/09972",
      "_links": {
        "self": {
          "name": "LURPROMAD, S.L.",
          "href": "https://api.euskadi.eus/procurements/companies/09972"
        }
      }
    },
    {
      "name": "RADIMER SERVICIOS ENERGÉTICOS, S.L.",
      "registrationNumber": "04224",
      "identificationNumber": "B95293205",
      "address": "POL. IND. TRAPAGA-CAUSO 12-13. Carretera de San Vicente, nº 20",
      "location": {
        "postalCode": "48510",
        "municipality": "Valle de Trápaga-Trapagaran",
        "county": "Bizkaia",
        "municipalityId": "080",
        "countyId": "48"
      },
      "economicActivities": [
        {
          "id": "1.504.12",
          "name": "Instalaciones eléctricas en toda clase de edificios",
          "_links": {
            "self": {
              "name": "Instalaciones eléctricas en toda clase de edificios",
              "href": "https://api.euskadi.eus/procurements/companies/economic-activities/1.504.12"
            }
          }
        }
      ],
      "certificateStartDate": "2025-09-19",
      "certificateEndDate": "2026-02-28",
      "classification": [
        {
          "id": "O",
          "name": "Obras",
          "groups": [
            {
              "id": "I",
              "name": "INSTALACIONES ELÉCTRICAS",
              "subgroups": [
                {
                  "id": "01",
                  "name": "Alumbrados, iluminaciones y balizamientos",
                  "categories": [
                    {
                      "id": "4",
                      "name": "Desde 840.001 Hasta 2.400.000",
                      "_links": {
                        "self": {
                          "name": "Desde 840.001 Hasta 2.400.000",
                          "href": "https://api.euskadi.eus/procurements/companies/types/O/categories/4"
                        }
                      }
                    }
                  ],
                  "_links": {
                    "self": {
                      "name": "Alumbrados, iluminaciones y balizamientos",
                      "href": "https://api.euskadi.eus/procurements/companies/types/O/groups/I/subgroups/01"
                    }
                  }
                },
                {
                  "id": "05",
                  "name": "Centros de transformación y distribución en alta tensión",
                  "categories": [
                    {
                      "id": "2",
                      "name": "Desde 150.001 Hasta 360.000",
                      "_links": {
                        "self": {
                          "name": "Desde 150.001 Hasta 360.000",
                          "href": "https://api.euskadi.eus/procurements/companies/types/O/categories/2"
                        }
                      }
                    }
                  ],
                  "_links": {
                    "self": {
                      "name": "Centros de transformación y distribución en alta tensión",
                      "href": "https://api.euskadi.eus/procurements/companies/types/O/groups/I/subgroups/05"
                    }
                  }
                },
                {
                  "id": "06",
                  "name": "Distribución en baja tensión",
                  "categories": [
                    {
                      "id": "4",
                      "name": "Desde 840.001 Hasta 2.400.000",
                      "_links": {
                        "self": {
                          "name": "Desde 840.001 Hasta 2.400.000",
                          "href": "https://api.euskadi.eus/procurements/companies/types/O/categories/4"
                        }
                      }
                    }
                  ],
                  "_links": {
                    "self": {
                      "name": "Distribución en baja tensión",
                      "href": "https://api.euskadi.eus/procurements/companies/types/O/groups/I/subgroups/06"
                    }
                  }
                },
                {
                  "id": "07",
                  "name": "Telecomunicaciones e instalaciones radioeléctricas",
                  "categories": [
                    {
                      "id": "3",
                      "name": "Desde 360.001 Hasta 840.000",
                      "_links": {
                        "self": {
                          "name": "Desde 360.001 Hasta 840.000",
                          "href": "https://api.euskadi.eus/procurements/companies/types/O/categories/3"
                        }
                      }
                    }
                  ],
                  "_links": {
                    "self": {
                      "name": "Telecomunicaciones e instalaciones radioeléctricas",
                      "href": "https://api.euskadi.eus/procurements/companies/types/O/groups/I/subgroups/07"
                    }
                  }
                },
                {
                  "id": "08",
                  "name": "Instalaciones electrónicas",
                  "categories": [
                    {
                      "id": "4",
                      "name": "Desde 840.001 Hasta 2.400.000",
                      "_links": {
                        "self": {
                          "name": "Desde 840.001 Hasta 2.400.000",
                          "href": "https://api.euskadi.eus/procurements/companies/types/O/categories/4"
                        }
                      }
                    }
                  ],
                  "_links": {
                    "self": {
                      "name": "Instalaciones electrónicas",
                      "href": "https://api.euskadi.eus/procurements/companies/types/O/groups/I/subgroups/08"
                    }
                  }
                },
                {
                  "id": "09",
                  "name": "Instalaciones eléctricas sin cualificación específica",
                  "categories": [
                    {
                      "id": "4",
                      "name": "Desde 840.001 Hasta 2.400.000",
                      "_links": {
                        "self": {
                          "name": "Desde 840.001 Hasta 2.400.000",
                          "href": "https://api.euskadi.eus/procurements/companies/types/O/categories/4"
                        }
                      }
                    }
                  ],
                  "_links": {
                    "self": {
                      "name": "Instalaciones eléctricas sin cualificación específica",
                      "href": "https://api.euskadi.eus/procurements/companies/types/O/groups/I/subgroups/09"
                    }
                  }
                }
              ],
              "_links": {
                "self": {
                  "name": "INSTALACIONES ELÉCTRICAS",
                  "href": "https://api.euskadi.eus/procurements/companies/types/O/groups/I"
                }
              }
            },
            {
              "id": "K",
              "name": "ESPECIALES",
              "subgroups": [
                {
                  "id": "09",
                  "name": "Instalaciones contra incendios",
                  "categories": [
                    {
                      "id": "2",
                      "name": "Desde 150.001 Hasta 360.000",
                      "_links": {
                        "self": {
                          "name": "Desde 150.001 Hasta 360.000",
                          "href": "https://api.euskadi.eus/procurements/companies/types/O/categories/2"
                        }
                      }
                    }
                  ],
                  "_links": {
                    "self": {
                      "name": "Instalaciones contra incendios",
                      "href": "https://api.euskadi.eus/procurements/companies/types/O/groups/K/subgroups/09"
                    }
                  }
                }
              ],
              "_links": {
                "self": {
                  "name": "ESPECIALES",
                  "href": "https://api.euskadi.eus/procurements/companies/types/O/groups/K"
                }
              }
            }
          ],
          "_links": {
            "self": {
              "name": "Obras",
              "href": "https://api.euskadi.eus/procurements/companies/types/O"
            }
          }
        },
        {
          "id": "S",
          "name": "Servicios",
          "groups": [
            {
              "id": "P",
              "subgroups": [
                {
                  "id": "01",
                  "name": "Mantenimiento y reparación de equipos e instalaciones eléctricas y electrónicas",
                  "categories": [
                    {
                      "id": "5",
                      "name": "Mas de 1.200.000",
                      "_links": {
                        "self": {
                          "name": "Mas de 1.200.000",
                          "href": "https://api.euskadi.eus/procurements/companies/types/S/categories/5"
                        }
                      }
                    }
                  ],
                  "_links": {
                    "self": {
                      "name": "Mantenimiento y reparación de equipos e instalaciones eléctricas y electrónicas",
                      "href": "https://api.euskadi.eus/procurements/companies/types/S/groups/P/subgroups/01"
                    }
                  }
                },
                {
                  "id": "05",
                  "name": "Mtto. y reparación de equipos e instalaciones de de seguridad y contra incendios",
                  "categories": [
                    {
                      "id": "3",
                      "name": "Desde 300.001 Hasta 600.000",
                      "_links": {
                        "self": {
                          "name": "Desde 300.001 Hasta 600.000",
                          "href": "https://api.euskadi.eus/procurements/companies/types/S/categories/3"
                        }
                      }
                    }
                  ],
                  "_links": {
                    "self": {
                      "name": "Mtto. y reparación de equipos e instalaciones de de seguridad y contra incendios",
                      "href": "https://api.euskadi.eus/procurements/companies/types/S/groups/P/subgroups/05"
                    }
                  }
                }
              ],
              "_links": {
                "self": {
                  "href": "https://api.euskadi.eus/procurements/companies/types/S/groups/P"
                }
              }
            }
          ],
          "_links": {
            "self": {
              "name": "Servicios",
              "href": "https://api.euskadi.eus/procurements/companies/types/S"
            }
          }
        }
      ],
      "object": "TODO TIPO DE INSTALACIONES Y REPARACIONES ELÉCTRICAS DE ALTA Y BAJA TENSIÓN, CONEXIONES A REDES, ASÍ COMO TENDIDOS DE REDES TELEFÓNICAS, TELEGRÁFICAS Y DE COMUNICACIÓN, REPARACIONES E INSTALACIONES DE TELEFÓNICAS Y DE TELEFONÍA MÓVIL, REPRESENTACIONES Y DISTRIBUCIÓN DE MATERIAL ELÉCTRICO Y DE TELECOMUNICACIONES",
      "mainEntityOfPage": "https://www.contratacion.euskadi.eus/webkpe00-kperoc/es/ac71aBusquedaRegistrosWar/empresa/04224",
      "_links": {
        "self": {
          "name": "RADIMER SERVICIOS ENERGÉTICOS, S.L.",
          "href": "https://api.euskadi.eus/procurements/companies/04224"
        }
      }
    },
    {
      "name": "SPYRO SOFTWARE, S.L.",
      "registrationNumber": "08685",
      "identificationNumber": "B20900601",
      "address": "Paseo Miramón 200 2",
      "location": {
        "postalCode": "20014",
        "municipality": "Donostia / San Sebastián",
        "county": "Gipuzkoa",
        "municipalityId": "069",
        "countyId": "20"
      },
      "economicActivities": [
        {
          "id": "1.659.2",
          "name": "Venta al por menor de muebles de oficina y máquinas y equipos de oficina",
          "_links": {
            "self": {
              "name": "Venta al por menor de muebles de oficina y máquinas y equipos de oficina",
              "href": "https://api.euskadi.eus/procurements/companies/economic-activities/1.659.2"
            }
          }
        },
        {
          "id": "1.845",
          "name": "Explotación electrónica por cuenta de terceros",
          "_links": {
            "self": {
              "name": "Explotación electrónica por cuenta de terceros",
              "href": "https://api.euskadi.eus/procurements/companies/economic-activities/1.845"
            }
          }
        },
        {
          "id": "1.861.2",
          "name": "Alquiler de locales industriales y otros alquileres n.c.o.p",
          "_links": {
            "self": {
              "name": "Alquiler de locales industriales y otros alquileres n.c.o.p",
              "href": "https://api.euskadi.eus/procurements/companies/economic-activities/1.861.2"
            }
          }
        }
      ],
      "certificateStartDate": "2025-09-19",
      "certificateEndDate": "2026-03-03",
      "object": "EL CUMPLIMIENTO DE LAS SIGUIENTES ACTIVIDADES: ESTUDIOS, PROYECTOS, Y DISEÑOS INFORMÁTICOS Y SUS CORRESPONDIENTES ANÁLISIS Y PROGRAMACIÓN, ASÍ COMO LA DISTRIBUCIÓN DE PROYECTOS INFORMÁTICOS, Y EN GENERAL, EL DESEMPEÑO DE TODAS LAS ACTIVIDADES DERIVADAS Y/O RELACIONADAS CON LA ACTIVIDAD INFORMÁTICA.",
      "mainEntityOfPage": "https://www.contratacion.euskadi.eus/webkpe00-kperoc/es/ac71aBusquedaRegistrosWar/empresa/08685",
      "_links": {
        "self": {
          "name": "SPYRO SOFTWARE, S.L.",
          "href": "https://api.euskadi.eus/procurements/companies/08685"
        }
      }
    },
    {
      "name": "MERMAID MEDICAL IBERIA, S.L.",
      "registrationNumber": "08990",
      "identificationNumber": "B86480902",
      "address": "Plaza de Grecia, 1 local 19",
      "location": {
        "postalCode": "45005",
        "municipality": "Toledo",
        "county": "Toledo",
        "municipalityId": "168",
        "countyId": "45"
      },
      "economicActivities": [
        {
          "id": "1.614.1",
          "name": "Venta al por mayor de productos farmacéuticos y medicamentos",
          "_links": {
            "self": {
              "name": "Venta al por mayor de productos farmacéuticos y medicamentos",
              "href": "https://api.euskadi.eus/procurements/companies/economic-activities/1.614.1"
            }
          }
        }
      ],
      "certificateStartDate": "2025-09-19",
      "certificateEndDate": "2026-03-18",
      "object": "INTERMEDIACIÓN, COMPRAVENTA Y DISTRIBUCIÓN DE ARTÍCULOS Y PRODUCTOS HOSPITALARIOS.",
      "mainEntityOfPage": "https://www.contratacion.euskadi.eus/webkpe00-kperoc/es/ac71aBusquedaRegistrosWar/empresa/08990",
      "_links": {
        "self": {
          "name": "MERMAID MEDICAL IBERIA, S.L.",
          "href": "https://api.euskadi.eus/procurements/companies/08990"
        }
      }
    }
  ]
}