{
  "totalItems": 9042,
  "totalPages": 905,
  "currentPage": 697,
  "itemsOfPage": 10,
  "items": [
    {
      "name": "INVESCO 2000, S.L.",
      "registrationNumber": "02296",
      "identificationNumber": "B48894794",
      "address": "C/ LEDESMA, Nº 7 -1º A",
      "location": {
        "postalCode": "48001",
        "municipality": "Bilbao",
        "county": "Bizkaia",
        "municipalityId": "020",
        "countyId": "48"
      },
      "economicActivities": [
        {
          "id": "1.844",
          "name": "Servicios de publicidad, relaciones públicas y similares",
          "_links": {
            "self": {
              "name": "Servicios de publicidad, relaciones públicas y similares",
              "href": "https://api.euskadi.eus/procurements/companies/economic-activities/1.844"
            }
          }
        }
      ],
      "certificateStartDate": "2012-05-30",
      "certificateEndDate": "2012-11-09",
      "object": "EL EJERCICIO DE ACTIVIDADES PUBLICITARIAS EN GENERAL, DISEÑO DE IMÁGENES CORPORATIVAS, ASESORAMIENTO DE IMAGEN Y COMUNICACIÓN, DISEÑO DE PLANES DE COMUNICACIÓN POR CUENTA PROPIA O DE TERCEROS, Y CUANTAS OTRAS ACTIVIDADES SEAN NECESARIAS, CONSECUENTES O CONVENIENTES PARA LA REALIZACIÓN DE LO ANTES EXPRESADO. EL TRATAMIENTO EN GENERAL DE LA INFORMACIÓN, INVESTIGACIONES SOCIOLÓGICAS POR CUENTA PROPIA O DE TERCEROS Y LAS ACTIVIDADES NECESARIAS PARA LA CONSECUCIÓN DEL FIN PREVISTO.",
      "mainEntityOfPage": "https://www.contratacion.euskadi.eus/webkpe00-kperoc/es/ac71aBusquedaRegistrosWar/empresa/02296",
      "_links": {
        "self": {
          "name": "INVESCO 2000, S.L.",
          "href": "https://api.euskadi.eus/procurements/companies/02296"
        }
      }
    },
    {
      "name": "TXUKUNBERRI OSOKO ZERBITZUAK, S.L.",
      "registrationNumber": "03012",
      "identificationNumber": "B95300331",
      "address": "MURUETA TORRE, Nº 8. PISO BAJO.",
      "location": {
        "postalCode": "48215",
        "municipality": "Durango",
        "county": "Bizkaia",
        "municipalityId": "027",
        "countyId": "48"
      },
      "economicActivities": [
        {
          "id": "1.673.2",
          "name": "Otros cafés y bares",
          "_links": {
            "self": {
              "name": "Otros cafés y bares",
              "href": "https://api.euskadi.eus/procurements/companies/economic-activities/1.673.2"
            }
          }
        },
        {
          "id": "1.921.1",
          "name": "Servicios de limpieza en calles, vías públicas y jardines",
          "_links": {
            "self": {
              "name": "Servicios de limpieza en calles, vías públicas y jardines",
              "href": "https://api.euskadi.eus/procurements/companies/economic-activities/1.921.1"
            }
          }
        },
        {
          "id": "1.922.1",
          "name": "Servicios de limpieza de interiores",
          "_links": {
            "self": {
              "name": "Servicios de limpieza de interiores",
              "href": "https://api.euskadi.eus/procurements/companies/economic-activities/1.922.1"
            }
          }
        }
      ],
      "certificateStartDate": "2012-05-30",
      "certificateEndDate": "2012-10-10",
      "object": "- LA INCORPORACIÓN AL MERCADO LABORAL DE COLECTIVOS EN SITUACIÓN DE DESVENTAJA SOCIAL O EXCLUSIÓN Y LLEVEN A CABO UN PROYECTO PERSONAL DE INSERCIÓN MENDIANTE UN PROCESO DE APRENDIZAJE ADECUADO QUE CONTEMPLE LAS HABLIDADES SOCIALES, LABORALES, FORMACIÓN BÁSICA, CUALIFICACIÓN LABORAL Y CONOCIMIENTOS DEL MERCADO QUE LES PERMITA MEJORAR SUS CONDICIONES DE EMPLEABILIDAD. - LA REALIZACIÓN DE TRABAJOS Y PRESTACIÓN DE SERVICIOS DE LIMPIEZA, CONSERVACIÓN Y MANTENIMIENTO DE TODA CLASE DE INMUEBLES, MUEBLES, VEHÍCULOS, BUQUES, INSTALACIONES Y EQUIPOS. - LA PROMOCIÓN, DESARROLLO Y GESTIÓN DE TODO TIPO DE INICIATIVAS ENCAMINADAS A CONSEGUIR LA INSERCIÓN LABORAL DE TODAS LAS PERSONAS. - LA PROMOCIÓN, DESARROLLO Y GESTIÓN DE TODA CLASE DE INICIATIVAS QUE TENGAN  POR FINALIDAD MEJORAR Y POTENCIAR LOS SERVICIOS COMUNITARIOS Y LAS ACTIVIDADES DE FORMACIÓN, EMPLEO, INVESTIGACIÓN Y DIFUSIÓN. - LA PRESTACIÓN DE SERVICIOS DE FORMACIÓN PARA EL APRENDIZAJE DE CUALQUIER ACTIVIDAD PROFESIONAL Y PARA LA ADECUACIÓN DEL NIVEL FORMATIVO O LAS COMPETENCIAS PROFESIONALES A LAS EXIGENCIAS DEL MERCADO LABORAL",
      "mainEntityOfPage": "https://www.contratacion.euskadi.eus/webkpe00-kperoc/es/ac71aBusquedaRegistrosWar/empresa/03012",
      "_links": {
        "self": {
          "name": "TXUKUNBERRI OSOKO ZERBITZUAK, S.L.",
          "href": "https://api.euskadi.eus/procurements/companies/03012"
        }
      }
    },
    {
      "name": "KELSALIM ZERBITZUAK, S.L.",
      "registrationNumber": "03432",
      "identificationNumber": "B01415553",
      "address": "poligono mugitegi vial E pab 22",
      "location": {
        "postalCode": "20700",
        "municipality": "Urretxu",
        "county": "Gipuzkoa",
        "municipalityId": "077",
        "countyId": "20"
      },
      "economicActivities": [
        {
          "id": "1.922",
          "name": "Servicios de limpieza",
          "_links": {
            "self": {
              "name": "Servicios de limpieza",
              "href": "https://api.euskadi.eus/procurements/companies/economic-activities/1.922"
            }
          }
        }
      ],
      "certificateStartDate": "2012-05-28",
      "certificateEndDate": "2012-10-15",
      "classification": [
        {
          "id": "S",
          "name": "Servicios",
          "groups": [
            {
              "id": "U",
              "subgroups": [
                {
                  "id": "01",
                  "name": "Servicios de limpieza ",
                  "categories": [
                    {
                      "id": "4",
                      "name": "Desde 600.001 Hasta 1.1200.000",
                      "_links": {
                        "self": {
                          "name": "Desde 600.001 Hasta 1.1200.000",
                          "href": "https://api.euskadi.eus/procurements/companies/types/S/categories/4"
                        }
                      }
                    }
                  ],
                  "_links": {
                    "self": {
                      "name": "Servicios de limpieza ",
                      "href": "https://api.euskadi.eus/procurements/companies/types/S/groups/U/subgroups/01"
                    }
                  }
                }
              ],
              "_links": {
                "self": {
                  "href": "https://api.euskadi.eus/procurements/companies/types/S/groups/U"
                }
              }
            }
          ],
          "_links": {
            "self": {
              "name": "Servicios",
              "href": "https://api.euskadi.eus/procurements/companies/types/S"
            }
          }
        }
      ],
      "object": "CUALQUIER ACTIVIDAD RELACIONADA CON LA LIMPIEZA PÚBLICA VIARIA, RIEGOS, RECOGIDA DOMICILIARIA DE BASURAS, GESTIÓN DE ELIMINACIÓN DE RESIDUOS, RECOGIDA SELECTIVA, PLANTAS DE RECICLAJE, LIMPIEZA Y CONSERVACIÓN DE ALCANTARILLADO. FABRICACIÓN Y COMERCIALIZACIÓN DE MATERIALES, PRODUCTOS Y MAQUINARIA DE LIMPIEZA. CUALQUIER ACTIVIDAD RELACIONADA CON LA JARDINERÍA PÚBLICA, INDUSTRIAL Y PARTICULAR, INCLUYÉNDOSE EL DISEÑO, PLANTACIÓN, MANTENIMIENTO DE JARDINES INTERIORES Y EXTERIORES, EL CULTIVO DE PLANTAS Y ÁRBOLES, LA FABRICACIÓN Y COMERCIALIZACIÓN  DE MATERIALES, PRODUCTOS Y MAQUINARIA PARA EL SECTOR. CUALQUIER ACTIVIDAD RELACIONADA CON LOS SERVICIOS SOCIALES. Y CUALQUIER ACTIVIDAD RELACIONADA CON LA HOSTELERÍA",
      "mainEntityOfPage": "https://www.contratacion.euskadi.eus/webkpe00-kperoc/es/ac71aBusquedaRegistrosWar/empresa/03432",
      "_links": {
        "self": {
          "name": "KELSALIM ZERBITZUAK, S.L.",
          "href": "https://api.euskadi.eus/procurements/companies/03432"
        }
      }
    },
    {
      "name": "G2C, S.A.",
      "registrationNumber": "01355",
      "identificationNumber": "A48116073",
      "address": "C/ DIPUTACIÓN, Nº 4 BIS - 7º.",
      "location": {
        "postalCode": "48009",
        "municipality": "Bilbao",
        "county": "Bizkaia",
        "municipalityId": "020",
        "countyId": "48"
      },
      "economicActivities": [
        {
          "id": "1.844",
          "name": "Servicios de publicidad, relaciones públicas y similares",
          "_links": {
            "self": {
              "name": "Servicios de publicidad, relaciones públicas y similares",
              "href": "https://api.euskadi.eus/procurements/companies/economic-activities/1.844"
            }
          }
        }
      ],
      "certificateStartDate": "2012-05-24",
      "certificateEndDate": "2012-11-03",
      "object": "EL DESARROLLO DE FUNCIONES DE ASESORÍA Y GESTIÓN COMERCIAL EN TODA SU AMPLITUD, ESPECIALMENTE EN LAS FACETAS RELACIONADAS CON CREATIVIDAD, MARKETING Y DESARROLLO PUBLICITARIO. ASIMISMO, TIENE COMO OBJETO REALIZAR TODA CLASE DE OPERACIONES COMERCIALES Y LAS ACTIVIDADES RELACIONADAS DIRECTA O INDIRECTAMENTE CON DICHO OBJETO SOCIAL",
      "mainEntityOfPage": "https://www.contratacion.euskadi.eus/webkpe00-kperoc/es/ac71aBusquedaRegistrosWar/empresa/01355",
      "_links": {
        "self": {
          "name": "G2C, S.A.",
          "href": "https://api.euskadi.eus/procurements/companies/01355"
        }
      }
    },
    {
      "name": "MARREGI CONTRATAS, S.L.",
      "registrationNumber": "04410",
      "identificationNumber": "B75014522",
      "address": "DONOSTIA IBILBIDEA, 124-PAB. 9",
      "location": {
        "postalCode": "20115",
        "municipality": "Astigarraga",
        "county": "Gipuzkoa",
        "municipalityId": "903",
        "countyId": "20"
      },
      "economicActivities": [
        {
          "id": "1.507",
          "name": "Construcción, reparación y conservación de toda clase obras",
          "_links": {
            "self": {
              "name": "Construcción, reparación y conservación de toda clase obras",
              "href": "https://api.euskadi.eus/procurements/companies/economic-activities/1.507"
            }
          }
        }
      ],
      "certificateStartDate": "2012-05-23",
      "certificateEndDate": "2012-09-20",
      "object": "LA CONSTRUCCIÓN, PROMOCIÓN, REALIZACIÓN DE TRABAJOS DE PINTURA, ALBAÑILERÍA Y EN GENERAL REHABILITACIÓN Y REFORMA DE VIVIENDAS, EDIFICIOS, PABELLONES INDUSTRIALES, LOCALES COMERCIALES Y TODA CLASE DE BIENES INMUEBLES, INCLUÍDOS FACHADAS Y TEJADOS DE LOS MISMOS",
      "mainEntityOfPage": "https://www.contratacion.euskadi.eus/webkpe00-kperoc/es/ac71aBusquedaRegistrosWar/empresa/04410",
      "_links": {
        "self": {
          "name": "MARREGI CONTRATAS, S.L.",
          "href": "https://api.euskadi.eus/procurements/companies/04410"
        }
      }
    },
    {
      "name": "EUSKOTEC VOICE, S.L.",
      "registrationNumber": "04737",
      "identificationNumber": "B95531695",
      "address": "ATXURI, 18-1ºD",
      "location": {
        "postalCode": "48006",
        "municipality": "Bilbao",
        "county": "Bizkaia",
        "municipalityId": "020",
        "countyId": "48"
      },
      "economicActivities": [
        {
          "id": "1.504.7",
          "name": "Instalaciones telefónicas, telegráficas, televisión, etc",
          "_links": {
            "self": {
              "name": "Instalaciones telefónicas, telegráficas, televisión, etc",
              "href": "https://api.euskadi.eus/procurements/companies/economic-activities/1.504.7"
            }
          }
        }
      ],
      "certificateStartDate": "2012-05-23",
      "certificateEndDate": "2012-11-18",
      "object": "LA PRESTACIÓN DE SERVICIOS DE CONSULTORÍA, INSTALACIÓN Y MANTENIMIENTO DE REDES DE INFORMACIÓN, TELEFONÍA Y TELECOMUNICACIONES EN GENERAL, LO QUE INCLUYE INFRAESTRUCTURAS DE RED, INFRAESTRUCTURAS DE SISTEMA, SISTEMAS DE GESTIÓN, PLANES DE MIGRACIÓN E IMPLEMENTACIÓN, SISTEMAS DE SEGURIDAD Y AUDITORIAS; LA REALIZACIÓN DE ESTUDIOS, DISEÑOS, PROYECTOS, CÁLCULOS Y MEMORIAS TÉCNICAS Y ECONÓMICAS RELATIVAS A TALES ACTIVIDADES; LA REFORMA, MEJORA Y AMPLIACIÓN DE LAS IMPLANTACIONES REALIZADAS, SU MONITORIZACIÓN, MIGRACIÓN, IMPLEMENTACIÓN Y PUESTA EN MARCHA; EL ASESORAMIENTO, CONSULTA, CONTROL, DIRECCIÓN, GESTIÓN, ADMINISTRACIÓN Y AUDITORIA DE TRABAJOS RELACIONADOS CON LA INGENIERÍA DE SISTEMAS DE INFORMACIÓN Y TELECOMUNICACIONES, Y SU SEGURIDAD. LA ORGANIZACIÓN E IMPARTICIÓN DE CLASES, CURSILLOS Y CUALQUIER OTRO TIPO DE FORMACIÓN; EL DISEÑO Y LA REALIZACIÓN DE TODA CLASE DE MATERIAL DIDÁCTICO, DIVULGATIVO O PUBLICITARIO, INCLUSO EXPOSICIONES, EVENTOS, VISITAS Y ENCUENTROS, ASÍ COMO LA INVESTIGACIÓN Y EL DESARROLLO DE NUEVAS INVENCIONES, PROGRAMAS, APLICACIONES Y SISTEMAS, ESPECIALMENTE, PERO NO EXCLUSIVAMENTE, LOS RELACIONADOS CON MATERIAS DE INFORMÁTICA, REDES DE INFORMACIÓN Y TELECOMUNICACIONES. EL ENSAMBLAJE, FABRICACIÓN, COMPRAVENTA, DISTRIBUCIÓN Y COMERCIALIZACIÓN DE PRODUCTOS, EQUIPOS Y ACCESORIOS RELACIONADOS CON LAS ACTIVIDADES ANTERIORMENTE MENCIONADAS Y CON CUALESQUIERA OTRAS DERIVADAS DE LAS MISMAS. LA ADQUISICIÓN, TENENCIA, EXPLOTACIÓN Y ENAJENACIÓN DE BIENES INMUEBLES.",
      "mainEntityOfPage": "https://www.contratacion.euskadi.eus/webkpe00-kperoc/es/ac71aBusquedaRegistrosWar/empresa/04737",
      "_links": {
        "self": {
          "name": "EUSKOTEC VOICE, S.L.",
          "href": "https://api.euskadi.eus/procurements/companies/04737"
        }
      }
    },
    {
      "name": "EUSKOTEC SYSTEMS, S.L.",
      "registrationNumber": "04738",
      "identificationNumber": "B95548103",
      "address": "Deustuko Zubia, 1-7ºB",
      "location": {
        "postalCode": "48014",
        "municipality": "Bilbao",
        "county": "Bizkaia",
        "municipalityId": "020",
        "countyId": "48"
      },
      "economicActivities": [
        {
          "id": "1.845",
          "name": "Explotación electrónica por cuenta de terceros",
          "_links": {
            "self": {
              "name": "Explotación electrónica por cuenta de terceros",
              "href": "https://api.euskadi.eus/procurements/companies/economic-activities/1.845"
            }
          }
        },
        {
          "id": "1.934",
          "name": "Enseñanza fuera de establecimiento permanente",
          "_links": {
            "self": {
              "name": "Enseñanza fuera de establecimiento permanente",
              "href": "https://api.euskadi.eus/procurements/companies/economic-activities/1.934"
            }
          }
        }
      ],
      "certificateStartDate": "2012-05-23",
      "certificateEndDate": "2012-11-18",
      "object": "LA PRESTACIÓN DE SERVICIOS DE CONSULTORÍA, INSTALACIÓN, MANTENIMIENTO Y DESARROLLO INTEGRAL DE REDES DE INFORMACIÓN, TELEFONÍA Y TELECOMUNICACIONES EN GENERAL, LO QUE INCLUYE TODOS LOS CAMPOS DE LAS TECNOLOGÍAS DE LA INFORMACIÓN, TALES COMO INTERNET, REDES FÍSICAS E INALÁMBRICAS, PÁGINAS WEB, CORREO ELECTRÓNICO, COMERCIO ELECTRÓNICO, TELEFONÍA POR INTERNET, SISTEMAS DE ALARMA Y SEGURIDAD, CONTROL Y MONITORIZACIÓN DE ACCESOS Y ESPACIOS, HOSPEDAJE Y ALMACENAMIENTO DE DATOS, ETC., INCLUIDOS LA PRESTACIÓN DE SERVICIOS Y EL ESTABLECIMIENTO O EXPLOTACIÓN DE REDES DE TELECOMUNICACIONES CONTEMPLADOS EN LA LEY GENERAL DE TELECOMUNICACIONES, PREVIA OBTENCIÓN DEL OPORTUNO TÍTULO HABILITANTE. LA REALIZACIÓN DE ESTUDIOS, DISEÑOS, PROYECTOS, CÁLCULOS Y MEMORIAS TÉCNICAS Y ECONÓMICAS RELATIVAS A LAS ACTIVIDADES ANTERIORMENTE CITADAS, ASÍ COMO LA REFORMA, MEJORA Y AMPLIACIÓN DE IMPLANTACIONES EXISTENTES, SU MONITORIZACIÓN, MIGRACIÓN, IMPLEMENTACIÓN Y REPUESTA EN MARCHA. EL ASESORAMIENTO, CONSULTA, CONTROL, DIRECCIÓN, GESTIÓN, ADMINISTRACIÓN, EJECUCIÓN Y AUDITORIA DE TRABAJOS RELACIONADOS CON LA INGENIERÍA DE SISTEMAS DE INFORMACIÓN Y TELECOMUNICACIONES, INCLUIDA SU SEGURIDAD. LA ORGANIZACIÓN E IMPARTICIÓN DE CLASES, CURSILLOS Y CUALQUIER OTRO MÉTODO DE FORMACIÓN, ASÍ COMO EL DISEÑO Y LA REALIZACIÓN DE TODA CLASE DE MATERIAL DIDÁCTICO, DIVULGATIVO O PUBLICITARIO, INCLUYENDO EXPOSICIONES, EVENTOS, VISITAS Y ENCUENTROS. LA INVESTIGACIÓN, ESTUDIO Y DESARROLLO DE NUEVAS INVENCIONES, PROGRAMAS, APLICACIONES Y SISTEMAS, ESPECIALMENTE, PERO NO EXCLUSIVAMENTE, LOS RELACIONADOS CON MATERIAS DE INFORMÁTICA, REDES DE INFORMACIÓN Y TELECOMUNICACIONES. EL ENSAMBLAJE, COMPRA VENTA, DISTRIBUCIÓN Y COMERCIALIZACIÓN, E INCLUSO FABRICACIÓN, DE PRODUCTOS, EQUIPOS Y ACCESORIOS RELACIONADOS CON LAS ACTIVIDADES ANTES CITADAS Y CON CUALESQUIERA OTRAS DERIVADAS DE LAS MISMAS. LA ADQUISICIÓN, TENENCIA, EXPLOTACIÓN Y ENAJENACIÓN DE BIENES MUEBLES E INMUEBLES.",
      "mainEntityOfPage": "https://www.contratacion.euskadi.eus/webkpe00-kperoc/es/ac71aBusquedaRegistrosWar/empresa/04738",
      "_links": {
        "self": {
          "name": "EUSKOTEC SYSTEMS, S.L.",
          "href": "https://api.euskadi.eus/procurements/companies/04738"
        }
      }
    },
    {
      "name": "CRUCELL SPAIN, S.A.",
      "registrationNumber": "00551",
      "identificationNumber": "A28125383",
      "address": "CARRETERA DE IRÚN, KM. 20.900",
      "location": {
        "postalCode": "28700",
        "municipality": "San Sebastián de los Reyes",
        "county": "Madrid",
        "municipalityId": "134",
        "countyId": "28"
      },
      "economicActivities": [
        {
          "id": "1.254.2",
          "name": "Fabricación de especialidades y otros productos farmacéuticos",
          "_links": {
            "self": {
              "name": "Fabricación de especialidades y otros productos farmacéuticos",
              "href": "https://api.euskadi.eus/procurements/companies/economic-activities/1.254.2"
            }
          }
        },
        {
          "id": "1.614.1",
          "name": "Venta al por mayor de productos farmacéuticos y medicamentos",
          "_links": {
            "self": {
              "name": "Venta al por mayor de productos farmacéuticos y medicamentos",
              "href": "https://api.euskadi.eus/procurements/companies/economic-activities/1.614.1"
            }
          }
        }
      ],
      "certificateStartDate": "2012-05-21",
      "certificateEndDate": "2012-10-13",
      "object": "LA FABRICACIÓN Y COMERCIALIZACIÓN DE TODA CLASE DE PRODUCTOS QUÍMICOS, ALIMENTICIOS, DIETÉTICOS, SANITARIOS, FARMACÉUTICOS, BIOLÓGICOS Y VETERINARIOS, ASÍ COMO LA ELABORACIÓN DE SUEROS, VACUNAS Y ESPECIALIDADES FARMACÉUTICAS DEL INSTITUTO SUIZO DE SUEROTERAPIA Y VACUNACIÓN BERNA, Y ESPECIALMENTE LA INSULINA Y LA OBTENCIÓN DE GAMMA-GLOBULINA A PARTIR DE LA PLACENTA HUMANA",
      "mainEntityOfPage": "https://www.contratacion.euskadi.eus/webkpe00-kperoc/es/ac71aBusquedaRegistrosWar/empresa/00551",
      "_links": {
        "self": {
          "name": "CRUCELL SPAIN, S.A.",
          "href": "https://api.euskadi.eus/procurements/companies/00551"
        }
      }
    },
    {
      "name": "MOTIVACCION NORTE, S.L.",
      "registrationNumber": "03363",
      "identificationNumber": "B95257309",
      "address": "C/ SAN VICENTE 8, EDIF ALBIA I, PLANTA 8ª. DPTOS. 5 y 6.",
      "location": {
        "postalCode": "48001",
        "municipality": "Bilbao",
        "county": "Bizkaia",
        "municipalityId": "020",
        "countyId": "48"
      },
      "economicActivities": [
        {
          "id": "1.476.1",
          "name": "Edición de libros",
          "_links": {
            "self": {
              "name": "Edición de libros",
              "href": "https://api.euskadi.eus/procurements/companies/economic-activities/1.476.1"
            }
          }
        },
        {
          "id": "1.844",
          "name": "Servicios de publicidad, relaciones públicas y similares",
          "_links": {
            "self": {
              "name": "Servicios de publicidad, relaciones públicas y similares",
              "href": "https://api.euskadi.eus/procurements/companies/economic-activities/1.844"
            }
          }
        }
      ],
      "certificateStartDate": "2012-05-17",
      "certificateEndDate": "2012-11-02",
      "object": "DAR SERVICIO A TRAVÉS DE SOPORTE INFORMÁTICO Y MANUAL A LAS DIVERSAS DISCIPLINAS DEL DISEÑO, CREATIVIDAD Y COMUNICACIÓN; IDENTIDAD CORPORATIVA, PACKAGING, DISEÑO EDITORIAL, ILUSTRACIÓN DIGITAL, ILUSTRACIÓN CORPORATIVA, FOTOGRAFÍA MANUAL O DIGITAL, COMUNICACIÓN POBLICITARIA Y MULTIMEDIA; CREACIÓN, PROGRAMACIÓN Y EXPLITACIÓN DE PÁGINAS WEB. LA FOTOMECÁNICA, A TRAVÉS DE TODOS LOS EQUIPOS INFORMÁTICOS Y MANUALES NECESARIOS AL EFECTO. LA EDICIÓN Y PRODUCCIÓN DE TODO TIPO DE PUBLICACIONES ESCRITAS. LA CONFECCIÓN DE GUÍAS, MAPAS TURÍSTICOS  DE POBLACIONES, Y OTROS. LA PRESTACIÓN Y DIFUSIÓN DE SERVICIOS DE PUBLICIDAD Y MARKETING, TANTO INTERIORES COMO EXTERIORES, EJERCIDAS POR Y EN CUALQUIER MEDIO DE DIFUSIÓN. LA PRESTACIÓN DE SERVICIOS PARA LA DIRECCIÓN, PRODUCCIÓN, GUIÓN Y PRESENTACIÓN DE PROGRAMAS PUBLICITARIOS, CULTURALES, RECREATIVOS Y MUSICALES, EMITIDOS A TRAVÉS DE LOS MEDIOS DE DIFUSIÓN; TAMBIÉN SE PRESTARÁN ESTOS SERVICOS BAJO CUALQUIER CONTRATO, EN ACTUACIONES EN DIRECTO EN CINES, TEATROS O LOCALES HABILITADOS AL EFECTO. LA COMERCIALIZACIÓN Y REALIZACIÓN DE LOS TRABAJOS DE ARTES GRÁFICAS, COMPRAVENTA, IMPORTACIÓN Y EXPORTACIÓN DE MATERIALES Y MAQUINARIA RELACIONADA CON LAS ARTES GRÁFICAS, COMPRAVENTA, IMPORTACIÓN Y EXPORTACIÓN DE MATERIALES Y MAQUINARIA RELACIONADA CON LAS ARTES GRÁFICAS, ARTÍCULOS DE REGALO, LIBRERÍA TÉCNICA Y OFIMÁTICA. DAR SERVICIO DE IMAGEN CORPORATIVA A TRAVÉS DEL ASESORAMIENTO PUNTUAL POR TÉCNICOS ESPECIALIZADOS, PROPORCIONANDO MEDIOS TÉCNICOS Y HUMANOS (AZAFATAS, ETC.) PARA EL FIN DEL SERVICIO. EL ESTUDIO DE MERCADO: PLANES DE MARKETING ESTRATÉGICO NACIONALES E INTERNACIONALES; AUDITORÍAS COMERCIALES PARCIALES O TOTALES; CREACIÓN O REESTRUCTURACIÓN DE REDES COMERCIALES; LANZAMIENTO DE NUEVOS PRODUCTOS; ESTUDIOS DE MERCADO. LAS ACTIVIDADES QUE INTEGRAN EL OBJETO SOCIAL PODRÁN DESARROLLARSE TOTAL O PARCIALMENTE DE MODO INDIRECTO, MEDIANTE LA TITULARIDAD DE ACCIONES O PARTICIPACIONES EN SOCIEDADES CON OBJETO IDÉNTICO O ANÁLOGO. LA COMERCIALIZACIÓN Y VENTA, AL MAYOR Y MENOR, A TRAVÉS DE PROMOCIONES PROPIAS O DE TERCEROS, DE BIEN DE FABRICACIÓN NACIONAL O EXTRANJERA DE TODA CLASE DE ARTÍCULOS Y PRODUCTOS COMERCIALES RELACIONADOS CON JOYERÍA Y BISUTERÍA, ARTÍCULOS DE ADORNO O REGALO, METALES Y PIEDRAS PRECIOSAS, RELOJES Y ARTÍCULOS DE PRECISIÓN, MÁQUINAS Y ÚTILES PARA FOTOGRAFÍA, CINEMATOGRAFÍA Y SONIDO, ELECTRODOMÉSTICOS, MUEBLES Y MENAJE DE COCINA Y BAÑO, SUS ACCESORIOS Y COMPLEMENTOS, ORDENADORES, COMPUTADORAS, CEREBROS ELECTRÓNICOS Y TODA CLASE DE APARATOS, ELEMENTOS, MAQUINARIA Y SUS COMPONENTES, RELACIONADOS CON LA INFORMÁTICA Y LA ELECTRÓNICA, INCLUIDA LA IMPORTACIÓN Y EXPORTACIÓN Y DISTRIBUCIÓN DE TODO LO EXPRESADO.",
      "mainEntityOfPage": "https://www.contratacion.euskadi.eus/webkpe00-kperoc/es/ac71aBusquedaRegistrosWar/empresa/03363",
      "_links": {
        "self": {
          "name": "MOTIVACCION NORTE, S.L.",
          "href": "https://api.euskadi.eus/procurements/companies/03363"
        }
      }
    },
    {
      "name": "GEOZUNDA, S.L.",
      "registrationNumber": "03143",
      "identificationNumber": "B20764155",
      "address": "Pº MATEO ERROTA, 11 PAB. 8 (POL. 27  MARTUTENE)",
      "location": {
        "postalCode": "20014",
        "municipality": "Donostia / San Sebastián",
        "county": "Gipuzkoa",
        "municipalityId": "069",
        "countyId": "20"
      },
      "economicActivities": [
        {
          "id": "1.843.3",
          "name": "Servicios técnicos de prospecciones y estudios geológicos",
          "_links": {
            "self": {
              "name": "Servicios técnicos de prospecciones y estudios geológicos",
              "href": "https://api.euskadi.eus/procurements/companies/economic-activities/1.843.3"
            }
          }
        }
      ],
      "certificateStartDate": "2012-05-16",
      "certificateEndDate": "2012-11-16",
      "object": "LA EJECUCIÓN DE TODO TIPO DE SONDEOS, POZOS, PERFORACIONES Y LA ELABORACIÓN DE INFORMES TÉCNICOS SOBRE LOS MISMOS.\r\nLA AUSCULTACIÓN E INSTRUMENTACIÓN GEOTÉCNICA.\r\nLA REDACCIÓN DE PROYECTOS, DIRECCIÓN Y SUPERVISIÓN DE OBRAS DE INGENIERÍA CIVIL, ASÍ COMO TODA CLASE DE ESTUDIOS, VALORACIONES Y ANTEPROYECTOS.\r\nSERVICIOS DE ASESORAMIENTO TÉCNICO REFERENTE A LAS OBRAS DE INGENIERÍA CIVIL.\r\nLA ASISTENCIA GEOTÉCNICA A OBRAS.\r\nLA ELABORACIÓN DE ENSAYOS DE LABORATORIO E INFORMES SOBRE CALIDAD DE CONSTRUCCIÓN.\r\nEN GENERAL, CUALESQUIERA OTRAS OPERACIONES DE LÍCITO COMERCIAL QUE SEAN COMPLEMENTARIAS DE LAS ANTES SEÑALADAS, O QUE GUARDA CON ÉSTAS RELACIÓN DE CONEXIÓN O DEPENDENCIA ",
      "mainEntityOfPage": "https://www.contratacion.euskadi.eus/webkpe00-kperoc/es/ac71aBusquedaRegistrosWar/empresa/03143",
      "_links": {
        "self": {
          "name": "GEOZUNDA, S.L.",
          "href": "https://api.euskadi.eus/procurements/companies/03143"
        }
      }
    }
  ]
}