{
  "totalItems": 9042,
  "totalPages": 905,
  "currentPage": 529,
  "itemsOfPage": 10,
  "items": [
    {
      "name": "SWITCHING CONSULTING S.L.",
      "registrationNumber": "07699",
      "identificationNumber": "B99527723",
      "address": "WTC Zaragoza. Torre Este. P12. María Zambrano, 31.  Zaragoza",
      "location": {
        "postalCode": "50018",
        "municipality": "Zaragoza",
        "county": "Zaragoza",
        "municipalityId": "297",
        "countyId": "50"
      },
      "economicActivities": [
        {
          "id": "1.991",
          "name": "Prestación de servicios por sociedades de desarrollo industrial",
          "_links": {
            "self": {
              "name": "Prestación de servicios por sociedades de desarrollo industrial",
              "href": "https://api.euskadi.eus/procurements/companies/economic-activities/1.991"
            }
          }
        }
      ],
      "certificateStartDate": "2021-06-04",
      "certificateEndDate": "2021-09-30",
      "object": "LA PRESTACIÓN DE SERVICIOS DE CONSULTORÍA, ASESORÍA O GESTIÓN ADMINISTRATIVA, RELACIONADOS CON LA ENERGÍA. LA COMERCIALIZACIÓN, EXPLOTACIÓN Y PRESTACIÓN DE SERVICIOS INFORMÁTICOS, RELACIONADOS CON LA ENERGÍA. OTRAS ACTIVIDADES DE CONSULTORÍA DE GESTIÓN EMPRESARIAL",
      "mainEntityOfPage": "https://www.contratacion.euskadi.eus/webkpe00-kperoc/es/ac71aBusquedaRegistrosWar/empresa/07699",
      "_links": {
        "self": {
          "name": "SWITCHING CONSULTING S.L.",
          "href": "https://api.euskadi.eus/procurements/companies/07699"
        }
      }
    },
    {
      "name": "LANKOR, OBRAS Y SERVICIOS, S.L.",
      "registrationNumber": "07690",
      "identificationNumber": "B95589040",
      "address": "AVDA TXORIERRI 25 LOCAL 8 Y 9",
      "location": {
        "postalCode": "48180",
        "municipality": "Loiu",
        "county": "Bizkaia",
        "municipalityId": "903",
        "countyId": "48"
      },
      "economicActivities": [
        {
          "id": "1.501.2",
          "name": "Construcción completa, reparación y conservación obras civiles",
          "_links": {
            "self": {
              "name": "Construcción completa, reparación y conservación obras civiles",
              "href": "https://api.euskadi.eus/procurements/companies/economic-activities/1.501.2"
            }
          }
        }
      ],
      "certificateStartDate": "2021-06-03",
      "certificateEndDate": "2021-11-11",
      "object": "LA ADQUISICIÓN Y ENAJENACIÓN POR CUALQUIER TÍTULO DE FINCAS RÚSTICAS Y URBANAS, YA SEAN TIERRAS, SOLARES, EDIFICIOS, LA CONSTRUCCIÓN DE ESTOS, INCLUIDOS LOS PREFABRICADOS DE CUALQUIER CLASE Y MATERIAL, Y SU ADMINISTRACIÓN, TENENCIA Y EXPLOTACIÓN; LA URBANIZACIÓN Y PARCELACIÓN DE TERRENOS, CONFORME A LOS PLANES DE ORDENACIÓN URBANÍSTICAS APROBADAS POR LAS AUTORIDADES COMPETENTES EN LOS POLÍGONOS Y ZONAS DE ACTUACIÓN QUE AL EFECTO SEAN DESIGNADOS Y LA REPARCELACIÓN DE DICHOS TERRENOS URBANÍSTICOS Y, EN SU CASO, EDIFICACIONES Y VENTA DE LOS MISMOS O DE LAS EDIFICACIONES Y OBRAS DE URBANIZACIÓN Y SERVICIOS, A CUYO EFECTO, PODRÁN FORMAR PARTE DE ASOCIACIONES DE PROPIETARIOS, EMPRESAS MIXTAS Y ENTIDADES URBANÍSTICAS COLABORADORAS QUE PUEDAN REGLAMENTARSE A LOS EXPRESADOS FINES; LA PROMOCIÓN Y EJECUCIÓN COMPLETA O POR RAMOS DE TODA CLASE DE OBRAS DE CONSTRUCCIÓN, OBRAS CIVILES, URBANIZACIÓN Y SERVICIOS, REPARACIÓN Y CONSERVACIÓN POR CUENTA PROPIA O AJENA, INCLUSO VIVIENDAS Y LOCALES Y ALQUILER DE EDIFICACIONES EN SU TOTALIDAD, POR PARTES O POR PISOS, BIEN PARA VIVIENDAS, APARCAMIENTOS, PARA LOCALES DE OFICINAS, DE NEGOCIO O INDUSTRIALES, CONSTRUÍDOS A TAL FIN, DIRECTAMENTE O POR MEDIO DE CONTRATISTAS, SUBCONTRATISTAS Y DESTAJISTAS O BIEN ADQUIRIDOS YA CONSTRUÍDOS O EN CONSTRUCCIÓN; LA COMPRA, VENTA, ALMACENAMIENTO, DEPÓSITO Y DISTRIBUCIÓN DE TODO TIPO DE MAQUINARIA Y MATERIALES DE CONSTRUCCIÓN, INCLUSO DE LOS CORRESPONDIENTES A EDIFICIOS PREFABRICADOS DE CUALQUIER CLASE O MATERIAL. LA PRESTACIÓN DE SERVICIOS, LA REALIZACIÓN DE ESTUDIOS Y PROYECTO Y LA EJECUCIÓN DE LOS MISMOS, EL ASESORAMIENTO, Y LA DIRECCIÓN DE OBRAS, TODO ELLO EN RELACIÓN CON EL RAMO DE LA CONSTRUCCIÓN",
      "mainEntityOfPage": "https://www.contratacion.euskadi.eus/webkpe00-kperoc/es/ac71aBusquedaRegistrosWar/empresa/07690",
      "_links": {
        "self": {
          "name": "LANKOR, OBRAS Y SERVICIOS, S.L.",
          "href": "https://api.euskadi.eus/procurements/companies/07690"
        }
      }
    },
    {
      "name": "CONTROL DE PLAGAS PASSER, S.L.",
      "registrationNumber": "07691",
      "identificationNumber": "B01519735",
      "address": "FUEROS, 14 2º IZQ",
      "location": {
        "postalCode": "01005",
        "municipality": "Vitoria-Gasteiz",
        "county": "Araba/Álava",
        "municipalityId": "059",
        "countyId": "01"
      },
      "economicActivities": [
        {
          "id": "1.843.9",
          "name": "Otros servicios técnicos n.c.o.p",
          "_links": {
            "self": {
              "name": "Otros servicios técnicos n.c.o.p",
              "href": "https://api.euskadi.eus/procurements/companies/economic-activities/1.843.9"
            }
          }
        },
        {
          "id": "1.921.3",
          "name": "Exterminio de animales dañinos y desinfección",
          "_links": {
            "self": {
              "name": "Exterminio de animales dañinos y desinfección",
              "href": "https://api.euskadi.eus/procurements/companies/economic-activities/1.921.3"
            }
          }
        }
      ],
      "certificateStartDate": "2021-06-03",
      "certificateEndDate": "2021-10-06",
      "object": "LA EXPLOTACIÓN DE TODO TIPO DE NEGOCIO Y PRESTACIÓN DE SERVICIOS DE CONTROL Y GESTIÓN DE PLAGAS, DESINFECCIÓN, DESINSECTACIÓN Y DESRATIZACIÓN, LEGIONELA, ANÁLISIS DE PUNTOS CRÍTICOS (APPCC), TRATAMIENTO Y CONTROL DE AVES, DE MADERA Y DE ELIMINACIÓN Y TRATAMIENTO DE CADÁVERES",
      "mainEntityOfPage": "https://www.contratacion.euskadi.eus/webkpe00-kperoc/es/ac71aBusquedaRegistrosWar/empresa/07691",
      "_links": {
        "self": {
          "name": "CONTROL DE PLAGAS PASSER, S.L.",
          "href": "https://api.euskadi.eus/procurements/companies/07691"
        }
      }
    },
    {
      "name": "GLOCALLY COMUNICACIÓN INTEGRAL, S.L.",
      "registrationNumber": "07692",
      "identificationNumber": "B87337333",
      "address": "CALLE GUZMAN EL BUENO (EDIF. GERMANIA), 133 - PISO 6 IZDA",
      "location": {
        "postalCode": "28003",
        "municipality": "Madrid",
        "county": "Madrid",
        "municipalityId": "079",
        "countyId": "28"
      },
      "economicActivities": [
        {
          "id": "1.844",
          "name": "Servicios de publicidad, relaciones públicas y similares",
          "_links": {
            "self": {
              "name": "Servicios de publicidad, relaciones públicas y similares",
              "href": "https://api.euskadi.eus/procurements/companies/economic-activities/1.844"
            }
          }
        }
      ],
      "certificateStartDate": "2021-06-03",
      "certificateEndDate": "2021-11-17",
      "object": "1.- LA PRESTACIÓN DE CONSULTORÍA DE ESTUDIOS DE INVESTIGACIÓN, ESTUDIOS DE MERCADOS. 2.- LA PRESTACIÓN DE SERVICIOS DE PUBLICIDAD Y MARKETING. 3.- LOS SERVICIOS DE CONSULTORÍA Y ASESORAMIENTO ECONÓMICO, FINANCIERO Y TECNOLÓGICO",
      "mainEntityOfPage": "https://www.contratacion.euskadi.eus/webkpe00-kperoc/es/ac71aBusquedaRegistrosWar/empresa/07692",
      "_links": {
        "self": {
          "name": "GLOCALLY COMUNICACIÓN INTEGRAL, S.L.",
          "href": "https://api.euskadi.eus/procurements/companies/07692"
        }
      }
    },
    {
      "name": "JOSE DIEZ MARCOS",
      "registrationNumber": "07684",
      "identificationNumber": "30554335P",
      "address": "ELEXABARRI Nº 7",
      "location": {
        "postalCode": "48002",
        "municipality": "Bilbao",
        "county": "Bizkaia",
        "municipalityId": "020",
        "countyId": "48"
      },
      "economicActivities": [
        {
          "id": "2.411",
          "name": "Arquitectos",
          "_links": {
            "self": {
              "name": "Arquitectos",
              "href": "https://api.euskadi.eus/procurements/companies/economic-activities/2.411"
            }
          }
        }
      ],
      "certificateStartDate": "2021-06-02",
      "certificateEndDate": "2021-11-25",
      "object": "ARQUITECTOS",
      "mainEntityOfPage": "https://www.contratacion.euskadi.eus/webkpe00-kperoc/es/ac71aBusquedaRegistrosWar/empresa/07684",
      "_links": {
        "self": {
          "name": "JOSE DIEZ MARCOS",
          "href": "https://api.euskadi.eus/procurements/companies/07684"
        }
      }
    },
    {
      "name": "DRÄGER SAFETY HISPANIA, S.A.",
      "registrationNumber": "07343",
      "identificationNumber": "A83140012",
      "address": "Calle Xaudaró, 5",
      "location": {
        "postalCode": "28034",
        "municipality": "Madrid",
        "county": "Madrid",
        "municipalityId": "079",
        "countyId": "28"
      },
      "economicActivities": [
        {
          "id": "1.329.4",
          "name": "Construcción de maquinaria para la manipulación de fluidos",
          "_links": {
            "self": {
              "name": "Construcción de maquinaria para la manipulación de fluidos",
              "href": "https://api.euskadi.eus/procurements/companies/economic-activities/1.329.4"
            }
          }
        },
        {
          "id": "1.613.1",
          "name": "Venta al por mayor de productos textiles, confección calzado y artículos cuero",
          "_links": {
            "self": {
              "name": "Venta al por mayor de productos textiles, confección calzado y artículos cuero",
              "href": "https://api.euskadi.eus/procurements/companies/economic-activities/1.613.1"
            }
          }
        },
        {
          "id": "1.619.9",
          "name": "Venta al por mayor de otros productos n.c.o.p",
          "_links": {
            "self": {
              "name": "Venta al por mayor de otros productos n.c.o.p",
              "href": "https://api.euskadi.eus/procurements/companies/economic-activities/1.619.9"
            }
          }
        },
        {
          "id": "1.699",
          "name": "Otras reparaciones n.c.o.p",
          "_links": {
            "self": {
              "name": "Otras reparaciones n.c.o.p",
              "href": "https://api.euskadi.eus/procurements/companies/economic-activities/1.699"
            }
          }
        }
      ],
      "certificateStartDate": "2021-06-01",
      "certificateEndDate": "2021-11-03",
      "object": "A) LA REPRESENTACIÓN EN ESPAÑA DE LAS MERCANCÍAS Y PRODUCTOS DE LA EMPRESA ALEMANA DRAGERWERK AG, DE LÜBECK; MERCANCÍAS DE PROTECCIÓN DE INDUSTRIA Y DE EQUIPAMIENTO. DISEÑO, FABRICACIÓN Y MONTAJE DE: -APARATOS Y EQUIPOS DE PROTECCIÓN RESPIRATORIA DE OXÍGENO Y AIRE, EN SUS DIVERSAS APLICACIONES EN LA INDUSTRIA, TRANSPORTES Y MINERÍA. -APARATOS, CÁMARAS, INSTALACIONES CENTRALES Y DISPOSITIVOS PARA LA UTILIZACIÓN Y ABASTECIMIENTO DE GASES.   -APARATOS Y VÁLVULAS RELACIONADOS CON LA TÉCNICA E INVESTIGACIÓN DE GASES A PRESIÓN. -APARATOS Y DISPOSITIVOS DE LA TÉCNICA DE ANÁLISIS Y MEDICIONES DE GASES: FILTROS, EQUIPOS DE BUCEO, CÁMARAS A PRESIÓN. B) PROMOCIÓN, IMPORTACIÓN Y EXPORTACIÓN DE LOS PRODUCTOS CITADOS Y PRESTACIÓN DEL SERVICIO POSTVENTA, CALIBRACIÓN, MANTENIMIENTO Y REPARACIÓN; ASÍ COMO LA PRESTACIÓN DE SERVICIO POST-VENTA, CALIBRACIÓN, MANTENIMIENTO Y REPARACIÓN DE LOS FABRICADOS POR OTRAS MARCAS EN EL SECTOR INDICADO. C) FABRICACIÓN, MONTAJE, PROMOCIÓN, IMPORTACIÓN Y EXPORTACIÓN DE LOS APARATOS, EQUIPOS E INSTALACIONES QUE SEAN COMPLEMENTARIAS Y CONEXAS CON LOS ANTERIORMENTE CITADOS: EQUIPOS Y ACCESORIOS PARA LA PROTECCIÓN RESPIRATORIA Y EL BUCEO. EQUIPOS Y PRENDAS DE PROTECCIÓN INDIVIDUAL Y SUS ACCESORIOS. EQUIPOS PARA LA DETECCIÓN DE INTOXICACIONES POR ALCOHOL Y DROGAS, OTROS EQUIPOS UTILIZADOS EN EL CONTROL DEL TRÁFICO. EQUIPOS PARA LA DETECCIÓN DE GASES. EQUIPOS Y PRENDAS PARA USO DE BOMBEROS, BRIGADAS DE RESCATE Y CUERPOS POLICIALES. EQUIPOS Y PRENDAS PARA LA SEGURIDAD E HIGIENE EN EL TRABAJO. D) ACTIVIDADES DE: CONSULTORÍA SOBRE APLICACIÓN Y CERTIFICACIÓN DE LOS PRODUCTOS CITADOS Y SIMILARES. FORMACIÓN EN EL USO Y MANTENIMIENTO DE LOS EQUIPOS COMERCIALIZADOS Y SUS ACTIVIDADES CONEXAS. VERIFICACIÓN DE EQUIPOS COMERCIALIZADOS Y SIMILARES EN SUS PROCESOS DE ENSAYO, CALIBRACIÓN Y DOCUMENTACIÓN TÉCNICA. ALQUILER DE LOS EQUIPOS VENDIDOS",
      "mainEntityOfPage": "https://www.contratacion.euskadi.eus/webkpe00-kperoc/es/ac71aBusquedaRegistrosWar/empresa/07343",
      "_links": {
        "self": {
          "name": "DRÄGER SAFETY HISPANIA, S.A.",
          "href": "https://api.euskadi.eus/procurements/companies/07343"
        }
      }
    },
    {
      "name": "SANROSAN, S.A.",
      "registrationNumber": "00612",
      "identificationNumber": "A28610889",
      "address": "C/ JUAN ÁLVAREZ MENDIZÁBAL, Nº 69 - BAJO.",
      "location": {
        "postalCode": "28008",
        "municipality": "Pozuelo de Alarcón",
        "county": "Madrid",
        "municipalityId": "115",
        "countyId": "28"
      },
      "economicActivities": [
        {
          "id": "1.619.2",
          "name": "Venta al por mayor de aparatos e instrumentos médicos, ortopédicos, ópticos",
          "_links": {
            "self": {
              "name": "Venta al por mayor de aparatos e instrumentos médicos, ortopédicos, ópticos",
              "href": "https://api.euskadi.eus/procurements/companies/economic-activities/1.619.2"
            }
          }
        }
      ],
      "certificateStartDate": "2021-05-31",
      "certificateEndDate": "2021-11-30",
      "object": "LA COMPRA, VENTA, IMPORTACIÓN, EXPORTACIÓN Y REPRESENTACIÓN DE TODA CLASE DE APARATOS DE ELECTROMEDICINA Y SUS COMPONENTES Y ACCESORIOS",
      "mainEntityOfPage": "https://www.contratacion.euskadi.eus/webkpe00-kperoc/es/ac71aBusquedaRegistrosWar/empresa/00612",
      "_links": {
        "self": {
          "name": "SANROSAN, S.A.",
          "href": "https://api.euskadi.eus/procurements/companies/00612"
        }
      }
    },
    {
      "name": "EDITORIAL ARANZADI, S.A.",
      "registrationNumber": "02922",
      "identificationNumber": "A81962201",
      "address": "CAMINO DE GALAR, 15",
      "location": {
        "postalCode": "31190",
        "municipality": "Zizur Mayor/Zizur Nagusia",
        "county": "Navarra",
        "municipalityId": "907",
        "countyId": "31"
      },
      "economicActivities": [
        {
          "id": "1.476.1",
          "name": "Edición de libros",
          "_links": {
            "self": {
              "name": "Edición de libros",
              "href": "https://api.euskadi.eus/procurements/companies/economic-activities/1.476.1"
            }
          }
        },
        {
          "id": "1.476.2",
          "name": "Edición de periódicos y revistas",
          "_links": {
            "self": {
              "name": "Edición de periódicos y revistas",
              "href": "https://api.euskadi.eus/procurements/companies/economic-activities/1.476.2"
            }
          }
        },
        {
          "id": "1.849.7",
          "name": "Servicios de gestión administrativa",
          "_links": {
            "self": {
              "name": "Servicios de gestión administrativa",
              "href": "https://api.euskadi.eus/procurements/companies/economic-activities/1.849.7"
            }
          }
        },
        {
          "id": "1.932.2",
          "name": "Enseñanza de formación y perfeccionamiento profesional superior",
          "_links": {
            "self": {
              "name": "Enseñanza de formación y perfeccionamiento profesional superior",
              "href": "https://api.euskadi.eus/procurements/companies/economic-activities/1.932.2"
            }
          }
        },
        {
          "id": "1.934",
          "name": "Enseñanza fuera de establecimiento permanente",
          "_links": {
            "self": {
              "name": "Enseñanza fuera de establecimiento permanente",
              "href": "https://api.euskadi.eus/procurements/companies/economic-activities/1.934"
            }
          }
        }
      ],
      "certificateStartDate": "2021-05-31",
      "certificateEndDate": "2021-11-10",
      "object": "A) LA REDACCIÓN, EDICIÓN, FOTOCOMPOSICIÓN Y DISTRIBUCIÓN DE TODO TIPO DE PUBLICACIONES UNITARIAS Y PERIÓDICAS, NACIONALES Y EXTRANJERAS Y, EN GENERAL, TODAS AQUELLAS ACTIVIDADES DIRECTA O INDIRECTAMENTE RELACIONADAS CON UNA EMPRESA EDITORIAL, INCLUIDAS TODAS AQUELLAS PRESTADAS A TRAVÉS DE INTERNET-\r\n\r\nB) LA IMPORTACIÓN, EXPORTACIÓN Y DISTRIBUCIÓN DE LIBROS Y DE TODO TIPO DE PUBLICACIONES UNITARIAS Y PERIÓDICAS, TANTO NACIONALES COMO EXTRANJERAS, EN TODO TIPO DE MEDIO O SOPORTE.\r\n\r\nC) LA ORGANIZACIÓN, PROGRAMACIÓN Y REALIZACIÓN DE CAMPAÑAS DE LANZAMIENTO Y PROMOCIÓN DE OBRAS LITERARIAS Y CIENTÍFICAS, ASÍ COMO LA DISTRIBUCIÓN DE LAS MISMAS POR CUALQUIER MEDIO.\r\n\r\nD) LA CREACIÓN, ELABORACIÓN, DESARROLLO, ALMACENAMIENTO, COMERCIALIZACIÓN, EXPORTACIÓN, IMPORTACIÓN, DISTRIBUCIÓN, EXPLOTACIÓN, COMPRA Y VENTA DE BASES DE DATOS, ASÍ COMO LA CREACIÓN, DESARROLLO, ALOJAMIENTO, DISTRIBUCIÓN Y COMERCIALIZACIÓN DE PROGRAMAS DE GESTIÓN Y PÁGINAS WEB.\r\n\r\nE) EL SUMINISTRO Y PUBLICACIÓN, ASÍ COMO LA CREACIÓN, ELABORACIÓN, DESARROLLO, COMERCIALIZACIÓN, EXPORTACIÓN, IMPORTACIÓN Y DISTRIBUCIÓN, EN  TODO TIPO DE MEDIO O SOPORTE, DE TODA CLASE DE INFORMACIÓN JURÍDICA, PARAJURÍDICA, EMPRESARIAL, PROFESIONAL, CONTABLE, DE GESTIÓN, ECONÓMICA Y FINANCIERA, RELACIONADA CON LA LABOR Y FUNCIONES DE CUALQUIER GRUPO PROFESIONAL.\r\n\r\nF) LA PRESTACIÓN Y COMERCIALIZACIÓN DE SERVICIOS DE FORMACIÓN Y ENSEÑANZA PROFESIONAL Y/O ACADÉMICA POR CUALQUIER MEDIO, INCLUIDA LA PRESTACIÓN DE DICHOS SERVICIOS A TRAVÉS DE INTERNET.\r\n\r\nG) LA PRESTACIÓN DE SERVICIOS PROFESIONALES, TANTO PROCEDIMENTALES COMO DE GESTIÓN, ASÍ COMO CUALESQUIERA OTROS QUE CONTRIBUYAN A PROPORCIONAR UNA OFERTA GLOBAL DE SERVICIO A LOS OPERADORES JURÍDICOS.\r\n\r\nLAS ACTIVIDADES INTEGRANTES DEL OBJETO SOCIAL Y RESEÑADAS ANTERIORMENTE, PODRÁN TAMBIÉN SER DESARROLLADAS TOTAL  O PARCIALMENTE DE MODO DIRECTO Y/O INDIRECTO, MEDIANTE LA TITULARIDAD DE ACCIONES O PARTICIPACIONES EN OTRAS SOCIEDADES DE OBJETO IDÉNTICO, ANÁLOGO O SIMILAR. ASÍMISMO, TODAS Y CADA UNA DE LAS ACTIVIDADES Y SERVICIOS INTEGRANTES DEL OBJETO SOCIAL PODRÁN SER DESARROLLADAS POR LA SOCIEDAD A TRAVÉS DE INTERNET      ",
      "mainEntityOfPage": "https://www.contratacion.euskadi.eus/webkpe00-kperoc/es/ac71aBusquedaRegistrosWar/empresa/02922",
      "_links": {
        "self": {
          "name": "EDITORIAL ARANZADI, S.A.",
          "href": "https://api.euskadi.eus/procurements/companies/02922"
        }
      }
    },
    {
      "name": "DH Healthcare Provider Software Spain, S.L.U.",
      "registrationNumber": "07680",
      "identificationNumber": "B02685212",
      "address": "C/ José Echegaray, nº 8",
      "location": {
        "postalCode": "28232",
        "municipality": "Rozas de Madrid, Las",
        "county": "Madrid",
        "municipalityId": "127",
        "countyId": "28"
      },
      "economicActivities": [
        {
          "id": "1.845",
          "name": "Explotación electrónica por cuenta de terceros",
          "_links": {
            "self": {
              "name": "Explotación electrónica por cuenta de terceros",
              "href": "https://api.euskadi.eus/procurements/companies/economic-activities/1.845"
            }
          }
        }
      ],
      "certificateStartDate": "2021-05-31",
      "certificateEndDate": "2021-11-21",
      "object": "EL DESARROLLO, EVOLUCIÓN, MANTENIMIENTO Y VENTA DE SOLUCIONES DE SOFTWARE DE SANIDAD CON PRODUCTOS PROPIOS Y DE TERCEROS, INCLUYENDO LAS INFRAESTRUCTURAS ASOCIADAS A ESTA SOLUCIONES. 2. LA PRESTACIÓN DE SERVICIOS INFORMÁTICOS, COMO LA INSTALACIÓN, MANTENIMIENTO Y REPARACIÓN DE APARATOS ORDENADORES Y SUS PERIFÉRICOS, ASÍ COMO CUALQUIER OTRO PRODUCTO O EQUIPO INFORMÁTICO. 3. LA REPRESENTACIÓN, AGENCIA, DISTRIBUCIÓN Y COMERCIALIZACIÓN DE PRODUCTOS, MATERIALES Y EQUIPOS RELACIONADOS CON LA INFORMÁTICA Y LA CIBERNÉTICA, TANTO NACIONALES COMO EXTRANJEROS. 4. LA VENTA Y ALQUILER DE CUALQUIER EQUIPO, PRODUCTO MATERIAL INFORMÁTICO, TANTO NACIONALES COMO EXTRANJEROS. 5. LA PRESTACIÓN DE SERVICIOS DE CONSULTORÍA Y ASESORAMIENTO TÉCNICO EN LA CONSTRUCCIÓN. INSTALACIÓN, FUNCIONAMIENTO Y MANTENIMIENTO DO EQUIPOS, MATERIALES Y PRODUCTOS ELECTRÓNICOS E INFORMÁTICOS. 6. LA PRESTACIÓN DE SERVICIOS DE MANTENIMIENTO DE PROGRAMAS DE ORDENADOR. 7. LA REALIZACIÓN, ORGANIZACIÓN, ASESORAMIENTO, PRESTACIÓN Y PROMOCIÓN DE CURSOS DE INFORMÁTICA, TANTO POR CUENTA PROPIA COMO POR CUENTA DE TERCEROS. LA PRESTACIÓN DE SERVICIOS DE PROCESAMIENTO DE DATOS. 8. LA PRESTACIÓN DE SERVICIOS DE EXPLOTACIÓN Y CONTROL DE SISTEMAS INFORMÁTICOS E INFRAESTRUCTURAS TELEMÁTICAS, TRABAJOS ASOCIADOS A LA PUESTA EN FUNCIONAMIENTO, EL SEGUIMIENTO, LA GESTIÓN Y EL CONTROL DE EQUIPOS Y SISTEMAS INFORMÁTICOS Y DE LAS INFRAESTRUCTURAS TELEMÁTICAS NECESARIAS PARA LA ADECUADA EXPLOTACIÓN DE PROGRAMAS Y APLICACIONES INFORMÁTICAS",
      "mainEntityOfPage": "https://www.contratacion.euskadi.eus/webkpe00-kperoc/es/ac71aBusquedaRegistrosWar/empresa/07680",
      "_links": {
        "self": {
          "name": "DH Healthcare Provider Software Spain, S.L.U.",
          "href": "https://api.euskadi.eus/procurements/companies/07680"
        }
      }
    },
    {
      "name": "LUIS PABLO LOPEZ-ABADIA RODRIGO",
      "registrationNumber": "07682",
      "identificationNumber": "30579745A",
      "address": "ALAMEDA URQUIJO 24 3 IZQDA",
      "location": {
        "postalCode": "48008",
        "municipality": "Bilbao",
        "county": "Bizkaia",
        "municipalityId": "020",
        "countyId": "48"
      },
      "economicActivities": [
        {
          "id": "2.732",
          "name": "Procuradores",
          "_links": {
            "self": {
              "name": "Procuradores",
              "href": "https://api.euskadi.eus/procurements/companies/economic-activities/2.732"
            }
          }
        }
      ],
      "certificateStartDate": "2021-05-31",
      "certificateEndDate": "2021-09-18",
      "object": "PROCURADORES",
      "mainEntityOfPage": "https://www.contratacion.euskadi.eus/webkpe00-kperoc/es/ac71aBusquedaRegistrosWar/empresa/07682",
      "_links": {
        "self": {
          "name": "LUIS PABLO LOPEZ-ABADIA RODRIGO",
          "href": "https://api.euskadi.eus/procurements/companies/07682"
        }
      }
    }
  ]
}