{
  "totalItems": 9042,
  "totalPages": 905,
  "currentPage": 175,
  "itemsOfPage": 10,
  "items": [
    {
      "name": "BARNA, S.A.",
      "registrationNumber": "09353",
      "identificationNumber": "A48032072",
      "address": "POL. IND. LAMIARANPE S/N",
      "location": {
        "postalCode": "48360",
        "municipality": "Mundaka",
        "county": "Bizkaia",
        "municipalityId": "068",
        "countyId": "48"
      },
      "economicActivities": [
        {
          "id": "1.422.2",
          "name": "Harinas pescado y subproductos animales para elaboración de piensos",
          "_links": {
            "self": {
              "name": "Harinas pescado y subproductos animales para elaboración de piensos",
              "href": "https://api.euskadi.eus/procurements/companies/economic-activities/1.422.2"
            }
          }
        }
      ],
      "certificateStartDate": "2025-11-06",
      "certificateEndDate": "2026-04-28",
      "object": "LA FABRICACIÓN Y VENTA DE HARINAS, ACEITE Y SOLUBLES DE PESCADO, Y CUALQUIER OTRO PRODUCTO SIMILAR O DERIVADO DE DICHA INDUSTRIA A CUYO OBJETO LOS SOCIOS FABRICANTES SE OBLIGAN A ENTREGAR EN LA FÁBRICA DE LA COMPAÑÍA LOS RESIDUOS DE SUS INDUSTRIAS AL MISMO PRECIO QUE LA COMPETENCIA LOCAL, SIN PERJUICIO DE LAS ADQUISICIONES QUE DICHA COMPAÑÍA PUEDA HACER PARA COMPLETAR SUS NECESIDADES DE MATERIA PRIMA.",
      "mainEntityOfPage": "https://www.contratacion.euskadi.eus/webkpe00-kperoc/es/ac71aBusquedaRegistrosWar/empresa/09353",
      "_links": {
        "self": {
          "name": "BARNA, S.A.",
          "href": "https://api.euskadi.eus/procurements/companies/09353"
        }
      }
    },
    {
      "name": "MANUEL ANGEL CAMPOS CARBAJOSA",
      "registrationNumber": "09598",
      "identificationNumber": "30590213Y",
      "address": "Calle Armurubenta",
      "location": {
        "postalCode": "01470",
        "municipality": "Amurrio",
        "county": "Araba/Álava",
        "municipalityId": "002",
        "countyId": "01"
      },
      "economicActivities": [
        {
          "id": "1.476.1",
          "name": "Edición de libros",
          "_links": {
            "self": {
              "name": "Edición de libros",
              "href": "https://api.euskadi.eus/procurements/companies/economic-activities/1.476.1"
            }
          }
        }
      ],
      "certificateStartDate": "2025-11-06",
      "certificateEndDate": "2026-04-28",
      "object": "EDICIÓN DE LIBROS.",
      "mainEntityOfPage": "https://www.contratacion.euskadi.eus/webkpe00-kperoc/es/ac71aBusquedaRegistrosWar/empresa/09598",
      "_links": {
        "self": {
          "name": "MANUEL ANGEL CAMPOS CARBAJOSA",
          "href": "https://api.euskadi.eus/procurements/companies/09598"
        }
      }
    },
    {
      "name": "COMERCIAL DE LIMPIEZAS AREETA, S.L.",
      "registrationNumber": "08029",
      "identificationNumber": "B48679112",
      "address": "Muelle Tomás Olabarri, 8 bajo dcha",
      "location": {
        "postalCode": "48930",
        "municipality": "Getxo",
        "county": "Bizkaia",
        "municipalityId": "044",
        "countyId": "48"
      },
      "economicActivities": [
        {
          "id": "1.922",
          "name": "Servicios de limpieza",
          "_links": {
            "self": {
              "name": "Servicios de limpieza",
              "href": "https://api.euskadi.eus/procurements/companies/economic-activities/1.922"
            }
          }
        },
        {
          "id": "1.931.1",
          "name": "Guardería y enseñanza de educación infantil, exclusivamente",
          "_links": {
            "self": {
              "name": "Guardería y enseñanza de educación infantil, exclusivamente",
              "href": "https://api.euskadi.eus/procurements/companies/economic-activities/1.931.1"
            }
          }
        }
      ],
      "certificateStartDate": "2025-11-06",
      "certificateEndDate": "2026-04-23",
      "object": "A) LA LIMPIEZA Y MANTENIMIENTO DE EDIFICIOS Y LOCALES INDUSTRIALES, COMERCIALES Y VIVIENDAS E INMUEBLES PARTICULARES, INCLUYENDO TODOS LOS ELEMENTOS ACCESORIOS A DICHOS INMUEBLES, ASÍ COMO LA LIMPIEZA Y MANTENIMIENTO DE ENSERES. B) ELABORACIÓN, EXPLOTACIÓN Y SERVICIO DE COMIDA INDUSTRIAL, COMIDAS PRECOCINADAS, COMIDAS PREPARADAS PARA COLEGIOS EVENTOS Y OTRAS COLECTIVIDADES, SERVICIO DE CATERING Y EN GENERAL SERVICIOS DE HOSTELERÍA PARA GRUPOS.",
      "mainEntityOfPage": "https://www.contratacion.euskadi.eus/webkpe00-kperoc/es/ac71aBusquedaRegistrosWar/empresa/08029",
      "_links": {
        "self": {
          "name": "COMERCIAL DE LIMPIEZAS AREETA, S.L.",
          "href": "https://api.euskadi.eus/procurements/companies/08029"
        }
      }
    },
    {
      "name": "ASESORIA Y SERVICIOS ERAKO, S. L.",
      "registrationNumber": "05814",
      "identificationNumber": "B95435541",
      "address": "CL/ JUAN ALZAGA, 2",
      "location": {
        "postalCode": "48340",
        "municipality": "Amorebieta-Etxano",
        "county": "Bizkaia",
        "municipalityId": "003",
        "countyId": "48"
      },
      "economicActivities": [
        {
          "id": "1.842",
          "name": "Servicios financieros y contables",
          "_links": {
            "self": {
              "name": "Servicios financieros y contables",
              "href": "https://api.euskadi.eus/procurements/companies/economic-activities/1.842"
            }
          }
        },
        {
          "id": "1.847",
          "name": "Servicios de consultoría",
          "_links": {
            "self": {
              "name": "Servicios de consultoría",
              "href": "https://api.euskadi.eus/procurements/companies/economic-activities/1.847"
            }
          }
        }
      ],
      "certificateStartDate": "2025-11-06",
      "certificateEndDate": "2026-04-30",
      "object": "LA PRESTACIÓN, A TRAVÉS DE LOS PROFESIONALES CUALIFICADOS AL EFECTO, DE LOS SERVICIOS DE ASESORÍA JURÍDICA INTEGRAL, CONTABLE, FINANCIERA, TRIBUTARIA O FISCAL, Y DE GESTIÓN INMOBILIARIA. LA COMPRAVENTA, PERMUTA, ADMINISTRACIÓN, GESTIÓN Y EXPLOTACIÓN, BIEN DIRECTAMENTE O EN ARRENDAMIENTO, DE TODO TIPO DE BIENES INMUEBLES SEAN RÚSTICOS O URBANOS, Y PATRIMONIOS. LA PROMOCIÓN, PARCELACIÓN, REPARCELACIÓN, PLANIFICACIÓN, CONSTRUCCIÓN Y EDIFICACIÓN, POR SÍ MISMA O A TRAVÉS DE TERCEROS, TANTO EN SUELO RÚSTICO COMO URBANO, LLEVANDO A EFECTO URBANIZACIONES, SUS INSTALACIONES, ADECUACIONES AL MEDIO AMBIENTO, ZONAS DEPORTIVAS, COMERCIALES Y DE SERVICIOS. DEDICARSE EN NOMBRE PROPIO O POR CUENTA DE TERCEROS A OPERACIONES REFERIDAS AL COMERCIO AL POR MAYOR O COMO DETALLISTA, LA IMPORTACIÓN Y EXPORTACIÓN, COMPRAVENTA, MEDIACIÓN, CORRETAJE, REPRESENTACIÓN, COMISIÓN Y CONSIGNACIONES, TRANSPORTE NACIONAL E INTERNACIONAL POR VÍA TERRESTRE, MARÍTIMA Y AÉREA, EL MANTENIMIENTO DE MERCADERÍAS, LA REPARACIÓN, CONSERVACIÓN Y ASISTENCIA TÉCNICA; ADMINISTRACIÓN Y GESTIÓN; Y TODAS LAS ACTIVIDADES ANTERIORMENTE MENCIONADAS EXCLUSIVAMENTE EN RELACIÓN CON LOS SIGUIENTES PRODUCTOS: DE ALIMENTACIÓN, VINÍCOLAS, BEBIDAS, BEBIDAS ALCOHÓLICAS; GANADOS, ANIMALES SALVAJES; AGRÍCOLAS, ABONOS ORGÁNICOS E INORGÁNICOS, INSECTICIDAS, SEMILLAS Y PLANTAS; EQUIPOS, MATERIALES, MAQUINARIA Y HERRAMIENTAS PARA INSTALACIONES DOMÉSTICAS, COMERCIALES O INDUSTRIALES; MATERIALES DE CONSTRUCCIÓN, FONTANERÍA, ELECTRICIDAD, CARPINTERÍA, PINTURA, CERRAJERÍA, CRISTALERÍA, VIDRIOS Y SANEAMIENTOS; SISTEMAS, EQUIPOS Y MATERIAL DE SEGURIDAD Y PUERTAS BLINDADAS; VEHÍCULOS AUTOMÓVILES, MOTOS, MOTOCICLETAS, CAMIONES, FURGONETAS, AUTOCARAVANAS, REPUESTOS, UTILLAJE Y APAREJOS DE LOS MISMOS; MOBILIARIO, MAQUINARIA Y MATERIAL DE OFICINA Y ESCOLAR; ELECTRODOMÉSTICOS, EQUIPOS ELECTRÓNICOS DEL HOGAR Y DE OFICINA Y SUS REPUESTOS; APARATOS Y MATERIAL DE INFORMÁTICA, DE TELECOMUNICACIÓN, IMAGEN Y SONIDO, ASÍ COMO SUS REPUESTOS; JUGUETES; TEJIDOS CONFECCIONADOS Y SIN CONFECCIONAR Y SUS COMPLEMENTOS; PIELES Y ARTÍCULOS PARA FUMADORES; LIBROS, PERIÓDICOS, REVISTAS Y ARTÍCULOS PARA FUMADORES; LIBROS, PERIÓDICOS, REVISTAS Y ARTÍCULOS DE PAPELERÍA; EQUIPOS Y MATERIAL MÉDICO; OBJETOS DE ARTE Y MATERIAL DEPORTIVO. LA REALIZACIÓN DE NEGOCIOS Y ACTIVIDADES RELACIONADAS CON LOS GREMIOS DE HOSTELERÍA Y DE HOSTERÍA EN GENERAL, Y, ESPECIALMENTE, LAS DE BARES, RESTAURANTES, CAFÉS, CAFÉS-TEATRO, HOTELES, HOSTALES, RESIDENCIAS, Y DEMÁS COMPRENDIDAS EN TALES ACTIVIDADES. TOMAR PARTE EN LOS NEGOCIOS DE OTRAS SOCIEDADES CUYO OBJETO ESTÉ RELACIONADO CON LAS ACTIVIDADES DESCRITAS EN LOS APARTADOS ANTERIORES; Y TODO ELLO MEDIANTE LA COMPRA DE ACCIONES O PARTICIPACIONES, SUSCRIPCIÓN DE OBLIGACIONES Y AMPLIACIÓN DE CAPITAL. LA PRESTACIÓN DE SERVICIOS PROFESIONALES A TRAVÉS DE OTRAS EMPRESAS COLABORADORAS O MEDIANTE SU PROPIO PERSONAL DE INGENIERÍAS, ARQUITECTURA, AERONÁUTICA, INFORMÁTICA, DELINEACIÓN, ECONOMÍA, DERECHO, PERIODISMO Y GRADUADO SOCIAL. SI LAS DISPOSICIONES LEGALES EXIGIESEN PARA EL EJERCICIO DE ALGUNAS DE LAS ACTIVIDADES COMPRENDIDAS EN EL OBJETO SOCIAL ALGÚN TÍTULO PROFESIONAL O AUTORIZACIÓN ADMINISTRATIVA, O LA INSCRIPCIÓN EN REGISTROS PÚBLICOS, DICHAS ACTIVIDADES DEBERÁN REALIZARSE POR MEDIO DE PERSONA QUE OSTENTE LA DEBIDA TITULACIÓN, Y, EN SU CASO, NO PODRÁN INICIARSE ANTES DE QUE SE HAYAN CUMPLIDO LOS REQUISITOS ADMINISTRATIVOS EXIGIDOS. LA COMERCIALIZACIÓN DE SERVICIOS DE MARKETING Y VENTAS; RELACIONES PÚBLICAS; COMERCIALIZACIÓN DE PRODUCTOS DE REGALO PARA EMPRESA; CAMPAÑAS DE PROMOCIÓN Y DIFUSIÓN. LA REALIZACIÓN, CONFECCIÓN DE PROYECTOS TÉCNICOS DE CUALQUIER ESPECIALIDAD, INSTALACIONES GENERALES Y OBRAS DE LOCALES, EDIFICIOS, ETC., PROYECTOS DE EQUIPOS ELECTRÓNICOS Y MECÁNICOS; PROYECTOS DE EJECUCIÓN Y PROYECTOS DE LEGALIZACIÓN DE INSTALACIONES PARA SOLICITUD DE ALTAS INDUSTRIALES Y PERMISOS MUNICIPALES, PROYECTOS DE EQUIPOS DESTINADOS A LA OBTENCIÓN DE CERTIFICADOS DE CONFORMIDAD CON DIRECTIVAS COMUNITARIAS Y HOMOLOGACIÓN DE PRODUCTOS, REGISTROS SANITARIOS, SOLICITUD DE SUBVENCIONES EN LAS ADMINISTRACIONES PÚBLICAS; CUALQUIER TRAMITACIÓN DE TIPO TÉCNICO ENCAMINADA A LA RESOLUCIÓN DE LOS EXPEDIENTES DE LEGALIZACIÓN DE INSTALACIONES, OBRAS Y CERTIFICACIONES DE PRODUCTOS EN LAS ADMINISTRACIONES PÚBLICAS Y ORGANISMOS PRIVADOS; ESTUDIOS DE SISTEMAS DE CONTROL DE CALIDAD E IMPLANTACIÓN DE SISTEMAS DE CONTROL DE CALIDAD EN LAS EMPRESAS. SERVICIOS DE FRANQUICIAS DE CONSULTORÍAS INTEGRALES DE INGENIERÍA, EN LOS ÁMBITOS RELACIONADOS EN EL PUNTO SIETE DE ESTE ARTÍCULO",
      "mainEntityOfPage": "https://www.contratacion.euskadi.eus/webkpe00-kperoc/es/ac71aBusquedaRegistrosWar/empresa/05814",
      "_links": {
        "self": {
          "name": "ASESORIA Y SERVICIOS ERAKO, S. L.",
          "href": "https://api.euskadi.eus/procurements/companies/05814"
        }
      }
    },
    {
      "name": "EIZALEN, S. L.",
      "registrationNumber": "09352",
      "identificationNumber": "B44664589",
      "address": "C/CARLOS GANGOITI Nº38, PAB.1I",
      "location": {
        "postalCode": "48300",
        "municipality": "Gernika-Lumo",
        "county": "Bizkaia",
        "municipalityId": "046",
        "countyId": "48"
      },
      "economicActivities": [
        {
          "id": "1.722",
          "name": "Transporte de mercancías por carretera",
          "_links": {
            "self": {
              "name": "Transporte de mercancías por carretera",
              "href": "https://api.euskadi.eus/procurements/companies/economic-activities/1.722"
            }
          }
        },
        {
          "id": "1.756",
          "name": "Intermediarios del transporte",
          "_links": {
            "self": {
              "name": "Intermediarios del transporte",
              "href": "https://api.euskadi.eus/procurements/companies/economic-activities/1.756"
            }
          }
        },
        {
          "id": "1.848.1",
          "name": "SERVICIOS INTEGRALES DE CORREOS Y TELECOMUNICACIONES",
          "_links": {
            "self": {
              "name": "SERVICIOS INTEGRALES DE CORREOS Y TELECOMUNICACIONES",
              "href": "https://api.euskadi.eus/procurements/companies/economic-activities/1.848.1"
            }
          }
        }
      ],
      "certificateStartDate": "2025-11-06",
      "certificateEndDate": "2026-05-04",
      "object": "A) SERVICIOS DE MENSAJERÍA, RECOGIDA Y REPARTO. B) TRANSPORTE. C) OPERADOR LOGÍSTICO. D) MUDANZAS. E) GESTOR INMOBILIARIO. F) COMERCIO TEXTIL.",
      "mainEntityOfPage": "https://www.contratacion.euskadi.eus/webkpe00-kperoc/es/ac71aBusquedaRegistrosWar/empresa/09352",
      "_links": {
        "self": {
          "name": "EIZALEN, S. L.",
          "href": "https://api.euskadi.eus/procurements/companies/09352"
        }
      }
    },
    {
      "name": "JOSEBA IMANOL CASTRO ROJO",
      "registrationNumber": "08244",
      "identificationNumber": "20181868N",
      "address": "Paseo el Ferrocarril nº 4  -  5º B",
      "location": {
        "postalCode": "48901",
        "municipality": "Barakaldo",
        "county": "Bizkaia",
        "municipalityId": "013",
        "countyId": "48"
      },
      "economicActivities": [
        {
          "id": "1.921.6",
          "name": "Servicios de protección y acondicionamiento ambiental",
          "_links": {
            "self": {
              "name": "Servicios de protección y acondicionamiento ambiental",
              "href": "https://api.euskadi.eus/procurements/companies/economic-activities/1.921.6"
            }
          }
        },
        {
          "id": "2.011",
          "name": "Doctores y licenciados en ciencias biológicas",
          "_links": {
            "self": {
              "name": "Doctores y licenciados en ciencias biológicas",
              "href": "https://api.euskadi.eus/procurements/companies/economic-activities/2.011"
            }
          }
        }
      ],
      "certificateStartDate": "2025-11-06",
      "certificateEndDate": "2026-05-03",
      "object": "SERVICIOS DE PROTECCIÓN Y ACONDICIONAMIENTO AMBIENTAL. EXPLOTACIÓN DE GANADO BOVINO.",
      "mainEntityOfPage": "https://www.contratacion.euskadi.eus/webkpe00-kperoc/es/ac71aBusquedaRegistrosWar/empresa/08244",
      "_links": {
        "self": {
          "name": "JOSEBA IMANOL CASTRO ROJO",
          "href": "https://api.euskadi.eus/procurements/companies/08244"
        }
      }
    },
    {
      "name": "JAMENET SOLUTIONS, S.L.",
      "registrationNumber": "05840",
      "identificationNumber": "B95176608",
      "address": "Mª DÍAZ DE HARO, 29 1º DPTO 2",
      "location": {
        "postalCode": "48013",
        "municipality": "Bilbao",
        "county": "Bizkaia",
        "municipalityId": "020",
        "countyId": "48"
      },
      "economicActivities": [
        {
          "id": "1.845",
          "name": "Explotación electrónica por cuenta de terceros",
          "_links": {
            "self": {
              "name": "Explotación electrónica por cuenta de terceros",
              "href": "https://api.euskadi.eus/procurements/companies/economic-activities/1.845"
            }
          }
        }
      ],
      "certificateStartDate": "2025-11-05",
      "certificateEndDate": "2026-04-29",
      "object": "ASESORÍA EN PRENSA Y RUEDAS DE PRENSA. EVENTOS DE LANZAMIENTO DE PRODUCTO. DESARROLLO Y PRODUCCIÓN DE VÍDEOS, SONIDO Y GRABACIONES. ESTUDIO DE GRABACIÓN, PRODUCCIÓN DE SOPORTES COMERCIALES, DISEÑO DE PÁGINAS WEB. CAMPAÑAS DE PUBLICIDAD, IMAGEN CORPORATIVA, PRODUCCIÓN DE LIBROS Y REVISTAS. MATERIAL PROMOCIONAL, DISEÑOS, AVISOS EN VALLAS Y SEÑALIZACIÓN. ASESORÍA EN COMUNICACIÓN Y ORGANIZACIÓN DE CURSOS Y SEMINARIOS. DISEÑO GRÁFICO, PUBLICIDAD MÓVIL, PRODUCCIÓN DE STAND PARA FERIAS Y EVENTOS. COMUNICACIONES INTEGRALES, DISEÑO GRÁFICO, PRODUCCIÓN DE RADIO Y TELEVISIÓN, ARTE Y FOTOGRAFÍA. EN CONSECUENCIA, MODIFICAR EL ARTÍCULO TERCERO DE LOS ESTATUTOS SOCIALES, QUE PARA LO SUCESIVO QUEDARÁ REDACTADO EN LOS SIGUIENTES TÉRMINOS. ARTÍCULO 3. LA SOCIEDAD TIENE COMO OBJETO: SERVICIOS INFORMÁTICOS. LA COMERCIALIZACIÓN, VENTA, DISTRIBUCIÓN A TRAVÉS DE DIVERSOS CANALES, ARRENDAMIENTO, CESIÓN BAJO CUALQUIER TÍTULO, FABRICACIÓN, INSTALACIÓN, MANTENIMIENTO, REPARACIÓN DE TODO TIPO DE SISTEMAS, PROGRAMAS Y PRODUCTOS INFORMÁTICOS. LAS ACTIVIDADES DE IMPORTACIÓN Y EXPORTACIÓN RELACIONADAS CON LOS PRODUCTOS Y SERVICIOS CONTEMPLADOS EN EL PÁRRAFO ANTERIOR. LA REALIZACIÓN DE PROYECTOS PARA EL SUMINISTRO DE EQUIPOS E INSTALACIONES INTEGRANDO TANTO LOS PROGRAMAS COMO LOS EQUIPOS DE DIVERSO ORIGEN O PROCEDENCIA. LA REALIZACIÓN DE ACTIVIDADES DE FORMACIÓN, ESTUDIO, ASESORÍA, ASISTENCIA TÉCNICA, Y ESPECIALIZACIÓN RELACIONADAS CON EL OBJETO SOCIAL. ASESORÍA EN PRENSAY RUEDAS DE PRENSA. EVENTOS DE LANZAMIENTO DE PRODUCTO. DESARROLLO Y PRODUCCIÓN DE VÍDEOS, SONIDO Y GRABACIONES.  ESTUDIO DE GRABACIÓN, PRODUCCIÓN DE SOPORTES COMERCIALES, DISEÑO DE PÁGINAS WEB. CAMPAÑAS DE PUBLICIDAD, IMAGEN CORPORATIVA, PRODUCCIÓN DE LIBROS Y REVISTAS. MATERIAL PROMOCIONAL, DISEÑOS, AVISOS EN VALLAS Y SEÑALIZACIÓN. ASESORÍA EN COMUNICACIÓN Y ORGANIZACIÓN DE CURSOS Y SEMINARIOS. DISEÑO GRÁFICO, PUBLICIDAD MÓVIL, PRODUCCIÓN DE STAND PARA FERIAS Y EVENTOS. COMUNICACIONES INTEGRALES, DISEÑO GRÁFICO, PRODUCCIÓN DE RADIO Y TELEVISIÓN, ARTE Y FOTOGRAFÍA",
      "mainEntityOfPage": "https://www.contratacion.euskadi.eus/webkpe00-kperoc/es/ac71aBusquedaRegistrosWar/empresa/05840",
      "_links": {
        "self": {
          "name": "JAMENET SOLUTIONS, S.L.",
          "href": "https://api.euskadi.eus/procurements/companies/05840"
        }
      }
    },
    {
      "name": "MONDRAGON LINGUA-ALECOP, S.COOP.",
      "registrationNumber": "08844",
      "identificationNumber": "F72523962",
      "address": "LORAMENDI,11",
      "location": {
        "postalCode": "20500",
        "municipality": "Arrasate / Mondragón",
        "county": "Gipuzkoa",
        "municipalityId": "055",
        "countyId": "20"
      },
      "economicActivities": [
        {
          "id": "1.341.9",
          "name": "Fabricación de otros hilos y cables aislados",
          "_links": {
            "self": {
              "name": "Fabricación de otros hilos y cables aislados",
              "href": "https://api.euskadi.eus/procurements/companies/economic-activities/1.341.9"
            }
          }
        },
        {
          "id": "1.391",
          "name": "Fabricación de instrumentos de precisión, medida y control",
          "_links": {
            "self": {
              "name": "Fabricación de instrumentos de precisión, medida y control",
              "href": "https://api.euskadi.eus/procurements/companies/economic-activities/1.391"
            }
          }
        },
        {
          "id": "1.845",
          "name": "Explotación electrónica por cuenta de terceros",
          "_links": {
            "self": {
              "name": "Explotación electrónica por cuenta de terceros",
              "href": "https://api.euskadi.eus/procurements/companies/economic-activities/1.845"
            }
          }
        },
        {
          "id": "1.849.3",
          "name": "Servicios de traducción y similares",
          "_links": {
            "self": {
              "name": "Servicios de traducción y similares",
              "href": "https://api.euskadi.eus/procurements/companies/economic-activities/1.849.3"
            }
          }
        },
        {
          "id": "1.859",
          "name": "Alquiler de otros bienes muebles n.c.o.p. (sin personal permanente)",
          "_links": {
            "self": {
              "name": "Alquiler de otros bienes muebles n.c.o.p. (sin personal permanente)",
              "href": "https://api.euskadi.eus/procurements/companies/economic-activities/1.859"
            }
          }
        },
        {
          "id": "1.932.1",
          "name": "Enseñanza de formación y perfeccionamiento profesional no superior",
          "_links": {
            "self": {
              "name": "Enseñanza de formación y perfeccionamiento profesional no superior",
              "href": "https://api.euskadi.eus/procurements/companies/economic-activities/1.932.1"
            }
          }
        },
        {
          "id": "1.932.2",
          "name": "Enseñanza de formación y perfeccionamiento profesional superior",
          "_links": {
            "self": {
              "name": "Enseñanza de formación y perfeccionamiento profesional superior",
              "href": "https://api.euskadi.eus/procurements/companies/economic-activities/1.932.2"
            }
          }
        },
        {
          "id": "1.933.9",
          "name": "Otras actividades de enseñanza tales como idiomas, mecanografía",
          "_links": {
            "self": {
              "name": "Otras actividades de enseñanza tales como idiomas, mecanografía",
              "href": "https://api.euskadi.eus/procurements/companies/economic-activities/1.933.9"
            }
          }
        },
        {
          "id": "1.934",
          "name": "Enseñanza fuera de establecimiento permanente",
          "_links": {
            "self": {
              "name": "Enseñanza fuera de establecimiento permanente",
              "href": "https://api.euskadi.eus/procurements/companies/economic-activities/1.934"
            }
          }
        }
      ],
      "certificateStartDate": "2025-11-05",
      "certificateEndDate": "2026-04-28",
      "object": "A. LA PRESTACIÓN DE SERVICIOS PROFESIONALES Y EL SUMINISTRO DE RECURSOS EDUCATIVOS IMPLÍCITOS EN LOS PROCESOS DE FORMACIÓN, REGLADA O NO, TALES COMO LA CONSULTORÍA, IMPARTICIÓN, INNOVACIÓN, CERTIFICACIÓN, ORIENTACIÓN FORMATIVA-LABORAL E INSERCIÓN, ASESORAMIENTO Y ACOMPAÑAMIENTO, DESTINADOS A PERSONAS PARTICULARES, EMPRESAS, INSTITUCIONES EDUCATIVAS Y ENTIDADES PÚBLICAS O PRIVADAS, INCLUYENDO ENTRE OTROS: - LA ENSEÑANZA DE IDIOMAS, COMO MEDIO QUE POSIBILITE LAS RELACIONES CON EMPRESAS Y GENTES DE OTROS PAÍSES PARA MEJOR CONOCIMIENTO Y ENTENDIMIENTO DE SU CULTURA. PARA EL CUMPLIMIENTO DE ESTE OBJETO, LA COOPERATIVA ATENDERÁ PREFERENTEMENTE A LOS SIGUIENTES SERVICIOS: I. ENSEÑANZA DE IDIOMAS A: - PARTICULARES: NIÑOS Y NIÑAS, JÓVENES EN EDAD ESCOLAR Y ADULTOS, CON O SIN OBTENCIÓN DE TITULACIÓN OFICIAL. - EMPRESAS QUE PRECISEN FORMAR A SU PLANTILLA EN IDIOMAS EN SUS DIVERSOS NIVELES. - CENTROS EDUCATIVOS QUE PRECISEN FORMAR EN IDIOMAS A SU PROFESORADO O DESEEN OFRECER EXTRAESCOLARES EN IDIOMAS DENTRO DE SU OFERTA DE SERVICIOS. - ADMINISTRACIONES PÚBLICAS QUE PRECISES OFRECER FORMACIÓN EN IDIOMAS A SUS PERSONAS Y/O A DIFERENTES SECTORES DE LA SOCIEDAD: CIUDADANÍA, COLECTIVOS PROFESIONALES, EMPRESAS, ETC… II. FORMACIÓN DEL PROFESORADO EN EL DOMINIO Y DIDÁCTICA DE IDIOMAS MODERNOS. - LOS SERVICIOS DE TRADUCCIÓN E INTERPRETACIÓN PARA LAS EMPRESAS Y ORGANISMOS QUE LO PRECISEN. - LA CONCEPTUALIZACIÓN, DISEÑO Y DESARROLLO DE SOLUCIONES DE FORMACIÓN (CURSOS, CONTENIDOS FORMATIVOS, PLATAFORMAS DE FORMACIÓN, APLICACIONES INFORMÁTICAS, PÁGINAS WEB, ETC…) Y DE COMUNICACIÓN TÉCNICA RELACIONADA CON BIENES Y SERVICIOS, TODO ELLO ASOCIADO AL APRENDIZAJE Y FORMACIÓN DE LAS PERSONAS. B. LA FABRICACIÓN Y VENTA, ASÍ COMO EL SUMINISTRO, LA COMERCIALIZACIÓN, EL ALQUILER O EL RENTING DE INSTALACIONES ELÉCTRICAS, ELEMENTOS DIDÁCTICOS, MONTAJES INDUSTRIALES SEGÚN ENCARGO O PROYECTOS DE ESTUDIOS. C. Y CUANTAS ACTIVIDADES INDUSTRIALES, COMERCIALES O DE SERVICIOS AFINES O COMPLEMENTARIAS A LAS CITADAS DECIDA EMPRENDER. Y TODO ELLO, CON EL FIN DE OFRECER UN PROCESO DE FORMACIÓN PRÁCTICA, EN UN ÁMBITO COOPERATIVO-EMPRESARIAL Y AUTOFINANCIADA POR EL PROPIO PROCESO, AL MAYOR NÚMERO DE ESTUDIANTES COMPROMETIDOS A DESARROLLARLO.",
      "mainEntityOfPage": "https://www.contratacion.euskadi.eus/webkpe00-kperoc/es/ac71aBusquedaRegistrosWar/empresa/08844",
      "_links": {
        "self": {
          "name": "MONDRAGON LINGUA-ALECOP, S.COOP.",
          "href": "https://api.euskadi.eus/procurements/companies/08844"
        }
      }
    },
    {
      "name": "GRUPO DE COOPERACION INTERNACIONAL EN INGENIERIA Y COMERCIO INDUSTRIAL, S.L.",
      "registrationNumber": "10184",
      "identificationNumber": "B95812855",
      "address": "Avenida El Minero, 19 A - Bajo",
      "location": {
        "postalCode": "48500",
        "municipality": "Abanto y Ciérvana-Abanto Zierbena",
        "county": "Bizkaia",
        "municipalityId": "002",
        "countyId": "48"
      },
      "economicActivities": [
        {
          "id": "1.843.1",
          "name": "Servicios técnicos de ingeniería",
          "_links": {
            "self": {
              "name": "Servicios técnicos de ingeniería",
              "href": "https://api.euskadi.eus/procurements/companies/economic-activities/1.843.1"
            }
          }
        }
      ],
      "certificateStartDate": "2025-11-05",
      "certificateEndDate": "2026-05-05",
      "object": "INGENIERÍA, VINCULADA A LAS ENERGÍAS Y EL I+D+I, INCLUIDO, SU ESTUDIO, INFORME, MEDIDAS CORRECTORAS, DISEÑO, PROYECTO, DIRECCIÓN DE OBRA, EJECUCIÓN, CERTIFICACIÓN ACREDITADA SEGÚN NORMA Y MANTENIMIENTO PREVENTIVO REGLAMENTARIO POSTERIOR, CON 10 AÑOS DE GARANTÍA, 1.200.000 EUROS DE SINIESTRALIDAD (ACTIVIDAD PRINCIPAL CNAE 7112).",
      "mainEntityOfPage": "https://www.contratacion.euskadi.eus/webkpe00-kperoc/es/ac71aBusquedaRegistrosWar/empresa/10184",
      "_links": {
        "self": {
          "name": "GRUPO DE COOPERACION INTERNACIONAL EN INGENIERIA Y COMERCIO INDUSTRIAL, S.L.",
          "href": "https://api.euskadi.eus/procurements/companies/10184"
        }
      }
    },
    {
      "name": "ACUÑA, S.A.",
      "registrationNumber": "01533",
      "identificationNumber": "A20040390",
      "address": "C/ PASEO ULÍA, nº 62- BAJO",
      "location": {
        "postalCode": "20013",
        "municipality": "Donostia / San Sebastián",
        "county": "Gipuzkoa",
        "municipalityId": "069",
        "countyId": "20"
      },
      "economicActivities": [
        {
          "id": "1.507",
          "name": "Construcción, reparación y conservación de toda clase obras",
          "_links": {
            "self": {
              "name": "Construcción, reparación y conservación de toda clase obras",
              "href": "https://api.euskadi.eus/procurements/companies/economic-activities/1.507"
            }
          }
        },
        {
          "id": "1.722",
          "name": "Transporte de mercancías por carretera",
          "_links": {
            "self": {
              "name": "Transporte de mercancías por carretera",
              "href": "https://api.euskadi.eus/procurements/companies/economic-activities/1.722"
            }
          }
        }
      ],
      "certificateStartDate": "2025-11-05",
      "certificateEndDate": "2026-05-05",
      "classification": [
        {
          "id": "S",
          "name": "Servicios",
          "groups": [
            {
              "id": "O",
              "subgroups": [
                {
                  "id": "03",
                  "name": "Conservación y mantenimiento de de redes de agua y alcantarillado",
                  "categories": [
                    {
                      "id": "4",
                      "name": "Desde 600.001 Hasta 1.1200.000",
                      "_links": {
                        "self": {
                          "name": "Desde 600.001 Hasta 1.1200.000",
                          "href": "https://api.euskadi.eus/procurements/companies/types/S/categories/4"
                        }
                      }
                    }
                  ],
                  "_links": {
                    "self": {
                      "name": "Conservación y mantenimiento de de redes de agua y alcantarillado",
                      "href": "https://api.euskadi.eus/procurements/companies/types/S/groups/O/subgroups/03"
                    }
                  }
                }
              ],
              "_links": {
                "self": {
                  "href": "https://api.euskadi.eus/procurements/companies/types/S/groups/O"
                }
              }
            }
          ],
          "_links": {
            "self": {
              "name": "Servicios",
              "href": "https://api.euskadi.eus/procurements/companies/types/S"
            }
          }
        }
      ],
      "object": "LA REALIZACIÓN DE TODA CLASE DE OBRAS PÚBLICAS",
      "mainEntityOfPage": "https://www.contratacion.euskadi.eus/webkpe00-kperoc/es/ac71aBusquedaRegistrosWar/empresa/01533",
      "_links": {
        "self": {
          "name": "ACUÑA, S.A.",
          "href": "https://api.euskadi.eus/procurements/companies/01533"
        }
      }
    }
  ]
}