{
  "totalItems": 9042,
  "totalPages": 905,
  "currentPage": 435,
  "itemsOfPage": 10,
  "items": [
    {
      "name": "CONSTRUCCIONES LORENZO SASTRE, S.L.",
      "registrationNumber": "02355",
      "identificationNumber": "B48180400",
      "address": "C/ ARRANDI, 2-8",
      "location": {
        "postalCode": "48901",
        "municipality": "Barakaldo",
        "county": "Bizkaia",
        "municipalityId": "013",
        "countyId": "48"
      },
      "economicActivities": [
        {
          "id": "1.501.1",
          "name": "Construcción completa, reparación y conservación de edificaciones",
          "_links": {
            "self": {
              "name": "Construcción completa, reparación y conservación de edificaciones",
              "href": "https://api.euskadi.eus/procurements/companies/economic-activities/1.501.1"
            }
          }
        }
      ],
      "certificateStartDate": "2023-12-19",
      "certificateEndDate": "2024-05-20",
      "object": "LA ACTIVIDAD DE CONSTRUCCIÓN COMPLETA, REPARACIÓN Y CONSERVACIÓN DE EDIFICIOS Y OBRAS PÚBLICAS, OBRAS DE NUEVA EDIFICACIÓN URBANA, INDUSTRIAL, URBANIZACIÓN, SANEAMIENTO, ABASTECIMIENTO DE AGUA Y MOVIMIENTOS DE TIERRAS; OBRAS NUEVAS DE CARRETERAS, FERROCARRILES, HIDRAÚLICAS, RIEGOS, PUERTOS, AEROPUERTOS Y DRAGADOS; TRABAJOS DE REPARACIÓN Y CONSERVACIÓN, ALBAÑILERÍA Y TRABAJOS DE CONSTRUCCIÓN, ASÍ COMO TRABAJOS DE PINTURA, ESCAYOLA, ELECTRICIDAD, CARPINTERÍA Y EBANISTERÍA",
      "mainEntityOfPage": "https://www.contratacion.euskadi.eus/webkpe00-kperoc/es/ac71aBusquedaRegistrosWar/empresa/02355",
      "_links": {
        "self": {
          "name": "CONSTRUCCIONES LORENZO SASTRE, S.L.",
          "href": "https://api.euskadi.eus/procurements/companies/02355"
        }
      }
    },
    {
      "name": "SOCIEDAD ANÓNIMA TRABAJOS Y OBRAS",
      "registrationNumber": "01607",
      "identificationNumber": "A28030310",
      "address": "Paseo de la Castellana, 259 D. Torre Espacio.",
      "location": {
        "postalCode": "28046",
        "municipality": "Madrid",
        "county": "Madrid",
        "municipalityId": "079",
        "countyId": "28"
      },
      "economicActivities": [
        {
          "id": "1.501.2",
          "name": "Construcción completa, reparación y conservación obras civiles",
          "_links": {
            "self": {
              "name": "Construcción completa, reparación y conservación obras civiles",
              "href": "https://api.euskadi.eus/procurements/companies/economic-activities/1.501.2"
            }
          }
        }
      ],
      "certificateStartDate": "2023-12-12",
      "certificateEndDate": "2024-06-12",
      "object": "A) LA CONSTRUCCIÓN DE OBRAS PÚBLICAS Y PRIVADAS, MARÍTIMAS Y TERRESTRES, TALES COMO PUENTES, VIADUCTOS Y GRANDES ESTRUCTURAS DE TODO TIPO, COMO PUERTOS, OBRAS MARÍTIMAS EN GENERAL, CANALES, PRESAS, ACEQUIAS Y DESAGÜES, DEFENSA DE MÁRGENES Y ENCAUZAMIENTOS, CONDUCTOS Y DEMÁS OBRAS HIDRÁULICAS, ASÍ COMO CARRETERAS, FERROCARRILES, TENDIDO DE VÍAS, ELEVADOS SOBRE CARRIL Y CABLE, SEÑALIZACIÓN Y ENCLAVAMIENTOS, SEÑALIZACIONES Y ELECTRIFICACIÓN Y DEMÁS OBRAS DE FERROCARRIL, ASÍ COMO CARRETERAS, PISTAS DE ATERRIZAJE, SEÑALIZACIONES Y BALIZAMIENTOS VIALES Y OBRAS VIALES DE TODO TIPO, ASÍ COMO URBANIZACIONES Y EDIFICIOS DE TODO TIPO Y LAS RELACIONADAS CON EL RAMO DE LA EDIFICACIÓN, Y, EN GENERAL, TODAS LAS ACTIVIDADES RELACIONADAS CON EL RAMO DE LA CONSTRUCCIÓN. B) ASÍ COMO EL MOVIMIENTO DE TIERRAS Y PERFORACIONES, DESMONTES, EXPLANACIONES, POZOS, GALERÍAS Y TÚNELES, EXPLOTACIÓN DE CANTERAS Y YACIMIENTOS MINERALES DE TODAS CLASES, INVESTIGACIÓN Y EXPLOTACIÓN DE CUALQUIERA DERECHOS, AUTORIZACIONES, PERMISOS O CONCESIONES REGULADOS POR LA NORMATIVA MINERA, INDUSTRIAS DEL CEMENTO, PLANTAS DE CONGLOMERADO, DE HORMIGÓN Y MINAS. C) EL MANTENIMIENTO DE EQUIPOS E INSTALACIONES ELÉCTRICAS DE ALTA Y BAJA TENSIÓN, TALES COMO ALUMBRADOS E ILUMINACIÓN Y BALIZAMIENTOS, SUBESTACIONES, CENTROS DE TRANSFORMACIÓN Y DISTRIBUCIÓN EN ALTA TENSIÓN, DISTRIBUCIÓN EN BAJA TENSIÓN, TELECOMUNICACIONES E INSTALACIONES RADIOELÉCTRICAS, INSTALACIONES ELECTRÓNICAS E INSTALACIONES ELÉCTRICAS EN GENERAL, ASÍ COMO INSTALACIONES MECÁNICAS, TALES COMO ELEVADORAS O TRANSPORTADORAS, DE VENTILACIÓN, CALEFACCIÓN Y CLIMATIZACIÓN, FRIGORÍFICAS, DE FONTANERÍA Y SANITARIAS, E INSTALACIONES MECÁNICAS EN GENERAL, ASÍ COMO INSTALACIONES ESPECIALES TALES COMO CIMENTACIONES ESPECIALES, SONDEOS, INYECCIONES Y PILOTAJES, TABLESTACADOS, PINTURAS Y METALIZACIONES, ORNAMENTACIONES Y DECORACIONES, JARDINERÍA Y PLANTACIONES, TRATAMIENTO DE AGUAS E INSTALACIONES CONTRA INCENDIOS. D) LLEVAR A CABO LAS ACTIVIDADES DE EXPLOTACIÓN DE ARMADOR DE BUQUE, TRANSPORTE MARÍTIMO DE MERCANCÍAS DE CABOTAJE E INTERIOR DE PUERTOS, TRÁFICO MARÍTIMO Y TRANSPORTE DE PRODUCTOS PETROLÍFEROS Y GASEOSOS, TALES COMO OLEODUCTOS Y  GASEODUCTOS. E) INVESTIGACIÓN, DESARROLLO E INNOVACIÓN DE CUALQUIER TECNOLOGÍA APLICABLE A LAS ACTIVIDADES DE CONSTRUCCIÓN ANTERIORMENTE CITADAS, PUDIENDO SER TITULAR DE PROPIEDAD INTELECTUAL O INDUSTRIAL Y DE LOS DERECHOS SOBRE DICHAS TECNOLOGÍAS, INCLUSO DEL DE EXPLOTACIÓN, PUDIENDO CEDER EL USO, MEDIANTE CUALQUIER TÍTULO. ASÍ COMO LA COMERCIALIZACIÓN, IMPLANTACIÓN, ASESORÍA Y ASISTENCIA DE DICHAS TECNOLOGÍAS EN CUALQUIER SECTOR EN LOS QUE SEAN SUSCEPTIBLES DE COMERCIALIZARSE. LA SOCIEDAD PODRÁ ADQUIRIR, TENER, DISFRUTAR Y ENAJENAR VALORES MOBILIARIOS DE RENTA FIJA, O VARIABLE DE TODO TIPO DE SOCIEDADES, ASÍ COMO ADMINISTRAR LOS VALORES, TÍTULOS Y PARTICIPACIONES DE TODA CLASE DE ENTIDADES",
      "mainEntityOfPage": "https://www.contratacion.euskadi.eus/webkpe00-kperoc/es/ac71aBusquedaRegistrosWar/empresa/01607",
      "_links": {
        "self": {
          "name": "SOCIEDAD ANÓNIMA TRABAJOS Y OBRAS",
          "href": "https://api.euskadi.eus/procurements/companies/01607"
        }
      }
    },
    {
      "name": "EVENTIA 2000, S.L.",
      "registrationNumber": "02486",
      "identificationNumber": "B95137428",
      "address": "GV/ DON DIEGO LOPEZ DE HARO, 81-5º-6",
      "location": {
        "postalCode": "48011",
        "municipality": "Bilbao",
        "county": "Bizkaia",
        "municipalityId": "020",
        "countyId": "48"
      },
      "economicActivities": [
        {
          "id": "1.989.2",
          "name": "Servicios de organización de congresos, asambleas y similares",
          "_links": {
            "self": {
              "name": "Servicios de organización de congresos, asambleas y similares",
              "href": "https://api.euskadi.eus/procurements/companies/economic-activities/1.989.2"
            }
          }
        }
      ],
      "certificateStartDate": "2023-12-05",
      "certificateEndDate": "2024-06-04",
      "object": "LA ORGANIZACIÓN DE CONGRESOS, SEMINARIOS, CONFERENCIAS, CURSOS, CONVENCIONES DE EMPRESAS, EXPOSICIONES Y FERIAS",
      "mainEntityOfPage": "https://www.contratacion.euskadi.eus/webkpe00-kperoc/es/ac71aBusquedaRegistrosWar/empresa/02486",
      "_links": {
        "self": {
          "name": "EVENTIA 2000, S.L.",
          "href": "https://api.euskadi.eus/procurements/companies/02486"
        }
      }
    },
    {
      "name": "CONSORCIO DE MANIPULADO Y SERVICIOS POSTALES, S.L.",
      "registrationNumber": "08099",
      "identificationNumber": "B92621762",
      "address": "CIRO ALEGRIA, 63",
      "location": {
        "postalCode": "29004",
        "municipality": "Málaga",
        "county": "Málaga",
        "municipalityId": "067",
        "countyId": "29"
      },
      "economicActivities": [
        {
          "id": "1.847",
          "name": "Servicios de consultoría",
          "_links": {
            "self": {
              "name": "Servicios de consultoría",
              "href": "https://api.euskadi.eus/procurements/companies/economic-activities/1.847"
            }
          }
        }
      ],
      "certificateStartDate": "2023-12-04",
      "certificateEndDate": "2024-06-01",
      "object": ".- LA ENSEÑANZA. .- LAS ACTIVIDADES DE LOS RAMOS DE LA MEDICINA, LA ODONTOLOGÍA, LA PSIQUIATRÍA, LA PSICOLOGÍA, EL DERECHO, LA INGENIERÍA, LA ARQUITECTURA, CONTRATANDO AL EFECTO LOS PROFESIONALES O ENTIDADES QUE LEGAL O REGLAMENTARIAMENTE TENGAN ATRIBUIDA COMPETENCIA PARA EJERCER DICHAS ACTIVIDADES. .- REALIZAR ESTUDIOS ECONÓMICOS, FINANCIEROS, FISCALES, CONTABLES, JURÍDICOS DE MERCADO, SOCIOLÓGICOS, TECNOLÓGICOS, DE MERCADOTECNIA, Y SOBRE ASUNTOS RELACIONADOS CON EL DESARROLLO DE PROYECTOS O SOCIEDADES EMPRESARIALES, MERCANTILES E INDUSTRIALES. .- ASESORAR A TERCEROS SOBRE LAS MATERIAS DEL EPÍGRAFE ANTERIOR, CONTRATANDO AL EFECTO SI FUERE NECESARIO, LOS PROFESIONALES O ENTIDADES QUE LEGAL O REGLAMENTARIAMENTE TENGAN ATRIBUIDA PARA ELLO. .- CREAR, MANTENER Y EXPLOTAR PÁGINAS Y PORTALES EN INTERNET; OFRECER SERVICIOS DE HOSPEDAJE Y MANTENIMIENTO DE PÁGINAS Y PORTALES, DE INTERMEDIACIÓN EN EL REGISTRO DE DOMINIOS, Y DE CORREO ELECTRÓNICO Y DE COMUNICACIÓN MEDIANTE INTERNET; Y LAS ACTIVIDADES DE LOS RAMOS DEL DISEÑO CONVENCIONAL Y TECNOLÓGICO Y DE LA PUBLICIDAD Y LA INTERMEDIACIÓN COMERCIAL EN ESTOS RAMOS DE ACTIVIDAD. .- PROMOVER Y GESTIONAR PARA SÍ Y PARA TERCEROS, PROYECTOS TECNOLÓGICOS, POR LOS QUE SE VIENE OBLIGADO EN ESPAÑA AL PAGO DEL IMPUESTO SOBRE ACTIVIDADES ECONÓMICAS. .- LA COMPRA Y VENTA POR CUENTA E INTERÉS PROPIO, ACCIONES, PARTICIPACIONES, Y EN GENERAL DE ACTIVOS Y VALORES FINANCIEROS Y EMPRESARIALES O DE CUALQUIER OTRA CLASE, CON INTERVENCIÓN EN SU CASO, DE LOS MEDIADORES QUE LEGAL O REGLAMENTARIAMENTE DEBAN HACERLO. .- LA CREACIÓN, DIRECCIÓN Y APROVECHAMIENTO COMERCIAL DE REDES DE DISTRIBUCIÓN Y VENTA. .- EL ALMACENAMIENTO Y DISTRIBUCIÓN DE MERCANCÍAS. .- LAS ACTIVIDADES DEL RAMO DE LAS TELECOMUNICACIONES, INCLUIDA LA FABRICACIÓN, IMPORTACIÓN, EXPORTACIÓN, DISTRIBUCIÓN, VENTA E INSTALACIÓN DE MATERIALES Y ELEMENTOS, LA CREACIÓN E INSTALACIÓN DE REDES, EL ASESORAMIENTO A TERCEROS Y LA INTERMEDIACIÓN COMERCIAL EN EL SECTOR. .- LAS ACTIVIDADES PROPIAS DEL RAMO DE LA INFORMÁTICA, EXPORTACIÓN, ACTIVIDADES INCLUIDA LA DISTRIBUCIÓN, PROPIAS DEL RAMO DE LA FABRICACIÓN, IMPORTACIÓN, VENTA E INSTALACIÓN DE MATERIALES Y ELEMENTOS, EL ASESORAMIENTO A TERCEROS Y LA INTERMEDIACIÓN COMERCIAL EN EL SECTOR. .- EL DESARROLLO DE ACTIVIDADES COMERCIALES PROPIAS DE LAS GRANDES SUPERFICIES, GRANDES ALMACENES E HIPERMERCADOS, LO MISMO DESARROLLÁNDOLAS CONJUNTAMENTE EN UN SOLO ESTABLECIMIENTO QUE CADA UNA DE TALES ACTIVIDADES POR SEPARADO. .-LA IMPORTACIÓN Y LA EXPORTACIÓN DE MERCADERÍAS APTAS PARA EL DESARROLLO DE LAS ACTIVIDADES DEL EPÍGRAFE ANTERIOR. .- LAS ACTIVIDADES PROPIAS DEL RAMO DE LA HOSTELERÍA, INCLUSO EXPLOTAR ESTABLECIMIENTOS DE DICHO RAMO, DIRECTAMENTE O POR CONTRATA O CONCESIÓN DE ENTIDADES PÚBLICAS Y PRIVADAS, Y LAS DEL RAMO DE LA ALIMENTACIÓN, INCLUIDA LA IMPORTACIÓN, EXPORTACIÓN, DISTRIBUCIÓN Y VENTA AL POR MAYOR Y AL POR MENOR. .- LA EDICIÓN DE LIBROS Y PUBLICACIONES PERIÓDICAS O UNITARIAS Y LAS ACTIVIDADES DEL RAMO DE LAS ARTES GRÁFICAS; LA PRODUCCIÓN DE PELÍCULAS Y SU COMERCIALIZACIÓN, EXHIBICIÓN Y EXPLOTACIÓN; LA REPRESENTACIÓN DE CREADORES, ARTISTAS Y MODELOS; Y LA CREACIÓN Y PRODUCCIÓN DE PROGRAMAS PARA RADIO, TELEVISIÓN Y CUALQUIER OTRO MEDIO DE DIFUSIÓN GENERAL; Y LA ADQUISICIÓN Y EXPLOTACIÓN E INTERMEDIACIÓN EN SU COMPRAVENTA DE DERECHOS DE PROPIEDAD INTELECTUAL E INDUSTRIAL. .- LA PRESTACIÓN DE SERVICIOS DE PUBLICIDAD, MEDIANTE ANUNCIOS, CARTELES, FOLLETOS, PELÍCULAS, PUBLICIDAD, ETC, A TRAVÉS DE PRENSA, RADIO, TELEVISIÓN, PUBLICIDAD AÉREA U OTROS MEDIOS. LA CREACIÓN DE AGENCIAS O EMPRESAS DE PUBLICIDAD QUE SE DEDIQUEN A LA CREACIÓN Y DIFUSIÓN DE ANUNCIOS O DE INFORMACIÓN PUBLICITARIA, PROPAGANDA CAMPAÑAS ELECTORAL, COMUNICACIÓN INSTITUCIONAL O PÚBLICA, E IMAGEN CORPORATIVA, ASÍ COMO LAS DEMÁS EMPRESAS DE PUBLICIDAD EN SUS DIFERENTES MODALIDADES, TALES COMO EXCLUSIVISTAS DE MEDIOS PUBLICITARIOS, PUBLICIDAD EXTERIOR, PUBLICIDAD DIRECTA Y MARKETING DIRECTO, DISTRIBUIDORAS Y CENTRALES DE COMPRAS; ESTUDIOS DE PUBLICIDAD, ETC. ASIMISMO LA CREACIÓN DE EMPRESAS DEDICADAS A LAS RELACIONES PÚBLICAS, PROMOCIÓN DE VENTAS PUBLICITARIAS, REGALOS Y RECLAMOS PUBLICITARIOS Y, EN GENERAL, CUALQUIER SERVICIO INDEPENDIENTE DE PUBLICIDAD. .- LA PRESTACIÓN DE SERVICIOS POSTALES, CONSISTENTES EN LA RECOGIDA, ADMISIÓN, CLASIFICACIÓN, TRATAMIENTO, CURSO, TRANSPORTE, CORRESPONDENCIA Y DISTRIBUCIÓN Y ENTREGA DE ENVÍOS DE ENVÍOS POSTALES EN TODAS SUS MODALIDADES; LOS SERVICIOS DE TELEGRAMAS, TÉLEX, GIRO POSTAL Y TELEGRÁFICO, ASÍ COMO CUALQUIER OTRO DE NATURALEZA ANÁLOGA A LOS ANTERIORES. LA EMISIÓN Y DISTRIBUCIÓN DE SELLOS DE CORREOS Y DEMÁS SIGNOS DE FRANQUEO, SERVICIOS DE MENSAJERÍA, RECADERÍA Y REPARTO Y MANIPULACIÓN DE CORRESPONDENCIA. .- LA EXPEDICIÓN DE BILLETES DE ESPECTÁCULOS PÚBLICOS, ASÍ COMO LOS SERVICIOS DE ORGANIZACIÓN DE CONGRESOS, ASAMBLEAS, PARQUES Y RECINTOS FERIALES Y SIMILARES DESTINADOS A LA EXPLOTACIÓN DE PARQUES O RECINTOS FERIALES, INCLUYENDO LOS SERVICIOS A PERSONAS O ENTIDADES QUE UTILICEN LOS PARQUES O RECINTOS FERIALES PARA LA EXPOSICIÓN, COMERCIALIZACIÓN, MUESTRA O INFORMACIÓN DE SUS PRODUCTOS O ACTIVIDADES, EN LAS CASETAS O STANDS QUE COMPONGAN AQUELLOS PARQUES O RECINTOS, ASÍ COMO EL DISEÑO, DESARROLLO TÉCNICO, FABRICACIÓN, INSTALACIÓN Y MONTAJE Y COMERCIALIZACIÓN DE TODOS LOS ELEMENTOS FERIALES, CASETAS, STANDS, CARPAS, ETC. .- LA COMPRAVENTA Y ALQUILER DE TODO TIPO DE MAQUINARIA. .- LA PROMOCIÓN INMOBILIARIA, LA CONSTRUCCIÓN Y OFICIOS PROPIOS DE LA MISMA, LAS INSTALACIONES ELÉCTRICAS DE GAS Y LOS MONTAJES ELÉCTRICOS DE CUALQUIER NIVEL (ALTA, MEDIA Y BAJA TENSIÓN); LAS OBRAS PÚBLICAS Y EL URBANISMO; Y EL ASESORAMIENTO A COOPERATIVAS Y COMUNIDADES DE VIVIENDAS EN LAS ACTIVIDADES PROPIAS DE LAS MISMAS Y LA GESTIÓN DE SUS PROMOCIONES Y CONSTRUCCIONES.  .- LA ADQUISICIÓN Y LA CESIÓN Y TRANSMISIÓN Y LA EXPLOTACIÓN EN CUALQUIER FORMA LEGAL DE BIENES INMUEBLES RÚSTICOS Y URBANOS Y LAS ACTIVIDADES AGRÍCOLAS Y GANADERAS. .- LA CREACIÓN, ORGANIZACIÓN Y EXPLOTACIÓN DE ACTIVIDADES CULTURALES, LÚDICAS Y EVENTOS, CONGRESOS, SEMINARIOS, FERIAS Y EXPOSICIONES, PERMANENTE U OCASIONALMENTE, Y LAS ACTIVIDADES DE RELACIONES PÚBLICAS. .- EL TRANSPORTE DE VIAJEROS Y MERCANCÍAS Y LAS ACTIVIDADES DEL RAMO DE LA AUTOMOCIÓN AÉREA, TERRESTRE Y MARÍTIMA, INCLUIDA LA INTERMEDIACIÓN Y REPRESENTACIÓN, LA FABRICACIÓN DE COMPONENTES Y ACCESORIOS, LAS TAREAS DE REPARACIÓN Y MANTENIMIENTO, Y LA COMPRA, VENTA, IMPORTACIÓN Y EXPORTACIÓN DE VEHÍCULOS, COMPONENTES Y ACCESORIOS.",
      "mainEntityOfPage": "https://www.contratacion.euskadi.eus/webkpe00-kperoc/es/ac71aBusquedaRegistrosWar/empresa/08099",
      "_links": {
        "self": {
          "name": "CONSORCIO DE MANIPULADO Y SERVICIOS POSTALES, S.L.",
          "href": "https://api.euskadi.eus/procurements/companies/08099"
        }
      }
    },
    {
      "name": "LABORATORIOS LEO PHARMA, S.A.",
      "registrationNumber": "02419",
      "identificationNumber": "A58549585",
      "address": "Vía Laietana, 33  (Planta 7)",
      "location": {
        "postalCode": "08003",
        "municipality": "Barcelona",
        "county": "Barcelona",
        "municipalityId": "019",
        "countyId": "08"
      },
      "economicActivities": [
        {
          "id": "1.614.1",
          "name": "Venta al por mayor de productos farmacéuticos y medicamentos",
          "_links": {
            "self": {
              "name": "Venta al por mayor de productos farmacéuticos y medicamentos",
              "href": "https://api.euskadi.eus/procurements/companies/economic-activities/1.614.1"
            }
          }
        }
      ],
      "certificateStartDate": "2023-12-01",
      "certificateEndDate": "2024-05-29",
      "object": "LA INVESTIGACIÓN Y DESARROLLO, IMPORTACIÓN, DISTRIBUCIÓN Y VENTA DE PRODUCTOS FARMACEÚTICOS, DERMATOLÓGICOS, COSMÉTICOS Y, EN GENERAL, PRODUCTOS PARA EL CUIDADO DE LA SALUD, INCLUYENDO SALUD DE ANIMALES.",
      "mainEntityOfPage": "https://www.contratacion.euskadi.eus/webkpe00-kperoc/es/ac71aBusquedaRegistrosWar/empresa/02419",
      "_links": {
        "self": {
          "name": "LABORATORIOS LEO PHARMA, S.A.",
          "href": "https://api.euskadi.eus/procurements/companies/02419"
        }
      }
    },
    {
      "name": "COREMARINE SOLUTIONS, S.L.",
      "registrationNumber": "09334",
      "identificationNumber": "B95951190",
      "address": "PZ IBAIONDO, 1 Ofic 107 Mod2",
      "location": {
        "postalCode": "48940",
        "municipality": "Leioa",
        "county": "Bizkaia",
        "municipalityId": "054",
        "countyId": "48"
      },
      "economicActivities": [
        {
          "id": "1.843.1",
          "name": "Servicios técnicos de ingeniería",
          "_links": {
            "self": {
              "name": "Servicios técnicos de ingeniería",
              "href": "https://api.euskadi.eus/procurements/companies/economic-activities/1.843.1"
            }
          }
        }
      ],
      "certificateStartDate": "2023-12-01",
      "certificateEndDate": "2024-05-23",
      "object": "MONITORIZACIÓN DE ENERGÍA RENOVABLE MARINA. LA ACTIVIDAD CUBRE LA MONITORIZACIÓN TANTO DE DISPOSITIVOS/PROTOTIPOS DE ENERGÍA MARINA COMO CONDICIONES METOCEÁNICAS ASOCIADAS. CAPTACIÓN, ALMACENAMIENTO Y TRATAMIENTO DE DATOS PARA LA CORRELACIÓN DE LOS MODELOS NUMÉRICOS, OPTIMIZACIÓN DE LOS DISEÑOS Y DEFINIR ESTRATEGIAS DE CONTROL. EFICIENCIA ENERGÉTICA MARINA. ASESORAMIENTO A LOS PROPIETARIOS DE BARCOS, DISEÑADORES Y ASTILLEROS A TOMAR LAS DECISIONES CORRECTAS GRACIAS A NUESTROS ESTUDIOS HIDRODINÁMICOS, SOFTWARE DE ANÁLISIS Y CONOCIMIENTO APLICADO. DURANTE LA VIDA ÚTIL DE LA FLOTA OFRECEMOS UN SERVICIO DE MONITOREO DE LOS BUQUES PARA LA OPTIMIZACIÓN DEL RENDIMIENTO ENERGÉTICO Y ECONÓMICO, MEDIANTE LA TOMA, TRATAMIENTO Y ANÁLISIS DE DATOS. MACHINE LEARNING EN EL SECTOR NAVAL. CREACIÓN DE PROGRAMAS CAPACES DE GENERALIZAR COMPORTAMIENTOS DE LOS ARTEFACTOS FLOTANTES A PARTIR DE UNA INFORMACIÓN SUMINISTRADA. INGENIERÍA Y CONSULTORÍA NAVAL, DISEÑO, PLANIFICACIÓN, PROYECTO Y CONSTRUCCIÓN DE BUQUES, EMBARCACIONES Y ARTEFACTOS FLOTANTES COMO PUDIERAN SER PLATAFORMAS PETROLÍFERAS E INCLUSO PARQUES EÓLICOS Y PISCIFACTORÍAS.",
      "mainEntityOfPage": "https://www.contratacion.euskadi.eus/webkpe00-kperoc/es/ac71aBusquedaRegistrosWar/empresa/09334",
      "_links": {
        "self": {
          "name": "COREMARINE SOLUTIONS, S.L.",
          "href": "https://api.euskadi.eus/procurements/companies/09334"
        }
      }
    },
    {
      "name": "LIFE TECHNOLOGIES, S.A.",
      "registrationNumber": "01799",
      "identificationNumber": "A28139434",
      "address": "C/ Avda. de la Vega 1-planta 4",
      "location": {
        "postalCode": "28108",
        "municipality": "Alcobendas",
        "county": "Madrid",
        "municipalityId": "006",
        "countyId": "28"
      },
      "economicActivities": [
        {
          "id": "1.699",
          "name": "Otras reparaciones n.c.o.p",
          "_links": {
            "self": {
              "name": "Otras reparaciones n.c.o.p",
              "href": "https://api.euskadi.eus/procurements/companies/economic-activities/1.699"
            }
          }
        }
      ],
      "certificateStartDate": "2023-11-30",
      "certificateEndDate": "2024-05-27",
      "object": "LA COMERCIALIZACIÓN, DISTRIBUCIÓN,  Y MANTENIMIENTO DE EQUIPOS INFORMATIVOS O ELECTRÓNICOS DE INSTRUMENTACIÓN Y ANÁLISIS CIENTÍFICOS EN GENERAL Y, EN PARTICULAR, AQUELLOS QUE ESTÉN DESTINADOS  Y/O SEAN COMPLEMENTARIOS O AUXILIARES PARA LOS CAMPOS CIENTÍFICOS DE LA BIOTECNOLOGÍA, BIOQUÍMICA Y CIENCIAS DE LA VIDA, ASÍ COMO DE LOS REACTIVOS Y SUSTANCIAS EN GENERAL, NECESARIOS PARA LA UTILIZACIÓN DE LOS MENCIONADOS EQUIPOS. ASIMISMO, LA CONFECCIÓN, MODIFICACIÓN Y ADAPTACIÓN DE PROGRAMAS Y APLICACIONES INFORMÁTICAS DESTINADAS A SER UTILIZADAS EN LOS EQUIPOS Y PARA LOS CAMPOS MENCIONADOS.",
      "mainEntityOfPage": "https://www.contratacion.euskadi.eus/webkpe00-kperoc/es/ac71aBusquedaRegistrosWar/empresa/01799",
      "_links": {
        "self": {
          "name": "LIFE TECHNOLOGIES, S.A.",
          "href": "https://api.euskadi.eus/procurements/companies/01799"
        }
      }
    },
    {
      "name": "LABORATORIOS LENTICON, S.A.",
      "registrationNumber": "08783",
      "identificationNumber": "A78383221",
      "address": "RONDA DE VALDECARRIZO Nº41B 1ª PLANTA",
      "location": {
        "postalCode": "28760",
        "municipality": "Tres Cantos",
        "county": "Madrid",
        "municipalityId": "903",
        "countyId": "28"
      },
      "economicActivities": [
        {
          "id": "1.393.1",
          "name": "Instrumentos ópticos, material fotográfico y cinematográfico",
          "_links": {
            "self": {
              "name": "Instrumentos ópticos, material fotográfico y cinematográfico",
              "href": "https://api.euskadi.eus/procurements/companies/economic-activities/1.393.1"
            }
          }
        }
      ],
      "certificateStartDate": "2023-11-29",
      "certificateEndDate": "2024-05-29",
      "object": "LA COMPRA, VENTA, IMPORTACIÓN, EXPORTACIÓN, DISTRIBUCIÓN Y FABRICACIÓN DE TODA CLASE DE ARTÍCULOS DE ÓPTICA, FOTOGRAFÍA, AUDIOLOGÍA, LENTES DE CONTACTO, CLÍNICA MÉDICA Y OBJETOS DE REGALO RELACIONADOS CON LA ÓPTICA.",
      "mainEntityOfPage": "https://www.contratacion.euskadi.eus/webkpe00-kperoc/es/ac71aBusquedaRegistrosWar/empresa/08783",
      "_links": {
        "self": {
          "name": "LABORATORIOS LENTICON, S.A.",
          "href": "https://api.euskadi.eus/procurements/companies/08783"
        }
      }
    },
    {
      "name": "BEHARRA, S.L.",
      "registrationNumber": "08758",
      "identificationNumber": "B01464049",
      "address": "CL DIONISIO ALDAMA Nº5 3E",
      "location": {
        "postalCode": "01470",
        "municipality": "Amurrio",
        "county": "Araba/Álava",
        "municipalityId": "002",
        "countyId": "01"
      },
      "economicActivities": [
        {
          "id": "1.967.1",
          "name": "Instalaciones deportivas",
          "_links": {
            "self": {
              "name": "Instalaciones deportivas",
              "href": "https://api.euskadi.eus/procurements/companies/economic-activities/1.967.1"
            }
          }
        }
      ],
      "certificateStartDate": "2023-11-27",
      "certificateEndDate": "2024-05-20",
      "object": "LA GESTIÓN, MANTENIMIENTO Y LIMPIEZA DE LAS INSTALACIONES DEPORTIVAS MUNICIPALES.",
      "mainEntityOfPage": "https://www.contratacion.euskadi.eus/webkpe00-kperoc/es/ac71aBusquedaRegistrosWar/empresa/08758",
      "_links": {
        "self": {
          "name": "BEHARRA, S.L.",
          "href": "https://api.euskadi.eus/procurements/companies/08758"
        }
      }
    },
    {
      "name": "ORONA, S. COOP.",
      "registrationNumber": "01068",
      "identificationNumber": "F20025318",
      "address": "POLÍGONO INDUSTRIAL LASTAOLA, S/N.",
      "location": {
        "postalCode": "20120",
        "municipality": "Hernani",
        "county": "Gipuzkoa",
        "municipalityId": "040",
        "countyId": "20"
      },
      "economicActivities": [
        {
          "id": "1.325.4",
          "name": "Construcción de maquinaria de elevación y manipulación",
          "_links": {
            "self": {
              "name": "Construcción de maquinaria de elevación y manipulación",
              "href": "https://api.euskadi.eus/procurements/companies/economic-activities/1.325.4"
            }
          }
        },
        {
          "id": "1.504.6",
          "name": "Montaje e instalación de aparatos elevadores de cualquier clase",
          "_links": {
            "self": {
              "name": "Montaje e instalación de aparatos elevadores de cualquier clase",
              "href": "https://api.euskadi.eus/procurements/companies/economic-activities/1.504.6"
            }
          }
        },
        {
          "id": "1.699",
          "name": "Otras reparaciones n.c.o.p",
          "_links": {
            "self": {
              "name": "Otras reparaciones n.c.o.p",
              "href": "https://api.euskadi.eus/procurements/companies/economic-activities/1.699"
            }
          }
        },
        {
          "id": "1.833.2",
          "name": "Promoción de edificaciones",
          "_links": {
            "self": {
              "name": "Promoción de edificaciones",
              "href": "https://api.euskadi.eus/procurements/companies/economic-activities/1.833.2"
            }
          }
        },
        {
          "id": "1.849.7",
          "name": "Servicios de gestión administrativa",
          "_links": {
            "self": {
              "name": "Servicios de gestión administrativa",
              "href": "https://api.euskadi.eus/procurements/companies/economic-activities/1.849.7"
            }
          }
        }
      ],
      "certificateStartDate": "2023-11-23",
      "certificateEndDate": "2024-05-02",
      "object": "LA VENTA, COMERCIALIZACIÓN, PROYECTO, FABRICACIÓN, INSTALACIÓN, MANTENIMIENTO Y REPARACIÓN DE APARATOS ELEVADORES, ESCALERAS, RAMPAS Y PASILLOS MECÁNICOS, ESTRUCTURAS Y ELEMENTOS DE CUBIERTA, CIERRE Y SEPARACIÓN DE EDIFICIOS, ASÍ COMO LA VENTA, EXPLOTACIÓN, VIGILANCIA, CONSERVACIÓN Y MANTENIMIENTO, PREVENTIVO Y CORRECTIVO DE TODO TIPO DE INSTALACIONES PARA EDIFICIOS, TALES COMO CALEFACCIÓN, ACONDICIONAMIENTO DE AIRE, ELECTRICIDAD, PREVENCIÓN Y EXTINCIÓN DE INCENDIOS, ACCESOS Y, EN GENERAL, CUANTAS ACTIVIDADES, AFINES O COMPLEMENTARIAS, DECIDA EMPRENDER",
      "mainEntityOfPage": "https://www.contratacion.euskadi.eus/webkpe00-kperoc/es/ac71aBusquedaRegistrosWar/empresa/01068",
      "_links": {
        "self": {
          "name": "ORONA, S. COOP.",
          "href": "https://api.euskadi.eus/procurements/companies/01068"
        }
      }
    }
  ]
}