{
  "totalItems": 9042,
  "totalPages": 905,
  "currentPage": 361,
  "itemsOfPage": 10,
  "items": [
    {
      "name": "ENKLABE, KOOPERATIBA SOZIETATE TXIKIA",
      "registrationNumber": "10130",
      "identificationNumber": "F01469097",
      "address": "C/Siervas de Jesús 31, Entlo. Izda",
      "location": {
        "postalCode": "01001",
        "municipality": "Vitoria-Gasteiz",
        "county": "Araba/Álava",
        "municipalityId": "059",
        "countyId": "01"
      },
      "economicActivities": [
        {
          "id": "1.843.4",
          "name": "Servicios técnicos de topografía",
          "_links": {
            "self": {
              "name": "Servicios técnicos de topografía",
              "href": "https://api.euskadi.eus/procurements/companies/economic-activities/1.843.4"
            }
          }
        },
        {
          "id": "1.843.9",
          "name": "Otros servicios técnicos n.c.o.p",
          "_links": {
            "self": {
              "name": "Otros servicios técnicos n.c.o.p",
              "href": "https://api.euskadi.eus/procurements/companies/economic-activities/1.843.9"
            }
          }
        }
      ],
      "certificateStartDate": "2025-04-14",
      "certificateEndDate": "2025-10-14",
      "object": "- LA REALIZACIÓN DE CUALQUIER LABOR RELACIONADA CON LA ARQUEOLOGÍA (EXCAVACIONES Y PROSPECCIONES ARQUEOLÓGICAS, CONTROLES ARQUEOLÓGICOS DE OBRAS Y EVALUACIONES DE IMPACTO ARQUEOLÓGICO, ESTUDIOS ARQUEOLÓGICOS DEL PATRIMONIO CONSTRUIDO, CATALOGACIONES E INVENTARIADOS, TRATAMIENTO DE MATERIALES ARQUEOLÓGICOS) - LA REALIZACIÓN DE CUALQUIER LABOR RELACIONADA CON LA TOPOGRAFÍA EN SUS APLICACIONES VINCULADAS AL PATRIMONIO (LEVANTAMIENTOS TOPOGRÁFICOS EXCAVACIONES ARQUEOLÓGICAS Y DE EDIFICIOS HISTÓRICOS, MODELOS 3D, CONSTRUCCIÓN Y ALIMENTACIÓN DE SISTEMA DE INFORMACIÓN GEOGRÁFICA) - LA REALIZACIÓN DE CUALQUIER LABOR RELACIONADA CON EL TERRITORIO DESDE EL PUNTO DE VISTA GEOGRÁFICO (ANÁLISIS DE LA EVOLUCIÓN DEL PAISAJE, VALORACIÓN DEL PAISAJE, INVENTARIOS DE RECURSOS PAISAJÍSTICOS, TRAZADO DE RUTAS DE INTERÉS PAISAJÍSTICO) - LA REALIZACIÓN DE CUALQUIER LABOR RELACIONADA CON LA DIFUSIÓN DEL PATRIMONIO (ORGANIZACIÓN DE CURSOS, TALLERES Y MATERIAL DIDÁCTICO, REALIZACIÓN DE ILUSTRACIONES, RECREACIONES Y MAPAS TEMÁTICOS, RUTAS, ITINERARIOS, VISITAS GUIADAS Y MATERIALES DE USO TURÍSTICO, MUSEALIZACIÓN, EXPOSICIONES).",
      "mainEntityOfPage": "https://www.contratacion.euskadi.eus/webkpe00-kperoc/es/ac71aBusquedaRegistrosWar/empresa/10130",
      "_links": {
        "self": {
          "name": "ENKLABE, KOOPERATIBA SOZIETATE TXIKIA",
          "href": "https://api.euskadi.eus/procurements/companies/10130"
        }
      }
    },
    {
      "name": "EASO AUDITORES CONSULTORES, S.L.",
      "registrationNumber": "08756",
      "identificationNumber": "B75067496",
      "address": "c/ Iparraguirre 13 1º ctro.",
      "location": {
        "postalCode": "20001",
        "municipality": "Donostia / San Sebastián",
        "county": "Gipuzkoa",
        "municipalityId": "069",
        "countyId": "20"
      },
      "economicActivities": [
        {
          "id": "1.842",
          "name": "Servicios financieros y contables",
          "_links": {
            "self": {
              "name": "Servicios financieros y contables",
              "href": "https://api.euskadi.eus/procurements/companies/economic-activities/1.842"
            }
          }
        }
      ],
      "certificateStartDate": "2025-04-14",
      "certificateEndDate": "2025-10-06",
      "object": "- LA PRESTACIÓN DE SERVICIOS DE AUDITORÍA CONTABLE Y FINANCIARA - LA CONSULTORÍA FISCAL Y EL ASESORAMIENTO INTEGRAL EMPRESARIAL.",
      "mainEntityOfPage": "https://www.contratacion.euskadi.eus/webkpe00-kperoc/es/ac71aBusquedaRegistrosWar/empresa/08756",
      "_links": {
        "self": {
          "name": "EASO AUDITORES CONSULTORES, S.L.",
          "href": "https://api.euskadi.eus/procurements/companies/08756"
        }
      }
    },
    {
      "name": "SUMINISTROS HOGAR HOTEL, S.A.",
      "registrationNumber": "09487",
      "identificationNumber": "A48167803",
      "address": "C/ MEDICO ANTONIO EGUILUZ 19",
      "location": {
        "postalCode": "48004",
        "municipality": "Bilbao",
        "county": "Bizkaia",
        "municipalityId": "020",
        "countyId": "48"
      },
      "economicActivities": [
        {
          "id": "1.651.1",
          "name": "Venta al por menor de productos textiles, de hogar, alfombras y similares",
          "_links": {
            "self": {
              "name": "Venta al por menor de productos textiles, de hogar, alfombras y similares",
              "href": "https://api.euskadi.eus/procurements/companies/economic-activities/1.651.1"
            }
          }
        },
        {
          "id": "1.653.1",
          "name": "Venta al por menor de muebles (excepto los de oficina)",
          "_links": {
            "self": {
              "name": "Venta al por menor de muebles (excepto los de oficina)",
              "href": "https://api.euskadi.eus/procurements/companies/economic-activities/1.653.1"
            }
          }
        },
        {
          "id": "1.653.2",
          "name": "Venta al por menor de material y aparatos eléctricos, electrodomésticos y cocina",
          "_links": {
            "self": {
              "name": "Venta al por menor de material y aparatos eléctricos, electrodomésticos y cocina",
              "href": "https://api.euskadi.eus/procurements/companies/economic-activities/1.653.2"
            }
          }
        },
        {
          "id": "1.653.3",
          "name": "Venta al por menor de artículos de menaje, ferretería, adorno, regalo",
          "_links": {
            "self": {
              "name": "Venta al por menor de artículos de menaje, ferretería, adorno, regalo",
              "href": "https://api.euskadi.eus/procurements/companies/economic-activities/1.653.3"
            }
          }
        }
      ],
      "certificateStartDate": "2025-04-12",
      "certificateEndDate": "2025-10-10",
      "object": "LA ACTIVIDAD DE COMPRA-VENTA AL POR MAYOR Y MENOR DE TODO TIPO DE ARTÍCULOS PARA LA HOSTELERÍA Y EL HOGAR EN GENERAL, TALES COMO ARTÍCULOS DE PORCELANA, LOZA, CRISTAL, ASÍ COMO MENAJE DE MESA Y COCINA EN TODA SU DIVERSIDAD; ARTÍCULOS ELÉCTRICOS, MUEBLES AUXILIARES, LENCERÍA DE MESA, APLIQUES PORTÁTILES, CUADROS, LÁMPARAS, VAJILLAS, CRISTALERÍAS.",
      "mainEntityOfPage": "https://www.contratacion.euskadi.eus/webkpe00-kperoc/es/ac71aBusquedaRegistrosWar/empresa/09487",
      "_links": {
        "self": {
          "name": "SUMINISTROS HOGAR HOTEL, S.A.",
          "href": "https://api.euskadi.eus/procurements/companies/09487"
        }
      }
    },
    {
      "name": "SCHINDLER, S.A.",
      "registrationNumber": "02165",
      "identificationNumber": "A50001726",
      "address": "CALLE ALBARCÍN Nº 58, CARTUJA BAJA",
      "location": {
        "postalCode": "50720",
        "municipality": "Zaragoza",
        "county": "Zaragoza",
        "municipalityId": "297",
        "countyId": "50"
      },
      "economicActivities": [
        {
          "id": "1.504.1",
          "name": "Instalaciones eléctricas en general",
          "_links": {
            "self": {
              "name": "Instalaciones eléctricas en general",
              "href": "https://api.euskadi.eus/procurements/companies/economic-activities/1.504.1"
            }
          }
        },
        {
          "id": "1.654.5",
          "name": "Venta al por menor de toda clase de maquinaría",
          "_links": {
            "self": {
              "name": "Venta al por menor de toda clase de maquinaría",
              "href": "https://api.euskadi.eus/procurements/companies/economic-activities/1.654.5"
            }
          }
        },
        {
          "id": "1.699",
          "name": "Otras reparaciones n.c.o.p",
          "_links": {
            "self": {
              "name": "Otras reparaciones n.c.o.p",
              "href": "https://api.euskadi.eus/procurements/companies/economic-activities/1.699"
            }
          }
        }
      ],
      "certificateStartDate": "2025-04-11",
      "certificateEndDate": "2025-10-08",
      "object": "LAS INDUSTRIAS Y CONSTRUCCIONES ELÉCTRICAS DE CUALQUIER CLASE, LA COMPRA Y VENTA DE TODA CLASE DE MAQUINARIA ELÉCTRICA Y MECÁNICA Y LA DE CHATARRA EN GENERAL. LA DE CUALQUIER OBJETO U OBJETOS RELACIONADOS CON LA ELECTRICIDAD Y LAS REPRESENTACIONES QUE SE LE CONFIERAN DIRECTA O INDIRECTAMENTE",
      "mainEntityOfPage": "https://www.contratacion.euskadi.eus/webkpe00-kperoc/es/ac71aBusquedaRegistrosWar/empresa/02165",
      "_links": {
        "self": {
          "name": "SCHINDLER, S.A.",
          "href": "https://api.euskadi.eus/procurements/companies/02165"
        }
      }
    },
    {
      "name": "EUROFINS CIMERA ESTUDIOS APLICADOS, S.L.U",
      "registrationNumber": "06919",
      "identificationNumber": "B82642547",
      "address": "SANTIAGO GRISOLÍA 2",
      "location": {
        "postalCode": "28760",
        "municipality": "Tres Cantos",
        "county": "Madrid",
        "municipalityId": "903",
        "countyId": "28"
      },
      "economicActivities": [
        {
          "id": "1.843.9",
          "name": "Otros servicios técnicos n.c.o.p",
          "_links": {
            "self": {
              "name": "Otros servicios técnicos n.c.o.p",
              "href": "https://api.euskadi.eus/procurements/companies/economic-activities/1.843.9"
            }
          }
        }
      ],
      "certificateStartDate": "2025-04-11",
      "certificateEndDate": "2025-10-11",
      "object": "A) LA REALIZACIÓN DE ESTUDIOS, PROYECTOS, ASESORÍAS, AUDITORÍAS, CONSULTORÍAS, ASISTENCIA TÉCNICA, DESARROLLO DE PLANES DE GESTIÓN, PLANIFICACIÓN Y FORMACIÓN EN TEMAS RELATIVOS AL MEDIO AMBIENTE, PARA CUALQUIER PERSONA FÍSICA O JURÍDICA, O CUALQUIERA DE LAS ADMINISTRACIONES PÚBLICAS QUE LO REQUIERAN COMO CLIENTE. B) LA COMERCIALIZACIÓN, IMPORTACIÓN Y EXPORTACIÓN DE PRODUCTOS, COMPONENTES Y EQUIPOS RELACIONADOS CON EL ESTUDIO DEL MEDIO AMBIENTE\n\n",
      "mainEntityOfPage": "https://www.contratacion.euskadi.eus/webkpe00-kperoc/es/ac71aBusquedaRegistrosWar/empresa/06919",
      "_links": {
        "self": {
          "name": "EUROFINS CIMERA ESTUDIOS APLICADOS, S.L.U",
          "href": "https://api.euskadi.eus/procurements/companies/06919"
        }
      }
    },
    {
      "name": "MARIA JESUS ERKOREKA RODRIGUEZ",
      "registrationNumber": "09016",
      "identificationNumber": "30563922G",
      "address": "C/ RODRIGUEZ ARIAS 71 TERCERO DERECHA",
      "location": {
        "postalCode": "48013",
        "municipality": "Bilbao",
        "county": "Bizkaia",
        "municipalityId": "020",
        "countyId": "48"
      },
      "economicActivities": [
        {
          "id": "2.777",
          "name": "Especialistas en asuntos de personal y análisis profesional",
          "_links": {
            "self": {
              "name": "Especialistas en asuntos de personal y análisis profesional",
              "href": "https://api.euskadi.eus/procurements/companies/economic-activities/2.777"
            }
          }
        },
        {
          "id": "2.824",
          "name": "Profesores de formación y perfeccionamiento profesional",
          "_links": {
            "self": {
              "name": "Profesores de formación y perfeccionamiento profesional",
              "href": "https://api.euskadi.eus/procurements/companies/economic-activities/2.824"
            }
          }
        }
      ],
      "certificateStartDate": "2025-04-10",
      "certificateEndDate": "2025-10-03",
      "object": "ESPECIALISTAS EN ASUNTOS DE PERSONAL Y ANÁLISIS PROFESIONAL.",
      "mainEntityOfPage": "https://www.contratacion.euskadi.eus/webkpe00-kperoc/es/ac71aBusquedaRegistrosWar/empresa/09016",
      "_links": {
        "self": {
          "name": "MARIA JESUS ERKOREKA RODRIGUEZ",
          "href": "https://api.euskadi.eus/procurements/companies/09016"
        }
      }
    },
    {
      "name": "IRAIA LADISLAO BASAÑEZ",
      "registrationNumber": "10126",
      "identificationNumber": "45664744S",
      "address": "Calle Iparragirre (48300) 12",
      "location": {
        "postalCode": "48300",
        "municipality": "Gernika-Lumo",
        "county": "Bizkaia",
        "municipalityId": "046",
        "countyId": "48"
      },
      "economicActivities": [
        {
          "id": "1.475",
          "name": "Actividades anexas a las artes gráficas",
          "_links": {
            "self": {
              "name": "Actividades anexas a las artes gráficas",
              "href": "https://api.euskadi.eus/procurements/companies/economic-activities/1.475"
            }
          }
        }
      ],
      "certificateStartDate": "2025-04-10",
      "certificateEndDate": "2025-09-30",
      "object": "ACTIVIDADES ANEXAS A LAS ARTES GRÁFICAS.",
      "mainEntityOfPage": "https://www.contratacion.euskadi.eus/webkpe00-kperoc/es/ac71aBusquedaRegistrosWar/empresa/10126",
      "_links": {
        "self": {
          "name": "IRAIA LADISLAO BASAÑEZ",
          "href": "https://api.euskadi.eus/procurements/companies/10126"
        }
      }
    },
    {
      "name": "FACHADAS VENTILADAS LIGERAS, S.L.",
      "registrationNumber": "09571",
      "identificationNumber": "B09543547",
      "address": "Carretera Madrid-Irún, km 230",
      "location": {
        "postalCode": "09195",
        "municipality": "Villariezo",
        "county": "Burgos",
        "municipalityId": "458",
        "countyId": "09"
      },
      "economicActivities": [
        {
          "id": "1.505.1",
          "name": "Revestimientos exteriores e interiores de todas clases",
          "_links": {
            "self": {
              "name": "Revestimientos exteriores e interiores de todas clases",
              "href": "https://api.euskadi.eus/procurements/companies/economic-activities/1.505.1"
            }
          }
        }
      ],
      "certificateStartDate": "2025-04-09",
      "certificateEndDate": "2025-10-09",
      "object": "- ARRENDAMIENTO DE MAQUINARIA, GRÚAS Y VEHÍCULOS INDUSTRIALES. - MONTAJE E INSTALACIÓN DE VIDRIO Y CRISTAL, ACRISTALAMIENTO INTEGRAL DE OBRAS, MONTAJE E INSTALACIÓN DE CARPINTERÍA DE ALUMINIO Y PVC, CUBIERTAS PARA TEJADOS Y REFORMAS EN GENERAL. - TRAFICO INMOBILIARIO. - OBRAS DE ALBAÑILERÍA EN GENERAL, FONTANERÍA, ELECTRICIDAD, AISLAMIENTOS, IMPERMEABILIZACIONES Y OBRAS DE REHABILITACIÓN Y REPARACIÓN DE CUALQUIER TIPO DE EDIFICACIONES. - TRABAJOS DE CONSTRUCCIÓN, REFORMAS COMERCIALES Y REPARACIONES DE VIVIENDA, OFICINAS Y EDIFICACIONES INDUSTRIALES. ASÍ COMO LA PARTICIPACIÓN EN OTRAS SOCIEDADES QUE TENGAN OBJETO ANÁLOGO.",
      "mainEntityOfPage": "https://www.contratacion.euskadi.eus/webkpe00-kperoc/es/ac71aBusquedaRegistrosWar/empresa/09571",
      "_links": {
        "self": {
          "name": "FACHADAS VENTILADAS LIGERAS, S.L.",
          "href": "https://api.euskadi.eus/procurements/companies/09571"
        }
      }
    },
    {
      "name": "MINTEGUI INDUSTRIAS DEL CAMION, S.A.",
      "registrationNumber": "07020",
      "identificationNumber": "A48053508",
      "address": "Polígono Torrelarragoiti 7-C",
      "location": {
        "postalCode": "48170",
        "municipality": "Zamudio",
        "county": "Bizkaia",
        "municipalityId": "905",
        "countyId": "48"
      },
      "economicActivities": [
        {
          "id": "1.361",
          "name": "Construcción y montaje de vehículos automóviles y sus motores",
          "_links": {
            "self": {
              "name": "Construcción y montaje de vehículos automóviles y sus motores",
              "href": "https://api.euskadi.eus/procurements/companies/economic-activities/1.361"
            }
          }
        },
        {
          "id": "1.654.1",
          "name": "Venta al por menor de vehículos terrestres",
          "_links": {
            "self": {
              "name": "Venta al por menor de vehículos terrestres",
              "href": "https://api.euskadi.eus/procurements/companies/economic-activities/1.654.1"
            }
          }
        },
        {
          "id": "1.691.2",
          "name": "Reparación de vehículos automóviles, bicicletas y otros vehículos",
          "_links": {
            "self": {
              "name": "Reparación de vehículos automóviles, bicicletas y otros vehículos",
              "href": "https://api.euskadi.eus/procurements/companies/economic-activities/1.691.2"
            }
          }
        },
        {
          "id": "1.721.3",
          "name": "Transporte de viajeros por carretera",
          "_links": {
            "self": {
              "name": "Transporte de viajeros por carretera",
              "href": "https://api.euskadi.eus/procurements/companies/economic-activities/1.721.3"
            }
          }
        },
        {
          "id": "1.854.1",
          "name": "Alquiler de automóviles sin conductor",
          "_links": {
            "self": {
              "name": "Alquiler de automóviles sin conductor",
              "href": "https://api.euskadi.eus/procurements/companies/economic-activities/1.854.1"
            }
          }
        }
      ],
      "certificateStartDate": "2025-04-08",
      "certificateEndDate": "2025-10-01",
      "object": "LA COMPRAVENTA DE VEHÍCULOS DE TODAS CLASES, RECAMBIOS Y ACCESORIOS DE LOS MISMOS; COMPRAVENTA DE MAQUINARIA DE OBRAS PÚBLICAS Y SUS ACCESORIOS Y RECAMBIOS; REPARACIÓN DE VEHÍCULOS DE TODAS CLASES; CONSTRUCCIÓN DE CHASIS Y MONTAJE DE VEHÍCULOS; GARAJES",
      "mainEntityOfPage": "https://www.contratacion.euskadi.eus/webkpe00-kperoc/es/ac71aBusquedaRegistrosWar/empresa/07020",
      "_links": {
        "self": {
          "name": "MINTEGUI INDUSTRIAS DEL CAMION, S.A.",
          "href": "https://api.euskadi.eus/procurements/companies/07020"
        }
      }
    },
    {
      "name": "LAZITURRI, S.L.",
      "registrationNumber": "08212",
      "identificationNumber": "B01242866",
      "address": "PLAZA DE LA MÚSICA, 4",
      "location": {
        "postalCode": "01118",
        "municipality": "Lagrán",
        "county": "Araba/Álava",
        "municipalityId": "030",
        "countyId": "01"
      },
      "economicActivities": [
        {
          "id": "1.911",
          "name": "Servicios agrícolas y ganaderos",
          "_links": {
            "self": {
              "name": "Servicios agrícolas y ganaderos",
              "href": "https://api.euskadi.eus/procurements/companies/economic-activities/1.911"
            }
          }
        }
      ],
      "certificateStartDate": "2025-04-07",
      "certificateEndDate": "2025-10-01",
      "object": "- LA CREACIÓN, MANTENIMIENTO Y CONSERVACIÓN DE JARDINES, PARQUES FORESTALES Y CAMPOS DE GOLF. LA PRESTACIÓN DE SERVICIOS DE PLANTACIÓN, PREPARACIÓN DE LA TIERRA, PODA, RIEGO, Y APLICACIÓN DE PRODUCTOS SANITARIOS. - SERVICIOS DE MANTENIMIENTO DE INSTALACIONES Y MAQUINARIA DENTRO DE UN CAMPO DE GOLF. - EXPLOTACIÓN DE SERVICIOS DE HOSTELERÍA.",
      "mainEntityOfPage": "https://www.contratacion.euskadi.eus/webkpe00-kperoc/es/ac71aBusquedaRegistrosWar/empresa/08212",
      "_links": {
        "self": {
          "name": "LAZITURRI, S.L.",
          "href": "https://api.euskadi.eus/procurements/companies/08212"
        }
      }
    }
  ]
}