{
  "totalItems": 9042,
  "totalPages": 905,
  "currentPage": 195,
  "itemsOfPage": 10,
  "items": [
    {
      "name": "DISTRIBUCIONES Y REPRESENTACIONES BIOMÉDICAS DIREX, S.L.",
      "registrationNumber": "04572",
      "identificationNumber": "B38353900",
      "address": "URB. LA PRIMAVERA, 206",
      "location": {
        "postalCode": "38360",
        "municipality": "Sauzal, El",
        "county": "Santa Cruz de Tenerife",
        "municipalityId": "041",
        "countyId": "38"
      },
      "economicActivities": [
        {
          "id": "1.659.3",
          "name": "Venta al por menor de aparatos médicos, ortopédicos, ópticos y fotográficos",
          "_links": {
            "self": {
              "name": "Venta al por menor de aparatos médicos, ortopédicos, ópticos y fotográficos",
              "href": "https://api.euskadi.eus/procurements/companies/economic-activities/1.659.3"
            }
          }
        },
        {
          "id": "1.699",
          "name": "Otras reparaciones n.c.o.p",
          "_links": {
            "self": {
              "name": "Otras reparaciones n.c.o.p",
              "href": "https://api.euskadi.eus/procurements/companies/economic-activities/1.699"
            }
          }
        },
        {
          "id": "1.859",
          "name": "Alquiler de otros bienes muebles n.c.o.p. (sin personal permanente)",
          "_links": {
            "self": {
              "name": "Alquiler de otros bienes muebles n.c.o.p. (sin personal permanente)",
              "href": "https://api.euskadi.eus/procurements/companies/economic-activities/1.859"
            }
          }
        }
      ],
      "certificateStartDate": "2025-10-23",
      "certificateEndDate": "2026-04-17",
      "object": "LA RECOGIDA, ALMACENAMIENTO Y ELIMINACIÓN DE RESIDUOS MÉDICOS CLÍNICOS, SANITARIOS Y BIOCONTAMINANTES. LA COMERCIALIZACIÓN Y DISTRIBUCIÓN DE MATERIAL MÉDICO QUIRÚRGICO Y SANITARIO",
      "mainEntityOfPage": "https://www.contratacion.euskadi.eus/webkpe00-kperoc/es/ac71aBusquedaRegistrosWar/empresa/04572",
      "_links": {
        "self": {
          "name": "DISTRIBUCIONES Y REPRESENTACIONES BIOMÉDICAS DIREX, S.L.",
          "href": "https://api.euskadi.eus/procurements/companies/04572"
        }
      }
    },
    {
      "name": "CUMPLIMIENTO SOSTENIBLE EMPRESARIAL, S.L.",
      "registrationNumber": "10405",
      "identificationNumber": "B21862081",
      "address": "Avenida Algorta (48991), 74, BAJO",
      "location": {
        "postalCode": "48991",
        "municipality": "Getxo",
        "county": "Bizkaia",
        "municipalityId": "044",
        "countyId": "48"
      },
      "economicActivities": [
        {
          "id": "1.847",
          "name": "Servicios de consultoría",
          "_links": {
            "self": {
              "name": "Servicios de consultoría",
              "href": "https://api.euskadi.eus/procurements/companies/economic-activities/1.847"
            }
          }
        }
      ],
      "certificateStartDate": "2025-10-23",
      "certificateEndDate": "2026-04-21",
      "object": "LA CONSULTORÍA Y FOMENTO EN LA INTERNACIONALIZACIÓN EN LAS EMPRESAS.",
      "mainEntityOfPage": "https://www.contratacion.euskadi.eus/webkpe00-kperoc/es/ac71aBusquedaRegistrosWar/empresa/10405",
      "_links": {
        "self": {
          "name": "CUMPLIMIENTO SOSTENIBLE EMPRESARIAL, S.L.",
          "href": "https://api.euskadi.eus/procurements/companies/10405"
        }
      }
    },
    {
      "name": "ARINBUS, S.L.",
      "registrationNumber": "03185",
      "identificationNumber": "B48541312",
      "address": "Poligono Ugaldeguren III Pabellon 23-3 Nave 5",
      "location": {
        "postalCode": "48170",
        "municipality": "Zamudio",
        "county": "Bizkaia",
        "municipalityId": "905",
        "countyId": "48"
      },
      "economicActivities": [
        {
          "id": "1.721.3",
          "name": "Transporte de viajeros por carretera",
          "_links": {
            "self": {
              "name": "Transporte de viajeros por carretera",
              "href": "https://api.euskadi.eus/procurements/companies/economic-activities/1.721.3"
            }
          }
        }
      ],
      "certificateStartDate": "2025-10-23",
      "certificateEndDate": "2026-04-16",
      "classification": [
        {
          "id": "S",
          "name": "Servicios",
          "groups": [
            {
              "id": "R",
              "subgroups": [
                {
                  "id": "01",
                  "name": "Transporte de viajeros por carretera",
                  "categories": [
                    {
                      "id": "4",
                      "name": "Desde 600.001 Hasta 1.1200.000",
                      "_links": {
                        "self": {
                          "name": "Desde 600.001 Hasta 1.1200.000",
                          "href": "https://api.euskadi.eus/procurements/companies/types/S/categories/4"
                        }
                      }
                    }
                  ],
                  "_links": {
                    "self": {
                      "name": "Transporte de viajeros por carretera",
                      "href": "https://api.euskadi.eus/procurements/companies/types/S/groups/R/subgroups/01"
                    }
                  }
                }
              ],
              "_links": {
                "self": {
                  "href": "https://api.euskadi.eus/procurements/companies/types/S/groups/R"
                }
              }
            }
          ],
          "_links": {
            "self": {
              "name": "Servicios",
              "href": "https://api.euskadi.eus/procurements/companies/types/S"
            }
          }
        }
      ],
      "object": "EL TRANSPORTE REGULAR, DISCRECIONAL U OCASIONAL DE VIAJEROS POR CARRETERA, INCLUSO EL ALQUILER DE AUTOCARES CON CONDUCTOR Y TRANSPORTE ESCOLAR, ASÍ COMO EL TRANSPORTE MIXTO DE VIAJEROS Y MERCANCÍAS",
      "mainEntityOfPage": "https://www.contratacion.euskadi.eus/webkpe00-kperoc/es/ac71aBusquedaRegistrosWar/empresa/03185",
      "_links": {
        "self": {
          "name": "ARINBUS, S.L.",
          "href": "https://api.euskadi.eus/procurements/companies/03185"
        }
      }
    },
    {
      "name": "IP 21 INGENIERIA DE PROYECTOS, S.L.",
      "registrationNumber": "09126",
      "identificationNumber": "B20741054",
      "address": "Plaza Eihera, 5 bajo ",
      "location": {
        "postalCode": "20305",
        "municipality": "Irun",
        "county": "Gipuzkoa",
        "municipalityId": "045",
        "countyId": "20"
      },
      "economicActivities": [
        {
          "id": "1.843.1",
          "name": "Servicios técnicos de ingeniería",
          "_links": {
            "self": {
              "name": "Servicios técnicos de ingeniería",
              "href": "https://api.euskadi.eus/procurements/companies/economic-activities/1.843.1"
            }
          }
        },
        {
          "id": "1.934",
          "name": "Enseñanza fuera de establecimiento permanente",
          "_links": {
            "self": {
              "name": "Enseñanza fuera de establecimiento permanente",
              "href": "https://api.euskadi.eus/procurements/companies/economic-activities/1.934"
            }
          }
        }
      ],
      "certificateStartDate": "2025-10-23",
      "certificateEndDate": "2026-04-23",
      "object": "LAS ACTIVIDADES DE ASESORAMIENTO, CONSULTORÍA Y FORMACIÓN TÉCNICA, ASÍ COMO LA REALIZACIÓN E IMPLANTACIÓN DE PROYECTOS TÉCNICOS DE INGENIERÍA. PARA EL CASO DE QUE LA REALIZACIÓN DE ALGUNA PARTE DE SU OBJETO SOCIAL, SE REQUIERA POR LEY UNA CUALIFICACIÓN PROFESIONAL ESPECÍFICA, LA SOCIEDAD CUMPLIRÁ CON DICHO REQUISITO EN LA PERSONA QUE REALICE TAL ACTIVIDAD.",
      "mainEntityOfPage": "https://www.contratacion.euskadi.eus/webkpe00-kperoc/es/ac71aBusquedaRegistrosWar/empresa/09126",
      "_links": {
        "self": {
          "name": "IP 21 INGENIERIA DE PROYECTOS, S.L.",
          "href": "https://api.euskadi.eus/procurements/companies/09126"
        }
      }
    },
    {
      "name": "ANTZIOLA PROYECTOS Y OBRAS SL",
      "registrationNumber": "05748",
      "identificationNumber": "B20647764",
      "address": "arrasate 1 4º izquierda",
      "location": {
        "postalCode": "20005",
        "municipality": "Donostia / San Sebastián",
        "county": "Gipuzkoa",
        "municipalityId": "069",
        "countyId": "20"
      },
      "economicActivities": [
        {
          "id": "1.843.1",
          "name": "Servicios técnicos de ingeniería",
          "_links": {
            "self": {
              "name": "Servicios técnicos de ingeniería",
              "href": "https://api.euskadi.eus/procurements/companies/economic-activities/1.843.1"
            }
          }
        },
        {
          "id": "1.845",
          "name": "Explotación electrónica por cuenta de terceros",
          "_links": {
            "self": {
              "name": "Explotación electrónica por cuenta de terceros",
              "href": "https://api.euskadi.eus/procurements/companies/economic-activities/1.845"
            }
          }
        }
      ],
      "certificateStartDate": "2025-10-23",
      "certificateEndDate": "2026-04-23",
      "object": "A) LA REALIZACIÓN DE PROYECTOS Y DIRECCIONES DE TODO TIPO DE OBRA. B) LA GESTIÓN Y COORDINACIÓN DE CUALQUIER TIPO DE OBRA O PROYECTO, TANTO EN VIVIENDAS, PABELLONES INDUSTRIALES, URBANIZACIÓN, LOCALES COMERCIALES Y DEMÁS CONSTRUCCIONES BAJO SU DIRECCIÓN DE OBRA. E) COORDINACIÓN DE TODOS LOS GREMIOS AFECTOS A LA CONSTRUCCIÓN COMO CONTRATA GENERALES DE LA OBRA\r\n",
      "mainEntityOfPage": "https://www.contratacion.euskadi.eus/webkpe00-kperoc/es/ac71aBusquedaRegistrosWar/empresa/05748",
      "_links": {
        "self": {
          "name": "ANTZIOLA PROYECTOS Y OBRAS SL",
          "href": "https://api.euskadi.eus/procurements/companies/05748"
        }
      }
    },
    {
      "name": "ROTAGRAMA, S.L.",
      "registrationNumber": "09909",
      "identificationNumber": "B61790663",
      "address": "c/ Can Buscarons, 3 Pol. Sota el Molí",
      "location": {
        "postalCode": "08160",
        "municipality": "Montmeló",
        "county": "Barcelona",
        "municipalityId": "135",
        "countyId": "08"
      },
      "economicActivities": [
        {
          "id": "1.473.3",
          "name": "Fabricación de artículos de oficina, escritorio, de papel y cartón",
          "_links": {
            "self": {
              "name": "Fabricación de artículos de oficina, escritorio, de papel y cartón",
              "href": "https://api.euskadi.eus/procurements/companies/economic-activities/1.473.3"
            }
          }
        }
      ],
      "certificateStartDate": "2025-10-23",
      "certificateEndDate": "2026-04-23",
      "object": "A) EL COMERCIO EN GENERAL, EN TODAS SUS MANIFESTACIONES, DE FABRICACIÓN, COMPRA, POSESIÓN, ALMACENAJE, DISTRIBUCIÓN, VENTA AL POR MENOR Y MAYOR, IMPORTACIÓN, EXPORTACIÓN Y REEXPORTACIÓN, ASÍ COMO CUALQUIER OTRA TRANSACCIÓN U OPERACIÓN RELACIONADA CON PAPEL, TARJETAS EN CUALQUIER MATERIAL (CON O SIN BANDA MAGNÉTICA Y, CON O SIN ELEMENTOS INCORPORADOS TALES COMO MICROPROCESADORES O CIRCUITOS), FORMULARIOS E IMPRESOS PUBLICITARIOS. B) PROCESOS DE ESTAMPACIÓN, IMPRESIÓN, PERSONALIZACIÓN, CODIFICACIÓN, MANIPULACIÓN, ENCARTADO O ENSOBRADO Y ENVÍO. C) LOS SERVICIOS COMPLETOS DEL MARKETING DIRECTO, ENTENDIENDO COMO TALES LA IMPRESIÓN DE TODO TIPO DE DOCUMENTOS, LA GESTIÓN DE FICHEROS, DE DUPLICADOS DE LISTAS, PERSONALIZACIÓN, LIST-BROKERS, MANIPULADO Y EXPEDICIÓN DE DOCUMENTOS (PLEGADO, ENCARTADO, DIRECCIONADO, FRANQUEO, CLASIFICACIÓN Y ENTREGA EN CORREOS. D) DESARROLLO Y APLICACIÓN DE PROGRAMAS INFORMÁTICOS, SERVICIOS, ASESORAMIENTO, PRESTACIÓN O UTILIZACIÓN DE LICENCIAS Y LA CONCERTACIÓN DE ACUERDOS CON CUALQUIER TIPO DE PERSONA FÍSICA O JURÍDICA PARA LA PRESTACIÓN DE SERVICIOS O APORTACIÓN DE TECNOLOGÍA. E) LA VENTA O ALQUILER DE APARATOS INFORMÁTICOS O ELECTRÓNICOS PARA LA CAPTURA Y TRANSMISIÓN DE DATOS, TEXTOS, VOZ O IMÁGENES O PARA PROCESOS DE IDENTIFICACIÓN. F) LA FABRICACIÓN, DISTRIBUCIÓN Y COMERCIALIZACIÓN DE MOBILIARIO Y MATERIAL DE OFICINA, MUEBLES EN GENERAL Y ELEMENTOS DE DECORACIÓN. G) LA FABRICACIÓN Y COMERCIALIZACIÓN DE IMPRESOS SOBRE CUALQUIER TIPO DE SOPORTE.",
      "mainEntityOfPage": "https://www.contratacion.euskadi.eus/webkpe00-kperoc/es/ac71aBusquedaRegistrosWar/empresa/09909",
      "_links": {
        "self": {
          "name": "ROTAGRAMA, S.L.",
          "href": "https://api.euskadi.eus/procurements/companies/09909"
        }
      }
    },
    {
      "name": "BAGABILTZA FUNDAZIOA - FUNDACIÓN BAGABILTZA",
      "registrationNumber": "07911",
      "identificationNumber": "G95018750",
      "address": "grupo Sagarminaga bajos 16-17",
      "location": {
        "postalCode": "48004",
        "municipality": "Bilbao",
        "county": "Bizkaia",
        "municipalityId": "020",
        "countyId": "48"
      },
      "economicActivities": [
        {
          "id": "1.933.9",
          "name": "Otras actividades de enseñanza tales como idiomas, mecanografía",
          "_links": {
            "self": {
              "name": "Otras actividades de enseñanza tales como idiomas, mecanografía",
              "href": "https://api.euskadi.eus/procurements/companies/economic-activities/1.933.9"
            }
          }
        }
      ],
      "certificateStartDate": "2025-10-23",
      "certificateEndDate": "2026-04-23",
      "object": "MANTENER UNA ORGANIZACIÓN DINÁMICA, FLEXIBLE, CLARA Y ACTUALIZADA, SIN DESVIAR LA PROYECCIÓN DEL OBJETIVO FUNDAMENTAL: LA EVOLUCIÓN Y COPARTICIPACIÓN DE LA MUJER EN IGUALDAD DE CONDICIONES EN EL DESARROLLO INTEGRAL DE LA SOCIEDAD ACTUAL. TRABAJAR EN LA AUTOESTIMA Y VALORACIÓN PERSONAL DE LAS MUJERES, PARA QUE SEAN CAPACES DE GESTIONAR O DIRIGIR EMPRESAS, ACCEDER A LAS CONVOCATORIAS DE PUESTOS DE DIRECCIÓN Y PARTICIPAR, EN GENERAL, EN CUALQUIER OPOSICIÓN, DEMANDA O CONVOCATORIA DE TRABAJO QUE NO SEAN &#8220;LAS CLÁSICAS FEMENINAS&#8221;, ASÍ COMO EN OTROS ENTES SOCIALES, CULTURALES O POLÍTICOS DE LA COMUNIDAD. TENER EN CUENTA EL CONTEXTO SOCIO-CULTURAL DE LA SITUACIÓN DE COMPETITIVIDAD EN EL QUE LA MUJER ESTÁ MARGINADA, A LA HORA DE ELABORAR LOS MÓDULOS DE FORMACIÓN. AYUDAR A DEFINIR SUS OBJETIVOS PROFESIONALES Y FORMATIVOS. DAR SEGUIMIENTO REGULAR AL PROCESO DE FORMACIÓN DE CADA UNA DE LAS MUJERES. CREAR CUANTAS ACTIVIDADES SOCIO CULTURALES SEAN NECESARIAS PARA COMPLETAR LA FORMACIÓN Y POTENCIAR DINAMISMO E ILUSIÓN ANTE LAS DIFICULTADES Y PROBLEMAS. POSIBILITAR UN SERVICIO DE ORIENTACIÓ SESORAMIENTO Y PLAN DE FORMACIÓN DEFINIDO, QUE TENIENDO EN CUENTA LAS CARACTERÍSTICAS DE LAS MUJERES, SU EVOLUCIÓN PERSONAL Y SU FORMACIÓN PREVIA, PUEDA DESARROLLARSE A CORTO, MEDIO Y LARGO PLAZO. CUALIFICAR A LAS MUJERES A TRAVÉS DE LA FORMACIÓN PROFESIONAL. AYUDARLES A CONSEGUIR LOS TÍTULOS DE FORMACIÓN REGLADA Y LOS CERTIFICADOS Y DIPLOMAS DE LOS MÓDULOS DE FORMACIÓN CORRESPONDIENTES QUE SON NECESARIOS HOY DÍA PARA PODER INTEGRASE EN IGUALDAD DE CONDICIONES EN EL MERCADO LABORAL. TANTO LA FORMACIÓN PROFESIONAL, COMO LA PREPARACIÓN PARA LA INSERCIÓN LABORAL. SE IMPARTIRÁ TAMBIÉN A LOS HOMBRES EN PARO Y EN EXCLUSIÓN SOCIAL, QUE LOS SOLICITEN, A NIVEL PARTICULAR O POR UN DETERMINADO MUNICIPIO",
      "mainEntityOfPage": "https://www.contratacion.euskadi.eus/webkpe00-kperoc/es/ac71aBusquedaRegistrosWar/empresa/07911",
      "_links": {
        "self": {
          "name": "BAGABILTZA FUNDAZIOA - FUNDACIÓN BAGABILTZA",
          "href": "https://api.euskadi.eus/procurements/companies/07911"
        }
      }
    },
    {
      "name": "EULER POMPAK, S.L.",
      "registrationNumber": "09640",
      "identificationNumber": "B20899563",
      "address": "ELBARRENA 15. NAVE 1",
      "location": {
        "postalCode": "20247",
        "municipality": "Zaldibia",
        "county": "Gipuzkoa",
        "municipalityId": "078",
        "countyId": "20"
      },
      "economicActivities": [
        {
          "id": "1.692",
          "name": "Reparación de maquinaria industrial",
          "_links": {
            "self": {
              "name": "Reparación de maquinaria industrial",
              "href": "https://api.euskadi.eus/procurements/companies/economic-activities/1.692"
            }
          }
        }
      ],
      "certificateStartDate": "2025-10-23",
      "certificateEndDate": "2026-04-23",
      "object": "LA COMPRA, VENTA, REPARACIÓN Y ALQUILER DE MAQUINARIA PARA LA CONSTRUCCIÓN Y OBRA CIVIL.",
      "mainEntityOfPage": "https://www.contratacion.euskadi.eus/webkpe00-kperoc/es/ac71aBusquedaRegistrosWar/empresa/09640",
      "_links": {
        "self": {
          "name": "EULER POMPAK, S.L.",
          "href": "https://api.euskadi.eus/procurements/companies/09640"
        }
      }
    },
    {
      "name": "OFITAS DE SANTUTIS, S.L.",
      "registrationNumber": "08078",
      "identificationNumber": "B01402494",
      "address": "PINTOR TEODORO DUBLANG 11, 1º DCHA",
      "location": {
        "postalCode": "01008",
        "municipality": "Vitoria-Gasteiz",
        "county": "Araba/Álava",
        "municipalityId": "059",
        "countyId": "01"
      },
      "economicActivities": [
        {
          "id": "1.231.9",
          "name": "Extracción de otros materiales de construcción n.c.o.p",
          "_links": {
            "self": {
              "name": "Extracción de otros materiales de construcción n.c.o.p",
              "href": "https://api.euskadi.eus/procurements/companies/economic-activities/1.231.9"
            }
          }
        }
      ],
      "certificateStartDate": "2025-10-23",
      "certificateEndDate": "2026-04-23",
      "object": "A) LA ACTIVIDAD DE EXPLORACIÓN, INVESTIGACIÓN, EXPLOTACIÓN Y BENEFICIO DE YACIMIENTOS MINERALES Y DEMÁS RECURSOS MINEROS Y DE LAS MATERIAS SECUNDARIAS APROVECHABLES EN LA INDUSTRIA. B) EL ESTABLECIMIENTO O EXPLOTACIÓN DE TALLERES O FÁBRICAS PARA EL APROVECHAMIENTO DE LOS MATERIALES CITADOS EN LA LETRA ANTERIOR. C) LA EXPLOTACIÓN Y APROVECHAMIENTO DE CANTERAS, MINAS Y SIMILARES.",
      "mainEntityOfPage": "https://www.contratacion.euskadi.eus/webkpe00-kperoc/es/ac71aBusquedaRegistrosWar/empresa/08078",
      "_links": {
        "self": {
          "name": "OFITAS DE SANTUTIS, S.L.",
          "href": "https://api.euskadi.eus/procurements/companies/08078"
        }
      }
    },
    {
      "name": "JOSU GOTZON URRUTIA MINGO",
      "registrationNumber": "06787",
      "identificationNumber": "14598832L",
      "address": "RODRIGUEZ ARIAS 71 BIS 1-8",
      "location": {
        "postalCode": "48013",
        "municipality": "Bilbao",
        "county": "Bizkaia",
        "municipalityId": "020",
        "countyId": "48"
      },
      "economicActivities": [
        {
          "id": "2.411",
          "name": "Arquitectos",
          "_links": {
            "self": {
              "name": "Arquitectos",
              "href": "https://api.euskadi.eus/procurements/companies/economic-activities/2.411"
            }
          }
        }
      ],
      "certificateStartDate": "2025-10-23",
      "certificateEndDate": "2026-04-23",
      "object": "ARQUITECTO",
      "mainEntityOfPage": "https://www.contratacion.euskadi.eus/webkpe00-kperoc/es/ac71aBusquedaRegistrosWar/empresa/06787",
      "_links": {
        "self": {
          "name": "JOSU GOTZON URRUTIA MINGO",
          "href": "https://api.euskadi.eus/procurements/companies/06787"
        }
      }
    }
  ]
}