{
  "totalItems": 9042,
  "totalPages": 905,
  "currentPage": 762,
  "itemsOfPage": 10,
  "items": [
    {
      "name": "NORTEMEDICA, S.L.",
      "registrationNumber": "03572",
      "identificationNumber": "B95510277",
      "address": "MAIDAGAN 67, BAJO",
      "location": {
        "postalCode": "48993",
        "municipality": "Bilbao",
        "county": "Bizkaia",
        "municipalityId": "020",
        "countyId": "48"
      },
      "economicActivities": [
        {
          "id": "1.619.2",
          "name": "Venta al por mayor de aparatos e instrumentos médicos, ortopédicos, ópticos",
          "_links": {
            "self": {
              "name": "Venta al por mayor de aparatos e instrumentos médicos, ortopédicos, ópticos",
              "href": "https://api.euskadi.eus/procurements/companies/economic-activities/1.619.2"
            }
          }
        }
      ],
      "certificateStartDate": "2008-05-30",
      "certificateEndDate": "2008-09-03",
      "object": "LA SOCIEDAD TIENE POR OBJETO: LA FABRICACIÓN POR SI MISMOS O PORTERCEROS, IMPORTACIÓN Y EXPORTACIÓN, DISTRIBUCIÓN Y VENTA, TANTO EN ESPAÑA COMO EN EL EXTRANJERO DE ESPECIALIDADES FARMACÉUTICAS, COSMÉTICOS, DESINFECTANTES, PLANTAS MEDICINALES, DENTÍFRICOS, PLAGUICIDAS DE USO DOMESTICO, INSECTICIDAS, RATICIDAS, ESPARADRAPOS, SUTURAS, PRODUCTOS ESTÉRILES, APOSITOS, DIETÉTICOS, ALIMENTOS MEDICAMENTOSOS, MATERIAL DE CURA, PRODUCTOS PARA ODONTOLOGÍA, ARTÍCULOS DE ORTOPEDIA, EFECTOS Y ACCESORIOS UTILIZADOS EN LA ASISTENCIA MEDICA Y TÉCNICO SANITARIA, MOBILIARIO EQUIPO Y MAQUINARIA DEL SECTOR MEDICO ASÍ COMO LA INVESTIGACIÓN Y DESARROLLO DE LOS MISMOS, SUS APLICACIONES Y FUNCIONAMIENTO Y EN GENERAL TODA CLASE DE PRODUCTOS HIGIÉNICOS, SANITARIOS, SUS CORRESPONDIENTES PATENTES, MARCAS Y REGISTROS; LA TOMA DE ACCIONES O INMUEBLES EN OTRAS SOCIEDADES Y LA ADQUISICIÓN Y VENTA DE MUEBLES E INMUEBLES PARA LA REALIZACIÓN DEL OBJETO SOCIAL. TODO ELLO SIEMPRE QUE LO REALICE LA SOCIEDAD POR CUENTA PROPIA Y CON EXCEPCIÓN DE LA INTERMEDICACIÓN, Y BAJO LA DIRECCIÓN DE LOS PROFESIONALES TITULADOS Y CON LAS CONDICIONES QUE EXIJA LA LEGISLACIÓN VIGENTE, QUEDANDO SIEMPRE EXCLUIDAS LAS ACTIVIDADES OBJETO DE LA LEGISLACIÓN DE INSTITUCIÓN DE INVERSIÓN COLECTIVA Y DE MERCADO DE VALORES. LA SOCIEDAD NO DESARROLLARÁ NINGUNA ACTIVIDAD PARA LA QUE LAS LEYES EXIJAN CONDICIONES O LIMITACIONES ESPECIFICAS, EN TANTO NO DE EXACTO CUMPLIMIENTO A LAS MISMAS. LAS ACTIVIDADES ENUMERADAS PODRÁN TAMBIÉN SER DESARROLLADAS POR LA SOCIEDAD, TOTAL O PARCIALMENTE, DE MODO INDIRECTO, MEDIANTE LA PARTICIPACIÓN EN OTRAS SOCIEDADES CON OBJETO ANÁLOGO",
      "mainEntityOfPage": "https://www.contratacion.euskadi.eus/webkpe00-kperoc/es/ac71aBusquedaRegistrosWar/empresa/03572",
      "_links": {
        "self": {
          "name": "NORTEMEDICA, S.L.",
          "href": "https://api.euskadi.eus/procurements/companies/03572"
        }
      }
    },
    {
      "name": "RURURBANIA S.R.L.L.",
      "registrationNumber": "03571",
      "identificationNumber": "B01293430",
      "address": "JUNDIZ Nº4, PAB F, 1-A",
      "location": {
        "postalCode": "01015",
        "municipality": "Vitoria-Gasteiz",
        "county": "Araba/Álava",
        "municipalityId": "059",
        "countyId": "01"
      },
      "economicActivities": [
        {
          "id": "1.504.1",
          "name": "Instalaciones eléctricas en general",
          "_links": {
            "self": {
              "name": "Instalaciones eléctricas en general",
              "href": "https://api.euskadi.eus/procurements/companies/economic-activities/1.504.1"
            }
          }
        },
        {
          "id": "1.507",
          "name": "Construcción, reparación y conservación de toda clase obras",
          "_links": {
            "self": {
              "name": "Construcción, reparación y conservación de toda clase obras",
              "href": "https://api.euskadi.eus/procurements/companies/economic-activities/1.507"
            }
          }
        }
      ],
      "certificateStartDate": "2008-05-29",
      "certificateEndDate": "2008-10-16",
      "object": "TODA CLASE DE PROYECTOS DE CUALQUIERA DE SUS TIPOS O FORMAS, COMO ANTEPROYECTOS, PROYECTOS BÁSICOS, ADMINISTRATIVOS, CONSTRUCTIVOS, CONCESIONALES, ETC., DIRECCIONES DE OBRAS, ASISTENCIAS TÉCNICAS, OBRAS, EXPLOTACIÓN DE INSTALACIONES, ESTUDIOS, CONTROLES, ANÁLISIS, PERITACIONES Y VALORACIONES DE INVERSIONES QUE SE REALICEN EN EL CAMPO DE LOS FLUIDOS LÍQUIDOS EN GENERAL, INCLUIDAS LAS AGUAS NATURALES Y RESIDUALES, SEAN URBANAS  O INDUSTRIALES, INCLUÍDOS TODOS LOS TRABAJOS DE DESALINIZACIÓN, DEPURACIÓN Y REUTILIZACIÓN  DE LAS MISMAS, ASÍ COMO LA FABRICACIÓN DE PRODUCTOS MANUFACTURADOS QUE TENGAN  RELACIÓN CON LOS FLUIDOS LÍQUIDOS. LA REALIZACIÓN DE SERVICIOS DE MANTENIMIENTOS, SUMINISTRO E INSTALACIONES ENERGÉTICAS A ENTIDADES LOCALES Y PARTICULARES, ASÍ COMO CUALQUIER OTRA ACTIVIDAD RELACIONADA CON LOS FINES EXPUESTOS",
      "mainEntityOfPage": "https://www.contratacion.euskadi.eus/webkpe00-kperoc/es/ac71aBusquedaRegistrosWar/empresa/03571",
      "_links": {
        "self": {
          "name": "RURURBANIA S.R.L.L.",
          "href": "https://api.euskadi.eus/procurements/companies/03571"
        }
      }
    },
    {
      "name": "REVESTIMIENTOS EDERRAMENDI, S.L.",
      "registrationNumber": "02825",
      "identificationNumber": "B48852990",
      "address": "POLÍGONO INDUSTRIAL LANDABASO, S/N",
      "location": {
        "postalCode": "48370",
        "municipality": "Bermeo",
        "county": "Bizkaia",
        "municipalityId": "017",
        "countyId": "48"
      },
      "economicActivities": [
        {
          "id": "1.505.6",
          "name": "Pintura, revestimientos y terminación y decoración de locales",
          "_links": {
            "self": {
              "name": "Pintura, revestimientos y terminación y decoración de locales",
              "href": "https://api.euskadi.eus/procurements/companies/economic-activities/1.505.6"
            }
          }
        },
        {
          "id": "1.651.1",
          "name": "Venta al por menor de productos textiles, de hogar, alfombras y similares",
          "_links": {
            "self": {
              "name": "Venta al por menor de productos textiles, de hogar, alfombras y similares",
              "href": "https://api.euskadi.eus/procurements/companies/economic-activities/1.651.1"
            }
          }
        }
      ],
      "certificateStartDate": "2008-05-27",
      "certificateEndDate": "2008-08-19",
      "object": "TODO TIPO DE REVESTIMIENTOS DE SUELOS Y PAREDES",
      "mainEntityOfPage": "https://www.contratacion.euskadi.eus/webkpe00-kperoc/es/ac71aBusquedaRegistrosWar/empresa/02825",
      "_links": {
        "self": {
          "name": "REVESTIMIENTOS EDERRAMENDI, S.L.",
          "href": "https://api.euskadi.eus/procurements/companies/02825"
        }
      }
    },
    {
      "name": "TELECOM Y NOVATECNO, S.A.",
      "registrationNumber": "01876",
      "identificationNumber": "A-01042878",
      "address": "PARQUE TECNOLÓGICO - C/ LEONARDO DA VINCI, Nº 14",
      "location": {
        "postalCode": "01510",
        "municipality": "Vitoria-Gasteiz",
        "county": "Araba/Álava",
        "municipalityId": "059",
        "countyId": "01"
      },
      "economicActivities": [
        {
          "id": "1.615.4",
          "name": "Venta al por mayor de aparatos y material radioeléctrico y electrónico",
          "_links": {
            "self": {
              "name": "Venta al por mayor de aparatos y material radioeléctrico y electrónico",
              "href": "https://api.euskadi.eus/procurements/companies/economic-activities/1.615.4"
            }
          }
        }
      ],
      "certificateStartDate": "2008-05-22",
      "certificateEndDate": "2001-03-28",
      "object": "LA INVESTIGACIÓN, DESARROLLO, PROYECTO, DISEÑO, FABRICACIÓN, INSTALACIÓN, MONTAJE, REPARACIÓN Y MANTENIMIENTO DE TODA CLASE DE EQUIPOS, SISTEMAS Y APARATOS DE TELECOMUNICACIÓN Y TELEFONÍA, TERRESTRES, MARÍTIMOS Y AÉREOS; ALARMAS, SEGURIDAD, EQUIPOS DE INFORMÁTICA, ORDENADORES DE CUALQUIER TIPO Y GAMA, ASÍ COMO LA PRESTACIÓN DE SERVICIOS DE PROGRAMACIÓN Y FORMACIÓN TÉCNICA DE PERSONAL, EQUIPOS AUDIOVISUALES, UTILIZANDO PARA TODAS ESTAS ACTIVIDADES APARATOS O MATERIAL MECÁNICO, ELÉCTRICO Y ELECTRÓNICO; COMPRAR, VENDER, IMPORTAR Y EXPORTAR, TANTO AL POR MAYOR COMO AL POR MENOR, MATERIAL, ELEMENTOS Y ACCESORIOS PRECISOS AL OBJETO INDICADO, A TRAVÉS DE ESTABLECIMIENTOS ABIERTOS EN TERRITORIO ESPAÑOL O EXTRANJERO",
      "mainEntityOfPage": "https://www.contratacion.euskadi.eus/webkpe00-kperoc/es/ac71aBusquedaRegistrosWar/empresa/01876",
      "_links": {
        "self": {
          "name": "TELECOM Y NOVATECNO, S.A.",
          "href": "https://api.euskadi.eus/procurements/companies/01876"
        }
      }
    },
    {
      "name": "BABCOCK-MONTAJES, S.A.",
      "registrationNumber": "02472",
      "identificationNumber": "A48024038",
      "address": "RIBERA DE ERANDIO, 5",
      "location": {
        "postalCode": "48950",
        "municipality": "Erandio",
        "county": "Bizkaia",
        "municipalityId": "902",
        "countyId": "48"
      },
      "economicActivities": [
        {
          "id": "1.501.1",
          "name": "Construcción completa, reparación y conservación de edificaciones",
          "_links": {
            "self": {
              "name": "Construcción completa, reparación y conservación de edificaciones",
              "href": "https://api.euskadi.eus/procurements/companies/economic-activities/1.501.1"
            }
          }
        },
        {
          "id": "1.501.2",
          "name": "Construcción completa, reparación y conservación obras civiles",
          "_links": {
            "self": {
              "name": "Construcción completa, reparación y conservación obras civiles",
              "href": "https://api.euskadi.eus/procurements/companies/economic-activities/1.501.2"
            }
          }
        },
        {
          "id": "1.504.1",
          "name": "Instalaciones eléctricas en general",
          "_links": {
            "self": {
              "name": "Instalaciones eléctricas en general",
              "href": "https://api.euskadi.eus/procurements/companies/economic-activities/1.504.1"
            }
          }
        },
        {
          "id": "1.504.3",
          "name": "Instalaciones de frío, calor y acondicionamiento de aire",
          "_links": {
            "self": {
              "name": "Instalaciones de frío, calor y acondicionamiento de aire",
              "href": "https://api.euskadi.eus/procurements/companies/economic-activities/1.504.3"
            }
          }
        },
        {
          "id": "1.504.8",
          "name": "Montajes metálicos e instalaciones industriales completas",
          "_links": {
            "self": {
              "name": "Montajes metálicos e instalaciones industriales completas",
              "href": "https://api.euskadi.eus/procurements/companies/economic-activities/1.504.8"
            }
          }
        }
      ],
      "certificateStartDate": "2008-05-22",
      "certificateEndDate": "2008-09-27",
      "object": "LA CONSTRUCCIÓN, MONTAJE, DESMANTELAMIENTO Y DESGUACE DE TODA LASE DE EQUIPOS, INSTALACIONES,  PLANTAS INDUSTRIALES Y EDIFICIOS DE CUALQUIER TIPO, ASÍ COMO LA PRESTACIÓN DE SERVICIOS VARIOS, ESPECIALEMENTE DE OPERACIÓN, GESTIÓN Y MANTENIMIENTO DE INSTALACIONES Ó PLANTAS. ",
      "mainEntityOfPage": "https://www.contratacion.euskadi.eus/webkpe00-kperoc/es/ac71aBusquedaRegistrosWar/empresa/02472",
      "_links": {
        "self": {
          "name": "BABCOCK-MONTAJES, S.A.",
          "href": "https://api.euskadi.eus/procurements/companies/02472"
        }
      }
    },
    {
      "name": "PUNTO COMERCIAL INNOVACIÓN Y SERVICIOS EN INTERNET, S.A.",
      "registrationNumber": "02643",
      "identificationNumber": "A95083044",
      "address": "PARQUE TECNOLÓGICO ZAMUDIO. EDIFICIO I03, 1º",
      "location": {
        "postalCode": "48170",
        "municipality": "Zamudio",
        "county": "Bizkaia",
        "municipalityId": "905",
        "countyId": "48"
      },
      "economicActivities": [
        {
          "id": "1.845",
          "name": "Explotación electrónica por cuenta de terceros",
          "_links": {
            "self": {
              "name": "Explotación electrónica por cuenta de terceros",
              "href": "https://api.euskadi.eus/procurements/companies/economic-activities/1.845"
            }
          }
        }
      ],
      "certificateStartDate": "2008-05-22",
      "certificateEndDate": "2008-10-01",
      "object": "LA REALIZACIÓN DE SERVICIOS DE DESAROLLO Y EXPLOTACIÓN DE SISTEMAS  DE INTRANETS, EXTRANETS Y EN GENERAL SISTEMAS QUE UTILICEN TECNOLOGÍA INTERNET, INCLUYENDO DISEÑO ESTRATÉGICO, CONSULTORÍA TÉCNICA Y SERVICIOS DE DESARROLLO, ASÍ COMO OTRAS ACTIVIDADES RELACIONADAS CON LAS ANTERIORES.\r\n\r\nESTAS ACTIVIDADES PODRÁN SER DESARROLLADAS POR LA SOCIEDAD TOTAL O PARCIALMENTE DE MODO INDIRECTO, MEDIANTE LA PARTICIPACIÓN EN SOCIEDADES U OTRO TIPO DE PERSONAS JURÍDICAS DE ANÁLOGO O IDÉNTICO OBJETO.\r\n ",
      "mainEntityOfPage": "https://www.contratacion.euskadi.eus/webkpe00-kperoc/es/ac71aBusquedaRegistrosWar/empresa/02643",
      "_links": {
        "self": {
          "name": "PUNTO COMERCIAL INNOVACIÓN Y SERVICIOS EN INTERNET, S.A.",
          "href": "https://api.euskadi.eus/procurements/companies/02643"
        }
      }
    },
    {
      "name": "EKO ARABA, S.L.",
      "registrationNumber": "02338",
      "identificationNumber": "B01279793",
      "address": "C /  HERMINIO MADINABEITIA, 18 PABELLÓN 6",
      "location": {
        "postalCode": "01006",
        "municipality": "Vitoria-Gasteiz",
        "county": "Araba/Álava",
        "municipalityId": "059",
        "countyId": "01"
      },
      "economicActivities": [
        {
          "id": "1.966.9",
          "name": "Otros servicios culturales n.c.o.p",
          "_links": {
            "self": {
              "name": "Otros servicios culturales n.c.o.p",
              "href": "https://api.euskadi.eus/procurements/companies/economic-activities/1.966.9"
            }
          }
        },
        {
          "id": "1.967.2",
          "name": "Escuelas y servicios de perfeccionamiento del deporte",
          "_links": {
            "self": {
              "name": "Escuelas y servicios de perfeccionamiento del deporte",
              "href": "https://api.euskadi.eus/procurements/companies/economic-activities/1.967.2"
            }
          }
        }
      ],
      "certificateStartDate": "2008-05-20",
      "certificateEndDate": "2008-09-30",
      "object": "EL ASESORAMIENTO, ORGANIZACIÓN DE EVENTOS DEPORTIVOS Y CULTURALES; ORGANIZACIÓN, INFORMACIÓN Y EXPLOTACIÓN DE INSTALACIONES DEPORTIVAS Y CULTURALES. COMPRAVENTA DE MATERIAL DEPORTIVO; VIGILANCIA, MANTENIMIENTO E INFORMACIÓN EN PARQUES NATURALES; REALIZACIÓN DE TRABAJOS DE SOCORRISMO; SERVICIOS DE INFOMACIÓN, ATENCIÓN AL PÚBLICO Y CONSERJERÍA EN TODO TIPO DE CENTROS, EN ESPECIAL CULTURALES Y DEPORTIVOS. REALIZACIÓN DE TRABAJOS DE SEGURIDAD Y VIGILANCIA. SERVICIOS  DE MASAJES Y REHABILITACIÓN. SERVICIOS DE BOTIQUÍN, SERVICIOS DE ATENCIÓN A LA TERCERA EDAD.",
      "mainEntityOfPage": "https://www.contratacion.euskadi.eus/webkpe00-kperoc/es/ac71aBusquedaRegistrosWar/empresa/02338",
      "_links": {
        "self": {
          "name": "EKO ARABA, S.L.",
          "href": "https://api.euskadi.eus/procurements/companies/02338"
        }
      }
    },
    {
      "name": "GUIDANT, S.A",
      "registrationNumber": "01344",
      "identificationNumber": "A28533495",
      "address": "P.E. PUERTA DE LAS NACIONES.RIBERA DEL LOIRA, 38-ED. 4-1ª",
      "location": {
        "postalCode": "28042",
        "municipality": "Madrid",
        "county": "Madrid",
        "municipalityId": "079",
        "countyId": "28"
      },
      "economicActivities": [
        {
          "id": "1.619.2",
          "name": "Venta al por mayor de aparatos e instrumentos médicos, ortopédicos, ópticos",
          "_links": {
            "self": {
              "name": "Venta al por mayor de aparatos e instrumentos médicos, ortopédicos, ópticos",
              "href": "https://api.euskadi.eus/procurements/companies/economic-activities/1.619.2"
            }
          }
        }
      ],
      "certificateStartDate": "2008-05-15",
      "certificateEndDate": "2008-09-03",
      "object": "LA VENTA Y COMERCIALIZACIÓN EN ESPAÑA DE MARCAPASOS Y TODOS LOS ACCESORIOS RELACIONADOS CON LO MISMO, LA IMPORTACIÓN Y FABRICACIÓN EN ESPAÑA, ASÍ COMO LA VENTA, DISTRIBUCIÓN, REPRESENTACIÓN DE TODA CLASE DE EQUIPOS MÉDICOS O APARATOS RELACIONADOS CON EL CUIDADO DE LA SALUD, PARA SU VENTA A LOS PROFESIONALES MÉDICOS ESPAÑOLES, INCLUYENDO LAS VENTAS A CUALQUIER TIPO DE AGENCIAS OFICIALES O GUBERNAMENTALES INCLUYENDO EL ESTADO, LAS COMUNIDADES AUTÓNOMAS, PROVINCIAS O MUNICIPIOS, LAS FUERZAS ARMADAS O CUALQUIER POSIBLE USUARIO, Y TAMBIÉN LA EXPORTACIÓN DE DICHOS EQUIPOS DE ESPAÑA A OTROS PAÍSES, ASÍ COMO LA PRESTACIÓN DE SERVICIOS DE MARKETING, INFORMÁTICOS, CONTABLES Y JURÍDICOS O ARRENDAMIENTO DE TODA CLASE DE BIENES MUEBLES E INMUEBLES, MAQUINARIA INDUSTRIAL",
      "mainEntityOfPage": "https://www.contratacion.euskadi.eus/webkpe00-kperoc/es/ac71aBusquedaRegistrosWar/empresa/01344",
      "_links": {
        "self": {
          "name": "GUIDANT, S.A",
          "href": "https://api.euskadi.eus/procurements/companies/01344"
        }
      }
    },
    {
      "name": "HEMEN KLIMA, S.A.L.",
      "registrationNumber": "02136",
      "identificationNumber": "A20607164",
      "address": "POLÍGONO IND. UGALDETXO, PABELLÓN: 21 B. PARCELAS: 28 - 31.",
      "location": {
        "postalCode": "20180",
        "municipality": "Oiartzun",
        "county": "Gipuzkoa",
        "municipalityId": "063",
        "countyId": "20"
      },
      "economicActivities": [
        {
          "id": "1.504.3",
          "name": "Instalaciones de frío, calor y acondicionamiento de aire",
          "_links": {
            "self": {
              "name": "Instalaciones de frío, calor y acondicionamiento de aire",
              "href": "https://api.euskadi.eus/procurements/companies/economic-activities/1.504.3"
            }
          }
        }
      ],
      "certificateStartDate": "2008-05-13",
      "certificateEndDate": "2008-08-06",
      "object": "\r\n\r\na) LA CONFECCIÓN Y DESARROLLO DE PROYECTOS DE INGENIERÍA, INSTALACIONES Y MANTENIMIENTO RELATIVOS A LA CLIMATIZACIÓN, VENTILACIÓN, CALEFACCIÓN INDUSTRIAL, PROCESOS TÉRMICOS INDUSTRIALES E INSTALACIONES DE FRÍO INDUSTRIAL.\r\n\r\nb) COMERCIALIZACIÓN DE EQUIPOS Y COMPONENTES DE INSTALACIONES DE CLIMATIZACIÓN Y REFRIGERACIÓN",
      "mainEntityOfPage": "https://www.contratacion.euskadi.eus/webkpe00-kperoc/es/ac71aBusquedaRegistrosWar/empresa/02136",
      "_links": {
        "self": {
          "name": "HEMEN KLIMA, S.A.L.",
          "href": "https://api.euskadi.eus/procurements/companies/02136"
        }
      }
    },
    {
      "name": "T-SYSTEMS EYTC, S.A.",
      "registrationNumber": "01871",
      "identificationNumber": "A48242622",
      "address": "C/ AVENIDA MADARIAGA, Nº 1 - 5º  DCHA.",
      "location": {
        "postalCode": "48014",
        "municipality": "Bilbao",
        "county": "Bizkaia",
        "municipalityId": "020",
        "countyId": "48"
      },
      "economicActivities": [
        {
          "id": "1.330",
          "name": "Construcción de máquinas de oficina y ordenadores",
          "_links": {
            "self": {
              "name": "Construcción de máquinas de oficina y ordenadores",
              "href": "https://api.euskadi.eus/procurements/companies/economic-activities/1.330"
            }
          }
        },
        {
          "id": "1.330.2",
          "name": "Instalación de máquinas de oficina y ordenadores",
          "_links": {
            "self": {
              "name": "Instalación de máquinas de oficina y ordenadores",
              "href": "https://api.euskadi.eus/procurements/companies/economic-activities/1.330.2"
            }
          }
        },
        {
          "id": "1.504.1",
          "name": "Instalaciones eléctricas en general",
          "_links": {
            "self": {
              "name": "Instalaciones eléctricas en general",
              "href": "https://api.euskadi.eus/procurements/companies/economic-activities/1.504.1"
            }
          }
        },
        {
          "id": "1.692",
          "name": "Reparación de maquinaria industrial",
          "_links": {
            "self": {
              "name": "Reparación de maquinaria industrial",
              "href": "https://api.euskadi.eus/procurements/companies/economic-activities/1.692"
            }
          }
        },
        {
          "id": "1.699",
          "name": "Otras reparaciones n.c.o.p",
          "_links": {
            "self": {
              "name": "Otras reparaciones n.c.o.p",
              "href": "https://api.euskadi.eus/procurements/companies/economic-activities/1.699"
            }
          }
        },
        {
          "id": "1.845",
          "name": "Explotación electrónica por cuenta de terceros",
          "_links": {
            "self": {
              "name": "Explotación electrónica por cuenta de terceros",
              "href": "https://api.euskadi.eus/procurements/companies/economic-activities/1.845"
            }
          }
        }
      ],
      "certificateStartDate": "2008-05-08",
      "certificateEndDate": "2008-02-29",
      "object": "LA FABRICACIÓN, MANTENIMIENTO  E INSTALACIÓN DE EQUIPOS ELECTRÓNICOS EN GENERAL, ASÍ COMO SU COMERCIO Y ALQUILER.\r\n\r\nLA COMERCIALIZACIÓN, ALQUILER Y VENTA DE TERMINALES DE TELECOMUNICACIONES DE TELEFONÍA MÓVIL Y FIJA.\r\n\r\nLA PRESTACIÓN DE SERVICIOS DE CARÁCTER TÉCNICO, ADMINISTRATIVO, COMERCIAL Y DE ASESORÍA EN MATERIA DE TELECOMUNICACIONES.\r\n\r\nLA INSTALACIÓN, OPERACIÓN Y MANTENIMIENTO DE REDES O DE ELEMENTOS Y/0 COMPONENTES DE RED DE TELECOMUNICACIONES.\r\n\r\nLA PRESTACIÓN DE SERVICIOS DE COMUNICACIÓN DE VOZ Y/O DATOS, ALQUILER DE CIRCUITOS PARA LA TRANSMISIÓN DE VOZ Y/O DATOS, LA PROVISIÓN DE MEDIOS TÉCNICOS Y HUMANOS NECESARIOS PARA QUE LOS USUARIOS FINALES DE LAS REDES DE TELECOMUNICACIONES ACCEDAN Y TENGAN PRESENCIA EN INTERNET Y OTROS SERVICIOS DE VALOR AÑADIDO SOBRE REDES DE TELECOMUNICACIONES.\r\n\r\nLA REALIZACIÓN DE TRABAJOS TÉCNICOS PARA DISEÑAR, CONSTRUIR Y EJECUTAR LAS PRUEBAS QUE PERMITAN LA EVALUACIÓN DE UN PRODUCTO O SISTEMA, RESPECTO DE UNOS CRITERIOS Y MÉTODOS DE EVALUACIÓN, PARA DETERMINAR SU COMPORTAMIENTO ANTE LAS CARACTERÍSTICAS Y FUNCIONALIDADES QUE LE SON ATRIBUIDAS Y CERTIFICAR LOS RESULTADOS OBTENIDOS.\r\n\r\nLA REALIZACIÓN DE FUNCIONES DE ASESORAMIENTO TÉCNICO, EMISIÓN DE INFORMES, REDACCIÓN DE PROYECTOS Y CUALESQUIERA OTRAS ACTIVIDADES CONSULTORAS, ASESORAS Y  PROMOTORAS QUE SE REFIERAN A LAS ACTIVIDADES ANTES MENCIONADAS.\r\n\r\nLA CONTRATACIÓN DE LA REALIZACIÓN DE TODA CLASE DE OBRAS QUE TENGAN RELACIÓN DIRECTA O INDIRECTA CON LA INSTALACIÓN O EL MANTENIMIENTO DE LOS EQUIPOS ANTES MENCIONADOS. \r\nDICHAS ACTIVIDADES PODRÁN EXTENDERSE A LOS REPUESTOS, ACCESORIOS, COMPLEMENTOS Y PARTES INTEGRANTES DE LOS MISMOS.",
      "mainEntityOfPage": "https://www.contratacion.euskadi.eus/webkpe00-kperoc/es/ac71aBusquedaRegistrosWar/empresa/01871",
      "_links": {
        "self": {
          "name": "T-SYSTEMS EYTC, S.A.",
          "href": "https://api.euskadi.eus/procurements/companies/01871"
        }
      }
    }
  ]
}