{
  "totalItems": 9042,
  "totalPages": 905,
  "currentPage": 672,
  "itemsOfPage": 10,
  "items": [
    {
      "name": "KRAUTKRÄMER FÖRSTER ESPAÑOLA, S.A.",
      "registrationNumber": "03321",
      "identificationNumber": "A28162360",
      "address": "PZA. EUROPA, 21-23",
      "location": {
        "postalCode": "08908",
        "municipality": "Hospitalet de Llobregat, L'",
        "county": "Barcelona",
        "municipalityId": "101",
        "countyId": "08"
      },
      "economicActivities": [
        {
          "id": "1.617.9",
          "name": "Venta al por mayor interindustrial de otros productos n.c.o.p",
          "_links": {
            "self": {
              "name": "Venta al por mayor interindustrial de otros productos n.c.o.p",
              "href": "https://api.euskadi.eus/procurements/companies/economic-activities/1.617.9"
            }
          }
        }
      ],
      "certificateStartDate": "2014-04-24",
      "certificateEndDate": "2014-10-20",
      "object": "LA REPRESENTACIÓN, DISTRIBUCIÓN, IMPORTACIÓN Y EXPORTACIÓN DE EQUIPOS PARA CONTROL Y VERIFICACIÓN DESTRUCTIVA Y NO DESTRUCTIVA DE MATERIALES",
      "mainEntityOfPage": "https://www.contratacion.euskadi.eus/webkpe00-kperoc/es/ac71aBusquedaRegistrosWar/empresa/03321",
      "_links": {
        "self": {
          "name": "KRAUTKRÄMER FÖRSTER ESPAÑOLA, S.A.",
          "href": "https://api.euskadi.eus/procurements/companies/03321"
        }
      }
    },
    {
      "name": "IMPACTO, ESTRATEGIAS DE COMUNICACIÓN, S.L.",
      "registrationNumber": "02608",
      "identificationNumber": "B95192415",
      "address": "C/ HUERTAS  DE LA VILLA, 9  6-B",
      "location": {
        "postalCode": "48007",
        "municipality": "Bilbao",
        "county": "Bizkaia",
        "municipalityId": "020",
        "countyId": "48"
      },
      "economicActivities": [
        {
          "id": "1.844",
          "name": "Servicios de publicidad, relaciones públicas y similares",
          "_links": {
            "self": {
              "name": "Servicios de publicidad, relaciones públicas y similares",
              "href": "https://api.euskadi.eus/procurements/companies/economic-activities/1.844"
            }
          }
        }
      ],
      "certificateStartDate": "2014-04-15",
      "object": "LA PRESTACIÓN, GESTIÓN, COMERCIALIZACIÓN Y REALIZACIÓN DE TODA CLASE DE ACTIVIDADES Y SERVICIOS RELACIONADOS CON ESTUDIOS, DICTÁMENES, PROYECTOS, ASESORAMIENTOS, ASISTENCIA TÉCNICA, COMISIONES, GESTIONES Y ENCARGOS DE TODA ÍNDOLE, REFERIDOS A LA CONSULTORÍA EMPRESARIAL Y MÁS ESPECÍFICAMENTE EN LAS ÁREAS DE MARKETING, DISEÑO Y ARTES GRÁFICAS, COMUNICACIÓN / PUBLICIDAD, RELACIONES PÚBLICAS E IMAGEN.",
      "mainEntityOfPage": "https://www.contratacion.euskadi.eus/webkpe00-kperoc/es/ac71aBusquedaRegistrosWar/empresa/02608",
      "_links": {
        "self": {
          "name": "IMPACTO, ESTRATEGIAS DE COMUNICACIÓN, S.L.",
          "href": "https://api.euskadi.eus/procurements/companies/02608"
        }
      }
    },
    {
      "name": "GOMOSA, S.A.",
      "registrationNumber": "03401",
      "identificationNumber": "A20052577",
      "address": "PSO ZARATEGUI 10",
      "location": {
        "postalCode": "20013",
        "municipality": "Donostia / San Sebastián",
        "county": "Gipuzkoa",
        "municipalityId": "069",
        "countyId": "20"
      },
      "economicActivities": [
        {
          "id": "1.941.1",
          "name": "Hospitales generales",
          "_links": {
            "self": {
              "name": "Hospitales generales",
              "href": "https://api.euskadi.eus/procurements/companies/economic-activities/1.941.1"
            }
          }
        }
      ],
      "certificateStartDate": "2014-04-15",
      "certificateEndDate": "2014-10-01",
      "object": "A) LA GESTIÓN, ADMINISTRACIÓN Y EXPLOTACIÓN DE SERVICIOS ASISTENCIALES SANITARIOS Y SOCIALES PROPIOS, PARTICIPADOS O AJENOS. ESTOS SERVICIOS SERÁN MÉDICO-QUIRÚRGICOS, DE REPOSO O DEDICADOS A LA 3ª EDAD. SE LLEVARAN A CABO EN RÉGIMEN DE INTERNAMIENTO-HOSPITALES, RESIDENCIAS, CLÍNICAS O AMBULATORIO - CONSULTORIOS, UNIDADES ASISTENCIALES. LA ACTIVIDAD ASISTENCIAL PODRÁ EXTENDERSE A LABORES DE INVESTIGACIÓN Y DOCENCIA DE LA TÉCNICA MÉDICO-QUIRÚRGICA Y DISCIPLINAS A ELLA VINCULADAS. B) LA ADQUISICIÓN, CESIÓN, ENAJENACIÓN, TENENCIA Y DISFRUTE EN GENERAL DE TODA CLASE DE VALORES MOBILIARIOS, TANTO PÚBLICOS COMO PRIVADOS, NACIONALES Y EXTRANJEROS, SIN INCIDIR EN LAS OPERACIONES REGULADAS POR LEYES ESPECIALES, PUDIENDO OBTENER DE LOS MISMOS LOS RENDIMIENTOS SUSCEPTIBLES DE UNA BUENA ADMINISTRACIÓN. C) LA REALIZACIÓN DE PROYECTOS Y EN GENERAL DESARROLLAR EN TODOS SUS CAMPOS, TODA CLASE DE ACTIVIDADES INMOBILIARIAS, DE CONSTRUCCIÓN, DE REALIZACIÓN DE OTRAS, YA SEAN PÚBLICAS O CIVILES; LA ADQUISICIÓN, TENENCIA, COMERCIALIZACIÓN, VENTA, ARRIENDO Y EXPLOTACIÓN DE TODO TIPO DE INMUEBLES, RÚSTICOS O URBANOS, TERRENOS, SOLARES, EDIFICIOS, APARTAMENTOS, VIVIENDAS, LOCALES, HOTELES, OFICINAS, CHALETS, ETC. LA REALIZACIÓN DE PROYECTOS DE EDIFICACIÓN; LAS CIMENTACIONES, EXCAVACIONES Y DERRIBOS DE TODA NATURALEZA",
      "mainEntityOfPage": "https://www.contratacion.euskadi.eus/webkpe00-kperoc/es/ac71aBusquedaRegistrosWar/empresa/03401",
      "_links": {
        "self": {
          "name": "GOMOSA, S.A.",
          "href": "https://api.euskadi.eus/procurements/companies/03401"
        }
      }
    },
    {
      "name": "LANTEC GROUP 3000, S.L.",
      "registrationNumber": "01052",
      "identificationNumber": "B48307151",
      "address": "P.E. UDONDO. AVDA. AUTONOMÍA, 2",
      "location": {
        "postalCode": "48940",
        "municipality": "Leioa",
        "county": "Bizkaia",
        "municipalityId": "054",
        "countyId": "48"
      },
      "economicActivities": [
        {
          "id": "1.843.1",
          "name": "Servicios técnicos de ingeniería",
          "_links": {
            "self": {
              "name": "Servicios técnicos de ingeniería",
              "href": "https://api.euskadi.eus/procurements/companies/economic-activities/1.843.1"
            }
          }
        }
      ],
      "certificateStartDate": "2014-04-14",
      "certificateEndDate": "2014-10-07",
      "object": "SERVICIOS TÉCNICOS DE INGENIERÍA, ARQUITECTURA Y URBANISMO",
      "mainEntityOfPage": "https://www.contratacion.euskadi.eus/webkpe00-kperoc/es/ac71aBusquedaRegistrosWar/empresa/01052",
      "_links": {
        "self": {
          "name": "LANTEC GROUP 3000, S.L.",
          "href": "https://api.euskadi.eus/procurements/companies/01052"
        }
      }
    },
    {
      "name": "PEDRO MARÍA ABANDO EGUSQUIZA",
      "registrationNumber": "04760",
      "identificationNumber": "14554958Y",
      "address": "ERRIBERA, 17 - 1º",
      "location": {
        "postalCode": "48620",
        "municipality": "Plentzia",
        "county": "Bizkaia",
        "municipalityId": "077",
        "countyId": "48"
      },
      "economicActivities": [
        {
          "id": "1.504.7",
          "name": "Instalaciones telefónicas, telegráficas, televisión, etc",
          "_links": {
            "self": {
              "name": "Instalaciones telefónicas, telegráficas, televisión, etc",
              "href": "https://api.euskadi.eus/procurements/companies/economic-activities/1.504.7"
            }
          }
        }
      ],
      "certificateStartDate": "2014-04-14",
      "certificateEndDate": "2014-10-02",
      "object": "INSTALACIÓN, REPARACIÓN Y MANTENIMIENTO DE TELEFONÍA, INTERFONÍA, MEGAFONÍA, DATOS Y CCTV",
      "mainEntityOfPage": "https://www.contratacion.euskadi.eus/webkpe00-kperoc/es/ac71aBusquedaRegistrosWar/empresa/04760",
      "_links": {
        "self": {
          "name": "PEDRO MARÍA ABANDO EGUSQUIZA",
          "href": "https://api.euskadi.eus/procurements/companies/04760"
        }
      }
    },
    {
      "name": "7 ESTRELLAS EDUCACIÓN Y OCIO, S.L.",
      "registrationNumber": "05087",
      "identificationNumber": "B83117291",
      "address": "CAMINO DE HORMIGUERAS, 175 LOCAL 9",
      "location": {
        "postalCode": "28031",
        "municipality": "Madrid",
        "county": "Madrid",
        "municipalityId": "079",
        "countyId": "28"
      },
      "economicActivities": [
        {
          "id": "1.933.9",
          "name": "Otras actividades de enseñanza tales como idiomas, mecanografía",
          "_links": {
            "self": {
              "name": "Otras actividades de enseñanza tales como idiomas, mecanografía",
              "href": "https://api.euskadi.eus/procurements/companies/economic-activities/1.933.9"
            }
          }
        },
        {
          "id": "1.952",
          "name": "Asistencia y servicios sociales en centros no residenciales",
          "_links": {
            "self": {
              "name": "Asistencia y servicios sociales en centros no residenciales",
              "href": "https://api.euskadi.eus/procurements/companies/economic-activities/1.952"
            }
          }
        }
      ],
      "certificateStartDate": "2014-04-11",
      "certificateEndDate": "2014-09-13",
      "object": "ACTIVIDADES DE CARÁCTER SOCIAL PARA LA INFANCIA Y LA JUVENTUD, CONSISTENTES EN ACTIVIDADES DE OCIO Y TIEMPO LIBRE, CULTURALES, FORMACIÓN NO REGLADA Y OTRAS ACTIVIDADES COMPLEMENTARIAS A LAS ESCOLARES; INTERVENCIÓN SOCIOEDUCATIVA PARA LA INFANCIA, LA JUVENTUD, LA TERCERA EDAD, O CUALQUIER COLECTIVO CON DIFICULTADES DE INTEGRACIÓN SICIAL; ACTIVIDADES DE ANIMACIÓN SOCIOCULTURAL Y SERVICIOS CULTURALES A PERSONAS O ENTIDADES. ACTIVIDADES DE CARÁCTER SOCIAL PARA COLECTIVOS EN SITAUCÓN DE RIESGO Y/O EXCLUSIÓN SOCIAL: DISCAPACITADOS PSÍQUICOS, FÍSICOS Y/O SENSORIALES, MENORES EN RIESGO Y/O CONFLICTO SOCIAL, POBLACIÓN INMIGRANTE, MINORÍAS ÉTNICAS Y TERCERA EDAD. ACTIVIDADES DE INTERMEDIACIÓN DE TURISMO RURAL, SERVICIOS DE EXPLOTACIÓN Y GESTIÓN DE INSTALACIONES, (ALOJAMIENTO Y MANUTENCIÓN) CON Y SIN ACTIVIDADES COMPLEMENTARIAS (DE OCIO, NATURALEZA Y MULTIAVENTURA) DE ALBERGUES, CAMPAMENTOS, ALOJAMIENTOS, RURALES, CASA Y HOTELES RURALES, GRANJAS ESCUELA, AULAS DE NATURALEZA, INSTALACIONES DE OCIO Y RECREATIVAS, ASÍ COMO INSTALACIONES DEPORTIVAS COMO PISCINAS, PISTAS DEPORTIVAS, GIMNASIOS, Y OTROS. ACTIVIDADES LÚDICAS COMO ESCUELAS Y TALLERES DEPRORTIVIOS SIN CARÁCTER PROFESIONAL ASÍ COMO INTERMEDIACIÓN EN OTRAS ACTIVIDADES Y PROYECTOS DE FOMENTO DEL DEPORTE Y ANIMACIÓN DEPORTIVA. ACTIVIDADES MEDIOAMBIENTALES COMO ESCUELAS Y TALLERES, ASÍ COMO PROYECTOS DE SENSIBILAZACION MEDIOAMBIENTAL. ACTIVIDADES CULTURALES DE PROMOCION DE LA CULTURA, LAS ARTES Y LAS CIENCIAS; ACTIVIDADES FORMATIVAS DE EDUCACION FORMAL, NO FORMAL E INFORMAL, ACTIVIDADES DE RECICLAJE PROFESIONAL Y FORMACIÓN PERMANENTE. SERVICIOS DE ORIENTAICÓN E INFORMACIÓN EN ÁMBITOS CULTURALES, MEDIOAMBIENTALES, DE ACTIVIDADES DE OCIO, TIEMPO LIBRE, MONTAÑA, ECOTURISMO, ASÍ COMO FORMACIÓN DE LOS MISMOS. ALQUILER Y VENTA DE MATERIAL DEPORTIVO, DE MONTAÑA Y AIRE LIBRE. LAS ACTIVIDADES DE GESTIÓN, PROMOCIÓN, ORGANIZACIÓN, PRODUCCIÓN, DISTRIBUCIÓN, DIFUSIÓN, EXPLOTACIÓN Y DESARROLLO DE TODO TIPO DE ACTIVIDADES Y ESPECTÁCULOS EN GENERAL, AL AIRE LIBRE, FUERA DE UN ESTABLECIMIENTO PERMANENTE O EN LOCALES DE TITULARIDAD PROPIA O AJENA, ANIMACIONES, FIESTAS, TODO TIPO DE ESPECTÁCULOS RELACIONADOS CON LAS ARTES ESCÉNICAS Y AUDIOVISUALES, ESPECTÁCULOS DEPORTIVOS, EVENTOS DE TODO TIPO CON CARÁCTER LÚDICO, COMERCIAL Y PROMOCIONAL, SOCIAL, CULTURAL, ASÍ COMO EL ALQUILER, VENTA O CUALQUIER FORMA DE COMERCIALIZACIÓN DE CUALQUIER TIPO DE MATERIALES, ENSERES O ELEMENTOS RELACIONADOS CON LOS MISMOS. PRODUCCIÓN, EXHIBICIÓN, EDICIÓN, IMPORTACIÓN, EXPORTACIÓN, DISTRIBUCIÓN, COMPRAVENTA Y ALQUILER DE TODO TIPO DE PRODUCTOS CINEMATOGRÁFICOS, MUSICALES, AUDIOVISUALES Y LIBROS Y OTRAS  PUBLICACIONES EN SOPORTE PAPEL, ELECTRÓNICO, AUDIO O VIDEO, ENCUADERNACIONES, COMPOSICIÓN Y FOTOGRABADO. PARTICIPACIÓN EN TODO TIPO DE MUESTRAS, FESTIVALES, FERIAS, CERTÁMENES Y OTROS RELACIONADOS CON CUALQUIER INDUSTRIA O ACTIVIDAD ARTÍSTICA Y DE COMUNICACIÓN. REPRESENTACIÓN DE PROFESIONALES Y ARTISTAS. AGENCIA DE PUBLICIDAD Y RELACIONES PÚBLICAS. DISEÑO, CONSTRUCCION, MANTENIMEINTO, GESIÓN Y EXPLOTACIÓN DE INSTALACIONES DEPORTIVAS, CULTURALES Y ARTÍSTICAS O DE CUALQUIER OTRO TIPO O NATURALEZA. FORMACIÓN EN LOS CAMPOS ARTÍSTICOS Y DEPORTIVOS. GESTIÓN, PROMOCIÓN, ORGANIZACIÓN, PRODUCCIÓN, DISTRIBUCIÓN, DIFUSIÓN, EXPLOTACIÓN Y DESARROLLO DE TODO TIPO DE ACTIVIDADES Y ESPECTÁCULOS DEPORTIVOS. ORGANIZACIÓN Y MONTAJE DE ACTIVIDADES Y SERVICIOS DE AVENTURA Y MULTIAVENTURA COMO TREKKING, ESCALADA, RAPPEL, TIROLINAS, ROCÓDROMOS, TIRO CON ARCO Y CIRCUITOS DE QUADS",
      "mainEntityOfPage": "https://www.contratacion.euskadi.eus/webkpe00-kperoc/es/ac71aBusquedaRegistrosWar/empresa/05087",
      "_links": {
        "self": {
          "name": "7 ESTRELLAS EDUCACIÓN Y OCIO, S.L.",
          "href": "https://api.euskadi.eus/procurements/companies/05087"
        }
      }
    },
    {
      "name": "EMPRESA DE SERVICIOS SOCIALES MAITEDER, S.L.",
      "registrationNumber": "01710",
      "identificationNumber": "B01049691",
      "address": "C/ AVENIDA GASTEIZ, Nº 32- 1º Oficina 4",
      "location": {
        "postalCode": "01008",
        "municipality": "Vitoria-Gasteiz",
        "county": "Araba/Álava",
        "municipalityId": "059",
        "countyId": "01"
      },
      "economicActivities": [
        {
          "id": "1.952",
          "name": "Asistencia y servicios sociales en centros no residenciales",
          "_links": {
            "self": {
              "name": "Asistencia y servicios sociales en centros no residenciales",
              "href": "https://api.euskadi.eus/procurements/companies/economic-activities/1.952"
            }
          }
        }
      ],
      "certificateStartDate": "2014-04-08",
      "certificateEndDate": "2014-08-25",
      "object": "LA PRESTACIÓN DE TODA CLASE DE SERVICIOS SOCIALES, EN SU MÁS AMPLIO SENTIDO Y AQUELLOS QUE SEAN PREPARATORIOS, AUXILIARES O COMPLEMENTARIOS DE ESTOS",
      "mainEntityOfPage": "https://www.contratacion.euskadi.eus/webkpe00-kperoc/es/ac71aBusquedaRegistrosWar/empresa/01710",
      "_links": {
        "self": {
          "name": "EMPRESA DE SERVICIOS SOCIALES MAITEDER, S.L.",
          "href": "https://api.euskadi.eus/procurements/companies/01710"
        }
      }
    },
    {
      "name": "AGORANET 2000, S.L.",
      "registrationNumber": "03072",
      "identificationNumber": "B48848840",
      "address": "JON ARROSPIDE, 18 BAJO INTERIOR",
      "location": {
        "postalCode": "48014",
        "municipality": "Bilbao",
        "county": "Bizkaia",
        "municipalityId": "020",
        "countyId": "48"
      },
      "economicActivities": [
        {
          "id": "1.691.9",
          "name": "Reparación de otros bienes de consumo n.c.o.p",
          "_links": {
            "self": {
              "name": "Reparación de otros bienes de consumo n.c.o.p",
              "href": "https://api.euskadi.eus/procurements/companies/economic-activities/1.691.9"
            }
          }
        },
        {
          "id": "1.769",
          "name": "Otros servicios de telecomunicaciones",
          "_links": {
            "self": {
              "name": "Otros servicios de telecomunicaciones",
              "href": "https://api.euskadi.eus/procurements/companies/economic-activities/1.769"
            }
          }
        },
        {
          "id": "1.844",
          "name": "Servicios de publicidad, relaciones públicas y similares",
          "_links": {
            "self": {
              "name": "Servicios de publicidad, relaciones públicas y similares",
              "href": "https://api.euskadi.eus/procurements/companies/economic-activities/1.844"
            }
          }
        },
        {
          "id": "1.845",
          "name": "Explotación electrónica por cuenta de terceros",
          "_links": {
            "self": {
              "name": "Explotación electrónica por cuenta de terceros",
              "href": "https://api.euskadi.eus/procurements/companies/economic-activities/1.845"
            }
          }
        },
        {
          "id": "1.961.1",
          "name": "Producción de películas cinematográficas (incluso vídeos)",
          "_links": {
            "self": {
              "name": "Producción de películas cinematográficas (incluso vídeos)",
              "href": "https://api.euskadi.eus/procurements/companies/economic-activities/1.961.1"
            }
          }
        }
      ],
      "certificateStartDate": "2014-04-02",
      "certificateEndDate": "2014-10-01",
      "object": "1. LA PRODUCCIÓN, COMPRA, VENTA, IMPORTACIÓN Y EXPORTACIÓN, DISTRIBUCIÓN, ARRENDAMIENTO, SUBARRENDAMIENTO O CESIÓN DE TODA CLASE DE PRODUCTOS INFORMÁTICOS Y TELEMÁTICOS, BIEN POR MEDIOS PROPIOS O AJENOS, ASÍ COMO DE SOFTWARE; 2. LA PRESTACIÓN DE SERVICIOS DE PUBLICIDAD, LA ELABORACIÓN DE CAMPAÑAS PUBLICITARIAS, MEDIANTE ANUNCIOS, CARTELES, FOLLETOS, PELÍCULAS PUBLICITARIAS, ENTRE OTROS, A TRAVÉS DE PRENSA, RADIO, TELEVISIÓN, PUBLICIDAD AÉREA U OTROS MEDIOS; 3. LA ELABORACIÍON Y REALIZACIÓN DE MATERIAL AUDIOVISUAL. LA PRODUCCIÓN DE PELÍCULAS, VIDEOS, DISCOS, CASETES, FOTOS, DIAPOSITIVAS Y OTROS PRODUCTOS AUDIOVISUALES; 4. LA PRESTACIÓN DE SERVICIOS DE CAPTURA DE INFORMACIÓN POR MEDIOS ELECTRÓNICOS, INFORMÁTICOS Y TELEMÁTICOS. LA REALIZACIÓN DE TRABAJOS DE MECANOGRAFÍA Y GRABACIÓN O CAPTURA DE DATOS MEDIANTE TODA CLASE DE MEDIOS ELECTRÓNICOS, ASÍ COMO LA DIGITALIZACIÓN O CONVERSIÓN DE FORMATOS DE DOCUMENTOS MEDIANTE EL USO DE LAS TECNOLOGÍAS DE LA INFORMACIÓN Y LAS COMUNICACIONES; 5. LA CREACIÓN, DESARROLLO Y EL MANTENIMIENTO DE PROGRAMAS DE ORDENADOR. LA PLANIFICACIÓN, ANÁLISIS, DISEÑO, CONSTRUCCIÓN, PRUEBA Y MANTENIMIENTO DE SISTEMAS DE INFORMACIÓN (PROGRAMAS Y APLICACIONES INFORMÁTICAS); 6. LA EXPLOTACIÓN Y EL CONTROL DE SISTEMAS INFORMÁTICOS E INSFRAESTRUCTURAS TELEMÁTICAS. LA PUESTA EN FUNCIONAMIENTO, EL SEGUIMIENTO, LA GESTIÓN Y EL CONTROL DE EQUIPOS Y SISTEMAS INFORMÁTICOS Y DE LAS INFRAESTRUCTURAS TELEMÁTICAS, NECESARIAS PARA LA ADECUADA EXPLOTACIÓN DE PROGRAMAS Y APLICACIONES INFORMÁTICAS; 7. LA ORGANIZACIÓN Y PROMOCIÓN DE CONGRESOS, FERIAS, EXPOSICIONES Y TOFDO TIPO DE EVENTOS; 8. LAS ARTES GRÁFICAS, ENTENDÉNDOSE COMO TAL, EL DISEÑO, ELABORACIÓN DE CONTENIDO, MAQUETACIÓN, IMPRESIÓN Y DOSTRIBUCIÓN DE MATERIAL GRÁFICO IMPRESO; 9. LA FORMACIÓN DE PERSONAS EN TODOS SUS GRADOS; 10. LA PROMOCIÓN DE NEGOCIOS Y EMPRESAS INDUSTRIALES, INMOBILIARIAS, AGRÍCOLAS O DE OCIO; 11. EL ASESORAMIENTO TÉCNICO Y FINANCIERO Y LA REALIZACIÓN DE ESTUDIOS POR CUENTA PROPIA O AJENA SOBRE TODA CLASE DE OPERACIONES MERCANTILES, INDUSTRIALES, MOBILIARIAS, INMOBILIARIAS Y FINANCIERAS; 12. IGUALMENTE, SE PODRÁ DEDICAR A LA ADQUISICIÓN, COMERCIALIZACIÓN, VENTA, ARRIENDO Y EXPLOTACIÓN DE TODO TIPO DE FINCAS, INMUEBLES RÚSTICOS O URBANOS, TERRENOS, SOLARES, EDIFICIOS, APARTAMENTOS, VIVIENDAS, LOCALES, OFICINAS, CHALETS, ETC; 13. LA REALIZACIÓN DE PROYECTOS DE EDIFICACIÓN Y URBANIZACIÓN ASÍ COMO SU EJECUCIÓN, LA REALIZACIÓN DE EXCAVACIONES Y DERRIBOS, TODO ELLO POR CUENTA PROPIA O LA DE UN TERCERO; 14. LA ORGANIZACIÓN Y PROMOCIÓN DE CONGRESOS, FERIAS, EXPOSICIONES Y TODO TIPO DE EVENTOS; 15. LAS ARTES GRÁFICAS, ENTENDIÉNDOSE COMO TAL, EL DISEÑO, ELABORACIÓN DE CONTENIDO, MAQUETACIÓN, IMPRESIÓN Y DISTRIBUCIÓN DE MATERIAL GRÁFICO IMPRESO",
      "mainEntityOfPage": "https://www.contratacion.euskadi.eus/webkpe00-kperoc/es/ac71aBusquedaRegistrosWar/empresa/03072",
      "_links": {
        "self": {
          "name": "AGORANET 2000, S.L.",
          "href": "https://api.euskadi.eus/procurements/companies/03072"
        }
      }
    },
    {
      "name": "CRADA, S.L.",
      "registrationNumber": "04557",
      "identificationNumber": "B48214720",
      "address": "BIDEBARRI, 23-LONJA 3. TRASERA",
      "location": {
        "postalCode": "48991",
        "municipality": "Getxo",
        "county": "Bizkaia",
        "municipalityId": "044",
        "countyId": "48"
      },
      "economicActivities": [
        {
          "id": "1.501.1",
          "name": "Construcción completa, reparación y conservación de edificaciones",
          "_links": {
            "self": {
              "name": "Construcción completa, reparación y conservación de edificaciones",
              "href": "https://api.euskadi.eus/procurements/companies/economic-activities/1.501.1"
            }
          }
        }
      ],
      "certificateStartDate": "2014-04-02",
      "certificateEndDate": "2014-09-18",
      "object": "LA CONSTRUCCIÓN DE OBRAS NUEVAS DE EDIFICACIÓN, URBANAS O INDUSTRIALES, ASÍ COMO TRABAJOS EN GENERAL DEL GREMIO DE CONSTRUCCIÓN PARA LA REPARACIÓN Y CONSERVACIÓN DE EDIFICIOS",
      "mainEntityOfPage": "https://www.contratacion.euskadi.eus/webkpe00-kperoc/es/ac71aBusquedaRegistrosWar/empresa/04557",
      "_links": {
        "self": {
          "name": "CRADA, S.L.",
          "href": "https://api.euskadi.eus/procurements/companies/04557"
        }
      }
    },
    {
      "name": "ARQUITECTURA Y DISEÑO MOBIL-ARTE, S.A.",
      "registrationNumber": "01695",
      "identificationNumber": "A48183248",
      "address": "C/ IBÁÑEZ DE BILBAO, Nº 8 - LOCAL DERECHO",
      "location": {
        "postalCode": "48001",
        "municipality": "Bilbao",
        "county": "Bizkaia",
        "municipalityId": "020",
        "countyId": "48"
      },
      "economicActivities": [
        {
          "id": "1.501.1",
          "name": "Construcción completa, reparación y conservación de edificaciones",
          "_links": {
            "self": {
              "name": "Construcción completa, reparación y conservación de edificaciones",
              "href": "https://api.euskadi.eus/procurements/companies/economic-activities/1.501.1"
            }
          }
        },
        {
          "id": "1.659.2",
          "name": "Venta al por menor de muebles de oficina y máquinas y equipos de oficina",
          "_links": {
            "self": {
              "name": "Venta al por menor de muebles de oficina y máquinas y equipos de oficina",
              "href": "https://api.euskadi.eus/procurements/companies/economic-activities/1.659.2"
            }
          }
        }
      ],
      "certificateStartDate": "2014-03-31",
      "certificateEndDate": "2014-09-26",
      "object": "LA PROMOCIÓN Y CONSTRUCCIÓN DE EDIFICIOS, PUDIENDO ADQUIRIR POR CUALQUIER TÍTULO TODA CLASE DE TERRENOS, SOLARES, EDIFICIOS Y FINCAS. LA PROYECCIÓN Y REALIZACIÓN DE TODA CLASE DE DECORACIONES Y MONTAJES, BIEN PARA LA INDUSTRIA, COMERCIO Y VIVIENDA, TANTO INTERIORES COMO EXTERIORES. LA VENTA AL POR MENOR Y MAYOR, REPRESENTACIONES Y ACTIVIDADES DE MEDIACIÓN, TANTO PARA LA INDUSTRIA, COMO PARA EL COMERCIO, DE MUEBLES, ELECTRODOMÉSTICOS, MUEBLES DE COCINA, ARTÍCULOS DE REGALO Y DECORACIÓN.\r\nLA REALIZACIÓN DE TODA CLASE DE TRABAJOS DE JARDINERÍA Y PLANTACIONES, ASÍ COMO LA COMPRAVENTA, IMPORTACIÓN, EXPORTACIÓN Y COMERCIALIZACIÓN EN GENERAL DE TODA CLASE DE PLANTAS, FLORES, ÁRBOLES, TIERRA VEGETAL O DE OTRA ESPECIE, ABONOS Y DEMÁS ELEMENTOS QUE INTERVIENEN EN LA JARDINERÍA.\r\nTODAS LAS ACTIVIDADES QUE INTEGRAN EL OBJETO SOCIAL MENCIONADO PODRÁN DESARROLLARSE TANTO EN ESPAÑA COMO EN EL EXTRANJERO, PUDIENDO LLEVARSE A CABO TOTAL O PARCIALMENTE DE MODO INDIRECTO, MEDIANTE LA TITULARIDAD DE ACCIONES O DE PARTICIPACIONES EN SOCIEDADES CON OBJETO IDÉNTICO O ANÁLOGO",
      "mainEntityOfPage": "https://www.contratacion.euskadi.eus/webkpe00-kperoc/es/ac71aBusquedaRegistrosWar/empresa/01695",
      "_links": {
        "self": {
          "name": "ARQUITECTURA Y DISEÑO MOBIL-ARTE, S.A.",
          "href": "https://api.euskadi.eus/procurements/companies/01695"
        }
      }
    }
  ]
}