{
  "totalItems": 9042,
  "totalPages": 905,
  "currentPage": 819,
  "itemsOfPage": 10,
  "items": [
    {
      "name": "MERCK FARMA Y QUÍMICA, S.A.",
      "registrationNumber": "01614",
      "identificationNumber": "A08070195",
      "address": "POL. MERCK, JUNTO CTRA. NACIONAL, 152 - KM. 19",
      "location": {
        "postalCode": "08100",
        "municipality": "Mollet del Vallès",
        "county": "Barcelona",
        "municipalityId": "124",
        "countyId": "08"
      },
      "economicActivities": [
        {
          "id": "1.616.6",
          "name": "Venta al por mayor de productos químicos industriales",
          "_links": {
            "self": {
              "name": "Venta al por mayor de productos químicos industriales",
              "href": "https://api.euskadi.eus/procurements/companies/economic-activities/1.616.6"
            }
          }
        }
      ],
      "certificateStartDate": "2000-09-18",
      "certificateEndDate": "2001-02-28",
      "object": "LA FABRICACIÓN Y COMERCIALIZACIÓN DE ESPECIALIDADES FARMACÉUTICAS, PRODUCTOS QUÍMICOS, REACTIVOS, PRODUCTOS DIETÉTICOS, DE PERFUMERÍA Y DE COSMÉTICA Y APARATOS DE MEDICIÓN, ANÁLISIS Y DIAGNÓSTICA CON SUS CORRESPONDIENTES SOPORTES INFORMÁTICOS Y SUS ACCESORIOS, ASÍ COMO LA REALIZACIÓN DE TRABAJOS DE INVESTIGACIÓN PARA TERCEROS",
      "mainEntityOfPage": "https://www.contratacion.euskadi.eus/webkpe00-kperoc/es/ac71aBusquedaRegistrosWar/empresa/01614",
      "_links": {
        "self": {
          "name": "MERCK FARMA Y QUÍMICA, S.A.",
          "href": "https://api.euskadi.eus/procurements/companies/01614"
        }
      }
    },
    {
      "name": "CONSTRUCCIONES BIZKAIA 2000, S.A.",
      "registrationNumber": "01906",
      "identificationNumber": "A48834394",
      "address": "ZABALBIDE, 51 - 3º",
      "location": {
        "postalCode": "48006",
        "municipality": "Bilbao",
        "county": "Bizkaia",
        "municipalityId": "020",
        "countyId": "48"
      },
      "economicActivities": [
        {
          "id": "1.501.1",
          "name": "Construcción completa, reparación y conservación de edificaciones",
          "_links": {
            "self": {
              "name": "Construcción completa, reparación y conservación de edificaciones",
              "href": "https://api.euskadi.eus/procurements/companies/economic-activities/1.501.1"
            }
          }
        }
      ],
      "certificateStartDate": "2000-09-01",
      "certificateEndDate": "2001-02-28",
      "object": "LA ADQUISICIÓN, TENENCIA, DISFRUTE, PROMOCIÓN, EXPLOTACIÓN OCESIÓN POR CUALQUIER TÍTULO DE BIENES INMUEBLES. lA COMPRAVENTA POR CUENTA PROPIA O DE TERCERAS PERSONAS, DE TODA CLASE DE FINCAS RUSTICAS O URBANAS, PARCELAS O SOLARES, Y, EN GENERAL, TODA CLASE DE TERRENOWS QUE LEGALMENTE PUEDAN SER ENAJENADOS. LA PROMOCIÒN POR CUENTA PROPIA DE TODA CLASE DE PROYETOS DE URBANIZACION Y LA REALIZACIÓN DE LAS OBRAS NECESARIAS PARA LA ADAPTACIÓN DE LOS TERRENOS A LOS CITADOS PROYECTOS. LA PROMOCIÒN Y ADMINISTRACIÓN DE COMUNIDADES DE PROPIETARIOS DE INMUEBLES DE CUALQUIER CLASE. LA REALIZACIÓN, POR CUENTA PROPIA O DE TERCERAS PERSNAS, DE TODA CLASE DE PROYECTOS Y OBRAS PARA LA CONSTRUCCIÓN DE EDIFICACIOENS DESTINADAS A VIVIENDAS O A INSTALACIONES INDUSTRIALES O COMERCIALES. LA VENTA A TERCERAS PERSONAS DE EDIFICACIONES PROPIAS DE NUEVA PLANTA, BIEN COMO UNIDADES INDEPENDIENTES DE PISOS O LOCALES COMERCIALES, BIEN POR EDIFICIOS COMPLETOS, INCLUYENDO TODOS LOS ELEMENTOS ACCESORIOS QUE EXISTAN EN LOS MISMOS. LA EJECUCIÓN DE CUALQUIER TIPO DE OBRA PÚBLICA O PRIVADA, COMO MERO CONTRATISTA DE LAS MISMAS. EL ARRENDAMIENTO A TERCERAS PERSONAS DE EDIFICIOS, VIVIENDAS O LOCALES COMERCIALES PROPIOS.      ",
      "mainEntityOfPage": "https://www.contratacion.euskadi.eus/webkpe00-kperoc/es/ac71aBusquedaRegistrosWar/empresa/01906",
      "_links": {
        "self": {
          "name": "CONSTRUCCIONES BIZKAIA 2000, S.A.",
          "href": "https://api.euskadi.eus/procurements/companies/01906"
        }
      }
    },
    {
      "name": "TRATAMIENTO DE TIERRAS Y SEDIMENTOS TRATES, S.A.",
      "registrationNumber": "02126",
      "identificationNumber": "A48949887",
      "address": "C/ AMANN, Nº 2.",
      "location": {
        "postalCode": "48990",
        "municipality": "Getxo",
        "county": "Bizkaia",
        "municipalityId": "044",
        "countyId": "48"
      },
      "economicActivities": [
        {
          "id": "1.921.9",
          "name": "Otros servicios de saneamiento y similares n.c.o.p",
          "_links": {
            "self": {
              "name": "Otros servicios de saneamiento y similares n.c.o.p",
              "href": "https://api.euskadi.eus/procurements/companies/economic-activities/1.921.9"
            }
          }
        }
      ],
      "certificateStartDate": "2000-08-10",
      "certificateEndDate": "2001-02-08",
      "object": "EL PROYECTO, DIRECCIÓN Y REALIZACIÓN DE TODO TIPO DE TRABAJOS EN EL CAMPO DEL MEDIOAMBIENTE, EJECUCIÓN DE OBRAS DE TRATAMIENTO DE SUELOS CONTAMINADOS, SEDIMENTOS, FANGOS DE DEPURACIÓN, AGUAS Y RESIDUOS MEDIANTE INSTALACIONES FIJAS Y MÓVILES, Y LA FABRICACIÓN, MONTAJE Y OPERACIÓN DE EQUIPAMIENTO E INSTALACIONES APROPIADAS PARA ELLO",
      "mainEntityOfPage": "https://www.contratacion.euskadi.eus/webkpe00-kperoc/es/ac71aBusquedaRegistrosWar/empresa/02126",
      "_links": {
        "self": {
          "name": "TRATAMIENTO DE TIERRAS Y SEDIMENTOS TRATES, S.A.",
          "href": "https://api.euskadi.eus/procurements/companies/02126"
        }
      }
    },
    {
      "name": "EUREST COLECTIVIDADES, S.A.",
      "registrationNumber": "02292",
      "identificationNumber": "A80267420",
      "address": "C/ PRINCESA, 5 -3ª PLANTA",
      "location": {
        "postalCode": "28008",
        "municipality": "Madrid",
        "county": "Madrid",
        "municipalityId": "079",
        "countyId": "28"
      },
      "economicActivities": [
        {
          "id": "1.677.9",
          "name": "Otros servicios de alimentación propios de la restauración",
          "_links": {
            "self": {
              "name": "Otros servicios de alimentación propios de la restauración",
              "href": "https://api.euskadi.eus/procurements/companies/economic-activities/1.677.9"
            }
          }
        }
      ],
      "certificateStartDate": "2000-07-26",
      "certificateEndDate": "2000-12-13",
      "object": "SERVICIOS DE HOSTELERÍA PÚBLICA O COLECTIVA QUE IMPLIQUEN LA GESTIÓN DIRECTA O POR CUENTA DE TERCEROS, TALES COMO LA EXPLOTACIÓN DE RESTAURANTES, BARES, CAFETERÍAS, COMEDORES COLECTIVOS, RESTAURACIÓN HOSPITALARIA Y TODA CLASE DE RESIDENCIAS Y CUALESQUIERA OTRAS DE SIMILAR NATURALEZA, INCLUÍDA LA LIMPIEZA Y CONSERVACIÓN DE LOS LOCALES E INSTALACIONES; SERVICIOS DE COMIDA TRANSPORTADA DESDE COCINAS CENTRALES A CUALQUIER CLASE DE CENTRO, COMERCIO, INSTITUCIÓN O DOMICILIO PARTICULAR; SUMINISTRO DE TODA CLASE DE MATERIAS PRIMAS A CUALQUIER TIPO DE CENTROS O INSTITUCIONES; SERVICIOS DE VENTA AUTOMÁTICA, MEDIANTE LAS CORRESPONDIENTES MÁQUINAS EXPENDEDORAS, DE COMIDA Y/O BEBIDA, INCLUSO TABACO /Y EN GENERAL AQUELLAS ACTIVIDADES COMPLEMENTARIAS RELACIONADAS CON EL EXPRESADO OBJETO SOCIAL); SERVICIOS DE ASESORAMIENTO, ASISTENCIA TÉCNICA Y GESTIÓN RELACIONADOS CON LA ACTIVIDAD HOSTELERA EN GENERAL, REFERIDOS AL PERSONAL, LAS INSTALACIONES Y SU MANTENIMIENTO, LAS MATERIAS PRIMAS O A LA ORGANIZACIÓN DE ESTOS ELEMENTOS; SERVICIOS DE JARDINERÍA; SERVICIOS DE LIMPIEZA Y LAVANDERÍA; SERVICIOS DE ASISTENCIA, ASESORAMIENTO Y GESTIÓN EN CONGRESOS, REUNIONES Y CELEBRACIONES DE TODO TIPO QUE SUPONGAN EL DESEMPEÑO DE ESTAS FUNCIONES; SERVICIOS DE MONITORES ESCOLARES Y MONITORES DE AUTOBUSES; SERVICIOS ASISTENCIALES Y OTROS RELACIONADOS CON LA TERCERA EDAD COMO CUIDADORES, GEROCULTORES; SERVICIOS DE MANTENIMIENTO DE INSTALACIONES Y EDIFICIOS; VENTA AL POR MENOR DE PERIÓDICOS, REVISTAS, TABACO, PRODUCTOS ALIMENTICIOS Y ARTÍCULOS DE REGALO",
      "mainEntityOfPage": "https://www.contratacion.euskadi.eus/webkpe00-kperoc/es/ac71aBusquedaRegistrosWar/empresa/02292",
      "_links": {
        "self": {
          "name": "EUREST COLECTIVIDADES, S.A.",
          "href": "https://api.euskadi.eus/procurements/companies/02292"
        }
      }
    },
    {
      "name": "ERABIDE, S.A.",
      "registrationNumber": "01953",
      "identificationNumber": "A48301030",
      "address": "PARQUE TECNOLÓGICO, EDIFICIO 105 - 2ª PLANTA.",
      "location": {
        "postalCode": "48170",
        "municipality": "Zamudio",
        "county": "Bizkaia",
        "municipalityId": "905",
        "countyId": "48"
      },
      "economicActivities": [
        {
          "id": "1.847",
          "name": "Servicios de consultoría",
          "_links": {
            "self": {
              "name": "Servicios de consultoría",
              "href": "https://api.euskadi.eus/procurements/companies/economic-activities/1.847"
            }
          }
        },
        {
          "id": "1.932.1",
          "name": "Enseñanza de formación y perfeccionamiento profesional no superior",
          "_links": {
            "self": {
              "name": "Enseñanza de formación y perfeccionamiento profesional no superior",
              "href": "https://api.euskadi.eus/procurements/companies/economic-activities/1.932.1"
            }
          }
        }
      ],
      "certificateStartDate": "2000-07-24",
      "certificateEndDate": "2000-12-29",
      "object": "EL DESARROLLO DE TÉCNICAS Y PROCEDIMIENTOS PARA LA GESTIÓN DE LA CALIDAD EN EMPRESAS INDUSTRIALES Y DE SERVICIOS CULMINANDO CON SU IMPLANTACIÓN PRÁCTICA EN LOS CLIENTES",
      "mainEntityOfPage": "https://www.contratacion.euskadi.eus/webkpe00-kperoc/es/ac71aBusquedaRegistrosWar/empresa/01953",
      "_links": {
        "self": {
          "name": "ERABIDE, S.A.",
          "href": "https://api.euskadi.eus/procurements/companies/01953"
        }
      }
    },
    {
      "name": "UVI MEDICAL, S.A.",
      "registrationNumber": "02143",
      "identificationNumber": "A79657482",
      "address": "CTRA. TORREJÓN-AJALVIR, Km. 3,300.",
      "location": {
        "postalCode": "28864",
        "municipality": "Ajalvir",
        "county": "Madrid",
        "municipalityId": "002",
        "countyId": "28"
      },
      "economicActivities": [
        {
          "id": "1.619.2",
          "name": "Venta al por mayor de aparatos e instrumentos médicos, ortopédicos, ópticos",
          "_links": {
            "self": {
              "name": "Venta al por mayor de aparatos e instrumentos médicos, ortopédicos, ópticos",
              "href": "https://api.euskadi.eus/procurements/companies/economic-activities/1.619.2"
            }
          }
        }
      ],
      "certificateStartDate": "2000-07-11",
      "certificateEndDate": "2000-11-08",
      "object": "LA COMERCIALIZACIÓN Y VENTA DE PRODUCTOS MÉDICO-QUIRÚRGICOS Y LA IMPORTACIÓN Y EXPORTACIÓN DE LOS MISMOS, Y LA ADQUISICIÓN, ENAJENACIÓN Y EXPLOTACIÓN DE INMUEBLES",
      "mainEntityOfPage": "https://www.contratacion.euskadi.eus/webkpe00-kperoc/es/ac71aBusquedaRegistrosWar/empresa/02143",
      "_links": {
        "self": {
          "name": "UVI MEDICAL, S.A.",
          "href": "https://api.euskadi.eus/procurements/companies/02143"
        }
      }
    },
    {
      "name": "IKATZ, S.A.",
      "registrationNumber": "00857",
      "identificationNumber": "A01043652",
      "address": "C/ JOSÉ MIGUEL DE BARANDIARÁN, Nº 1 - BAJO.",
      "location": {
        "postalCode": "01009",
        "municipality": "Vitoria-Gasteiz",
        "county": "Araba/Álava",
        "municipalityId": "059",
        "countyId": "01"
      },
      "economicActivities": [
        {
          "id": "1.659.3",
          "name": "Venta al por menor de aparatos médicos, ortopédicos, ópticos y fotográficos",
          "_links": {
            "self": {
              "name": "Venta al por menor de aparatos médicos, ortopédicos, ópticos y fotográficos",
              "href": "https://api.euskadi.eus/procurements/companies/economic-activities/1.659.3"
            }
          }
        },
        {
          "id": "1.844",
          "name": "Servicios de publicidad, relaciones públicas y similares",
          "_links": {
            "self": {
              "name": "Servicios de publicidad, relaciones públicas y similares",
              "href": "https://api.euskadi.eus/procurements/companies/economic-activities/1.844"
            }
          }
        },
        {
          "id": "1.973.1",
          "name": "Servicios fotográficos",
          "_links": {
            "self": {
              "name": "Servicios fotográficos",
              "href": "https://api.euskadi.eus/procurements/companies/economic-activities/1.973.1"
            }
          }
        }
      ],
      "certificateStartDate": "2000-07-06",
      "certificateEndDate": "2000-12-23",
      "object": "EL COMERCIO DE APARATOS DE FOTOGRAFÍA, CINEMATOGRAFÍA, TELEVISIÓN, TELEFONÍA Y DEMÁS ELECTRÓNICOS. SERVICIOS DE FOTOGRAFÍA Y REVELADO",
      "mainEntityOfPage": "https://www.contratacion.euskadi.eus/webkpe00-kperoc/es/ac71aBusquedaRegistrosWar/empresa/00857",
      "_links": {
        "self": {
          "name": "IKATZ, S.A.",
          "href": "https://api.euskadi.eus/procurements/companies/00857"
        }
      }
    },
    {
      "name": "CONSUMIBLES Y ELECTRÓNICA CLÍNICA, S.L.",
      "registrationNumber": "01900",
      "identificationNumber": "B48878698",
      "address": "C/ LERTEGUI, Nº 14 - 1º B",
      "location": {
        "postalCode": "48990",
        "municipality": "Getxo",
        "county": "Bizkaia",
        "municipalityId": "044",
        "countyId": "48"
      },
      "economicActivities": [
        {
          "id": "1.619.2",
          "name": "Venta al por mayor de aparatos e instrumentos médicos, ortopédicos, ópticos",
          "_links": {
            "self": {
              "name": "Venta al por mayor de aparatos e instrumentos médicos, ortopédicos, ópticos",
              "href": "https://api.euskadi.eus/procurements/companies/economic-activities/1.619.2"
            }
          }
        }
      ],
      "certificateStartDate": "2000-07-04",
      "certificateEndDate": "2001-01-03",
      "object": "1) EL COMERCIO MAYOR Y MENOR DE TODO TIPO DE ARTÍCULOS NO PERECEDEROS, ASÍ COMO LA REPRESENTACIÓN COMERCIAL DE LOS MISMOS. 2) LA UTILIZACIÓN Y EXPLOTACIÓN, POR CUALQUIER TÍTULO, DE TODO TIPO DE BIENES MUEBLES O INMUEBLES PERTENECIENTES A LA SOCIEDAD PARA CUALQUIER TIPO DE ACTIVIDAD DE LÍCITO COMERCIO, Y TODO LO QUE TENGA RELACIÓN, DIRECTA O INDIRECTA, CON DICHO OBJETO",
      "mainEntityOfPage": "https://www.contratacion.euskadi.eus/webkpe00-kperoc/es/ac71aBusquedaRegistrosWar/empresa/01900",
      "_links": {
        "self": {
          "name": "CONSUMIBLES Y ELECTRÓNICA CLÍNICA, S.L.",
          "href": "https://api.euskadi.eus/procurements/companies/01900"
        }
      }
    },
    {
      "name": "INSTALACIONES HERMANOS CALVO, S.A.",
      "registrationNumber": "01079",
      "identificationNumber": "A01017680",
      "address": "C/ AVENDAÑO, Nº 16 - BAJO.",
      "location": {
        "postalCode": "01008",
        "municipality": "Vitoria-Gasteiz",
        "county": "Araba/Álava",
        "municipalityId": "059",
        "countyId": "01"
      },
      "economicActivities": [
        {
          "id": "1.504.2",
          "name": "Instalaciones de fontanería",
          "_links": {
            "self": {
              "name": "Instalaciones de fontanería",
              "href": "https://api.euskadi.eus/procurements/companies/economic-activities/1.504.2"
            }
          }
        },
        {
          "id": "1.504.3",
          "name": "Instalaciones de frío, calor y acondicionamiento de aire",
          "_links": {
            "self": {
              "name": "Instalaciones de frío, calor y acondicionamiento de aire",
              "href": "https://api.euskadi.eus/procurements/companies/economic-activities/1.504.3"
            }
          }
        },
        {
          "id": "1.617.4",
          "name": "Venta al por mayor de materiales de construcción, vidrio y artículos instalación",
          "_links": {
            "self": {
              "name": "Venta al por mayor de materiales de construcción, vidrio y artículos instalación",
              "href": "https://api.euskadi.eus/procurements/companies/economic-activities/1.617.4"
            }
          }
        }
      ],
      "certificateStartDate": "2000-06-30",
      "certificateEndDate": "2000-12-09",
      "object": "LA REALIZACIÓN DE TRABAJOS DE FONTANERÍA, REPARACIONES, COMPRA-VENTA Y COMERCIALIZACIÓN DE APARATOS SANITARIOS Y MATERIALES DE CONSTRUCCIÓN, CONTRATA DE OBRAS Y EN GENERAL TODO CUANTO SEA ANTECEDENTE, ACCESORIO, AUXILIAR O CONSECUENTE O SE RELACIONE CON LAS FINALIDADES EXPRESADAS",
      "mainEntityOfPage": "https://www.contratacion.euskadi.eus/webkpe00-kperoc/es/ac71aBusquedaRegistrosWar/empresa/01079",
      "_links": {
        "self": {
          "name": "INSTALACIONES HERMANOS CALVO, S.A.",
          "href": "https://api.euskadi.eus/procurements/companies/01079"
        }
      }
    },
    {
      "name": "SEGEMA, SERVICIOS GENERALES DEL MEDIO AMBIENTE, S.A.",
      "registrationNumber": "02235",
      "identificationNumber": "A28586345",
      "address": "C/ HENAO, Nº 20",
      "location": {
        "postalCode": "48009",
        "municipality": "Bilbao",
        "county": "Bizkaia",
        "municipalityId": "020",
        "countyId": "48"
      },
      "economicActivities": [
        {
          "id": "1.911",
          "name": "Servicios agrícolas y ganaderos",
          "_links": {
            "self": {
              "name": "Servicios agrícolas y ganaderos",
              "href": "https://api.euskadi.eus/procurements/companies/economic-activities/1.911"
            }
          }
        }
      ],
      "certificateStartDate": "2000-06-29",
      "certificateEndDate": "2000-11-10",
      "object": "LA REALIZACIÓN DE ESTUDIOS TÉCNICOS Y TRABAJOS DE INGENIERÍA, ESPECIALMENTE LOS RELACIONADOS CON EL SANEAMIENTO Y TRATAMIENTO DE BASURAS Y AGUAS POTABLES O RESIDUALES; FABRICACIÓN DE ABONOS ORGÁNICOS, ASÍ COMO LA VENTA Y COMERCIALIZACIÓN DE LOS PRODUCTOS QUE SE OBTENGAN DEL TRATAMIENTO DE LAS BASURAS Y DESPERDICIOS; LA CONTRATACIÓN CON TODA CLASE DE PERSONAS FÍSICAS O JURÍDICAS Y, ESPECIALMENTE, CON EL ESTADO, COMUNIDADES AUTÓNOMAS, PROVINCIAS, MUNICIPIOS Y DEMÁS ORGANISMOS PÚBLICOS, DE LOS SERVICIOS DE RECOGIDA DE BASURAS DOMICILIARIAS Y RESIDUOS INDUSTRIALES; ELIMINACIÓN HIGIÉNICO-SANITARIA O TRATAMIENTO DE LAS MISMAS; LIMPIEZA VIARIA; LIMPIEZA DE COLEGIOS Y EDIFICIOS EN GENERAL; LIMPIEZA DE ALCANTARILLADO Y POZOS NEGROS; DESRATIZACIÓN, DESINSECTACIÓN Y DESINFECCIÓN EN GENERAL; MANTENIMIENTO Y LIMPIEZA DE REDES Y ESTACIONES DEPURADORAS DE AGUA, TANTO POTABLES COMO RESIDUALES, Y CUALQUIERA OTROS DE NATURALEZA SANITARIA, URBANA; CONSTRUCCIÓN, LIMPIEZA Y MANTENIMIENTO DE PARQUES Y JARDINES; LA FABRICACIÓN Y, EN TODOCASO, LA COMERCIALIZACIÓN Y VENTA DE MATERIAL, NACIONAL O EXTRANJERO, NECESARIO PARA LOS SERVICIOS MENCIONADOS; LA SOCIEDAD PODRÁ REALIZAR INDIRECTAMENTE LAS ANTERIORES ACTIVIDADES COMPRENDIDAS EN SU OBJETO SOCIAL, MEDIANTE LA CONSTITUCIÓN DE OTRAS SOCIEDADES O LA PARTICIPACIÓN EN SOCIEDADES YA CONSTITUÍDAS DE OBJETO IDÉNTICO O ANÁLOGO, PUDIENDO PARA ELLO SUSCRIBIR O POR CUALQUIER OTRO TÍTULO ADQUIRIR Y ENAJENAR ACCIONES Y PARTICIPACIONES SOCIALES",
      "mainEntityOfPage": "https://www.contratacion.euskadi.eus/webkpe00-kperoc/es/ac71aBusquedaRegistrosWar/empresa/02235",
      "_links": {
        "self": {
          "name": "SEGEMA, SERVICIOS GENERALES DEL MEDIO AMBIENTE, S.A.",
          "href": "https://api.euskadi.eus/procurements/companies/02235"
        }
      }
    }
  ]
}