{
  "totalItems": 9042,
  "totalPages": 905,
  "currentPage": 321,
  "itemsOfPage": 10,
  "items": [
    {
      "name": "UNIVERSITAS XXI SOLUCIONES Y TECNOLOGÍA PARA LA UNIVERSIDAD, S.A.",
      "registrationNumber": "08450",
      "identificationNumber": "A80897770",
      "address": "C/Arequipa, nº 1, bloque 1, pta. 5ª",
      "location": {
        "postalCode": "28043",
        "municipality": "Madrid",
        "county": "Madrid",
        "municipalityId": "079",
        "countyId": "28"
      },
      "economicActivities": [
        {
          "id": "1.845",
          "name": "Explotación electrónica por cuenta de terceros",
          "_links": {
            "self": {
              "name": "Explotación electrónica por cuenta de terceros",
              "href": "https://api.euskadi.eus/procurements/companies/economic-activities/1.845"
            }
          }
        }
      ],
      "certificateStartDate": "2025-08-24",
      "certificateEndDate": "2026-02-24",
      "object": "SERVIR DE APOYO INSTRUMENTAL A LAS ACTIVIDADES QUE LA LEY ENCOMIENDA A LA UNIVERSIDAD, PARA MEJORAR LA GESTIÓN Y LA ADMINISTRACIÓN DE LAS UNIVERSIDADES. TAMBIÉN ORIENTA SUS ACTIVIDADES A LOS SECTORES PÚBLICO Y PRIVADO PARA TRANSFERIR LOS CONOCIMIENTOS ADQUIRIDOS EN EL ÁMBITO DE LA GESTIÓN UNIVERSITARIA. SUS FINES SON LOS SIGUIENTES: DESARROLLO, PROMOCIÓN, DISTRIBUCIÓN Y COMERCIALIZACIÓN DE SERVICIOS Y PROYECTOS PARA LAS UNIVERSIDADES, QUE CONTRIBUYAN A MEJORAR LOS SERVICIOS Y A OPTIMIZAR SUS RECURSOS. EN PARTICULAR, LA SOCIEDAD PRESTARÁ A LAS UNIVERSIDADES, ORGANISMOS DEL SECTOR PÚBLICO Y EMPRESAS DEL SECTOR PRIVADO, SERVICIOS CONSISTENTES EN LA CONSULTORÍA TECNOLÓGICA Y ORGANIZATIVA, PLANIFICACIÓN, ANÁLISIS, DISEÑO, DESARROLLO Y DISTRIBUCIÓN DE SOLUCIONES TECNOLÓGICAS Y DEMÁS SERVICIOS POSTERIORES DE IMPLANTACIÓN, MANTENIMIENTO PREVENTIVO, CORRECTIVO Y PERFECTIVO, EXPLOTACIÓN, CONTROL Y OPTIMIZACIÓN DE LOS SISTEMAS DE INFORMACIÓN Y DE EDUCACIÓN VIRTUAL. ",
      "mainEntityOfPage": "https://www.contratacion.euskadi.eus/webkpe00-kperoc/es/ac71aBusquedaRegistrosWar/empresa/08450",
      "_links": {
        "self": {
          "name": "UNIVERSITAS XXI SOLUCIONES Y TECNOLOGÍA PARA LA UNIVERSIDAD, S.A.",
          "href": "https://api.euskadi.eus/procurements/companies/08450"
        }
      }
    },
    {
      "name": "TECOMAR, S.L.",
      "registrationNumber": "09523",
      "identificationNumber": "B20071155",
      "address": "c/. San Pedro, nº 12",
      "location": {
        "postalCode": "20110",
        "municipality": "Pasaia",
        "county": "Gipuzkoa",
        "municipalityId": "064",
        "countyId": "20"
      },
      "economicActivities": [
        {
          "id": "1.617.9",
          "name": "Venta al por mayor interindustrial de otros productos n.c.o.p",
          "_links": {
            "self": {
              "name": "Venta al por mayor interindustrial de otros productos n.c.o.p",
              "href": "https://api.euskadi.eus/procurements/companies/economic-activities/1.617.9"
            }
          }
        }
      ],
      "certificateStartDate": "2025-08-24",
      "certificateEndDate": "2026-02-24",
      "object": "EL COMERCIO AL POR MAYOR INTERINDUSTRIAL, TALES COMO MAQUINARIA Y EQUIPO DE USO GENERAL (MOTORES, TURBINAS, MAQUINARIA PARA MANIPULACIÓN DE FLUIDOS, ETC…); MOTORES Y GENERADORES ELÉCTRICOS, EQUIPOS Y MATERIAL DE DISTRIBUCIÓN Y TRANSMISIÓN DE ELECTRICIDAD, EQUIPOS DE TELECOMUNICACIÓN; MAQUINARIA Y MATERIAL PARA LA INDUSTRIA, EL COMERCIO Y LA NAVEGACIÓN; ARTÍCULOS TÉCNICOS DE CAUCHO, PLÁSTICO, ETC…; MATERIAL Y MAQUINARIA DE ELEVACIÓN Y MANIPULACIÓN Y SUMINISTRITOS DIVERSOS PARA LA INDUSTRIA.",
      "mainEntityOfPage": "https://www.contratacion.euskadi.eus/webkpe00-kperoc/es/ac71aBusquedaRegistrosWar/empresa/09523",
      "_links": {
        "self": {
          "name": "TECOMAR, S.L.",
          "href": "https://api.euskadi.eus/procurements/companies/09523"
        }
      }
    },
    {
      "name": "BEROKA INSTALACIONES, S.L.",
      "registrationNumber": "09814",
      "identificationNumber": "B44860856",
      "address": "Pº Ubarburu, 54 local 7",
      "location": {
        "postalCode": "20115",
        "municipality": "Astigarraga",
        "county": "Gipuzkoa",
        "municipalityId": "903",
        "countyId": "20"
      },
      "economicActivities": [
        {
          "id": "1.504.1",
          "name": "Instalaciones eléctricas en general",
          "_links": {
            "self": {
              "name": "Instalaciones eléctricas en general",
              "href": "https://api.euskadi.eus/procurements/companies/economic-activities/1.504.1"
            }
          }
        },
        {
          "id": "1.504.2",
          "name": "Instalaciones de fontanería",
          "_links": {
            "self": {
              "name": "Instalaciones de fontanería",
              "href": "https://api.euskadi.eus/procurements/companies/economic-activities/1.504.2"
            }
          }
        },
        {
          "id": "1.504.3",
          "name": "Instalaciones de frío, calor y acondicionamiento de aire",
          "_links": {
            "self": {
              "name": "Instalaciones de frío, calor y acondicionamiento de aire",
              "href": "https://api.euskadi.eus/procurements/companies/economic-activities/1.504.3"
            }
          }
        }
      ],
      "certificateStartDate": "2025-08-24",
      "certificateEndDate": "2026-02-24",
      "object": "EJECUTAR, REPARAR, MANTENER Y REVISAR TODO TIPO DE INSTALACIONES DE AGUA FRÍA, GAS, AGUA CALIENTE SANITARIA, CLIMATIZACIÓN, ELECTRICIDAD Y AFINES, ASÍ COMO DE IMPERMEABILIZACIONES Y CUBRIMIENTOS DE CUALQUIER CLASE Y LA COMERCIALIZACIÓN DE LOS MATERIALES, PRODUCTOS, APARATOS Y MUEBLES RELACIONADOS CON TODAS ELLAS, YA SEA MEDIANTE ELABORACIÓN Y EJECUCIÓN DIRECTA, CONFORME A TÉCNICAS PROPIAS O AJENAS, O MEDIANTE SUBCONTRATACIÓN DE TERCEROS, ASÍ COMO EL EJERCICIO DE LA REPRESENTACIÓN DE TODO TIPO DE EMPRESAS, NACIONALES  O EXTRANJERAS, Y DE CUALQUIER ACTO MERCANTIL RELACIONADO CON LA COMERCIALIZACIÓN DE PRODUCTOS RELACIONADOS CON LAS MENCIONADAS INSTALACIONES, INCLUIDOS LOS EVENTUALES SERVICIOS DE POSTVENTA DE ESTOS.",
      "mainEntityOfPage": "https://www.contratacion.euskadi.eus/webkpe00-kperoc/es/ac71aBusquedaRegistrosWar/empresa/09814",
      "_links": {
        "self": {
          "name": "BEROKA INSTALACIONES, S.L.",
          "href": "https://api.euskadi.eus/procurements/companies/09814"
        }
      }
    },
    {
      "name": "MARIA NIEVES OCHOA FERNÁNDEZ DE ARROYABE",
      "registrationNumber": "07803",
      "identificationNumber": "16298926E",
      "address": "LEGARDA N5",
      "location": {
        "postalCode": "01196",
        "municipality": "Vitoria-Gasteiz",
        "county": "Araba/Álava",
        "municipalityId": "059",
        "countyId": "01"
      },
      "economicActivities": [
        {
          "id": "1.690",
          "name": "OTRAS EXPLOTACIONES GANADERAS",
          "_links": {
            "self": {
              "name": "OTRAS EXPLOTACIONES GANADERAS",
              "href": "https://api.euskadi.eus/procurements/companies/economic-activities/1.690"
            }
          }
        }
      ],
      "certificateStartDate": "2025-08-24",
      "certificateEndDate": "2026-02-24",
      "object": "OTRAS EXPLOTACIONES GANADERAS",
      "mainEntityOfPage": "https://www.contratacion.euskadi.eus/webkpe00-kperoc/es/ac71aBusquedaRegistrosWar/empresa/07803",
      "_links": {
        "self": {
          "name": "MARIA NIEVES OCHOA FERNÁNDEZ DE ARROYABE",
          "href": "https://api.euskadi.eus/procurements/companies/07803"
        }
      }
    },
    {
      "name": "ENEAN KOOP. ELK. TXIKIA",
      "registrationNumber": "09815",
      "identificationNumber": "F10775112",
      "address": "Gabarrari Kalea 14 - SM 1C1",
      "location": {
        "postalCode": "20280",
        "municipality": "Hondarribia",
        "county": "Gipuzkoa",
        "municipalityId": "036",
        "countyId": "20"
      },
      "economicActivities": [
        {
          "id": "1.843.2",
          "name": "Servicios técnicos de arquitectura y urbanismo",
          "_links": {
            "self": {
              "name": "Servicios técnicos de arquitectura y urbanismo",
              "href": "https://api.euskadi.eus/procurements/companies/economic-activities/1.843.2"
            }
          }
        }
      ],
      "certificateStartDate": "2025-08-24",
      "certificateEndDate": "2026-02-24",
      "object": "EL DESARROLLO, REDACCIÓN, PROMOCIÓN Y FOMENTO DE PROYECTOS DE ARQUITECTURA Y URBANISMO. FORMAN PARTE ASIMISMO LAS ACTIVIDADES DE DIVULGACIÓN Y FORMACIÓN DE LA ARQUITECTURA Y EL URBANISMO, ASÍ COMO EL ACOMPAÑAMIENTO, ORGANIZACIÓN Y GESTIÓN DE GRUPOS HUMANOS RELACIONADOS CON EL DESARROLLO DE PROYECTOS Y LA PROMOCIÓN INMOBILIARIA, HACIENDO CONSTAR QUE PARA EL EJERCICIO DE SU ACTIVIDAD LABORAL DENTRO DE LA COOPERATIVA LA MAYORÍA DE SOCIOS NO NECESITAN ESTAR COLEGIADOS NI PERTENECER A NINGÚN COLEGIO PROFESIONAL.",
      "mainEntityOfPage": "https://www.contratacion.euskadi.eus/webkpe00-kperoc/es/ac71aBusquedaRegistrosWar/empresa/09815",
      "_links": {
        "self": {
          "name": "ENEAN KOOP. ELK. TXIKIA",
          "href": "https://api.euskadi.eus/procurements/companies/09815"
        }
      }
    },
    {
      "name": "LINO GONZALEZ RICO",
      "registrationNumber": "10077",
      "identificationNumber": "16289192V",
      "address": "C/ antonio amat maiz 22 9ºa",
      "location": {
        "postalCode": "01006",
        "municipality": "Vitoria-Gasteiz",
        "county": "Araba/Álava",
        "municipalityId": "059",
        "countyId": "01"
      },
      "economicActivities": [
        {
          "id": "1.973.1",
          "name": "Servicios fotográficos",
          "_links": {
            "self": {
              "name": "Servicios fotográficos",
              "href": "https://api.euskadi.eus/procurements/companies/economic-activities/1.973.1"
            }
          }
        }
      ],
      "certificateStartDate": "2025-08-23",
      "certificateEndDate": "2026-02-23",
      "object": "SERVICIOS FOTOGRÁFICOS.",
      "mainEntityOfPage": "https://www.contratacion.euskadi.eus/webkpe00-kperoc/es/ac71aBusquedaRegistrosWar/empresa/10077",
      "_links": {
        "self": {
          "name": "LINO GONZALEZ RICO",
          "href": "https://api.euskadi.eus/procurements/companies/10077"
        }
      }
    },
    {
      "name": "ERREKARTE ELEKTRIKARIA, S.L.",
      "registrationNumber": "09486",
      "identificationNumber": "B09913229",
      "address": "BIDEGAIÑA 24, BAJO",
      "location": {
        "postalCode": "20180",
        "municipality": "Oiartzun",
        "county": "Gipuzkoa",
        "municipalityId": "063",
        "countyId": "20"
      },
      "economicActivities": [
        {
          "id": "1.504.1",
          "name": "Instalaciones eléctricas en general",
          "_links": {
            "self": {
              "name": "Instalaciones eléctricas en general",
              "href": "https://api.euskadi.eus/procurements/companies/economic-activities/1.504.1"
            }
          }
        }
      ],
      "certificateStartDate": "2025-08-23",
      "certificateEndDate": "2026-02-23",
      "object": "INSTALACIONES ELÉCTRICAS.",
      "mainEntityOfPage": "https://www.contratacion.euskadi.eus/webkpe00-kperoc/es/ac71aBusquedaRegistrosWar/empresa/09486",
      "_links": {
        "self": {
          "name": "ERREKARTE ELEKTRIKARIA, S.L.",
          "href": "https://api.euskadi.eus/procurements/companies/09486"
        }
      }
    },
    {
      "name": "BAI EUSKARARI ZIURTAGIRIAREN SUSTAPENERAKO ELKARTEA",
      "registrationNumber": "06515",
      "identificationNumber": "G20948915",
      "address": "Martin Ugalde Kultur Parkea, z.g.",
      "location": {
        "postalCode": "20140",
        "municipality": "Andoain",
        "county": "Gipuzkoa",
        "municipalityId": "009",
        "countyId": "20"
      },
      "economicActivities": [
        {
          "id": "1.966.9",
          "name": "Otros servicios culturales n.c.o.p",
          "_links": {
            "self": {
              "name": "Otros servicios culturales n.c.o.p",
              "href": "https://api.euskadi.eus/procurements/companies/economic-activities/1.966.9"
            }
          }
        }
      ],
      "certificateStartDate": "2025-08-23",
      "certificateEndDate": "2026-02-23",
      "object": "ENPRESA, SALTOKI ETA ERA GUZTIETAKO ENTITATEEK EUSKARAREN NORMALIZAZIORAKO KONPROMISOAK HARTZEA ETA BETETZEA. HELBURU HORI ERDIESTEKO HONAKO EGITEKO EDO FUNTZIOAK HARTUKO DITU BERE GAIN: -BAI EUSKARARI ZIURTAGIRIAREN KUDEAKETA EGOKIA BIDERATZEA. -BAI EUSKARARI ZIURTAGIRIAREN EDUKIAK LANTZEA ETA GIZARTERATZEA. -ZIURTAGIRIA ESKURATUKO DUTEN ENTITATE KOPURUA HANDITZEA. -ZIURTAGIRIA DUTEN ENTITATEEN SEGIMENDUA ETA ERAGINTZA EGITEA. -ERA GUZTIETAKO ENTITATEEK DAGOZKIEN NEURRI NORMALIZATZAILEAK HARTU ETA BETETZERA ERAGITEA. -ELKARTEA OSATUKO DUTEN KIDEEN ARTEKO KOMUNIKAZIOA BERMATZEA. -HELBURUA LORTZEKO ERABAKI ETA ZEHAZTU LITEKEEN BESTE EDOZEIN EGITEKO EDO FUNTZIO",
      "mainEntityOfPage": "https://www.contratacion.euskadi.eus/webkpe00-kperoc/es/ac71aBusquedaRegistrosWar/empresa/06515",
      "_links": {
        "self": {
          "name": "BAI EUSKARARI ZIURTAGIRIAREN SUSTAPENERAKO ELKARTEA",
          "href": "https://api.euskadi.eus/procurements/companies/06515"
        }
      }
    },
    {
      "name": "INNOBIDE S.L.",
      "registrationNumber": "04985",
      "identificationNumber": "B01486901",
      "address": "AVENIDA GASTEIZ Nº28. 1ºB",
      "location": {
        "postalCode": "01008",
        "municipality": "Vitoria-Gasteiz",
        "county": "Araba/Álava",
        "municipalityId": "059",
        "countyId": "01"
      },
      "economicActivities": [
        {
          "id": "1.845",
          "name": "Explotación electrónica por cuenta de terceros",
          "_links": {
            "self": {
              "name": "Explotación electrónica por cuenta de terceros",
              "href": "https://api.euskadi.eus/procurements/companies/economic-activities/1.845"
            }
          }
        },
        {
          "id": "1.847",
          "name": "Servicios de consultoría",
          "_links": {
            "self": {
              "name": "Servicios de consultoría",
              "href": "https://api.euskadi.eus/procurements/companies/economic-activities/1.847"
            }
          }
        },
        {
          "id": "1.932.1",
          "name": "Enseñanza de formación y perfeccionamiento profesional no superior",
          "_links": {
            "self": {
              "name": "Enseñanza de formación y perfeccionamiento profesional no superior",
              "href": "https://api.euskadi.eus/procurements/companies/economic-activities/1.932.1"
            }
          }
        },
        {
          "id": "1.932.2",
          "name": "Enseñanza de formación y perfeccionamiento profesional superior",
          "_links": {
            "self": {
              "name": "Enseñanza de formación y perfeccionamiento profesional superior",
              "href": "https://api.euskadi.eus/procurements/companies/economic-activities/1.932.2"
            }
          }
        },
        {
          "id": "1.934",
          "name": "Enseñanza fuera de establecimiento permanente",
          "_links": {
            "self": {
              "name": "Enseñanza fuera de establecimiento permanente",
              "href": "https://api.euskadi.eus/procurements/companies/economic-activities/1.934"
            }
          }
        }
      ],
      "certificateStartDate": "2025-08-23",
      "certificateEndDate": "2026-02-23",
      "object": "DESARROLLO DE ACTIVIDADES EMPRESARIALES EN CONSULTORÍA, FORMACIÓN, INNOVACIÓN, INVESTIGACIÓN Y DESARROLLO. PRESTACIÓN DE SERVICIOS DE GESTIÓN Y ADMINISTRACIÓN, EDUCATIVOS, INFORMACIÓN, COMUNICACIÓN, OCIO Y ENTRETENIMIENTO. PRESTACIÓN DE SERVICIOS RELACIONADOS CON LAS TECNOLOGÍAS DE LA INFORMACIÓN Y LA INFORMÁTICA. LA COMPRAVENTA, COMERCIALIZACIÓN, DISTRIBUCIÓN Y ALQUILER DE TODO TIPO DE MATERIALES, PRODUCTOS, SOFTWARE Y APLICACIONES RELACIONADOS CON LAS ACTIVIDADES ANTERIORES EN TODA CLASE DE SOPORTES. OPERACIONES DE COMISIÓN, ALQUILER, PROMOCIÓN, REHABILITACIÓN Y COMPRAVENTA DE BIENES MUEBLES E INMUEBLES",
      "mainEntityOfPage": "https://www.contratacion.euskadi.eus/webkpe00-kperoc/es/ac71aBusquedaRegistrosWar/empresa/04985",
      "_links": {
        "self": {
          "name": "INNOBIDE S.L.",
          "href": "https://api.euskadi.eus/procurements/companies/04985"
        }
      }
    },
    {
      "name": "SPECIALIST COMPUTER CENTRES, S.L.",
      "registrationNumber": "02074",
      "identificationNumber": "B81644387",
      "address": "Calle Teide nº 4 – Núcleo 2 – 1ª Planta",
      "location": {
        "postalCode": "28703",
        "municipality": "San Sebastián de los Reyes",
        "county": "Madrid",
        "municipalityId": "134",
        "countyId": "28"
      },
      "economicActivities": [
        {
          "id": "1.330",
          "name": "Construcción de máquinas de oficina y ordenadores",
          "_links": {
            "self": {
              "name": "Construcción de máquinas de oficina y ordenadores",
              "href": "https://api.euskadi.eus/procurements/companies/economic-activities/1.330"
            }
          }
        },
        {
          "id": "1.659.2",
          "name": "Venta al por menor de muebles de oficina y máquinas y equipos de oficina",
          "_links": {
            "self": {
              "name": "Venta al por menor de muebles de oficina y máquinas y equipos de oficina",
              "href": "https://api.euskadi.eus/procurements/companies/economic-activities/1.659.2"
            }
          }
        },
        {
          "id": "1.845",
          "name": "Explotación electrónica por cuenta de terceros",
          "_links": {
            "self": {
              "name": "Explotación electrónica por cuenta de terceros",
              "href": "https://api.euskadi.eus/procurements/companies/economic-activities/1.845"
            }
          }
        },
        {
          "id": "1.853",
          "name": "Alquiler de maquinaria y equipo contable de oficina y cálculo",
          "_links": {
            "self": {
              "name": "Alquiler de maquinaria y equipo contable de oficina y cálculo",
              "href": "https://api.euskadi.eus/procurements/companies/economic-activities/1.853"
            }
          }
        }
      ],
      "certificateStartDate": "2025-08-23",
      "certificateEndDate": "2026-02-23",
      "object": "LA VENTA DE MATERIAL INFORMÁTICO A ENTIDADES PÚBLICAS Y PRIVADAS; LA VENTA, IMPLANTACIÓN, INSTALACIÓN Y MANTENIMIENTO DE PRODUCTOS HARDWARE, SOFTWARE, APLICACIONES Y SOLUCIONES INFORMÁTICAS POR ORDENADORES, INCLUIDOS LOS SERVICIOS DE POSTVENTA, ASISTENCIA TÉCNICA Y ACTUALIZACIÓN DE LOS PROGRAMAS, APLICACIONES Y SOLUCIONES INFORMÁTICAS; LA DISTRIBUCIÓN DE PRODUCTOS HARDWARE, SOFTWARE INCLUYENDO LA DISTRIBUCIÓN, COMERCIALIZACIÓN Y MANTENIMIENTO DE SISTEMAS, METODOLOGÍA Y TECNOLOGÍAS, SOFTWARE Y HARDWARE DE SERVICIOS, PARA TODO TIPO DE EMPRESAS PÚBLICAS Y PRIVADAS, YA SEA POR CUENTA PROPIA O POR CUENTA AJENA; LA PRESTACIÓN DE SERVICIOS DE CONSULTORÍA INFORMÁTICA Y DE SISTEMAS DE INFORMACIÓN; EL DISEÑO, ELABORACIÓN, PRODUCCIÓN, DISTRIBUCIÓN Y VENTA DE PRODUCTOS Y PROGRAMAS DE APLICACIÓN POR ORDENADORES; LA PRESTACIÓN DE SERVICIOS DE CONSULTORÍA Y DIAGNÓSTICO DE REDES Y SISTEMAS DE COMUNICACIÓN; LA EXPLOTACIÓN DE ORDENADORES Y APLICACIONES PROPIAS Y DE CLIENTES; LA CONSTITUCIÓN Y EXPLOTACIÓN DE CENTROS DE PRESTACIÓN DE SERVICIOS INFORMÁTICOS; LA FORMACIÓN E IMPARTICIÓN DE CURSOS Y SEMINARIOS DE INFORMÁTICA; EL DISEÑO, DESARROLLO, CONSTRUCCIÓN, INTEGRACIÓN Y MANTENIMIENTO DE REDES INFORMÁTICAS TANTO LOCALES COMO DE EXTENSA SUPERFICIE; LA INTEGRACIÓN DE DISTINTOS SISTEMAS DE TECNOLOGÍA INFORMÁTICA ASÍ COMO LA PRESTACIÓN DE SERVICIOS RELACIONADOS CON LOS MISMOS Y EL DISEÑO, DESARROLLO Y MARKETING DE NUEVOS SISTEMAS TECNOLÓGICOS DE INFORMACIÓN Y LA PRESTACIÓN DE SERVICIOS RELACIONADOS CON LOS MISMOS",
      "mainEntityOfPage": "https://www.contratacion.euskadi.eus/webkpe00-kperoc/es/ac71aBusquedaRegistrosWar/empresa/02074",
      "_links": {
        "self": {
          "name": "SPECIALIST COMPUTER CENTRES, S.L.",
          "href": "https://api.euskadi.eus/procurements/companies/02074"
        }
      }
    }
  ]
}