{
  "totalItems": 9042,
  "totalPages": 905,
  "currentPage": 313,
  "itemsOfPage": 10,
  "items": [
    {
      "name": "EXCAVACIONES PERU, S.L.",
      "registrationNumber": "03509",
      "identificationNumber": "B20643557",
      "address": "POL ERROTALDEA, Nº 2, AREA A-11 NAVE IND. 1",
      "location": {
        "postalCode": "20270",
        "municipality": "Anoeta",
        "county": "Gipuzkoa",
        "municipalityId": "010",
        "countyId": "20"
      },
      "economicActivities": [
        {
          "id": "1.502.1",
          "name": "Demoliciones y derribos en general",
          "_links": {
            "self": {
              "name": "Demoliciones y derribos en general",
              "href": "https://api.euskadi.eus/procurements/companies/economic-activities/1.502.1"
            }
          }
        },
        {
          "id": "1.722",
          "name": "Transporte de mercancías por carretera",
          "_links": {
            "self": {
              "name": "Transporte de mercancías por carretera",
              "href": "https://api.euskadi.eus/procurements/companies/economic-activities/1.722"
            }
          }
        },
        {
          "id": "1.833.2",
          "name": "Promoción de edificaciones",
          "_links": {
            "self": {
              "name": "Promoción de edificaciones",
              "href": "https://api.euskadi.eus/procurements/companies/economic-activities/1.833.2"
            }
          }
        },
        {
          "id": "1.861.1",
          "name": "Alquiler de viviendas",
          "_links": {
            "self": {
              "name": "Alquiler de viviendas",
              "href": "https://api.euskadi.eus/procurements/companies/economic-activities/1.861.1"
            }
          }
        }
      ],
      "certificateStartDate": "2025-08-28",
      "certificateEndDate": "2026-02-18",
      "object": "LA EXCAVACIÓN, CONSOLIDACIÓN Y PREPARACIÓN DE TERRENOS PARA LA CONSTRUCCIÓN DE EDIFICACIONES Y OBRAS PÚBLICAS Y OBRAS PRIVDAS, DEMOLICIONES Y DERRIBOS EN GENERAL ASÍ COMO EL TRANSPORTE DE MERCANCÍAS. ADEMÁS, PODRÁ REALIZAR LA COMPRA Y VENTA DE TODA CLASE DE TERRENOS RÚSTICOS O INDUSTRIALES Y SOLARES URBANOS, LA CONSTRUCCIÓN DE EDIFICACIONES DE CUALQUIER CLASE, LA CREACIÓN Y DESENVOLVIMIENTO DE URBANIZACIONES, LA CONSTRUCCIÓN DE OBRAS PÚBLICAS MEDIANTE CONTRATA DE ADMINISTRACIÓN DEL ESTADO, COMUNIDADES AUTÓNOMAS, PROVINCIAS, MUNICIPIOS Y ORGANISMOS PÚBLICOS EN GENERAL, Y LA PROMOCIÓN Y VENTA DE OBRAS POR EJECUCIÓN DIRECTA O MEDIANTE CONTRATA. EL ALQUILER DE MAQUINARIA INDUSTRIAL Y LA ACTIVIDAD DE TRANSPORTE DE MERCADERÍAS POR CARRETERA.",
      "mainEntityOfPage": "https://www.contratacion.euskadi.eus/webkpe00-kperoc/es/ac71aBusquedaRegistrosWar/empresa/03509",
      "_links": {
        "self": {
          "name": "EXCAVACIONES PERU, S.L.",
          "href": "https://api.euskadi.eus/procurements/companies/03509"
        }
      }
    },
    {
      "name": "AITOR RODRIGUEZ CORTAZAR",
      "registrationNumber": "08708",
      "identificationNumber": "16299234P",
      "address": "BAIONA 15 05 A",
      "location": {
        "postalCode": "01010",
        "municipality": "Vitoria-Gasteiz",
        "county": "Araba/Álava",
        "municipalityId": "059",
        "countyId": "01"
      },
      "economicActivities": [
        {
          "id": "1.505.6",
          "name": "Pintura, revestimientos y terminación y decoración de locales",
          "_links": {
            "self": {
              "name": "Pintura, revestimientos y terminación y decoración de locales",
              "href": "https://api.euskadi.eus/procurements/companies/economic-activities/1.505.6"
            }
          }
        },
        {
          "id": "2.824",
          "name": "Profesores de formación y perfeccionamiento profesional",
          "_links": {
            "self": {
              "name": "Profesores de formación y perfeccionamiento profesional",
              "href": "https://api.euskadi.eus/procurements/companies/economic-activities/2.824"
            }
          }
        }
      ],
      "certificateStartDate": "2025-08-28",
      "certificateEndDate": "2026-02-11",
      "object": "PROFESORES DE FORMACIÓN Y PERFECCIONAMIENTO PROFESIONAL. PINTURA, REVESTIMIENTOS Y TERMINACIÓN Y DECORACIÓN DE LOCALES.",
      "mainEntityOfPage": "https://www.contratacion.euskadi.eus/webkpe00-kperoc/es/ac71aBusquedaRegistrosWar/empresa/08708",
      "_links": {
        "self": {
          "name": "AITOR RODRIGUEZ CORTAZAR",
          "href": "https://api.euskadi.eus/procurements/companies/08708"
        }
      }
    },
    {
      "name": "BAZZANIA S.C., INVESTIGACIÓN Y GESTIÓN EN BIODIVERSIDAD",
      "registrationNumber": "07288",
      "identificationNumber": "J01457266",
      "address": "Honduras 1, 3º F",
      "location": {
        "postalCode": "01009",
        "municipality": "Vitoria-Gasteiz",
        "county": "Araba/Álava",
        "municipalityId": "059",
        "countyId": "01"
      },
      "economicActivities": [
        {
          "id": "1.936",
          "name": "Investigación científica y técnica",
          "_links": {
            "self": {
              "name": "Investigación científica y técnica",
              "href": "https://api.euskadi.eus/procurements/companies/economic-activities/1.936"
            }
          }
        }
      ],
      "certificateStartDate": "2025-08-28",
      "certificateEndDate": "2026-02-19",
      "object": "LA INVESTIGACIÓN, CONSERVACIÓN, GESTIÓN Y DIFUSIÓN EN MATERIA DE BIODIVERSIDAD Y HÁBITATS, EN CUALQUIERA DE SUS ASPECTOS, INCLUYENDO TANTO EL MEDIO NATURAL COMO EL ESTUDIO Y TRATAMIENTO DE COLECCIONES BIOLÓGICAS CIENTÍFICAS Y MUSEOLÓGICAS (HERBARIOS, COLECCIONES ZOOLÓGICAS, PALEONTOLÓGICAS, ...)",
      "mainEntityOfPage": "https://www.contratacion.euskadi.eus/webkpe00-kperoc/es/ac71aBusquedaRegistrosWar/empresa/07288",
      "_links": {
        "self": {
          "name": "BAZZANIA S.C., INVESTIGACIÓN Y GESTIÓN EN BIODIVERSIDAD",
          "href": "https://api.euskadi.eus/procurements/companies/07288"
        }
      }
    },
    {
      "name": "ABERSIS, S.L.",
      "registrationNumber": "09285",
      "identificationNumber": "B66198763",
      "address": "C/Rossinyol 38",
      "location": {
        "postalCode": "08191",
        "municipality": "Rubí",
        "county": "Barcelona",
        "municipalityId": "184",
        "countyId": "08"
      },
      "economicActivities": [
        {
          "id": "1.849.9",
          "name": "Otros servicios independientes n.c.o.p",
          "_links": {
            "self": {
              "name": "Otros servicios independientes n.c.o.p",
              "href": "https://api.euskadi.eus/procurements/companies/economic-activities/1.849.9"
            }
          }
        }
      ],
      "certificateStartDate": "2025-08-28",
      "certificateEndDate": "2026-02-28",
      "object": "- COMERCIO AL POR MAYOR Y AL POR MENOR. DISTRIBUCIÓN COMERCIAL. IMPORTACIÓN Y EXPORTACIÓN. - PRESTACIÓN DE SERVICIOS. ACTIVIDADES DE GESTIÓN Y ADMINISTRACIÓN. SERVICIOS EDUCATIVOS, SANITARIOS, DE OCIO Y ENTRETENIMIENTO. - TRANSPORTE Y ALMACENAMIENTO. - INFORMACIÓN Y COMUNICACIONES. ",
      "mainEntityOfPage": "https://www.contratacion.euskadi.eus/webkpe00-kperoc/es/ac71aBusquedaRegistrosWar/empresa/09285",
      "_links": {
        "self": {
          "name": "ABERSIS, S.L.",
          "href": "https://api.euskadi.eus/procurements/companies/09285"
        }
      }
    },
    {
      "name": "SCHNEIDER MEDIZIN, S.L.",
      "registrationNumber": "08714",
      "identificationNumber": "B82416264",
      "address": "Av. España 44, 2 1D",
      "location": {
        "postalCode": "28220",
        "municipality": "Majadahonda",
        "county": "Madrid",
        "municipalityId": "080",
        "countyId": "28"
      },
      "economicActivities": [
        {
          "id": "1.619.2",
          "name": "Venta al por mayor de aparatos e instrumentos médicos, ortopédicos, ópticos",
          "_links": {
            "self": {
              "name": "Venta al por mayor de aparatos e instrumentos médicos, ortopédicos, ópticos",
              "href": "https://api.euskadi.eus/procurements/companies/economic-activities/1.619.2"
            }
          }
        }
      ],
      "certificateStartDate": "2025-08-28",
      "certificateEndDate": "2026-02-27",
      "object": "COMERCIO MAYOR Y MENOR, REPARACIÓN Y DISTRIBUCIÓN Y ALMACENAMIENTO DE APARATOS E INSTRUMENTOS MÉDICOS, ORTOPÉDICOS, ÓPTICOS Y FOTOGRÁFICOS Y SUS ACCESORIOS.",
      "mainEntityOfPage": "https://www.contratacion.euskadi.eus/webkpe00-kperoc/es/ac71aBusquedaRegistrosWar/empresa/08714",
      "_links": {
        "self": {
          "name": "SCHNEIDER MEDIZIN, S.L.",
          "href": "https://api.euskadi.eus/procurements/companies/08714"
        }
      }
    },
    {
      "name": "VIATRIS PHARMACEUTICALS, S.L.",
      "registrationNumber": "06394",
      "identificationNumber": "B62735675",
      "address": "Calle General Aranaz, 86",
      "location": {
        "postalCode": "28207",
        "municipality": "Madrid",
        "county": "Madrid",
        "municipalityId": "079",
        "countyId": "28"
      },
      "economicActivities": [
        {
          "id": "1.614.1",
          "name": "Venta al por mayor de productos farmacéuticos y medicamentos",
          "_links": {
            "self": {
              "name": "Venta al por mayor de productos farmacéuticos y medicamentos",
              "href": "https://api.euskadi.eus/procurements/companies/economic-activities/1.614.1"
            }
          }
        }
      ],
      "certificateStartDate": "2025-08-28",
      "certificateEndDate": "2026-02-28",
      "object": "A) IMPORTAR, EXPORTAR, COMPRAR, VENDER, LICENCIAR, COMERCIALIZAR, DISTRIBUIR EN NOMBRE Y POR CUENTA PROPIA O COMO REPRESENTANTE DE VENTAS O COMISIONISTA, ESPECIALIDADES FARMACÉUTICAS, PRODUCTOS FARMACÉUTICOS, DIETÉTICOS Y DE COSMÉTICA, DISPOSITIVOS MÉDICOS Y OTROS PRODUCTOS Y SERVICIOS RELACIONADOS. B) ACTUAR COMO SOCIEDAD DE CARTERA PARA ENTIDADES QUE IMPORTAN, EXPORTAN, COMPRAN, VENDEN, LICENCIAN, COMERCIALIZAN, DISTRIBUYEN Y MANTIENEN ESPECIALIDADES FARMACÉUTICAS, PRODUCTOS FARMACÉUTICOS, DIETÉTICOS Y DE COSMÉTICA, DISPOSITIVOS MÉDICOS Y OTROS PRODUCTOS Y SERVICIOS RELACIONADOS.",
      "mainEntityOfPage": "https://www.contratacion.euskadi.eus/webkpe00-kperoc/es/ac71aBusquedaRegistrosWar/empresa/06394",
      "_links": {
        "self": {
          "name": "VIATRIS PHARMACEUTICALS, S.L.",
          "href": "https://api.euskadi.eus/procurements/companies/06394"
        }
      }
    },
    {
      "name": "TALLERES CHAPIME, S.L.",
      "registrationNumber": "08012",
      "identificationNumber": "B20172011",
      "address": "SAN ANDRES AUZOA, 5",
      "location": {
        "postalCode": "20500",
        "municipality": "Arrasate / Mondragón",
        "county": "Gipuzkoa",
        "municipalityId": "055",
        "countyId": "20"
      },
      "economicActivities": [
        {
          "id": "1.654.1",
          "name": "Venta al por menor de vehículos terrestres",
          "_links": {
            "self": {
              "name": "Venta al por menor de vehículos terrestres",
              "href": "https://api.euskadi.eus/procurements/companies/economic-activities/1.654.1"
            }
          }
        },
        {
          "id": "1.691.2",
          "name": "Reparación de vehículos automóviles, bicicletas y otros vehículos",
          "_links": {
            "self": {
              "name": "Reparación de vehículos automóviles, bicicletas y otros vehículos",
              "href": "https://api.euskadi.eus/procurements/companies/economic-activities/1.691.2"
            }
          }
        },
        {
          "id": "1.861.2",
          "name": "Alquiler de locales industriales y otros alquileres n.c.o.p",
          "_links": {
            "self": {
              "name": "Alquiler de locales industriales y otros alquileres n.c.o.p",
              "href": "https://api.euskadi.eus/procurements/companies/economic-activities/1.861.2"
            }
          }
        }
      ],
      "certificateStartDate": "2025-08-28",
      "certificateEndDate": "2026-02-26",
      "object": "COMPRAVENTA AL POR MAYOR Y AL POR MENOR DE VEHÍCULOS TERRESTRES NUEVOS Y DE OCASIÓN. VENTA AL POR MAYOR Y AL POR MENOR DE LUBRICANTES, ACCESORIOS, RECAMBIOS, Y HERRAMIENTAS PARA VEHÍCULOS TERRESTRES. VENTA AL POR MAYOR Y AL POR MENOR DE CUBIERTAS, BANDAS O BANDEJAS Y CÁMARAS DE AIRE PARA TODA CLASE DE VEHÍCULOS. COMERCIO AL POR MENOR Y AL POR MAYOR DE COMBUSTIBLE Y LUBRICANTES DE TODAS CLASES INCLUYENDO GASES Y CARBURANTES. REPARACIÓN, REVISIÓN Y MANTENIMIENTO DE TODO TIPO DE VEHÍCULOS TERRESTRES. ALQUILER DE AUTOMÓVILES SIN CONDUCTOR PARA EL TRANSPORTE DE PERSONAS Y/O MERCANCÍAS. CESIÓN DE VEHÍCULOS DE SUSTITUCIÓN PARA CLIENTES QUE TENGAN SU VEHÍCULO EN EL TALLER O ESTÉN ESPERANDO LA LLEGADA DE SU NUEVO VEHÍCULO. COMPRAVENTA, ARRIENDO Y EXPLOTACIÓN DE FINCAS RÚSTICAS Y URBANAS, LA ADQUISICIÓN Y EXPLOTACIÓN DE CONCESIONES ADMINISTRATIVAS, LA URBANIZACIÓN DE FINCAS EN GENERAL Y LA CONSTITUCIÓN DE INMUEBLES Y LA EXPLOTACIÓN DE LOS MISMOS.",
      "mainEntityOfPage": "https://www.contratacion.euskadi.eus/webkpe00-kperoc/es/ac71aBusquedaRegistrosWar/empresa/08012",
      "_links": {
        "self": {
          "name": "TALLERES CHAPIME, S.L.",
          "href": "https://api.euskadi.eus/procurements/companies/08012"
        }
      }
    },
    {
      "name": "SOPRA STERIA EUSKADI, S.L.",
      "registrationNumber": "00879",
      "identificationNumber": "B01101732",
      "address": "EDIFICIO DEBA. Portal de Gamarra, 1 Oficina 412",
      "location": {
        "postalCode": "01013",
        "municipality": "Vitoria-Gasteiz",
        "county": "Araba/Álava",
        "municipalityId": "059",
        "countyId": "01"
      },
      "economicActivities": [
        {
          "id": "1.845",
          "name": "Explotación electrónica por cuenta de terceros",
          "_links": {
            "self": {
              "name": "Explotación electrónica por cuenta de terceros",
              "href": "https://api.euskadi.eus/procurements/companies/economic-activities/1.845"
            }
          }
        },
        {
          "id": "1.849.9",
          "name": "Otros servicios independientes n.c.o.p",
          "_links": {
            "self": {
              "name": "Otros servicios independientes n.c.o.p",
              "href": "https://api.euskadi.eus/procurements/companies/economic-activities/1.849.9"
            }
          }
        }
      ],
      "certificateStartDate": "2025-08-28",
      "certificateEndDate": "2026-02-21",
      "classification": [
        {
          "id": "S",
          "name": "Servicios",
          "groups": [
            {
              "id": "V",
              "subgroups": [
                {
                  "id": "05",
                  "name": "Explotación y control de sistemas informáticos e infraestructuras telemáticas.",
                  "categories": [
                    {
                      "id": "5",
                      "name": "Mas de 1.200.000",
                      "_links": {
                        "self": {
                          "name": "Mas de 1.200.000",
                          "href": "https://api.euskadi.eus/procurements/companies/types/S/categories/5"
                        }
                      }
                    }
                  ],
                  "_links": {
                    "self": {
                      "name": "Explotación y control de sistemas informáticos e infraestructuras telemáticas.",
                      "href": "https://api.euskadi.eus/procurements/companies/types/S/groups/V/subgroups/05"
                    }
                  }
                }
              ],
              "_links": {
                "self": {
                  "href": "https://api.euskadi.eus/procurements/companies/types/S/groups/V"
                }
              }
            }
          ],
          "_links": {
            "self": {
              "name": "Servicios",
              "href": "https://api.euskadi.eus/procurements/companies/types/S"
            }
          }
        }
      ],
      "object": "1. LA PRESTACIÓN DE SERVICIOS DE CONSULTORÍA DE ALTO NIVEL EN LAS ÁREAS RELACIONADAS CON LA UTILIZACIÓN DE LAS TECNOLOGÍAS DE LA INFORMACIÓN EN SU MÁS AMPLIA ACEPCIÓN. ESTOS SERVICIOS PUEDEN ABARCAR, ENTRE OTRAS, LAS SIGUIENTES ÁREAS DE ACTIVIDAD: A) ESTUDIOS DE OPORTUNIDAD CON OBJETO DE RESOLVER DETERMINADA PROBLEMÁTICA EMPRESARIAL CON UN ENFOQUE DE MÁXIMA RENTABILIDAD ECONÓMICA POR EL USO ADECUADO DE LAS TECNOLOGÍAS DE LA INFORMACIÓN. B) ESTUDIOS DE ESTRATEGIA EMPRESARIAL ANALIZANDO EL POSICIONAMIENTO GLOBAL O DETERMINADAS ÁREAS DE NEGOCIO DE UNA EMPRESA CON RELACIÓN A SU COMPETENCIA CON DETALLE DE LOS PROYECTOS CUYA REALIZACIÓN SUMINISTRARÍA AL CLIENTE VENTAJAS COMPETITIVAS. DICHOS PROYECTOS UTILIZARÍAN LAS TECNOLOGÍAS DE LA INFORMACIÓN DE LA MANERA MÁS ADECUADA PARA LOGRAR DICHO OBJETIVO. C) EJECUCIÓN E IMPLANTACIÓN DE LOS PROYECTOS RECOMENDADOS UTILIZANDO AL MÁXIMO LOS RECURSOS MATERIALES Y HUMANOS DE LOS QUE DISPONGA EL CLIENTE. PARA LOS CASOS EN QUE DICHOS RECURSOS RESULTEN INSUFICIENTES, LA SOCIEDAD LOS COMPLEMENTARÁ CON RECURSOS PROPIOS O SUBCONTRATADOS PERO ASUMIENDO, EN CUALQUER CASO, RESPONSABILIDAD COMPLETA SOBRE EL PROYECTO. 2. LA PRESTACIÓN DE SERVICIOS DE GESTIÓN DEL PERSONAL INFORMÁTICO DEL CLIENTE. DICHOS SERVICIOS PUEDEN CUBRIR LAS SIGUIENTES ÁREAS DE ACTIVIDAD: A) PREVISIÓN DE LA IDONEIDAD DE LA ESTRUCTURA HUMANA ASIGNADA A LA FUNCIÓN DE LAS TECNOLOGÍAS DE LA INFORMACIÓN, LAS CONCLUSIONES DE DICHA REVISIÓN PUEDEN SER: - PROPUESTAS DE RESPONSABILIZARSE COMPLETAMENTE DE DICHA GESTIÓN; - PROPUESTA DE CONTRATACIONES EXTERNAS PARA LAS FUNCIONES EN LAS QUE LA ACTUAL DOTACIÓN NO ES ADECUADA . POSIILIDAD DE RESPONSABILIZARSE COMPLETAMENTE DE DICHA GESTIÓN; - PROPUESTA PARA LA RECOLOCACIÓN EN EL MERCADO EXTERNO DE LOS EXCEDENTES. POSIBILIDAD DE RESPONSABILIZARSE COMPLETAMENTE DE DICHA GESTIÓN. B) REVISIÓN DE LOS PROCEDIMIENTOS DE RELACIÓN DE LA FUNCIÓN RESPONSABLE DE LAS TECNOLOGÍAS DE LA INFORMACIÓN CON LAS RESTANTES FUNCIONES DE LA COMPAÑÍA. C) FORMACIÓN DE PERSONAL. LAS ACCIONES ANTERIORMENTE ENUMERADAS PUEDEN SER COMPLEMENTADAS CON PLANES GLOBALES DE FORMACIÓN QUE PUEDEN AFECTAR DESDE LOS NIVELES GERENCIALES DE LA EMPRESA A LAS ÁREAS MÁS ESPECIALIZADAS EN EL MANEJO DE LAS TECNOLOGÍAS DE LA INFORMACIÓN. 3. LA PRESTACIÓN DE SERVICIOS INFORMÁTICOS. SE CITAN EN CONCRETO LOS SIGUIENTES: A) TODAS LAS ACTIVIDADES RELACIONADAS CON LA PRESTACIÓN DE SERVICIOS DE FORMACIÓN INFORMÁTICA, INCLUYENDO LA ENSEÑANZA ASISTIDA POR ORDENADOR. B) PRESTACIÓN DE SERVICIOS DE CENTRO DE CÁLCULO EN ACTIVIDADES DE VALOR AÑADIDO GLOBAL COMO PUEDEN SER LAS REDES DE VALOR AÑADIDO O LOS CENTROS DE BACKUP. C) ASESORAMIENTO, ASISTENCIA TÉCNICA E INGENIERÍA DE SISTEMAS EN EL SECTOR DE LA INFORMÁTICA. D) SERVICIOS DE CAPTURA DE INFORMACIÓN POR MEDIOS ELECTRÓNICOS, INFORMÁTICOS Y DE TELECOMUNICACIONES. E) SERVICIOS DE EXPLOTACIÓN Y CONTROL DE SISTEMAS INFORMÁTICOS E INFRAESTRECTURAS TELEMÁTICAS. F) SERVICIOS INFORMÁTICOS DE CONSULTORÍA RELACIONADOS CON LA EVALUACIÓN Y CERTIFICACIÓN TECNOLÓGICA, EN CUANTO A METODOLOGÍAS PARA EL DESARRROLLO Y MANTENIMIENTO DE APLICATIVOS E INSTALACIONES O INFRAESTRUCTURAS. G) SERVICIOS DE MANTENIMIENTO Y REPARACIÓN DE EQUIPOS E INSTALACIONES INFORMÁTICAS Y DE TELECOMUNICACIONES. H) LA ELABORACIÓN, DESARROLLO, MANTENIMIENTO Y COMERCIALIZACIÓN DE PROGRAMAS DE ORDENADOR Y DEMÁS APLICATIVOS RELACIONADOS CON LAS TECNOLOGÍAS DE LA INFORMACIÓN, PROGRAMAS-PRODUCTOS, SOLUCIONES Y APLICACIONES CON INCLUSIÓN O NO DE EQUIPOS. I) OUTSOURCING DE APLICACIONES DE INTEGRACIÓN DE SOLUCIONES Y DESARROLLO Y MANTENIMIENTO EN EL CICLO COMPLETO DE LAS APLICACIONES, EN RÉGIMEN DE OUTSOURCING (SERVICIOS, METODOLOGÍAS, MÉTRICAS, TECNOLOGÍAS). J) INTEGRACIÓN DE SISTEMAS Y SOLUCIONES, TANTO PROPIOS COMO AJENOS (SOCIOS TECNOLÓGICOS) EN SU MÁS AMPLIA ACEPCIÓN, EN CUANTO AL ALCANCE DEL SERVICIO\n",
      "mainEntityOfPage": "https://www.contratacion.euskadi.eus/webkpe00-kperoc/es/ac71aBusquedaRegistrosWar/empresa/00879",
      "_links": {
        "self": {
          "name": "SOPRA STERIA EUSKADI, S.L.",
          "href": "https://api.euskadi.eus/procurements/companies/00879"
        }
      }
    },
    {
      "name": "ATE ASESORES DE GESTIÓN, S.A.",
      "registrationNumber": "02805",
      "identificationNumber": "A20038618",
      "address": "PLAZA DEL TXOFRE, 4",
      "location": {
        "postalCode": "20001",
        "municipality": "Donostia / San Sebastián",
        "county": "Gipuzkoa",
        "municipalityId": "069",
        "countyId": "20"
      },
      "economicActivities": [
        {
          "id": "1.842",
          "name": "Servicios financieros y contables",
          "_links": {
            "self": {
              "name": "Servicios financieros y contables",
              "href": "https://api.euskadi.eus/procurements/companies/economic-activities/1.842"
            }
          }
        }
      ],
      "certificateStartDate": "2025-08-28",
      "certificateEndDate": "2026-02-22",
      "object": "EL ASESORAMIENTO Y ORGANIZACIÓN DE EMPRESAS, LA EXPLOTACION DE UN CENTRO DE CÁLCULO, LA ADMINISTRACIÓN DE EMPRESAS.",
      "mainEntityOfPage": "https://www.contratacion.euskadi.eus/webkpe00-kperoc/es/ac71aBusquedaRegistrosWar/empresa/02805",
      "_links": {
        "self": {
          "name": "ATE ASESORES DE GESTIÓN, S.A.",
          "href": "https://api.euskadi.eus/procurements/companies/02805"
        }
      }
    },
    {
      "name": "LANIT CONSULTING, S.L.",
      "registrationNumber": "05666",
      "identificationNumber": "B95826004",
      "address": "Poligono Igeltzera C/ Aita Gotzon 40  bis  2ª planta",
      "location": {
        "postalCode": "48610",
        "municipality": "Urduliz",
        "county": "Bizkaia",
        "municipalityId": "089",
        "countyId": "48"
      },
      "economicActivities": [
        {
          "id": "1.847",
          "name": "Servicios de consultoría",
          "_links": {
            "self": {
              "name": "Servicios de consultoría",
              "href": "https://api.euskadi.eus/procurements/companies/economic-activities/1.847"
            }
          }
        }
      ],
      "certificateStartDate": "2025-08-28",
      "certificateEndDate": "2026-02-19",
      "object": "LA PRESTACIÓN DE SERVICIOS DE CONSULTORÍA DE NEGOCIO Y GESTIÓN CONSULTORÍA TECNOLÓGICA, AUDITORIA, ANÁLISIS Y DISEÑO DE SISTEMAS TECNOLÓGICOS, PROCESOS Y ACTIVIDADES RELACIONADAS CON LAS TECNOLOGÍAS DE LA INFORMACIÓN Y LAS COMUNICACIONES",
      "mainEntityOfPage": "https://www.contratacion.euskadi.eus/webkpe00-kperoc/es/ac71aBusquedaRegistrosWar/empresa/05666",
      "_links": {
        "self": {
          "name": "LANIT CONSULTING, S.L.",
          "href": "https://api.euskadi.eus/procurements/companies/05666"
        }
      }
    }
  ]
}