{
  "totalItems": 9042,
  "totalPages": 905,
  "currentPage": 318,
  "itemsOfPage": 10,
  "items": [
    {
      "name": "KOMO COMUNICACION CORPORATIVA, S.L.",
      "registrationNumber": "09819",
      "identificationNumber": "B01532159",
      "address": "Plaza del Renacimiento 9-2º ofic. 6",
      "location": {
        "postalCode": "01004",
        "municipality": "Vitoria-Gasteiz",
        "county": "Araba/Álava",
        "municipalityId": "059",
        "countyId": "01"
      },
      "economicActivities": [
        {
          "id": "1.844",
          "name": "Servicios de publicidad, relaciones públicas y similares",
          "_links": {
            "self": {
              "name": "Servicios de publicidad, relaciones públicas y similares",
              "href": "https://api.euskadi.eus/procurements/companies/economic-activities/1.844"
            }
          }
        },
        {
          "id": "1.989.2",
          "name": "Servicios de organización de congresos, asambleas y similares",
          "_links": {
            "self": {
              "name": "Servicios de organización de congresos, asambleas y similares",
              "href": "https://api.euskadi.eus/procurements/companies/economic-activities/1.989.2"
            }
          }
        }
      ],
      "certificateStartDate": "2025-08-26",
      "certificateEndDate": "2026-02-26",
      "object": "CONSULTORÍA Y ASESORÍA DE COMUNICACIÓN Y PROTOCOLO DIRIGIDA A LA GESTIÓN DE ACTIVOS DE COMUNICACIÓN DE LAS EMPRESAS PRIVADAS, ENTIDADES PÚBLICAS Y ASOCIACIONES. ELABORACIÓN DE PLANES Y ESTRATEGIAS INTEGRALES DE COMUNICACIÓN Y PROTOCOLO. ORGANIZACIÓN DE EVENTOS, CONGRESOS, JORNADAS PROFESIONALES, WORKSHOPS, ACCIONES OUTDOOR PARA EMPRESAS. DISEÑO DE ESTRATEGIAS DE IMAGEN, COMUNICACIÓN Y MARKETING A TRAVÉS DE DIFERENTES SOPORTES (CAMPAÑAS DE PUBLICIDAD, MARKETING DIRECTO, MARKETING RELACIONAL, MARKETING MOBILE, STREET MARKETING, PRESENTACIONES DE PRODUCTO…) DISEÑO DE ESTRATEGIAS DE RELACIONES PÚBLICAS CON EL OBJETIVO DE CONSTRUIR LAS HERRAMIENTAS ADECUADAS PARA POSICIONAR UNA IMAGEN CORPORATIVA, MARCA O PRODUCTO DE EMPRESAS E INSTITUCIONES PÚBLICAS. ACCIONES/EVENTOS DE PROMOCIÓN EN VÍA PÚBLICA O ESPACIOS PÚBLICOS/PRIVADOS DIRIGIDOS A LA DIFUSIÓN Y PROMOCIÓN DE PRODUCTOS, MARCAS O ENTIDADES DE DIFERENTE SIGNO. ORGANIZACIÓN DE ESPECTÁCULOS FESTIVOS, CONCIERTOS DE MÚSICA, REPRESENTACIONES ARTÍSTICAS (TEATRO, DANZA, ETC.) O DEPORTIVAS. EDICIÓN DE PUBLICACIONES, REVISTAS, PERIÓDICOS. ELABORACIÓN DE PÁGINAS WEB, BLOGS Y REDES SOCIALES. ELABORACIÓN DE CONTENIDOS PARA MEDIOS AUDIOVISUALES, GESTIÓN DE VÍDEOS CORPORATIVOS, LOCUCIONES RADIOFÓNICAS. ACCIONES DE RELACIONES INSTITUCIONALES, REPRESENTACIÓN DE EMPRESAS O INSTITUCIONES Y GESTIÓN DEL PROTOCOLO. ACTIVIDADES DE FORMACIÓN RELACIONADA CON LA COMUNICACIÓN.",
      "mainEntityOfPage": "https://www.contratacion.euskadi.eus/webkpe00-kperoc/es/ac71aBusquedaRegistrosWar/empresa/09819",
      "_links": {
        "self": {
          "name": "KOMO COMUNICACION CORPORATIVA, S.L.",
          "href": "https://api.euskadi.eus/procurements/companies/09819"
        }
      }
    },
    {
      "name": "CATALANA DE INFORMATICA 90, S.L.",
      "registrationNumber": "06367",
      "identificationNumber": "B59100826",
      "address": "P.E. COLONIA GÜELL - ED. FILATIURA B5",
      "location": {
        "postalCode": "08690",
        "municipality": "Santa Coloma de Cervelló",
        "county": "Barcelona",
        "municipalityId": "244",
        "countyId": "08"
      },
      "economicActivities": [
        {
          "id": "1.659.2",
          "name": "Venta al por menor de muebles de oficina y máquinas y equipos de oficina",
          "_links": {
            "self": {
              "name": "Venta al por menor de muebles de oficina y máquinas y equipos de oficina",
              "href": "https://api.euskadi.eus/procurements/companies/economic-activities/1.659.2"
            }
          }
        }
      ],
      "certificateStartDate": "2025-08-26",
      "certificateEndDate": "2026-02-26",
      "object": "LA COMPRAVENTA DE SISTEMAS INFORMÁTICOS, ORDENADORES, DE SUS ACCESORIOS Y COMPLEMENTOS, LA INSTALACIÓN, REPARACIÓN Y CONSERVACIÓN DE LOS MISMOS. EL RENTING TECNOLÓGICO DE SISTEMAS INFORMÁTICOS, EN CALIDAD DE ARRENDADOR",
      "mainEntityOfPage": "https://www.contratacion.euskadi.eus/webkpe00-kperoc/es/ac71aBusquedaRegistrosWar/empresa/06367",
      "_links": {
        "self": {
          "name": "CATALANA DE INFORMATICA 90, S.L.",
          "href": "https://api.euskadi.eus/procurements/companies/06367"
        }
      }
    },
    {
      "name": "SERVICIOS DOCUMENTALES GESDUCON, S.L.",
      "registrationNumber": "08517",
      "identificationNumber": "B95545331",
      "address": "POLIGONO INDUSTRIAL EL PARAMO B2",
      "location": {
        "postalCode": "48800",
        "municipality": "Balmaseda",
        "county": "Bizkaia",
        "municipalityId": "090",
        "countyId": "48"
      },
      "economicActivities": [
        {
          "id": "1.622",
          "name": "Venta al por mayor de otros productos de recuperación",
          "_links": {
            "self": {
              "name": "Venta al por mayor de otros productos de recuperación",
              "href": "https://api.euskadi.eus/procurements/companies/economic-activities/1.622"
            }
          }
        }
      ],
      "certificateStartDate": "2025-08-26",
      "certificateEndDate": "2026-02-26",
      "object": "LA PRESTACIÓN DE SERVICIOS DE: A).- RECOGIDA, TRANSPORTE Y DESTRUCCIÓN CONFIDENCIAL DE LA INFORMACIÓN. B).- CONVERSIÓN A FORMATO DIGITAL DE LA INFORMACIÓN DE OTROS SOPORTES. (ESCANEO, DIGILITACIÓN, ETC). C).- SERVICIOS RELACIONADOS CON LAS NUEVAS TECNOLOGÍAS DE LA INFORMACIÓN, GENERADORES DE EMPLEO PARA PERSONAS CON ALGÚN TIPO DE DISCAPACIDAD PREFERENTEMENTE.",
      "mainEntityOfPage": "https://www.contratacion.euskadi.eus/webkpe00-kperoc/es/ac71aBusquedaRegistrosWar/empresa/08517",
      "_links": {
        "self": {
          "name": "SERVICIOS DOCUMENTALES GESDUCON, S.L.",
          "href": "https://api.euskadi.eus/procurements/companies/08517"
        }
      }
    },
    {
      "name": "TALLERES BI-BAT, S.L.",
      "registrationNumber": "09837",
      "identificationNumber": "B01573492",
      "address": "C/ A, nº 4 bajo Pol. Los Llanos",
      "location": {
        "postalCode": "01230",
        "municipality": "Iruña Oka/Iruña de Oca",
        "county": "Araba/Álava",
        "municipalityId": "901",
        "countyId": "01"
      },
      "economicActivities": [
        {
          "id": "1.654.1",
          "name": "Venta al por menor de vehículos terrestres",
          "_links": {
            "self": {
              "name": "Venta al por menor de vehículos terrestres",
              "href": "https://api.euskadi.eus/procurements/companies/economic-activities/1.654.1"
            }
          }
        },
        {
          "id": "1.691.2",
          "name": "Reparación de vehículos automóviles, bicicletas y otros vehículos",
          "_links": {
            "self": {
              "name": "Reparación de vehículos automóviles, bicicletas y otros vehículos",
              "href": "https://api.euskadi.eus/procurements/companies/economic-activities/1.691.2"
            }
          }
        }
      ],
      "certificateStartDate": "2025-08-26",
      "certificateEndDate": "2026-02-26",
      "object": "LA REPARACIÓN DE VEHÍCULOS Y MAQUINARIA DE AUTOMOCIÓN EN GENERAL Y LA REPRESENTACIÓN O VENTA DE VEHÍCULOS Y ACCESORIOS DE TODAS CLASES PARA LOS MISMOS.",
      "mainEntityOfPage": "https://www.contratacion.euskadi.eus/webkpe00-kperoc/es/ac71aBusquedaRegistrosWar/empresa/09837",
      "_links": {
        "self": {
          "name": "TALLERES BI-BAT, S.L.",
          "href": "https://api.euskadi.eus/procurements/companies/09837"
        }
      }
    },
    {
      "name": "LASER AUDIOVISUALES, S.L.",
      "registrationNumber": "04869",
      "identificationNumber": "B75053470",
      "address": "FERNANDO MUGICA, 13 - 1º /  LOCAL 5",
      "location": {
        "postalCode": "20018",
        "municipality": "Donostia / San Sebastián",
        "county": "Gipuzkoa",
        "municipalityId": "069",
        "countyId": "20"
      },
      "economicActivities": [
        {
          "id": "1.355.2",
          "name": "Edición de soportes grabados de sonido, vídeo y de informática",
          "_links": {
            "self": {
              "name": "Edición de soportes grabados de sonido, vídeo y de informática",
              "href": "https://api.euskadi.eus/procurements/companies/economic-activities/1.355.2"
            }
          }
        },
        {
          "id": "1.653.2",
          "name": "Venta al por menor de material y aparatos eléctricos, electrodomésticos y cocina",
          "_links": {
            "self": {
              "name": "Venta al por menor de material y aparatos eléctricos, electrodomésticos y cocina",
              "href": "https://api.euskadi.eus/procurements/companies/economic-activities/1.653.2"
            }
          }
        },
        {
          "id": "1.859",
          "name": "Alquiler de otros bienes muebles n.c.o.p. (sin personal permanente)",
          "_links": {
            "self": {
              "name": "Alquiler de otros bienes muebles n.c.o.p. (sin personal permanente)",
              "href": "https://api.euskadi.eus/procurements/companies/economic-activities/1.859"
            }
          }
        }
      ],
      "certificateStartDate": "2025-08-26",
      "certificateEndDate": "2026-02-26",
      "object": "EL ALQUILER E INSTALACIÓN DE MEDIOS AUDIOVISUALES",
      "mainEntityOfPage": "https://www.contratacion.euskadi.eus/webkpe00-kperoc/es/ac71aBusquedaRegistrosWar/empresa/04869",
      "_links": {
        "self": {
          "name": "LASER AUDIOVISUALES, S.L.",
          "href": "https://api.euskadi.eus/procurements/companies/04869"
        }
      }
    },
    {
      "name": "HEZILAN, S.L.",
      "registrationNumber": "02145",
      "identificationNumber": "B01280510",
      "address": "C/ ZAPATERÍA, Nº 72.",
      "location": {
        "postalCode": "01001",
        "municipality": "Vitoria-Gasteiz",
        "county": "Araba/Álava",
        "municipalityId": "059",
        "countyId": "01"
      },
      "economicActivities": [
        {
          "id": "1.952",
          "name": "Asistencia y servicios sociales en centros no residenciales",
          "_links": {
            "self": {
              "name": "Asistencia y servicios sociales en centros no residenciales",
              "href": "https://api.euskadi.eus/procurements/companies/economic-activities/1.952"
            }
          }
        }
      ],
      "certificateStartDate": "2025-08-26",
      "certificateEndDate": "2026-02-26",
      "object": "LA PRESTACIÓN DE SERVICIOS PARA LA ATENCIÓN, CUIDADO Y EDUCACIÓN A MENORES EN SU DOMICILIO, ASÍ COMO LA GESTIÓN DE PROGRAMAS SOCIALES Y EDUCATIVOS DESTINADOS A MENORES Y LA GESTIÓN DE CENTROS DONDE ESTÉN LOS MENORES; LA PRESTACIÓN DE SERVICIOS PARA LA ATENCIÓN, CUIDADO, ACOMPAÑAMIENTO Y EDUCACIÓN A PERSONAS ANCIANAS, DISCAPACITADOS FÍSICOS Y PSÍQUICOS, DISMINUÍDOS MENTALES EN DIFERENTES AMBITOS DE ACTUACIÓN: DOMICILIO, CENTRO DE DÍA, RESIDENCIA, HOGARES EDUCATIVOS, PISOS PARA LA AUTONOMÍA; ASÍ COMO LA GESTIÓN DE DICHOS RECURSOS RESIDENCIALES; LA PRESTACIÓN DE SERVICIOS PARA LA GESTIÓN DE PROGRAMAS SOCIALES Y EDUCATIVOS DIRIGIDOS A COLECTIVOS SOCIALMENTE DESFAVORECIDOS: TOXICÓMANOS, MUJERES EN RIESGO SOCIAL, MINORÍAS ÉTNICAS, EMIGRANTES, EN CENTROS RESIDENCIALES; LA PRESTACIÓN DE SERVICIOS PARA LA REALIZACIÓN DE CURSOS DE FORMACIÓN, ASESORÍA E INFORMACIÓN A SECTORES SOCIALES IMPLICADOS EN TAREAS SOCIO-EDUCATIVAS, COMO GRUPOS DE PROFESORADOS, PADRES, AGENTES SOCIALES, EDUCADORES; LA PRESTACIÓN DE SERVICIOS DE FORMACIÓN E INFORMACIÓN A COLECTIVOS CON PROBLEMÁTICA DE INSERCIÓN SOCIO-LABORAL, PARADOS DE LARGA DURACIÓN, JÓVENES DESEMPLEADOS; LA PRESTACIÓN DE SERVICIOS PARA LA ORIENTACIÓN PSICOLÓGICA Y PEDAGÓGICA DIRIGIDOS A LA POBLACIÓN EN GENERAL; Y EN GENERAL LA PRESTACIÓN DE SERVICIOS EDUCATIVOS Y SOCIALES A LA COMUNIDAD",
      "mainEntityOfPage": "https://www.contratacion.euskadi.eus/webkpe00-kperoc/es/ac71aBusquedaRegistrosWar/empresa/02145",
      "_links": {
        "self": {
          "name": "HEZILAN, S.L.",
          "href": "https://api.euskadi.eus/procurements/companies/02145"
        }
      }
    },
    {
      "name": "JESUS DIEZ, S.A.",
      "registrationNumber": "09531",
      "identificationNumber": "A95594503",
      "address": "Pq. Emp. Abra Industrial, 151 B",
      "location": {
        "postalCode": "48530",
        "municipality": "Ortuella",
        "county": "Bizkaia",
        "municipalityId": "083",
        "countyId": "48"
      },
      "economicActivities": [
        {
          "id": "1.615.1",
          "name": "Venta al por mayor de vehículos, motocicletas, bicicletas y sus accesorios",
          "_links": {
            "self": {
              "name": "Venta al por mayor de vehículos, motocicletas, bicicletas y sus accesorios",
              "href": "https://api.euskadi.eus/procurements/companies/economic-activities/1.615.1"
            }
          }
        },
        {
          "id": "1.617.9",
          "name": "Venta al por mayor interindustrial de otros productos n.c.o.p",
          "_links": {
            "self": {
              "name": "Venta al por mayor interindustrial de otros productos n.c.o.p",
              "href": "https://api.euskadi.eus/procurements/companies/economic-activities/1.617.9"
            }
          }
        },
        {
          "id": "1.691.2",
          "name": "Reparación de vehículos automóviles, bicicletas y otros vehículos",
          "_links": {
            "self": {
              "name": "Reparación de vehículos automóviles, bicicletas y otros vehículos",
              "href": "https://api.euskadi.eus/procurements/companies/economic-activities/1.691.2"
            }
          }
        },
        {
          "id": "1.692",
          "name": "Reparación de maquinaria industrial",
          "_links": {
            "self": {
              "name": "Reparación de maquinaria industrial",
              "href": "https://api.euskadi.eus/procurements/companies/economic-activities/1.692"
            }
          }
        }
      ],
      "certificateStartDate": "2025-08-26",
      "certificateEndDate": "2026-02-26",
      "object": "REPARACIÓN DE VEHÍCULOS DE TRACCIÓN MECÁNICA Y LA CONSTRUCCIÓN, REPARACIÓN Y VENTA DE PARTES O PIEZAS SUELTAS PARA LOS MISMOS Y PARA INSTALACIONES INDUSTRIALES EN GENERAL.",
      "mainEntityOfPage": "https://www.contratacion.euskadi.eus/webkpe00-kperoc/es/ac71aBusquedaRegistrosWar/empresa/09531",
      "_links": {
        "self": {
          "name": "JESUS DIEZ, S.A.",
          "href": "https://api.euskadi.eus/procurements/companies/09531"
        }
      }
    },
    {
      "name": "DMILLENNIAL RURAL PROJECTS, S.L.",
      "registrationNumber": "10074",
      "identificationNumber": "B06864474",
      "address": "CONSTITUCION 5",
      "location": {
        "postalCode": "26327",
        "municipality": "Berceo",
        "county": "Rioja, La",
        "municipalityId": "027",
        "countyId": "26"
      },
      "economicActivities": [
        {
          "id": "1.991",
          "name": "Prestación de servicios por sociedades de desarrollo industrial",
          "_links": {
            "self": {
              "name": "Prestación de servicios por sociedades de desarrollo industrial",
              "href": "https://api.euskadi.eus/procurements/companies/economic-activities/1.991"
            }
          }
        },
        {
          "id": "1.999",
          "name": "Otros servicios n.c.o.p",
          "_links": {
            "self": {
              "name": "Otros servicios n.c.o.p",
              "href": "https://api.euskadi.eus/procurements/companies/economic-activities/1.999"
            }
          }
        }
      ],
      "certificateStartDate": "2025-08-26",
      "certificateEndDate": "2026-02-26",
      "object": "ACTIVIDAD PRINCIPAL: 70.22. OTRAS ACTIVIDADES DE CONSULTORÍA DE GESTIÓN EMPRESARIAL. OTRAS ACTIVIDADES: - ENSEÑANZA NO REGLADA DE FORMACIÓN Y PERFECCIONAMIENTO PROFESIONAL Y EDUCACIÓN SUPERIOR Y NO SUPERIOR. - OTRAS ACTIVIDADES DE ENSEÑANZA FUERA DE PLANES OFICIALES DE ESTUDIO. - INSTALACIONES DEPORTIVAS Y ESCUELAS Y SERVICIOS DE PERFECCIONAMIENTO DEL DEPORTE. - ALQUILER DE ARTÍCULOS DEPORTIVOS EN INSTALACIONES DEPORTIVAS. - ORGANIZACIÓN Y PLANIFICACIÓN DE ESPECTÁCULOS DEPORTIVOS Y CULTURALES. - ACTIVIDADES DE PRESTACIÓN DE SERVICIOS COMO CORREDURÍA DE SEGUROS. - SERVICIOS DE ORGANIZACIÓN DE CONGRESOS, ASAMBLEAS Y SIMILARES.",
      "mainEntityOfPage": "https://www.contratacion.euskadi.eus/webkpe00-kperoc/es/ac71aBusquedaRegistrosWar/empresa/10074",
      "_links": {
        "self": {
          "name": "DMILLENNIAL RURAL PROJECTS, S.L.",
          "href": "https://api.euskadi.eus/procurements/companies/10074"
        }
      }
    },
    {
      "name": "FABRICACIONES INOX A MEDIDA, S.L.",
      "registrationNumber": "10076",
      "identificationNumber": "B13659693",
      "address": "Pol. Zuhatzu edificio Pia, n2 planta 2",
      "location": {
        "postalCode": "20018",
        "municipality": "Donostia / San Sebastián",
        "county": "Gipuzkoa",
        "municipalityId": "069",
        "countyId": "20"
      },
      "economicActivities": [
        {
          "id": "1.615.2",
          "name": "Venta al por mayor de muebles",
          "_links": {
            "self": {
              "name": "Venta al por mayor de muebles",
              "href": "https://api.euskadi.eus/procurements/companies/economic-activities/1.615.2"
            }
          }
        }
      ],
      "certificateStartDate": "2025-08-26",
      "certificateEndDate": "2026-02-26",
      "object": "EL DESARROLLO DE LA ACTIVIDAD CORRESPONDIENTE AL SIGUIENTE CÓDIGO Y DESCRIPCIÓN DE LA CLASIFICACIÓN NACIONAL DE ACTIVIDADES ECONÓMICAS: ACTIVIDAD PRINCIPAL: COMERCIO AL POR MAYOR NO ESPECIALIZADO. CNAE: 4690.",
      "mainEntityOfPage": "https://www.contratacion.euskadi.eus/webkpe00-kperoc/es/ac71aBusquedaRegistrosWar/empresa/10076",
      "_links": {
        "self": {
          "name": "FABRICACIONES INOX A MEDIDA, S.L.",
          "href": "https://api.euskadi.eus/procurements/companies/10076"
        }
      }
    },
    {
      "name": "PROSPEKTIKER, S.A. INSTITUTO EUROPEO DE PROSPECTIVA Y ESTRATEGIA",
      "registrationNumber": "00160",
      "identificationNumber": "A20148037",
      "address": "ZUBIBERRI BIDEA, 31. EDIFICIO URUMEA.PLANTA 1ª.LOCAL 1",
      "location": {
        "postalCode": "20018",
        "municipality": "Donostia / San Sebastián",
        "county": "Gipuzkoa",
        "municipalityId": "069",
        "countyId": "20"
      },
      "economicActivities": [
        {
          "id": "1.846",
          "name": "Empresas de estudios de mercado",
          "_links": {
            "self": {
              "name": "Empresas de estudios de mercado",
              "href": "https://api.euskadi.eus/procurements/companies/economic-activities/1.846"
            }
          }
        }
      ],
      "certificateStartDate": "2025-08-26",
      "certificateEndDate": "2026-02-25",
      "object": "LA REALIZACIÓN DE ESTUDIOS SOCIO-ECONÓMICOS Y DE PROSPECTIVA, ESTUDIOS DE MERCADO, REALIZACIÓN DE ENCUESTAS DE OPINIÓN PÚBLICA, ASESORAMIENTO EN DIRECCIÓN Y GESTIÓN EMPRESARIAL, ACTIVIDADES RELACIONADAS CON BASES DE DATOS, INVESTIGACIÓN Y DESARROLLO SOBRE CIENCIAS SOCIALES Y HUMANIDADES, RELACIONES PÚBLICAS, ORGANIZACIÓN DE FERIAS Y CONGRESOS, IMPARTICIÓN DE CURSILLOS, INCLUYENDO CURSOS DE FORMACIÓN PARA ADULTOS Y FORMACIÓN PROFESIONAL CONTINUA, INVESTIGACIÓN Y PUBLICACIONES",
      "mainEntityOfPage": "https://www.contratacion.euskadi.eus/webkpe00-kperoc/es/ac71aBusquedaRegistrosWar/empresa/00160",
      "_links": {
        "self": {
          "name": "PROSPEKTIKER, S.A. INSTITUTO EUROPEO DE PROSPECTIVA Y ESTRATEGIA",
          "href": "https://api.euskadi.eus/procurements/companies/00160"
        }
      }
    }
  ]
}