{
  "totalItems": 9042,
  "totalPages": 905,
  "currentPage": 507,
  "itemsOfPage": 10,
  "items": [
    {
      "name": "RESIDENCIA ZAIN BERRI, S.L.",
      "registrationNumber": "08014",
      "identificationNumber": "B95980785",
      "address": "ZUMAIA 20",
      "location": {
        "postalCode": "48007",
        "municipality": "Bilbao",
        "county": "Bizkaia",
        "municipalityId": "020",
        "countyId": "48"
      },
      "economicActivities": [
        {
          "id": "1.951",
          "name": "Asistencia y servicios sociales en centros residenciales",
          "_links": {
            "self": {
              "name": "Asistencia y servicios sociales en centros residenciales",
              "href": "https://api.euskadi.eus/procurements/companies/economic-activities/1.951"
            }
          }
        }
      ],
      "certificateStartDate": "2022-01-04",
      "certificateEndDate": "2022-05-30",
      "object": "A) LA REALIZACIÓN DE ACTIVIDADES PARA LA GESTIÓN DE CENTROS DEDICADOS A LA ATENCIÓN DE PERSONAS ANCIANAS. B) LA REALIZACIÓN DE ACTIVIDADES CONSISTENTES EN ASISTENCIA Y SERVICIOS SOCIALES PARA COLECTIVOS DE ESPECIAL VULNERABILIDAD TALES COMO NIÑOS, JÓVENES, DISMINUIDOS FÍSICOS Y ANCIANOS EN CENTROS ASISTENCIALES. C) LA ORGANIZACIÓN DE MEDIOS PARA LA ASISTENCIA SANITARIA Y GERIÁTRICA A LOS POSIBLES RESIDENTES QUE OCUPEN LOS CENTROS ASISTENCIALES.",
      "mainEntityOfPage": "https://www.contratacion.euskadi.eus/webkpe00-kperoc/es/ac71aBusquedaRegistrosWar/empresa/08014",
      "_links": {
        "self": {
          "name": "RESIDENCIA ZAIN BERRI, S.L.",
          "href": "https://api.euskadi.eus/procurements/companies/08014"
        }
      }
    },
    {
      "name": "UNAGO PROJECTS, S.L.",
      "registrationNumber": "07481",
      "identificationNumber": "B75235390",
      "address": "Nafarroa kalea 6-8bj",
      "location": {
        "postalCode": "20550",
        "municipality": "Aretxabaleta",
        "county": "Gipuzkoa",
        "municipalityId": "013",
        "countyId": "20"
      },
      "economicActivities": [
        {
          "id": "1.843.1",
          "name": "Servicios técnicos de ingeniería",
          "_links": {
            "self": {
              "name": "Servicios técnicos de ingeniería",
              "href": "https://api.euskadi.eus/procurements/companies/economic-activities/1.843.1"
            }
          }
        }
      ],
      "certificateStartDate": "2021-12-30",
      "certificateEndDate": "2021-07-27",
      "object": "DESARROLLO, REDACCIÓN, INSTALACIÓN, COMERCIALIZACIÓN, DISTRIBUCIÓN, IMPORTACIÓN Y EXPORTACIÓN DE PRODUCTOS, PROYECTOS, SERVICIOS Y SOLUCIONES RELACIONADAS CON ENERGÍAS RENOVABLES",
      "mainEntityOfPage": "https://www.contratacion.euskadi.eus/webkpe00-kperoc/es/ac71aBusquedaRegistrosWar/empresa/07481",
      "_links": {
        "self": {
          "name": "UNAGO PROJECTS, S.L.",
          "href": "https://api.euskadi.eus/procurements/companies/07481"
        }
      }
    },
    {
      "name": "KARRIKA GIZARTE SERBITZUAK, S.L.",
      "registrationNumber": "08008",
      "identificationNumber": "B20596599",
      "address": "Plaza Alkiza nº 4 1º A",
      "location": {
        "postalCode": "20069",
        "municipality": "Donostia / San Sebastián",
        "county": "Gipuzkoa",
        "municipalityId": "069",
        "countyId": "20"
      },
      "economicActivities": [
        {
          "id": "1.933.9",
          "name": "Otras actividades de enseñanza tales como idiomas, mecanografía",
          "_links": {
            "self": {
              "name": "Otras actividades de enseñanza tales como idiomas, mecanografía",
              "href": "https://api.euskadi.eus/procurements/companies/economic-activities/1.933.9"
            }
          }
        },
        {
          "id": "1.952",
          "name": "Asistencia y servicios sociales en centros no residenciales",
          "_links": {
            "self": {
              "name": "Asistencia y servicios sociales en centros no residenciales",
              "href": "https://api.euskadi.eus/procurements/companies/economic-activities/1.952"
            }
          }
        }
      ],
      "certificateStartDate": "2021-12-23",
      "certificateEndDate": "2022-06-09",
      "object": "LA PREVENCIÓN Y ATENCIÓN DE PERSONAS EN SITUACIÓN DE RIESGO Y DIFICULTAD SOCIAL.",
      "mainEntityOfPage": "https://www.contratacion.euskadi.eus/webkpe00-kperoc/es/ac71aBusquedaRegistrosWar/empresa/08008",
      "_links": {
        "self": {
          "name": "KARRIKA GIZARTE SERBITZUAK, S.L.",
          "href": "https://api.euskadi.eus/procurements/companies/08008"
        }
      }
    },
    {
      "name": "ALUR & BIKER, S.L.",
      "registrationNumber": "05300",
      "identificationNumber": "B75021865",
      "address": "POL IND. BELARTZA, GURUTZEGI 11 - NAVE E3",
      "location": {
        "postalCode": "20018",
        "municipality": "Donostia / San Sebastián",
        "county": "Gipuzkoa",
        "municipalityId": "069",
        "countyId": "20"
      },
      "economicActivities": [
        {
          "id": "1.722",
          "name": "Transporte de mercancías por carretera",
          "_links": {
            "self": {
              "name": "Transporte de mercancías por carretera",
              "href": "https://api.euskadi.eus/procurements/companies/economic-activities/1.722"
            }
          }
        },
        {
          "id": "1.849.5",
          "name": "Servicios de recadería y reparto y manipulación de correspondencia",
          "_links": {
            "self": {
              "name": "Servicios de recadería y reparto y manipulación de correspondencia",
              "href": "https://api.euskadi.eus/procurements/companies/economic-activities/1.849.5"
            }
          }
        }
      ],
      "certificateStartDate": "2021-12-22",
      "certificateEndDate": "2022-06-10",
      "object": "EL COMERCIO AL POR MENOR POR CORREO O CATÁLOGO Y LA VENTA POR INTERNET, ASÍ COMO LAS ACTIVIDADES DE MENSAJERÍA, REPARTO DE PAQUETERÍA Y TRANSPORTE DE MERCANCÍAS",
      "mainEntityOfPage": "https://www.contratacion.euskadi.eus/webkpe00-kperoc/es/ac71aBusquedaRegistrosWar/empresa/05300",
      "_links": {
        "self": {
          "name": "ALUR & BIKER, S.L.",
          "href": "https://api.euskadi.eus/procurements/companies/05300"
        }
      }
    },
    {
      "name": "CONSTRUCCIONES ONDARRE, S.L.",
      "registrationNumber": "03817",
      "identificationNumber": "B01297373",
      "address": "AVDA. DIPUTACIÓN, 8-1º",
      "location": {
        "postalCode": "01320",
        "municipality": "Oyón-Oion",
        "county": "Araba/Álava",
        "municipalityId": "043",
        "countyId": "01"
      },
      "economicActivities": [
        {
          "id": "1.501.1",
          "name": "Construcción completa, reparación y conservación de edificaciones",
          "_links": {
            "self": {
              "name": "Construcción completa, reparación y conservación de edificaciones",
              "href": "https://api.euskadi.eus/procurements/companies/economic-activities/1.501.1"
            }
          }
        }
      ],
      "certificateStartDate": "2021-12-21",
      "certificateEndDate": "2022-06-10",
      "object": "LA GESTIÓN Y COMPRA-VENTA DE TERRENOS, SU URBANIZACIÓN, PARCELACIÓN, PROMOCIÓN Y VENTA DE LOS MISMOS. LA EJECUCIÓN DE OBRAS CIVILES DE CUALQUIER CLASE, CONSTRUCCIÓN, PROMOCIÓN Y VENTA DE LAS MISMAS",
      "mainEntityOfPage": "https://www.contratacion.euskadi.eus/webkpe00-kperoc/es/ac71aBusquedaRegistrosWar/empresa/03817",
      "_links": {
        "self": {
          "name": "CONSTRUCCIONES ONDARRE, S.L.",
          "href": "https://api.euskadi.eus/procurements/companies/03817"
        }
      }
    },
    {
      "name": "ARBEX & DIGITAPRINT, S.L.U.",
      "registrationNumber": "01673",
      "identificationNumber": "B01013291",
      "address": "C/ VENTA DE LA ESTRELLA, 6.PAB 117. P.I. URITIASOLO",
      "location": {
        "postalCode": "01006",
        "municipality": "Vitoria-Gasteiz",
        "county": "Araba/Álava",
        "municipalityId": "059",
        "countyId": "01"
      },
      "economicActivities": [
        {
          "id": "1.844",
          "name": "Servicios de publicidad, relaciones públicas y similares",
          "_links": {
            "self": {
              "name": "Servicios de publicidad, relaciones públicas y similares",
              "href": "https://api.euskadi.eus/procurements/companies/economic-activities/1.844"
            }
          }
        }
      ],
      "certificateStartDate": "2021-12-15",
      "certificateEndDate": "2022-06-03",
      "object": "LA PUBLICIDAD EN TODOS SUS ASPECTOS, POR MEDIO DE PRENSA DIARIA O NO, RADIO, TELEVISIÓN CORREO ELECTRÓNICO, O CUALQUIER OTRO MEDIO QUE AHORA NO SE CONOZCA O QUE EN EL FUTURO PUEDA EXISTIR. LA REALIZACIÓN DE FOTOGRAFÍAS, PELÍCULAS O CUALESQUIERA OTRAS ACTIVIDADES DE POSIBLE REPRODUCCIÓN, IMPRESIÓN Y ACABADO INDIVIDUAL O EN  SERIE, ASÍ COMO LA COMPRA Y VENTA, REPRESENTACIÓN Y DISTRIBUCIÓN DE LOS APARATOS, MEDIOS Y ELEMENTOS QUE SE UTILIZAN O EMPLEAN PARA EL EJERCICIO DE LAS ACTIVIDADES ANTERIORES. LA REPRESENTACIÓN DE OTRAS EMPRESAS, MARCAS O IDEAS EN LOS CAMPOS MENCIONADOS EN LOS DOS PÁRRAFOS ANTERIORES",
      "mainEntityOfPage": "https://www.contratacion.euskadi.eus/webkpe00-kperoc/es/ac71aBusquedaRegistrosWar/empresa/01673",
      "_links": {
        "self": {
          "name": "ARBEX & DIGITAPRINT, S.L.U.",
          "href": "https://api.euskadi.eus/procurements/companies/01673"
        }
      }
    },
    {
      "name": "ABRAHAM ESTEVE TÉBAR",
      "registrationNumber": "06106",
      "identificationNumber": "21506153A",
      "address": "Carretera Castalla, 75",
      "location": {
        "postalCode": "03690",
        "municipality": "Sant Vicent del Raspeig/San Vicente del Raspeig",
        "county": "Alicante/Alacant",
        "municipalityId": "122",
        "countyId": "03"
      },
      "economicActivities": [
        {
          "id": "2.824",
          "name": "Profesores de formación y perfeccionamiento profesional",
          "_links": {
            "self": {
              "name": "Profesores de formación y perfeccionamiento profesional",
              "href": "https://api.euskadi.eus/procurements/companies/economic-activities/2.824"
            }
          }
        },
        {
          "id": "2.899",
          "name": "Otros profesionales",
          "_links": {
            "self": {
              "name": "Otros profesionales",
              "href": "https://api.euskadi.eus/procurements/companies/economic-activities/2.899"
            }
          }
        }
      ],
      "certificateStartDate": "2021-12-13",
      "certificateEndDate": "2022-06-13",
      "object": " CONSULTORÍA, AUDITORÍA Y FORMACIÓN EN SISTEMAS DE GESTIÓN",
      "mainEntityOfPage": "https://www.contratacion.euskadi.eus/webkpe00-kperoc/es/ac71aBusquedaRegistrosWar/empresa/06106",
      "_links": {
        "self": {
          "name": "ABRAHAM ESTEVE TÉBAR",
          "href": "https://api.euskadi.eus/procurements/companies/06106"
        }
      }
    },
    {
      "name": "ALCORA SALUD AMBIENTAL, S.A.",
      "registrationNumber": "07996",
      "identificationNumber": "A50197458",
      "address": "POLIGONO MALPICA CALLE F 98 BAJO",
      "location": {
        "postalCode": "50016",
        "municipality": "Zaragoza",
        "county": "Zaragoza",
        "municipalityId": "297",
        "countyId": "50"
      },
      "economicActivities": [
        {
          "id": "1.617.9",
          "name": "Venta al por mayor interindustrial de otros productos n.c.o.p",
          "_links": {
            "self": {
              "name": "Venta al por mayor interindustrial de otros productos n.c.o.p",
              "href": "https://api.euskadi.eus/procurements/companies/economic-activities/1.617.9"
            }
          }
        },
        {
          "id": "1.921.3",
          "name": "Exterminio de animales dañinos y desinfección",
          "_links": {
            "self": {
              "name": "Exterminio de animales dañinos y desinfección",
              "href": "https://api.euskadi.eus/procurements/companies/economic-activities/1.921.3"
            }
          }
        },
        {
          "id": "1.936",
          "name": "Investigación científica y técnica",
          "_links": {
            "self": {
              "name": "Investigación científica y técnica",
              "href": "https://api.euskadi.eus/procurements/companies/economic-activities/1.936"
            }
          }
        }
      ],
      "certificateStartDate": "2021-12-09",
      "certificateEndDate": "2022-05-30",
      "object": "DESINFECCIÓN, DESINSECTACIÓN Y DESRATIZACIÓN, TRATAMIENTO CONTRA PLAGAS EN INDUSTRIAS, COMERCIOS, COMUNIDADES Y DOMICILIOS PARTICULARES. TRATAMIENTOS AGRÍCOLAS Y GANADEROS. SALUD PÚBLICA (HOSPITALES, AMBULATORIOS Y DEMÁS CENTROS DE SALUD). TRATAMIENTOS INTEGRALES DE MUNICIPIOS Y CUANTOS ESTÉN RELACIONADOS CON LA SALUD PÚBLICA. AUDITORÍAS HIGIÉNICO-SANITARIAS, PROYECTOS TÉCNICOS, LA FORMACIÓN EN SANIDAD AMBIENTAL DEL PERSONAL PROPIO O DE TERCEROS, FABRICACIÓN DE PRODUCTOS DESINFECTANTES, QUÍMICOS Y ELECTROFÍSICOS, COMERCIALIZACIÓN DE LOS MISMOS, IMPORTACIÓN Y EXPORTACIÓN, VENTA DE PRODUCTOS AFINES A LA SALUD PÚBLICA, PUBLICACIÓN DE TEMAS RELACIONADOS CON LA ACTIVIDAD DE LA EMPRESA.",
      "mainEntityOfPage": "https://www.contratacion.euskadi.eus/webkpe00-kperoc/es/ac71aBusquedaRegistrosWar/empresa/07996",
      "_links": {
        "self": {
          "name": "ALCORA SALUD AMBIENTAL, S.A.",
          "href": "https://api.euskadi.eus/procurements/companies/07996"
        }
      }
    },
    {
      "name": "IZASKUN OLANO BILBAO",
      "registrationNumber": "07992",
      "identificationNumber": "30685565T",
      "address": "Calle Fika 10 lonja",
      "location": {
        "postalCode": "48006",
        "municipality": "Bilbao",
        "county": "Bizkaia",
        "municipalityId": "020",
        "countyId": "48"
      },
      "economicActivities": [
        {
          "id": "2.854",
          "name": "Expertos en organización de congresos, asambleas y similares",
          "_links": {
            "self": {
              "name": "Expertos en organización de congresos, asambleas y similares",
              "href": "https://api.euskadi.eus/procurements/companies/economic-activities/2.854"
            }
          }
        }
      ],
      "certificateStartDate": "2021-12-09",
      "certificateEndDate": "2022-03-17",
      "object": "EXPERTOS EN ORGANIZACIÓN DE CONGRESOS, ASAMBLEAS Y SIMILARES.",
      "mainEntityOfPage": "https://www.contratacion.euskadi.eus/webkpe00-kperoc/es/ac71aBusquedaRegistrosWar/empresa/07992",
      "_links": {
        "self": {
          "name": "IZASKUN OLANO BILBAO",
          "href": "https://api.euskadi.eus/procurements/companies/07992"
        }
      }
    },
    {
      "name": "TECMAN SERVICIOS DE VALOR AÑADIDO, S.L.",
      "registrationNumber": "03694",
      "identificationNumber": "B95542858",
      "address": "P.A.E. ASUARAN. EDIF. ARTXANDA, 5 - 2",
      "location": {
        "postalCode": "48950",
        "municipality": "Erandio",
        "county": "Bizkaia",
        "municipalityId": "902",
        "countyId": "48"
      },
      "economicActivities": [
        {
          "id": "1.501.1",
          "name": "Construcción completa, reparación y conservación de edificaciones",
          "_links": {
            "self": {
              "name": "Construcción completa, reparación y conservación de edificaciones",
              "href": "https://api.euskadi.eus/procurements/companies/economic-activities/1.501.1"
            }
          }
        },
        {
          "id": "1.504.12",
          "name": "Instalaciones eléctricas en toda clase de edificios",
          "_links": {
            "self": {
              "name": "Instalaciones eléctricas en toda clase de edificios",
              "href": "https://api.euskadi.eus/procurements/companies/economic-activities/1.504.12"
            }
          }
        },
        {
          "id": "1.504.3",
          "name": "Instalaciones de frío, calor y acondicionamiento de aire",
          "_links": {
            "self": {
              "name": "Instalaciones de frío, calor y acondicionamiento de aire",
              "href": "https://api.euskadi.eus/procurements/companies/economic-activities/1.504.3"
            }
          }
        },
        {
          "id": "1.692",
          "name": "Reparación de maquinaria industrial",
          "_links": {
            "self": {
              "name": "Reparación de maquinaria industrial",
              "href": "https://api.euskadi.eus/procurements/companies/economic-activities/1.692"
            }
          }
        },
        {
          "id": "1.843.1",
          "name": "Servicios técnicos de ingeniería",
          "_links": {
            "self": {
              "name": "Servicios técnicos de ingeniería",
              "href": "https://api.euskadi.eus/procurements/companies/economic-activities/1.843.1"
            }
          }
        },
        {
          "id": "1.849.9",
          "name": "Otros servicios independientes n.c.o.p",
          "_links": {
            "self": {
              "name": "Otros servicios independientes n.c.o.p",
              "href": "https://api.euskadi.eus/procurements/companies/economic-activities/1.849.9"
            }
          }
        },
        {
          "id": "1.921.4",
          "name": "Servicios de alcantarillado, evacuación y depuración de aguas residuales",
          "_links": {
            "self": {
              "name": "Servicios de alcantarillado, evacuación y depuración de aguas residuales",
              "href": "https://api.euskadi.eus/procurements/companies/economic-activities/1.921.4"
            }
          }
        },
        {
          "id": "1.921.7",
          "name": "Servicios de protección contra incendios y accidentes",
          "_links": {
            "self": {
              "name": "Servicios de protección contra incendios y accidentes",
              "href": "https://api.euskadi.eus/procurements/companies/economic-activities/1.921.7"
            }
          }
        }
      ],
      "certificateStartDate": "2021-12-07",
      "certificateEndDate": "2022-05-17",
      "object": "INGENIERÍA Y DISEÑO, MONTAJE, PUESTA EN MARCHA, MANTENIMIENTO, GESTIÓN Y FINANCIACIÓN DE INSTALACIONES DE CLIMATIZACIÓN, CALEFACCIÓN, AIRE ACONDICIONADO, COGENERACIÓN, ENERGÍAS RENOVABLES, ILUMINACIÓN, EN SECTOR INDUSTRIAL, RESIDENCIAL, TERCIARIO, PARA EL ÁMBITO PRIVADO O PÚBLICO. MANTENIMIENTO INTEGRAL DE INSTALACIONES GENERALES DE EDIFICIOS E INDUSTRIAS, INCLUSO EN RÉGIMEN DE GARANTÍA TOTAL. GESTIÓN ENERGÉTICA DE LAS INSTALACIONES DE SUS CLIENTES. ESTUDIOS DE EFICIENCIA ENERGÉTICA, PLANES DE VIABILIDAD Y VERIFICACIÓN DE MEDIDAS DE AHORRO ENERGÉTICO. OPERACIÓN Y EXPLOTACIÓN DE PLANTAS DE PRODUCCIÓN ENERGÉTICA, RELACIONADAS CON LA COGENERACIÓN, BIOMASA, RESIDUOS, FOTOVOLTAICA, Y ENERGÍAS RENOVABLES EN GENERAL, INCLUYENDO LA VENTA DE LA ENERGÍA ELÉCTRICA PRODUCIDA A SUS CLIENTES O AL MERCADO COMERCIALIZADOR. OPERACIÓN Y EXPLOTACIÓN DE PLANTAS DE PRODUCCIÓN TÉRMICA CENTRALIZADA, INCLUYENDO LA VENTA DE LAS ENERGÍAS CALORÍFICAS O FRIGORÍFICAS A SUS CLIENTES. LA CONSTRUCCIÓN , EJECUCIÓN Y EXPLOTACIÓN DE TODO TIPO DE EDIFICIOS DESTINADOS A FINES ENERGÉTICOS, COMERCIALES, INDUSTRIALES, RESIDENCIALES O DE OTRO TIPO. SUMINISTRO DE EQUIPOS E INSTALACIONES RELACIONADAS CON SU ACTIVIDAD DE SERVICIOS ENERGÉTICOS Y CONSTRUCCIÓN DE EDIFICIOS. EN DEFINITIVA, TODAS LAS ACTIVIDADES DERIVADAS DE UNA EMPRESA DE SERVICIOS ENERGÉTICOS Y DE CONSTRUCCIÓN DE INSTALACIONES ENERGÉTICAS Y DE EDIFICIOS",
      "mainEntityOfPage": "https://www.contratacion.euskadi.eus/webkpe00-kperoc/es/ac71aBusquedaRegistrosWar/empresa/03694",
      "_links": {
        "self": {
          "name": "TECMAN SERVICIOS DE VALOR AÑADIDO, S.L.",
          "href": "https://api.euskadi.eus/procurements/companies/03694"
        }
      }
    }
  ]
}