{
  "totalItems": 9042,
  "totalPages": 905,
  "currentPage": 461,
  "itemsOfPage": 10,
  "items": [
    {
      "name": "AUTOMATISMOS JUBER, S.L:",
      "registrationNumber": "08742",
      "identificationNumber": "B01507920",
      "address": "Avda. Los Huetos, 50  Pab. 42",
      "location": {
        "postalCode": "01010",
        "municipality": "Vitoria-Gasteiz",
        "county": "Araba/Álava",
        "municipalityId": "059",
        "countyId": "01"
      },
      "economicActivities": [
        {
          "id": "1.505.5",
          "name": "Carpintería y cerrajería",
          "_links": {
            "self": {
              "name": "Carpintería y cerrajería",
              "href": "https://api.euskadi.eus/procurements/companies/economic-activities/1.505.5"
            }
          }
        }
      ],
      "certificateStartDate": "2023-05-17",
      "certificateEndDate": "2023-11-17",
      "object": "LA INSTALACIÓN, MANTENIMIENTO Y REPARACIÓN DE TODO TIPO DE PUERTAS AUTOMÁTICAS.",
      "mainEntityOfPage": "https://www.contratacion.euskadi.eus/webkpe00-kperoc/es/ac71aBusquedaRegistrosWar/empresa/08742",
      "_links": {
        "self": {
          "name": "AUTOMATISMOS JUBER, S.L:",
          "href": "https://api.euskadi.eus/procurements/companies/08742"
        }
      }
    },
    {
      "name": "MANUEL PÉREZ ALCÁZAR",
      "registrationNumber": "09013",
      "identificationNumber": "09036744K",
      "address": "SOCIEDAD SANTA BARBARA 5-2ºA",
      "location": {
        "postalCode": "48901",
        "municipality": "Barakaldo",
        "county": "Bizkaia",
        "municipalityId": "013",
        "countyId": "48"
      },
      "economicActivities": [
        {
          "id": "1.501.1",
          "name": "Construcción completa, reparación y conservación de edificaciones",
          "_links": {
            "self": {
              "name": "Construcción completa, reparación y conservación de edificaciones",
              "href": "https://api.euskadi.eus/procurements/companies/economic-activities/1.501.1"
            }
          }
        }
      ],
      "certificateStartDate": "2023-05-17",
      "certificateEndDate": "2023-10-28",
      "object": "CONSTRUCCIÓN COMPLETA, REPARACIÓN Y CONSERVACIÓN DE EDIFICACIONES.",
      "mainEntityOfPage": "https://www.contratacion.euskadi.eus/webkpe00-kperoc/es/ac71aBusquedaRegistrosWar/empresa/09013",
      "_links": {
        "self": {
          "name": "MANUEL PÉREZ ALCÁZAR",
          "href": "https://api.euskadi.eus/procurements/companies/09013"
        }
      }
    },
    {
      "name": "ZUKUSTREAM, S.L.",
      "registrationNumber": "09011",
      "identificationNumber": "B95938411",
      "address": "CL ERCILLA Nº32 6ºD",
      "location": {
        "postalCode": "48011",
        "municipality": "Bilbao",
        "county": "Bizkaia",
        "municipalityId": "020",
        "countyId": "48"
      },
      "economicActivities": [
        {
          "id": "1.961.1",
          "name": "Producción de películas cinematográficas (incluso vídeos)",
          "_links": {
            "self": {
              "name": "Producción de películas cinematográficas (incluso vídeos)",
              "href": "https://api.euskadi.eus/procurements/companies/economic-activities/1.961.1"
            }
          }
        }
      ],
      "certificateStartDate": "2023-05-17",
      "certificateEndDate": "2023-11-16",
      "object": "ACTIVIDAD PRINCIPAL: 59.15 / ACTIVIDADES DE PRODUCCIÓN CINEMATOGRÁFICA Y DE VÍDEO.",
      "mainEntityOfPage": "https://www.contratacion.euskadi.eus/webkpe00-kperoc/es/ac71aBusquedaRegistrosWar/empresa/09011",
      "_links": {
        "self": {
          "name": "ZUKUSTREAM, S.L.",
          "href": "https://api.euskadi.eus/procurements/companies/09011"
        }
      }
    },
    {
      "name": "VITRO, S.A.",
      "registrationNumber": "03767",
      "identificationNumber": "A41361544",
      "address": "C/ LUIS FUENTES BEJARANO, 60",
      "location": {
        "postalCode": "41020",
        "municipality": "Sevilla",
        "county": "Sevilla",
        "municipalityId": "091",
        "countyId": "41"
      },
      "economicActivities": [
        {
          "id": "1.659.3",
          "name": "Venta al por menor de aparatos médicos, ortopédicos, ópticos y fotográficos",
          "_links": {
            "self": {
              "name": "Venta al por menor de aparatos médicos, ortopédicos, ópticos y fotográficos",
              "href": "https://api.euskadi.eus/procurements/companies/economic-activities/1.659.3"
            }
          }
        },
        {
          "id": "1.845",
          "name": "Explotación electrónica por cuenta de terceros",
          "_links": {
            "self": {
              "name": "Explotación electrónica por cuenta de terceros",
              "href": "https://api.euskadi.eus/procurements/companies/economic-activities/1.845"
            }
          }
        }
      ],
      "certificateStartDate": "2023-05-11",
      "certificateEndDate": "2023-11-04",
      "object": "A) LA EJECUCIÓN, DESARROLLO, COMPRAVENTA, IMPORTACIÓN, EXPORTACIÓN, COMERCIO, DISTRIBUCIÓN E INSTALACIÓN AL POR MAYOR Y MENOR POR CUENTA PROPIA O AJENA DE TODA CLASE DE \"SOFTWARE\", APARATOS, EQUIPOS, PERIFÉRICOS, ACCESORIOS Y ARTÍCULOS INFORMÁTICOS DE CUALQUIER CLASE; B9 LA COMPRAVENTA, IMPORTACIÓN, EXPORTACIÓN, COMERCIO, DISTRIBUCIÓN, FABRICACIÓN E INSTALACIÓN AL POR MAYOR Y MENOR, POR CUENTA PROPIA O AJENA, DE TODA CLASE DE EQUIPOS, ACCESORIOS, ÚTILES, ARTÍCULOS REACTIVOS Y PRODUCTOS QUÍMICOS, MÉDICOS Y HOSPITALARIOS; C) LA EJECUCIÓN, DESARROLLO, COMPRAVENTA, IMPORTACIÓN, EXPORTACIÓN, COMERCIO Y DISTRIBUCIÓN, AL POR MAYOR Y MENOR, POR CUENTA PROPIA O AJENA, DE CUALQUIER CLASE DE MATERIAL, UTILLAJE Y ACCESORIOS DE IMPRENTA, OFICINA Y PAPELERÍA; D) LA EJECUCIÓN DE TODO TIPO DE OBRAS Y SUPERVISIÓN POR CUENTA PROPIA O AJENA; E) LA COMPRAVENTA DE TODA CLASE DE BIENES INMUEBLES Y SU EXPLOTACIÓN EN CUALQUIER FORMA, INCLUSO MEDIANTE SU ARRENDAMIENTO; F) LA COMPRAVENTA, IMPORTACIÓN T EXPORTACIÓN, COMERCIO Y DISTRIBUCIÓN DE VEHÍCULOS DE TODO TIPO, MAQUINARIA DE CUALQUIER CLASE Y HERRAMIENTAS Y UTILLAJE Y ACCESORIOS DE UNOS Y OTRAS; G) LA COMPRAVENTA, IMPORTACIÓN, EXPORTACIÓN, COMERIO Y DISTRIBUCIÓN, FABRICACIÓN E INSTALACIÓN AL POR MAYOR Y MENOR, POR CUENTA PROPIA O AJENA, DE TODA CLASE DE MOBILIARIO, APARATOS, ELECTRODOMÉSTICOS, SANITARIOS Y ARTÍCULOS DE ORNAMENTACIÓN PARA EL HOGAR; H) LA REPRESENTACIÓN DE FIRMAS NACIONALES O EXTRANJERAS; I) LA EXPLOTACIÓN DE PATENTES Y MARCAS POR CUENTA PROPIA O AJENA; J) LA PARTICIPACIÓN EN OTRAS SOCIEDADES O EMPRESAS DE SIMILAR OBJETO MEDIANTE LA COMPRA O SUSCRIPCIÓN DE ACCIONES O PARTICIPACIONES DE LAS MISMAS",
      "mainEntityOfPage": "https://www.contratacion.euskadi.eus/webkpe00-kperoc/es/ac71aBusquedaRegistrosWar/empresa/03767",
      "_links": {
        "self": {
          "name": "VITRO, S.A.",
          "href": "https://api.euskadi.eus/procurements/companies/03767"
        }
      }
    },
    {
      "name": "AITAGO, S.L.",
      "registrationNumber": "08996",
      "identificationNumber": "B26431890",
      "address": "CAMINO DE ENMEDIO 5, POL. LOS CABOS ",
      "location": {
        "postalCode": "26141",
        "municipality": "Alberite",
        "county": "Rioja, La",
        "municipalityId": "006",
        "countyId": "26"
      },
      "economicActivities": [
        {
          "id": "1.501.1",
          "name": "Construcción completa, reparación y conservación de edificaciones",
          "_links": {
            "self": {
              "name": "Construcción completa, reparación y conservación de edificaciones",
              "href": "https://api.euskadi.eus/procurements/companies/economic-activities/1.501.1"
            }
          }
        }
      ],
      "certificateStartDate": "2023-05-10",
      "certificateEndDate": "2023-11-10",
      "object": "ADQUISICIÓN Y TRANSMISIÓN DE TERRENOS, BIENES INMUEBLES Y DERECHOS SOBRE LOS MISMOS; URBANIZACIÓN Y PARCELACIÓN DE TERRENOS; LA PROMOCIÓN, CONSTRUCCIÓN, EXPLOTACIÓN, REPARACIÓN Y REHABILITACIÓN DE EDIFICIOS Y OBRAS SOBRE INMUEBLES, PARA EL ARRENDAMIENTO O VENTA DE LOS MISMOS, YA SEA EN BLOQUE O EN PARTES; LA COMERCIALIZACIÓN DE BIENES INMUEBLES. LA CELEBRACIÓN DE CONTRATAS, SUBCONTRATAS Y SERVICIOS EN GENERAL CON LAS ADMINISTRACIONES PÚBLICAS.",
      "mainEntityOfPage": "https://www.contratacion.euskadi.eus/webkpe00-kperoc/es/ac71aBusquedaRegistrosWar/empresa/08996",
      "_links": {
        "self": {
          "name": "AITAGO, S.L.",
          "href": "https://api.euskadi.eus/procurements/companies/08996"
        }
      }
    },
    {
      "name": "ATEZABAL KOOP ELK TXIKIA",
      "registrationNumber": "08747",
      "identificationNumber": "F95581526",
      "address": "Camino Tras Santiago 4 - bajo izda",
      "location": {
        "postalCode": "48460",
        "municipality": "Urduña/Orduña",
        "county": "Bizkaia",
        "municipalityId": "074",
        "countyId": "48"
      },
      "economicActivities": [
        {
          "id": "1.647.1",
          "name": "Venta al por menor de productos alimenticios y bebidas con vendedor",
          "_links": {
            "self": {
              "name": "Venta al por menor de productos alimenticios y bebidas con vendedor",
              "href": "https://api.euskadi.eus/procurements/companies/economic-activities/1.647.1"
            }
          }
        },
        {
          "id": "1.685",
          "name": "Alojamientos turísticos extrahoteleros",
          "_links": {
            "self": {
              "name": "Alojamientos turísticos extrahoteleros",
              "href": "https://api.euskadi.eus/procurements/companies/economic-activities/1.685"
            }
          }
        },
        {
          "id": "1.844",
          "name": "Servicios de publicidad, relaciones públicas y similares",
          "_links": {
            "self": {
              "name": "Servicios de publicidad, relaciones públicas y similares",
              "href": "https://api.euskadi.eus/procurements/companies/economic-activities/1.844"
            }
          }
        },
        {
          "id": "1.966.9",
          "name": "Otros servicios culturales n.c.o.p",
          "_links": {
            "self": {
              "name": "Otros servicios culturales n.c.o.p",
              "href": "https://api.euskadi.eus/procurements/companies/economic-activities/1.966.9"
            }
          }
        }
      ],
      "certificateStartDate": "2023-05-09",
      "certificateEndDate": "2023-11-08",
      "object": "-GESTIÓN DE OFICINAS DE INFORMACIÓN TURÍSTICA EN RELACIÓN DE LOS ACUERDOS DE LICITACIÓN ALCANZADOS. -ORGANIZACIÓN Y GESTIÓN DE EVENTOS, CONGRESOS Y OTROS ACTOS PÚBLICOS, ASÍ COMO ORGANIZACIÓN Y REALIZACIÓN DE TODO TIPO DE VISITAS TURÍSTICAS. -ORGANIZACIÓN Y GESTIÓN DE PROGRAMAS Y SALIDAS OCIO-CULTURALES Y/O DEPORTIVAS. -COMERCIO MENOR Y MAYOR DE TODO TIPO DE SOUVENIRS, INCLUYENDO ALIMENTOS Y BEBIDAS AUTÓCTONOS. -DISEÑO PUBLICITARIO, GESTIÓN DE PUBLICIDAD Y ASESORAMIENTO, MARKETING Y E-MARKETING, DISEÑO DE CAMPAÑAS DE MARKETING ESTRATÉGICO Y ESTUDIOS RELACIONADOS CON DICHAS CAMPAÑAS. -LA CONSTRUCCIÓN, ADQUISICIÓN, EL DESARROLLO Y EXPLOTACIÓN DE TODA CLASE DE ESTABLECIMIENTOS DE ALOJAMIENTO TURÍSTICOS, HOSTELERÍA Y RESTAURACIÓN, TALES COMO HOTELES, HOSTALES, CASAS RURALES Y SIMILARES, TANTO COMO DIRECTA COMO INDIRECTAMENTE, MEDIANTE EL ARRENDAMIENTO O LOS CONTRATOS DE PRESTACIÓN DE DICHOS SERVICIOS. -FORMACIÓN EN MATERIA TURÍSTICA, PROTOCOLO, GESTIÓN DE EVENTOS, CONGRESOS, ACTIVIDADES SOCIO CULTURALES Y ALOJAMIENTOS TURÍSTICOS Y OTROS SIMILARES. -SERVICIOS DE CONSULTORÍA Y ASESORÍA EN MATERIA MEDIOAMBIENTAL, EVALUACIÓN, DIAGNÓSTICO, DESARROLLO E IMPLANTACIÓN DE SISTEMAS DE GESTIÓN MEDIOAMBIENTAL.",
      "mainEntityOfPage": "https://www.contratacion.euskadi.eus/webkpe00-kperoc/es/ac71aBusquedaRegistrosWar/empresa/08747",
      "_links": {
        "self": {
          "name": "ATEZABAL KOOP ELK TXIKIA",
          "href": "https://api.euskadi.eus/procurements/companies/08747"
        }
      }
    },
    {
      "name": "ARTABE ARQUITECTOS S.L.U",
      "registrationNumber": "08424",
      "identificationNumber": "B95657201",
      "address": "Barrio San Ignazio (48200) 2, Bj 2D",
      "location": {
        "postalCode": "48200",
        "municipality": "Durango",
        "county": "Bizkaia",
        "municipalityId": "027",
        "countyId": "48"
      },
      "economicActivities": [
        {
          "id": "1.843.2",
          "name": "Servicios técnicos de arquitectura y urbanismo",
          "_links": {
            "self": {
              "name": "Servicios técnicos de arquitectura y urbanismo",
              "href": "https://api.euskadi.eus/procurements/companies/economic-activities/1.843.2"
            }
          }
        }
      ],
      "certificateStartDate": "2023-05-09",
      "certificateEndDate": "2023-10-25",
      "object": "LA INTERMEDIACIÓN  Y COORDINACIÓN DE ACTIVIDADES RELACIONADAS CON LA REDACCIÓN DE TODO TIPO DE PROYECTOS DE ARQUITECTURA, EJECUCIÓN DE OBRAS CIVILES, PÚBLICAS, HIDRÁULICAS, TODO TIPO DE EDIFICACIONES, ASÍ COMO LA PRESTACIÓN DE SERVICIOS TÉCNICOS DE ASESORAMIENTO Y DIRECCIÓN DE TODO TIPO DE OBRAS.",
      "mainEntityOfPage": "https://www.contratacion.euskadi.eus/webkpe00-kperoc/es/ac71aBusquedaRegistrosWar/empresa/08424",
      "_links": {
        "self": {
          "name": "ARTABE ARQUITECTOS S.L.U",
          "href": "https://api.euskadi.eus/procurements/companies/08424"
        }
      }
    },
    {
      "name": "ANA ARRANZ IRIGOYEN",
      "registrationNumber": "07287",
      "identificationNumber": "72444006D",
      "address": "ARRITOKIETA 14",
      "location": {
        "postalCode": "20750",
        "municipality": "Zumaia",
        "county": "Gipuzkoa",
        "municipalityId": "081",
        "countyId": "20"
      },
      "economicActivities": [
        {
          "id": "2.411",
          "name": "Arquitectos",
          "_links": {
            "self": {
              "name": "Arquitectos",
              "href": "https://api.euskadi.eus/procurements/companies/economic-activities/2.411"
            }
          }
        }
      ],
      "certificateStartDate": "2023-05-08",
      "certificateEndDate": "2023-11-07",
      "object": "ARQUITECTOS",
      "mainEntityOfPage": "https://www.contratacion.euskadi.eus/webkpe00-kperoc/es/ac71aBusquedaRegistrosWar/empresa/07287",
      "_links": {
        "self": {
          "name": "ANA ARRANZ IRIGOYEN",
          "href": "https://api.euskadi.eus/procurements/companies/07287"
        }
      }
    },
    {
      "name": "JON KOLDO GARITAGOITIA GALLASTEGUI",
      "registrationNumber": "08510",
      "identificationNumber": "15368388H",
      "address": "BO/GEREA 10 CASERIO PAGOTXUETA S/N",
      "location": {
        "postalCode": "48269",
        "municipality": "Mallabia",
        "county": "Bizkaia",
        "municipalityId": "058",
        "countyId": "48"
      },
      "economicActivities": [
        {
          "id": "1.502.2",
          "name": "Consolidación y preparación de terrenos para la construcción de edificaciones",
          "_links": {
            "self": {
              "name": "Consolidación y preparación de terrenos para la construcción de edificaciones",
              "href": "https://api.euskadi.eus/procurements/companies/economic-activities/1.502.2"
            }
          }
        }
      ],
      "certificateStartDate": "2023-05-04",
      "certificateEndDate": "2023-11-02",
      "object": "CONSOLIDACIÓN Y PREPARACIÓN DE TERRENOS PARA LA CONSTRUCCIÓN DE EDIFICACIONES.",
      "mainEntityOfPage": "https://www.contratacion.euskadi.eus/webkpe00-kperoc/es/ac71aBusquedaRegistrosWar/empresa/08510",
      "_links": {
        "self": {
          "name": "JON KOLDO GARITAGOITIA GALLASTEGUI",
          "href": "https://api.euskadi.eus/procurements/companies/08510"
        }
      }
    },
    {
      "name": "NEVERLAND, ESTUDIO GRÁFICO DE DISEÑO MALDITO, S.L.",
      "registrationNumber": "03952",
      "identificationNumber": "B48742043",
      "address": "FERNANDEZ DEL CAMPO 11, 3º DCHA",
      "location": {
        "postalCode": "48010",
        "municipality": "Bilbao",
        "county": "Bizkaia",
        "municipalityId": "020",
        "countyId": "48"
      },
      "economicActivities": [
        {
          "id": "1.844",
          "name": "Servicios de publicidad, relaciones públicas y similares",
          "_links": {
            "self": {
              "name": "Servicios de publicidad, relaciones públicas y similares",
              "href": "https://api.euskadi.eus/procurements/companies/economic-activities/1.844"
            }
          }
        }
      ],
      "certificateStartDate": "2023-05-02",
      "certificateEndDate": "2023-11-02",
      "object": "DISEÑO GRÁFICO Y DESARROLLO DE IMÁGENES CORPORATIVAS, RÓTULOS, ANAGRAMAS, EMBLEMAS Y SIMILARES PARA PORTADAS DE LIBROS, CAMPAÑAS PUBLICITARIAS, PUBLICACIONES Y CARTELES, ASI COMO DISEÑO EDITORIAL. PUBLICIDAD: PLANIFICACIÓN Y CREACIÓN DE CAMPAÑAS PUBLICITARIAS, A PETICIÓN DE PARTICULARES, ORGANISMOS PÚBLICOS Y DE CUALQUIER OTRA PERSONA EN GENERAL, ASI COMO GESTIONAR EL DESARROLLO DE LAS MISMAS. DECORACIÓN: ELABORACIÓN DE PROYECTOS DE DECORACIÓN DE INTERIORES, VIVIENDAS, LOCALES COMERCIALES Y ESTANDS, ASI COMO GESTIONAR EL DESARROLLO DE LOS MISMOS",
      "mainEntityOfPage": "https://www.contratacion.euskadi.eus/webkpe00-kperoc/es/ac71aBusquedaRegistrosWar/empresa/03952",
      "_links": {
        "self": {
          "name": "NEVERLAND, ESTUDIO GRÁFICO DE DISEÑO MALDITO, S.L.",
          "href": "https://api.euskadi.eus/procurements/companies/03952"
        }
      }
    }
  ]
}