{
  "totalItems": 9042,
  "totalPages": 905,
  "currentPage": 785,
  "itemsOfPage": 10,
  "items": [
    {
      "name": "SOHERCON, S.A.",
      "registrationNumber": "01897",
      "identificationNumber": "A20558102",
      "address": "C/ PLAZA DONIBANE, Nº 4 - BAJO.",
      "location": {
        "postalCode": "20800",
        "municipality": "Zarautz",
        "county": "Gipuzkoa",
        "municipalityId": "079",
        "countyId": "20"
      },
      "economicActivities": [
        {
          "id": "1.501.2",
          "name": "Construcción completa, reparación y conservación obras civiles",
          "_links": {
            "self": {
              "name": "Construcción completa, reparación y conservación obras civiles",
              "href": "https://api.euskadi.eus/procurements/companies/economic-activities/1.501.2"
            }
          }
        }
      ],
      "certificateStartDate": "2005-09-13",
      "certificateEndDate": "2006-02-26",
      "object": "LA REALIZACIÓN DE TODO TIPO DE CONSTRUCCIONES CIVILES, OBRAS PÚBLICAS Y PRIVADAS, ADQUISICIÓN Y VENTA DE TERRENOS, EDIFICACIONES Y DEMÁS INMUEBLES. LICITACIÓN A CONCURSOS PÚBLICOS EN MATERIA DE OBRAS. REHABILITACIÓN, URBANIZACIÓN, CANALIZACIONES, CONSTRUCCIONES Y MONTAJE DE ESTRUCTURAS METÁLICAS",
      "mainEntityOfPage": "https://www.contratacion.euskadi.eus/webkpe00-kperoc/es/ac71aBusquedaRegistrosWar/empresa/01897",
      "_links": {
        "self": {
          "name": "SOHERCON, S.A.",
          "href": "https://api.euskadi.eus/procurements/companies/01897"
        }
      }
    },
    {
      "name": "SOCIEDAD PARA LA INNOVACIÓN Y PROMOCIÓN DE NUEVAS TECNOLOGÍAS, S.A.",
      "registrationNumber": "01023",
      "identificationNumber": "A48426266",
      "address": "C/ MAYOR, Nº 10 - 5º",
      "location": {
        "postalCode": "48930",
        "municipality": "Getxo",
        "county": "Bizkaia",
        "municipalityId": "044",
        "countyId": "48"
      },
      "economicActivities": [
        {
          "id": "1.847",
          "name": "Servicios de consultoría",
          "_links": {
            "self": {
              "name": "Servicios de consultoría",
              "href": "https://api.euskadi.eus/procurements/companies/economic-activities/1.847"
            }
          }
        }
      ],
      "certificateStartDate": "2005-08-24",
      "certificateEndDate": "2006-01-01",
      "object": "EL DESARROLLO DE CUALESQUIERA ACTIVIDADES INDUSTRIALES, COMERCIALES O DE INVESTIGACIÓN RELACIONADAS CON NUEVAS TECNOLOGÍAS; EL FOMENTO Y DESARROLLO DE NUEVAS INICIATIVAS EMPRESARIALES; LA COORDINACIÓN DE PROYECTOS, FOMENTO Y DESARROLLO DE NUEVAS INICIATIVAS EMPRESARIALES; LA COORDINACIÓN DE PROYECTOS DE INVESTIGACIÓN Y DESARROLLO; LA ADQUISICIÓN Y CESIÓN DE TECNOLOGÍA; CONSULTORÍA TECNOLÓGICA, Y FORMACIÓN DE PERSONAL; PROMOCIÓN DE SERVICIOS DE NUEVA TECNOLOGÍA; PROMOCIÓN DE NUEVOS PROYECTOS EMPRESARIALES; ADQUISICIÓN, TENENCIA Y GESTIÓN DE ACCIONES O PARTICIPACIONES SOCIALES EN CUALESQUIERA OTRAS SOCIEDADES O ENTIDADES; PRESTACIÓN DE SERVICIOS DE ASISTENCIA O APOYO A SOCIEDADES Y EMPRESAS PARTICIPADAS",
      "mainEntityOfPage": "https://www.contratacion.euskadi.eus/webkpe00-kperoc/es/ac71aBusquedaRegistrosWar/empresa/01023",
      "_links": {
        "self": {
          "name": "SOCIEDAD PARA LA INNOVACIÓN Y PROMOCIÓN DE NUEVAS TECNOLOGÍAS, S.A.",
          "href": "https://api.euskadi.eus/procurements/companies/01023"
        }
      }
    },
    {
      "name": "F.I. EXCAVACIONES Y REFORESTACIONES, S.L.",
      "registrationNumber": "02407",
      "identificationNumber": "B31631583",
      "address": "C / SANGÜESA, 4 - 4 E",
      "location": {
        "postalCode": "31003",
        "municipality": "Pamplona/Iruña",
        "county": "Navarra",
        "municipalityId": "201",
        "countyId": "31"
      },
      "economicActivities": [
        {
          "id": "1.501.2",
          "name": "Construcción completa, reparación y conservación obras civiles",
          "_links": {
            "self": {
              "name": "Construcción completa, reparación y conservación obras civiles",
              "href": "https://api.euskadi.eus/procurements/companies/economic-activities/1.501.2"
            }
          }
        },
        {
          "id": "1.912",
          "name": "Servicios forestales",
          "_links": {
            "self": {
              "name": "Servicios forestales",
              "href": "https://api.euskadi.eus/procurements/companies/economic-activities/1.912"
            }
          }
        }
      ],
      "certificateStartDate": "2005-08-24",
      "certificateEndDate": "2006-02-04",
      "object": "LA REALIZACIÓN DE TRABAJOS RELATIVOS A FORESTACIÓN, PODAS, DESBROCES, PLANTACIONES, REALIZACIÓN Y MANTENIMIENTO DE VÍAS DE SACA, PISTAS FORESTALES Y DE REGADÍOS, ASÍ COMO CUANTOS TRABAJOS SEAN PREPARATORIOS O NECESARIOS PARA TALES ACTIVIDADES.\r\n\r\nLA CONSTRUCCIÓN, CONSERVACIÓN, REPARACIONES E INSTALACIONES DE TODO TIPO DE OBRAS DE EDIFICACIÓN Y OBRA CIVIL, TANTO PARA ORGANISMOS PÚBLICOS COMO PRIVADOS.\r\n\r\nLA REALIZACIÓN DE TRABAJOS DE MOVIMIENTOS DE TIERRAS, EXPLANACIONES, REPOBLACIÓN FORESTAL Y CAMINOS VECINALES, ASÍ COMO TRABAJOS DE REPOSICIÓN DE FIRMES, CARRETERAS, CUNETAS, OBRAS DE ABASTECIMIENTO DE AGUAS, ACOMETIDAS Y SANEAMIENTO. ",
      "mainEntityOfPage": "https://www.contratacion.euskadi.eus/webkpe00-kperoc/es/ac71aBusquedaRegistrosWar/empresa/02407",
      "_links": {
        "self": {
          "name": "F.I. EXCAVACIONES Y REFORESTACIONES, S.L.",
          "href": "https://api.euskadi.eus/procurements/companies/02407"
        }
      }
    },
    {
      "name": "TRABESNOR, S.L.",
      "registrationNumber": "02897",
      "identificationNumber": "B48922074",
      "address": "C/ MAYOR, 20 BIS 1º DPTO. 6",
      "location": {
        "postalCode": "48930",
        "municipality": "Getxo",
        "county": "Bizkaia",
        "municipalityId": "044",
        "countyId": "48"
      },
      "economicActivities": [
        {
          "id": "1.501.1",
          "name": "Construcción completa, reparación y conservación de edificaciones",
          "_links": {
            "self": {
              "name": "Construcción completa, reparación y conservación de edificaciones",
              "href": "https://api.euskadi.eus/procurements/companies/economic-activities/1.501.1"
            }
          }
        }
      ],
      "certificateStartDate": "2005-08-04",
      "certificateEndDate": "2005-12-10",
      "object": "LA VENTA Y EXTRACCIÓN DE ARENAS, GRAVAS, YESO, ARCILLAS CERÁMICAS Y REFRACTARIAS, MARGAS CAOLÍN Y OTROS MATERIALES PARA LA CONSTRUCCIÓN.\r\n\r\nLA PROMOCION Y EJECUCIÓN, COMPLETA O POR RAMOS, DE TODA CLASE DE OBRAS DE CONSTRUCCIÓN, URBANIZACIÓN Y SERVICIOS, REPARACIÓN Y CONSERVACIÓN, POR CUENTA PROPIA O AJENA, DE VIVIENDAS Y LOCALES COMERCIALES O INDUSTRIALES, E INCLUSO DE VIVIENDAS DE PROTECCIÓN OFICIAL.\r\n\r\nLA COMPRAVENTA Y ALQUILER DE EDIFICIOS, EN SU TOTALIDAD, POR PARTES O POR PISOS, BIEN DE VIVIENDAS, LOCALES INDUSTRIALES, DE OFICINAS, APARCAMIENTOS, GARAJES, CONSTRUIDAS O NO PARA TAL FIN; PROCEDER A LA CONSTRUCCIÓN DE EDIFICACIONES EN GENERAL, BIEN DIRECTAMENTE O POR MEDIO DE SUBCONTRATISTAS O DESTAJISTAS.\r\n\r\nLA ADQUISICIÓN Y ENAJENACIÓN, POR CUALQUIER TÍTULO, DE FINCAS URBANAS Y RÚSTICAS, YA SEAN TIERRAS, SOLARES Y EDIFICIOS, Y LA ADMINISTRACIÓN, TENENCIA, EXPLOTACIÓN Y ARRENDAMIENTO, YA SEA ACTIVO O PASIVO, DE TALES BIENES Y SU VENTA TOTAL O PARCIAL, Y PROCEDER A SU APROVECHAMIENTO, URBANO, INDUSTRIAL O CUALQUIER OTRO.\r\n\r\nLA URBANIZACIÓN Y PARCELACIÓN DE TERRENOS, CONFORME A LOS PLANES DE ORDENACIÓN URBANÍSTICA, APROBADOS POR LAS AUTORIDADES COMPETENTES EN LOS POLÍGONOS Y ZONAS DE ACTUACIÓN QUE, AL EFECTO, SEAN DESIGNADOS, Y LA REPARCELACIÓN DE DICHOS  TERRENOS URBANÍSTICOS Y, EN SU CASO, LA EDIFICACIÓN Y VENTA DE LOS MISMOS O DE LAS EDIFICACIONES Y OBRAS DE URBANIZACIÓN Y SERVICIOS, A CUYO EFECTO PODRÁ FORMAR PARTE DE ASOCIACIONES DE PROPIETARIOS, EMPRESAS MIXTAS Y ENTIDADES URBANÍSTICAS COLABORADORAS, QUE PUEDAN REGLAMENTARSE, A LOS EXPRESADOS AFINES.\r\n\r\n",
      "mainEntityOfPage": "https://www.contratacion.euskadi.eus/webkpe00-kperoc/es/ac71aBusquedaRegistrosWar/empresa/02897",
      "_links": {
        "self": {
          "name": "TRABESNOR, S.L.",
          "href": "https://api.euskadi.eus/procurements/companies/02897"
        }
      }
    },
    {
      "name": "ABENDI CONSULTING, S.L.",
      "registrationNumber": "02883",
      "identificationNumber": "B95170809",
      "address": "LABAYRU, 37-6A",
      "location": {
        "postalCode": "48012",
        "municipality": "Bilbao",
        "county": "Bizkaia",
        "municipalityId": "020",
        "countyId": "48"
      },
      "economicActivities": [
        {
          "id": "1.845",
          "name": "Explotación electrónica por cuenta de terceros",
          "_links": {
            "self": {
              "name": "Explotación electrónica por cuenta de terceros",
              "href": "https://api.euskadi.eus/procurements/companies/economic-activities/1.845"
            }
          }
        }
      ],
      "certificateStartDate": "2005-08-01",
      "certificateEndDate": "2006-01-18",
      "object": "LA PRESTACIÓN DE TODO TIPO DE SERVICIOS DE CONSULTORÍA INFORMÁTICA.",
      "mainEntityOfPage": "https://www.contratacion.euskadi.eus/webkpe00-kperoc/es/ac71aBusquedaRegistrosWar/empresa/02883",
      "_links": {
        "self": {
          "name": "ABENDI CONSULTING, S.L.",
          "href": "https://api.euskadi.eus/procurements/companies/02883"
        }
      }
    },
    {
      "name": "PRONEFRO ESPAÑA, S.L.",
      "registrationNumber": "02958",
      "identificationNumber": "B15459811",
      "address": "C/ REVERIANO SOUTULLO, 5 -1ºD ",
      "location": {
        "postalCode": "36860",
        "municipality": "Ponteareas",
        "county": "Pontevedra",
        "municipalityId": "042",
        "countyId": "36"
      },
      "economicActivities": [
        {
          "id": "1.659.3",
          "name": "Venta al por menor de aparatos médicos, ortopédicos, ópticos y fotográficos",
          "_links": {
            "self": {
              "name": "Venta al por menor de aparatos médicos, ortopédicos, ópticos y fotográficos",
              "href": "https://api.euskadi.eus/procurements/companies/economic-activities/1.659.3"
            }
          }
        }
      ],
      "certificateStartDate": "2005-08-01",
      "certificateEndDate": "2005-12-22",
      "object": "LA IMPORTACIÓN, EXPORTACIÓN, DISTRIBUCIÓN Y COMERCIALIZACIÓN EN GENERAL, AL POR MAYOR O AL DETALLE DE PRODUCTOS, APARATOS Y MATERIALES QUIRÚRGICOS Y SANITARIOS",
      "mainEntityOfPage": "https://www.contratacion.euskadi.eus/webkpe00-kperoc/es/ac71aBusquedaRegistrosWar/empresa/02958",
      "_links": {
        "self": {
          "name": "PRONEFRO ESPAÑA, S.L.",
          "href": "https://api.euskadi.eus/procurements/companies/02958"
        }
      }
    },
    {
      "name": "CEGELEC, S.A.",
      "registrationNumber": "01467",
      "identificationNumber": "A28123552",
      "address": "Bº GALINDO, S/N EDIFICIO ALSTOM",
      "location": {
        "postalCode": "48510",
        "municipality": "Valle de Trápaga-Trapagaran",
        "county": "Bizkaia",
        "municipalityId": "080",
        "countyId": "48"
      },
      "economicActivities": [
        {
          "id": "1.504.1",
          "name": "Instalaciones eléctricas en general",
          "_links": {
            "self": {
              "name": "Instalaciones eléctricas en general",
              "href": "https://api.euskadi.eus/procurements/companies/economic-activities/1.504.1"
            }
          }
        }
      ],
      "certificateStartDate": "2005-07-22",
      "certificateEndDate": "2005-11-09",
      "object": "A) PRESTACIÓN DE SERVICIOS DE INGENIERÍA EN EL CAMPO DE LA INSTRUMENTACIÓN, AUTOMOCIÓN, SISTEMAS DE ANALIZADORES Y PROTECCIÓN AMBIENTAL.\r\nB) LA REALIZACIÓN DE MONTAJES DE INSTRUMENTACIÓN Y ELECTRICIDAD EN PLANTAS INDUSTRIALES.\r\nC) PRESTACIÓN DE SERVICIOS DE PUESTA EN MARCHA, FUNCIONAMIENTO Y MANTENIMIENTO INTEGRAL DE PLANTAS INDUSTRIALES, CENTRALES TÉRMICAS Y CENTRALES NUCLEARES.\r\nD) PRESTACIÓN DE SERVICIOS DE ASISTENCIA TÉCNICA A TRAVÉS DE PERSONAL ALTAMENTE CUALIFICADO E INGENIERÍA DE MANTENIMIENTO.\r\nE) LA REALIZACIÓN DE SUMINISTROS INDUSTRIALES QUE SEAN PRECISOS PARA DESARROLLAR LAS ACTIVIDADES ANTERIORES",
      "mainEntityOfPage": "https://www.contratacion.euskadi.eus/webkpe00-kperoc/es/ac71aBusquedaRegistrosWar/empresa/01467",
      "_links": {
        "self": {
          "name": "CEGELEC, S.A.",
          "href": "https://api.euskadi.eus/procurements/companies/01467"
        }
      }
    },
    {
      "name": "EUSKO INSTELEC 2000 S.A.",
      "registrationNumber": "02498",
      "identificationNumber": "A20677886",
      "address": "POLIGONO TXIRRITA MALEO PAB. 3H",
      "location": {
        "postalCode": "20100",
        "municipality": "Errenteria",
        "county": "Gipuzkoa",
        "municipalityId": "067",
        "countyId": "20"
      },
      "economicActivities": [
        {
          "id": "1.501.2",
          "name": "Construcción completa, reparación y conservación obras civiles",
          "_links": {
            "self": {
              "name": "Construcción completa, reparación y conservación obras civiles",
              "href": "https://api.euskadi.eus/procurements/companies/economic-activities/1.501.2"
            }
          }
        },
        {
          "id": "1.504.7",
          "name": "Instalaciones telefónicas, telegráficas, televisión, etc",
          "_links": {
            "self": {
              "name": "Instalaciones telefónicas, telegráficas, televisión, etc",
              "href": "https://api.euskadi.eus/procurements/companies/economic-activities/1.504.7"
            }
          }
        }
      ],
      "certificateStartDate": "2005-07-08",
      "certificateEndDate": "2005-12-28",
      "object": "A) LA  PRESTACIÓN, GESTIÓN, EXPLOTACIÓN Y COMERCIALIZACIÓN DE SERVICIOS DE CUALQUIER TIPO A ENTES PÚBLICOS Y PRIVADOS, RELACIONADOS CON LA ELECTRÓNICA, ELECTRICIDAD Y CUALQUIER TIPO DE COMUNICACIONES, COMO TELEFONÍA CONVENCIONAL, MÓVIL, VÍA SATÉLITE, FIBRA ÓPTICA Y CUALQUIER OTRA TECNOLOGÍA PRESENTE Y FUTURA, RELACIONADA CON ESTE CAMPO.\r\n\r\nB) EL DISEÑO, INVESTIGACIÓN, DESARROLLO, CONSTRUCCIÓN, EXPLOTACIÓN Y MANTENIMIENTO, DE INSTALACIONES DE TODO TIPO Y OBRA CIVIL, RELACIONADAS CON LA INFRAESTRUCTURA NECESARIA PARA EL DESARROLLO DE LAS TELECOMUNICACIONES.\r\n\r\nC) LA PRESTACIÓN DE SERVICIOS TÉCNICOS DE DIVERSOS DE INGENIERÍA, ASÍ COMO LA REALIZACIÓN DE ESTUDIOS VARIOS DE PREINVERSIÓN, CONFECCIÓN DE PROYECTOS, CONTROLES DE CALIDAD, AUDITORÍAS TÉCNICAS Y EXPLOTACIONES EN EL CAMPO DE LAS TELECOMUNICACIONES.\r\n\r\nDICHAS ACTIVIDADES PODRÁN SER DESARROLLADAS POR LA SOCIEDAD, TOTAL O PARCIALMENTE, DE MODO INDIRECTO, MEDIANTE LA TITULARIDAD DE ACCIONES O DE PARTICIPACIONES EN SOCIEDADES DE IDÉNTICO O ANÁLOGO OBJETO. ",
      "mainEntityOfPage": "https://www.contratacion.euskadi.eus/webkpe00-kperoc/es/ac71aBusquedaRegistrosWar/empresa/02498",
      "_links": {
        "self": {
          "name": "EUSKO INSTELEC 2000 S.A.",
          "href": "https://api.euskadi.eus/procurements/companies/02498"
        }
      }
    },
    {
      "name": "INSTITUTO DE MEDIACIÓN FOMED, S.L.",
      "registrationNumber": "02789",
      "identificationNumber": "B01316850",
      "address": "AVDA. GASTEIZ, Nº 82-BAJO",
      "location": {
        "postalCode": "01012",
        "municipality": "Vitoria-Gasteiz",
        "county": "Araba/Álava",
        "municipalityId": "059",
        "countyId": "01"
      },
      "economicActivities": [
        {
          "id": "1.932.2",
          "name": "Enseñanza de formación y perfeccionamiento profesional superior",
          "_links": {
            "self": {
              "name": "Enseñanza de formación y perfeccionamiento profesional superior",
              "href": "https://api.euskadi.eus/procurements/companies/economic-activities/1.932.2"
            }
          }
        }
      ],
      "certificateStartDate": "2005-07-06",
      "certificateEndDate": "2005-12-02",
      "object": "LA INVESTIGACIÓN, PROMOCIÓN, FORMACIÓN Y PRÁCTICA DE LA RESOLUCIÓN DE CONFLICTOS. ASÍMISMO Y CON OBJETO DE AMPLIAR SU ÁMBITO DE ACTUACIÓN Y LA DIFUSIÓN DE LAS ACTIVIDADES QUE DESAROLLA, SE PROMOCIONARÁ LA PARTICIPACIÓN DEL \"INSTITUTO DE MEDIACIÓN FOMED\" EN REDES, GRUPOS DE TRABAJO Y/O AGRUPACIONES LOCALES, REGIONALES, AUTONÓMICAS, NACIONALES, EUROPEAS  E INTERNACIONALES     ",
      "mainEntityOfPage": "https://www.contratacion.euskadi.eus/webkpe00-kperoc/es/ac71aBusquedaRegistrosWar/empresa/02789",
      "_links": {
        "self": {
          "name": "INSTITUTO DE MEDIACIÓN FOMED, S.L.",
          "href": "https://api.euskadi.eus/procurements/companies/02789"
        }
      }
    },
    {
      "name": "HERMANOS SAN ADRIÁN, S.L.",
      "registrationNumber": "00542",
      "identificationNumber": "B20065496",
      "address": "C/ SAGRADA FAMILIA, Nº 2 - BAJO.",
      "location": {
        "postalCode": "20010",
        "municipality": "Donostia / San Sebastián",
        "county": "Gipuzkoa",
        "municipalityId": "069",
        "countyId": "20"
      },
      "economicActivities": [
        {
          "id": "1.615.3",
          "name": "Venta al por mayor de aparatos electrodomésticos y ferretería",
          "_links": {
            "self": {
              "name": "Venta al por mayor de aparatos electrodomésticos y ferretería",
              "href": "https://api.euskadi.eus/procurements/companies/economic-activities/1.615.3"
            }
          }
        }
      ],
      "certificateStartDate": "2005-06-30",
      "certificateEndDate": "2005-12-27",
      "object": "LA COMERCIALIZACIÓN AL POR MAYOR Y MENOR DE OBJETOS DE PORCELANA, CRISTAL, LOZA, ARTÍCULOS DE FERRETERÍA Y OTROS COMPLEMENTARIOS PARA LAS ACTIVIDADES DE HOSTELERÍA Y AFINES",
      "mainEntityOfPage": "https://www.contratacion.euskadi.eus/webkpe00-kperoc/es/ac71aBusquedaRegistrosWar/empresa/00542",
      "_links": {
        "self": {
          "name": "HERMANOS SAN ADRIÁN, S.L.",
          "href": "https://api.euskadi.eus/procurements/companies/00542"
        }
      }
    }
  ]
}