{
  "totalItems": 655518,
  "totalPages": 65552,
  "currentPage": 1,
  "itemsOfPage": 10,
  "items": [
    {
      "id": "G-042$24PYD1244_00001",
      "object": "Proyecto de ejecución y dirección facultativa de las obras de sustitución de calderas en el IES ALTZA de Donostia (Gipuzkoa)",
      "contractType": {
        "id": 2,
        "name": "Servicios",
        "_links": {
          "self": {
            "name": "Servicios",
            "href": "https://api.euskadi.eus/procurements/contracts/types/2"
          }
        }
      },
      "contractProcedureStatus": {
        "id": 5,
        "name": "Adjudicación",
        "_links": {
          "self": {
            "name": "Adjudicación",
            "href": "https://api.euskadi.eus/procurements/contracting-notices/procedures-status/5"
          }
        }
      },
      "contractProcedureType": {
        "id": 10,
        "name": "Directo/Contrato Menor",
        "_links": {
          "self": {
            "name": "Directo/Contrato Menor",
            "href": "https://api.euskadi.eus/procurements/contracting-notices/procedures-type/10"
          }
        }
      },
      "CIF": "B20612636",
      "socialReason": "ARRESE IGOR",
      "awardDate": "2424-10-04",
      "companySignatureDate": "2424-10-04",
      "contractEndDate": "2425-10-04",
      "awardAmount": 7562.5,
      "awardAmountWithoutVAT": 6250,
      "monthsContractDuration": 12,
      "CPV": "71221000-3",
      "minorContract": true,
      "mainEntityOfPage": "https://www.contratacion.euskadi.eus/webkpe00-kpeperfi/es/contenidos/anuncio_contratacion/expcm383553/es_doc/index.html",
      "_links": {
        "self": {
          "name": "Proyecto de ejecución y dirección facultativa de las obras de sustitución de calderas en el IES ALTZA de Donostia (Gipuzkoa)",
          "href": "https://api.euskadi.eus/procurements/contracts/G-042$24PYD1244_00001"
        },
        "contractingAuthority": {
          "href": "https://api.euskadi.eus/procurements/contracting-authorities/1"
        },
        "contractingNotice": {
          "href": "https://api.euskadi.eus/procurements/contracting-notices/1028626"
        },
        "entity": {
          "href": "https://api.euskadi.eus/procurements/contracting-notices/entities/1244"
        },
        "org": {
          "href": "https://api.euskadi.eus/procurements/contracting-notices/orgs/913684"
        }
      }
    },
    {
      "id": "CM30$2019-2762_00000000000000000000001",
      "object": "trikitixa laukiz kantari",
      "contractType": {
        "id": 2,
        "name": "Servicios",
        "_links": {
          "self": {
            "name": "Servicios",
            "href": "https://api.euskadi.eus/procurements/contracts/types/2"
          }
        }
      },
      "contractProcedureStatus": {
        "id": 5,
        "name": "Adjudicación",
        "_links": {
          "self": {
            "name": "Adjudicación",
            "href": "https://api.euskadi.eus/procurements/contracting-notices/procedures-status/5"
          }
        }
      },
      "contractProcedureType": {
        "id": 10,
        "name": "Directo/Contrato Menor",
        "_links": {
          "self": {
            "name": "Directo/Contrato Menor",
            "href": "https://api.euskadi.eus/procurements/contracting-notices/procedures-type/10"
          }
        }
      },
      "CIF": "B95278206",
      "socialReason": "JIRA MUSIKAZ",
      "awardDate": "2219-03-25",
      "companySignatureDate": "2219-03-25",
      "contractEndDate": "2219-03-25",
      "awardAmount": 303,
      "awardAmountWithoutVAT": 250,
      "monthsContractDuration": 0,
      "minorContract": true,
      "mainEntityOfPage": "https://www.contratacion.euskadi.eus/webkpe00-kpeperfi/es/contenidos/anuncio_contratacion/expcm17324/es_doc/es_arch_expcm17324.html",
      "_links": {
        "self": {
          "name": "trikitixa laukiz kantari",
          "href": "https://api.euskadi.eus/procurements/contracts/CM30$2019-2762_00000000000000000000001"
        },
        "contractingAuthority": {
          "href": "https://api.euskadi.eus/procurements/contracting-authorities/313"
        },
        "contractingNotice": {
          "href": "https://api.euskadi.eus/procurements/contracting-notices/172186"
        },
        "entity": {
          "href": "https://api.euskadi.eus/procurements/contracting-notices/entities/762"
        },
        "org": {
          "href": "https://api.euskadi.eus/procurements/contracting-notices/orgs/912228"
        }
      }
    },
    {
      "id": "CM%2040$16374_00000000000000000000001",
      "object": "Servicio para el desarrollo y caracterización de un producto sanitario basado en un apósito para su uso en heridas complejas.",
      "contractType": {
        "id": 1,
        "name": "Obras",
        "_links": {
          "self": {
            "name": "Obras",
            "href": "https://api.euskadi.eus/procurements/contracts/types/1"
          }
        }
      },
      "contractProcedureStatus": {
        "id": 5,
        "name": "Adjudicación",
        "_links": {
          "self": {
            "name": "Adjudicación",
            "href": "https://api.euskadi.eus/procurements/contracting-notices/procedures-status/5"
          }
        }
      },
      "contractProcedureType": {
        "id": 10,
        "name": "Directo/Contrato Menor",
        "_links": {
          "self": {
            "name": "Directo/Contrato Menor",
            "href": "https://api.euskadi.eus/procurements/contracting-notices/procedures-type/10"
          }
        }
      },
      "CIF": "G38083408",
      "socialReason": "UNIV. LA LAGUNA",
      "awardDate": "2216-05-16",
      "companySignatureDate": "2216-05-16",
      "contractEndDate": "2017-05-16",
      "awardAmount": 6000,
      "awardAmountWithoutVAT": 4958.68,
      "monthsContractDuration": 12,
      "CPV": "79311000-7",
      "minorContract": true,
      "_links": {
        "self": {
          "name": "Servicio para el desarrollo y caracterización de un producto sanitario basado en un apósito para su uso en heridas complejas.",
          "href": "https://api.euskadi.eus/procurements/contracts/CM%2040$16374_00000000000000000000001"
        },
        "contractingAuthority": {
          "href": "https://api.euskadi.eus/procurements/contracting-authorities/37"
        },
        "contractingNotice": {
          "href": "https://api.euskadi.eus/procurements/contracting-notices/28699"
        },
        "entity": {
          "href": "https://api.euskadi.eus/procurements/contracting-notices/entities/374"
        },
        "org": {
          "href": "https://api.euskadi.eus/procurements/contracting-notices/orgs/911272"
        }
      }
    },
    {
      "id": "0011$21-CM555_00001",
      "object": "Aproximación a los sitemas de retribución variable",
      "contractType": {
        "id": 2,
        "name": "Servicios",
        "_links": {
          "self": {
            "name": "Servicios",
            "href": "https://api.euskadi.eus/procurements/contracts/types/2"
          }
        }
      },
      "contractProcedureStatus": {
        "id": 5,
        "name": "Adjudicación",
        "_links": {
          "self": {
            "name": "Adjudicación",
            "href": "https://api.euskadi.eus/procurements/contracting-notices/procedures-status/5"
          }
        }
      },
      "contractProcedureType": {
        "id": 10,
        "name": "Directo/Contrato Menor",
        "_links": {
          "self": {
            "name": "Directo/Contrato Menor",
            "href": "https://api.euskadi.eus/procurements/contracting-notices/procedures-type/10"
          }
        }
      },
      "CIF": "A20567319",
      "socialReason": "IKERTALDE GRUPO CONSULTOR S.A.",
      "awardDate": "2121-07-30",
      "companySignatureDate": "2121-07-30",
      "contractEndDate": "2121-11-30",
      "awardAmount": 17545,
      "awardAmountWithoutVAT": 14500,
      "monthsContractDuration": 4,
      "minorContract": true,
      "mainEntityOfPage": "https://www.contratacion.euskadi.eus/webkpe00-kpeperfi/es/contenidos/anuncio_contratacion/expcm162633/es_doc/index.html",
      "_links": {
        "self": {
          "name": "Aproximación a los sitemas de retribución variable",
          "href": "https://api.euskadi.eus/procurements/contracts/0011$21-CM555_00001"
        },
        "contractingAuthority": {
          "href": "https://api.euskadi.eus/procurements/contracting-authorities/160"
        },
        "contractingNotice": {
          "href": "https://api.euskadi.eus/procurements/contracting-notices/493809"
        },
        "entity": {
          "href": "https://api.euskadi.eus/procurements/contracting-notices/entities/555"
        },
        "org": {
          "href": "https://api.euskadi.eus/procurements/contracting-notices/orgs/911774"
        }
      }
    },
    {
      "id": "0008$21-CM555_00001",
      "object": "Trabajos de apoyo al estudio de la estructura de la negociación colectiva 2020",
      "contractType": {
        "id": 2,
        "name": "Servicios",
        "_links": {
          "self": {
            "name": "Servicios",
            "href": "https://api.euskadi.eus/procurements/contracts/types/2"
          }
        }
      },
      "contractProcedureStatus": {
        "id": 5,
        "name": "Adjudicación",
        "_links": {
          "self": {
            "name": "Adjudicación",
            "href": "https://api.euskadi.eus/procurements/contracting-notices/procedures-status/5"
          }
        }
      },
      "contractProcedureType": {
        "id": 10,
        "name": "Directo/Contrato Menor",
        "_links": {
          "self": {
            "name": "Directo/Contrato Menor",
            "href": "https://api.euskadi.eus/procurements/contracting-notices/procedures-type/10"
          }
        }
      },
      "CIF": "A20567319",
      "socialReason": "IKERTALDE GRUPO CONSULTOR S.A.",
      "awardDate": "2121-04-20",
      "companySignatureDate": "2121-04-20",
      "contractEndDate": "2121-08-31",
      "awardAmount": 18029,
      "awardAmountWithoutVAT": 14900,
      "monthsContractDuration": 19,
      "minorContract": true,
      "mainEntityOfPage": "https://www.contratacion.euskadi.eus/webkpe00-kpeperfi/es/contenidos/anuncio_contratacion/expcm162632/es_doc/index.html",
      "_links": {
        "self": {
          "name": "Trabajos de apoyo al estudio de la estructura de la negociación colectiva 2020",
          "href": "https://api.euskadi.eus/procurements/contracts/0008$21-CM555_00001"
        },
        "contractingAuthority": {
          "href": "https://api.euskadi.eus/procurements/contracting-authorities/160"
        },
        "contractingNotice": {
          "href": "https://api.euskadi.eus/procurements/contracting-notices/493808"
        },
        "entity": {
          "href": "https://api.euskadi.eus/procurements/contracting-notices/entities/555"
        },
        "org": {
          "href": "https://api.euskadi.eus/procurements/contracting-notices/orgs/911774"
        }
      }
    },
    {
      "id": "GPSCONTM20190041042_0000000000000000000001",
      "object": "Actividades de ocio ligado a la naturaleza para adultos y familias",
      "contractType": {
        "id": 2,
        "name": "Servicios",
        "_links": {
          "self": {
            "name": "Servicios",
            "href": "https://api.euskadi.eus/procurements/contracts/types/2"
          }
        }
      },
      "contractProcedureStatus": {
        "id": 5,
        "name": "Adjudicación",
        "_links": {
          "self": {
            "name": "Adjudicación",
            "href": "https://api.euskadi.eus/procurements/contracting-notices/procedures-status/5"
          }
        }
      },
      "contractProcedureType": {
        "id": 10,
        "name": "Directo/Contrato Menor",
        "_links": {
          "self": {
            "name": "Directo/Contrato Menor",
            "href": "https://api.euskadi.eus/procurements/contracting-notices/procedures-type/10"
          }
        }
      },
      "CIF": "B20879045",
      "socialReason": "ARRETA PAGOETA SLL",
      "awardDate": "2109-07-08",
      "companySignatureDate": "2109-07-08",
      "contractEndDate": "2110-02-08",
      "awardAmount": 14945,
      "awardAmountWithoutVAT": 14945,
      "monthsContractDuration": 7,
      "CPV": "80540000-1",
      "minorContract": true,
      "mainEntityOfPage": "https://www.contratacion.euskadi.eus/webkpe00-kpeperfi/es/contenidos/anuncio_contratacion/expcm44609/es_doc/es_arch_expcm44609.html",
      "_links": {
        "self": {
          "name": "Actividades de ocio ligado a la naturaleza para adultos y familias",
          "href": "https://api.euskadi.eus/procurements/contracts/GPSCONTM20190041042_0000000000000000000001"
        },
        "contractingAuthority": {
          "href": "https://api.euskadi.eus/procurements/contracting-authorities/592"
        },
        "contractingNotice": {
          "href": "https://api.euskadi.eus/procurements/contracting-notices/207137"
        },
        "entity": {
          "href": "https://api.euskadi.eus/procurements/contracting-notices/entities/1042"
        },
        "org": {
          "href": "https://api.euskadi.eus/procurements/contracting-notices/orgs/912738"
        }
      }
    },
    {
      "id": "CM-1151$2018729_00000000000000000000001",
      "object": "Suministro e instalación de radares pedagógicos",
      "contractType": {
        "id": 3,
        "name": "Suministros",
        "_links": {
          "self": {
            "name": "Suministros",
            "href": "https://api.euskadi.eus/procurements/contracts/types/3"
          }
        }
      },
      "contractProcedureStatus": {
        "id": 5,
        "name": "Adjudicación",
        "_links": {
          "self": {
            "name": "Adjudicación",
            "href": "https://api.euskadi.eus/procurements/contracting-notices/procedures-status/5"
          }
        }
      },
      "contractProcedureType": {
        "id": 10,
        "name": "Directo/Contrato Menor",
        "_links": {
          "self": {
            "name": "Directo/Contrato Menor",
            "href": "https://api.euskadi.eus/procurements/contracting-notices/procedures-type/10"
          }
        }
      },
      "CIF": "A12329827",
      "socialReason": "LACROIX SEÑALIZACIÓN, S.A.",
      "awardDate": "2108-10-04",
      "companySignatureDate": "2108-10-04",
      "contractEndDate": "2108-12-04",
      "awardAmount": 8706,
      "awardAmountWithoutVAT": 0,
      "monthsContractDuration": 2,
      "CPV": "35722000-1",
      "minorContract": true,
      "mainEntityOfPage": "https://www.contratacion.euskadi.eus/webkpe00-kpeperfi/es/contenidos/anuncio_contratacion/expcm10524/es_doc/es_arch_expcm10524.html",
      "_links": {
        "self": {
          "name": "Suministro e instalación de radares pedagógicos",
          "href": "https://api.euskadi.eus/procurements/contracts/CM-1151$2018729_00000000000000000000001"
        },
        "contractingAuthority": {
          "href": "https://api.euskadi.eus/procurements/contracting-authorities/281"
        },
        "contractingNotice": {
          "href": "https://api.euskadi.eus/procurements/contracting-notices/161942"
        },
        "entity": {
          "href": "https://api.euskadi.eus/procurements/contracting-notices/entities/729"
        },
        "org": {
          "href": "https://api.euskadi.eus/procurements/contracting-notices/orgs/912164"
        }
      }
    },
    {
      "id": "CM-1159$2018729_00000000000000000000001",
      "object": "Suministro de antena colectiva y video-portero a las viviendas del CEAR",
      "contractType": {
        "id": 3,
        "name": "Suministros",
        "_links": {
          "self": {
            "name": "Suministros",
            "href": "https://api.euskadi.eus/procurements/contracts/types/3"
          }
        }
      },
      "contractProcedureStatus": {
        "id": 5,
        "name": "Adjudicación",
        "_links": {
          "self": {
            "name": "Adjudicación",
            "href": "https://api.euskadi.eus/procurements/contracting-notices/procedures-status/5"
          }
        }
      },
      "contractProcedureType": {
        "id": 10,
        "name": "Directo/Contrato Menor",
        "_links": {
          "self": {
            "name": "Directo/Contrato Menor",
            "href": "https://api.euskadi.eus/procurements/contracting-notices/procedures-type/10"
          }
        }
      },
      "CIF": "B95177333",
      "socialReason": "EUSKAL TELECOM S.L.",
      "awardDate": "2108-10-04",
      "companySignatureDate": "2108-10-04",
      "contractEndDate": "2108-12-04",
      "awardAmount": 2913,
      "awardAmountWithoutVAT": 0,
      "monthsContractDuration": 2,
      "CPV": "45314000-1",
      "minorContract": true,
      "mainEntityOfPage": "https://www.contratacion.euskadi.eus/webkpe00-kpeperfi/es/contenidos/anuncio_contratacion/expcm10525/es_doc/es_arch_expcm10525.html",
      "_links": {
        "self": {
          "name": "Suministro de antena colectiva y video-portero a las viviendas del CEAR",
          "href": "https://api.euskadi.eus/procurements/contracts/CM-1159$2018729_00000000000000000000001"
        },
        "contractingAuthority": {
          "href": "https://api.euskadi.eus/procurements/contracting-authorities/281"
        },
        "contractingNotice": {
          "href": "https://api.euskadi.eus/procurements/contracting-notices/161946"
        },
        "entity": {
          "href": "https://api.euskadi.eus/procurements/contracting-notices/entities/729"
        },
        "org": {
          "href": "https://api.euskadi.eus/procurements/contracting-notices/orgs/912164"
        }
      }
    },
    {
      "id": "F$2018$964676_00000000000000000000001",
      "object": "Campaña euskera",
      "contractType": {
        "id": 3,
        "name": "Suministros",
        "_links": {
          "self": {
            "name": "Suministros",
            "href": "https://api.euskadi.eus/procurements/contracts/types/3"
          }
        }
      },
      "contractProcedureStatus": {
        "id": 5,
        "name": "Adjudicación",
        "_links": {
          "self": {
            "name": "Adjudicación",
            "href": "https://api.euskadi.eus/procurements/contracting-notices/procedures-status/5"
          }
        }
      },
      "contractProcedureType": {
        "id": 10,
        "name": "Directo/Contrato Menor",
        "_links": {
          "self": {
            "name": "Directo/Contrato Menor",
            "href": "https://api.euskadi.eus/procurements/contracting-notices/procedures-type/10"
          }
        }
      },
      "CIF": "B95847968",
      "socialReason": "BURUTU COMUNICACION, SL",
      "awardDate": "2048-12-30",
      "companySignatureDate": "2048-12-30",
      "contractEndDate": "2048-12-30",
      "awardAmount": 132,
      "awardAmountWithoutVAT": 0,
      "monthsContractDuration": 0,
      "minorContract": true,
      "mainEntityOfPage": "https://www.contratacion.euskadi.eus/webkpe00-kpeperfi/es/contenidos/anuncio_contratacion/expcm91034/es_doc/es_arch_expcm91034.html",
      "_links": {
        "self": {
          "name": "Campaña euskera",
          "href": "https://api.euskadi.eus/procurements/contracts/F$2018$964676_00000000000000000000001"
        },
        "contractingAuthority": {
          "href": "https://api.euskadi.eus/procurements/contracting-authorities/229"
        },
        "contractingNotice": {
          "href": "https://api.euskadi.eus/procurements/contracting-notices/318903"
        },
        "entity": {
          "href": "https://api.euskadi.eus/procurements/contracting-notices/entities/676"
        },
        "org": {
          "href": "https://api.euskadi.eus/procurements/contracting-notices/orgs/912071"
        }
      }
    },
    {
      "id": "2023-SUM-16813_00001",
      "object": "Contrato menor de suministro para compra de libros Arian 2023-2024",
      "contractType": {
        "id": 3,
        "name": "Suministros",
        "_links": {
          "self": {
            "name": "Suministros",
            "href": "https://api.euskadi.eus/procurements/contracts/types/3"
          }
        }
      },
      "contractProcedureStatus": {
        "id": 5,
        "name": "Adjudicación",
        "_links": {
          "self": {
            "name": "Adjudicación",
            "href": "https://api.euskadi.eus/procurements/contracting-notices/procedures-status/5"
          }
        }
      },
      "contractProcedureType": {
        "id": 10,
        "name": "Directo/Contrato Menor",
        "_links": {
          "self": {
            "name": "Directo/Contrato Menor",
            "href": "https://api.euskadi.eus/procurements/contracting-notices/procedures-type/10"
          }
        }
      },
      "CIF": "B01185784",
      "socialReason": "Arabako Elkar Kultura, S.L.",
      "awardDate": "2032-10-11",
      "companySignatureDate": "2032-10-11",
      "contractEndDate": "2032-10-13",
      "awardAmount": 181.12,
      "awardAmountWithoutVAT": 174.15,
      "monthsContractDuration": 2,
      "minorContract": true,
      "mainEntityOfPage": "https://www.contratacion.euskadi.eus/webkpe00-kpeperfi/es/contenidos/anuncio_contratacion/expcm327175/es_doc/index.html",
      "_links": {
        "self": {
          "name": "Contrato menor de suministro para compra de libros Arian 2023-2024",
          "href": "https://api.euskadi.eus/procurements/contracts/2023-SUM-16813_00001"
        },
        "contractingAuthority": {
          "href": "https://api.euskadi.eus/procurements/contracting-authorities/361"
        },
        "contractingNotice": {
          "href": "https://api.euskadi.eus/procurements/contracting-notices/887343"
        },
        "entity": {
          "href": "https://api.euskadi.eus/procurements/contracting-notices/entities/813"
        },
        "org": {
          "href": "https://api.euskadi.eus/procurements/contracting-notices/orgs/912338"
        }
      }
    }
  ]
}